Practicum8/data/opgave5/opgave5_freq2/data_82_001.csv

Channel              :,CH1
Frequency            :,1.200kHz
Period               :,0.833ms
PK-PK                :,531.3mV
Probe attenuation    :,1X
Voltage per ADC value:,0.244141mV
Time interval        :,2.00000us

index,CH1_Voltage(mV)
1,-58.593750
2,-58.593750
3,-54.687500
4,-46.875000
5,-42.968750
6,-39.062500
7,-35.156250
8,-31.250000
9,-27.343750
10,-23.437500
11,-19.531250
12,-15.625000
13,-11.718750
14,-7.812500
15,-3.906250
16,0.000000
17,3.906250
18,7.812500
19,11.718750
20,15.625000
21,19.531250
22,23.437500
23,27.343750
24,31.250000
25,35.156250
26,39.062500
27,42.968750
28,46.875000
29,50.781250
30,54.687500
31,58.593750
32,62.500000
33,62.500000
34,66.406250
35,70.312500
36,74.218750
37,74.218750
38,78.125000
39,82.031250
40,85.937500
41,89.843750
42,93.750000
43,93.750000
44,97.656250
45,101.562500
46,101.562500
47,105.468750
48,109.375000
49,113.281250
50,113.281250
51,117.187500
52,121.093750
53,121.093750
54,125.000000
55,125.000000
56,128.906250
57,128.906250
58,132.812500
59,136.718750
60,136.718750
61,140.625000
62,140.625000
63,144.531250
64,144.531250
65,148.437500
66,148.437500
67,152.343750
68,152.343750
69,156.250000
70,156.250000
71,156.250000
72,160.156250
73,160.156250
74,164.062500
75,164.062500
76,164.062500
77,167.968750
78,167.968750
79,167.968750
80,171.875000
81,171.875000
82,171.875000
83,175.781250
84,175.781250
85,175.781250
86,175.781250
87,175.781250
88,179.687500
89,179.687500
90,179.687500
91,179.687500
92,179.687500
93,183.593750
94,183.593750
95,183.593750
96,183.593750
97,183.593750
98,183.593750
99,183.593750
100,187.500000
101,183.593750
102,187.500000
103,187.500000
104,187.500000
105,187.500000
106,187.500000
107,187.500000
108,187.500000
109,187.500000
110,187.500000
111,187.500000
112,187.500000
113,187.500000
114,187.500000
115,187.500000
116,187.500000
117,187.500000
118,187.500000
119,183.593750
120,183.593750
121,183.593750
122,183.593750
123,183.593750
124,183.593750
125,183.593750
126,183.593750
127,183.593750
128,183.593750
129,179.687500
130,179.687500
131,179.687500
132,179.687500
133,179.687500
134,175.781250
135,175.781250
136,175.781250
137,175.781250
138,171.875000
139,171.875000
140,171.875000
141,171.875000
142,167.968750
143,167.968750
144,167.968750
145,164.062500
146,164.062500
147,164.062500
148,160.156250
149,160.156250
150,160.156250
151,156.250000
152,156.250000
153,152.343750
154,152.343750
155,152.343750
156,148.437500
157,148.437500
158,144.531250
159,144.531250
160,140.625000
161,140.625000
162,136.718750
163,132.812500
164,132.812500
165,128.906250
166,128.906250
167,125.000000
168,121.093750
169,121.093750
170,117.187500
171,117.187500
172,113.281250
173,109.375000
174,105.468750
175,105.468750
176,101.562500
177,97.656250
178,97.656250
179,93.750000
180,89.843750
181,85.937500
182,82.031250
183,82.031250
184,78.125000
185,74.218750
186,70.312500
187,70.312500
188,66.406250
189,62.500000
190,58.593750
191,54.687500
192,50.781250
193,46.875000
194,42.968750
195,39.062500
196,35.156250
197,35.156250
198,31.250000
199,27.343750
200,23.437500
201,19.531250
202,15.625000
203,11.718750
204,7.812500
205,3.906250
206,0.000000
207,-3.906250
208,-11.718750
209,-11.718750
210,-19.531250
211,-23.437500
212,-27.343750
213,-31.250000
214,-35.156250
215,-39.062500
216,-42.968750
217,-46.875000
218,-50.781250
219,-54.687500
220,-58.593750
221,-62.500000
222,-70.312500
223,-74.218750
224,-78.125000
225,-82.031250
226,-85.937500
227,-89.843750
228,-93.750000
229,-97.656250
230,-101.562500
231,-105.468750
232,-113.281250
233,-117.187500
234,-121.093750
235,-125.000000
236,-128.906250
237,-132.812500
238,-136.718750
239,-140.625000
240,-148.437500
241,-148.437500
242,-156.250000
243,-160.156250
244,-164.062500
245,-167.968750
246,-171.875000
247,-175.781250
248,-179.687500
249,-183.593750
250,-187.500000
251,-191.406250
252,-195.312500
253,-199.218750
254,-203.125000
255,-207.031250
256,-210.937500
257,-214.843750
258,-218.750000
259,-222.656250
260,-226.562500
261,-226.562500
262,-234.375000
263,-234.375000
264,-238.281250
265,-242.187500
266,-246.093750
267,-250.000000
268,-253.906250
269,-253.906250
270,-257.812500
271,-261.718750
272,-265.625000
273,-269.531250
274,-269.531250
275,-273.437500
276,-277.343750
277,-281.250000
278,-281.250000
279,-285.156250
280,-289.062500
281,-289.062500
282,-292.968750
283,-296.875000
284,-296.875000
285,-300.781250
286,-300.781250
287,-304.687500
288,-304.687500
289,-308.593750
290,-308.593750
291,-312.500000
292,-312.500000
293,-316.406250
294,-316.406250
295,-320.312500
296,-320.312500
297,-324.218750
298,-324.218750
299,-324.218750
300,-328.125000
301,-328.125000
302,-328.125000
303,-332.031250
304,-332.031250
305,-332.031250
306,-332.031250
307,-335.937500
308,-335.937500
309,-335.937500
310,-335.937500
311,-339.843750
312,-339.843750
313,-339.843750
314,-339.843750
315,-335.937500
316,-339.843750
317,-339.843750
318,-339.843750
319,-339.843750
320,-339.843750
321,-339.843750
322,-339.843750
323,-339.843750
324,-339.843750
325,-339.843750
326,-339.843750
327,-335.937500
328,-339.843750
329,-335.937500
330,-335.937500
331,-335.937500
332,-332.031250
333,-332.031250
334,-332.031250
335,-332.031250
336,-328.125000
337,-328.125000
338,-328.125000
339,-328.125000
340,-324.218750
341,-324.218750
342,-320.312500
343,-320.312500
344,-320.312500
345,-316.406250
346,-316.406250
347,-312.500000
348,-312.500000
349,-308.593750
350,-308.593750
351,-304.687500
352,-304.687500
353,-300.781250
354,-300.781250
355,-296.875000
356,-292.968750
357,-292.968750
358,-289.062500
359,-285.156250
360,-285.156250
361,-281.250000
362,-281.250000
363,-277.343750
364,-273.437500
365,-269.531250
366,-269.531250
367,-265.625000
368,-261.718750
369,-257.812500
370,-253.906250
371,-253.906250
372,-250.000000
373,-246.093750
374,-242.187500
375,-238.281250
376,-234.375000
377,-230.468750
378,-226.562500
379,-222.656250
380,-222.656250
381,-218.750000
382,-210.937500
383,-210.937500
384,-207.031250
385,-203.125000
386,-199.218750
387,-195.312500
388,-191.406250
389,-183.593750
390,-179.687500
391,-179.687500
392,-171.875000
393,-171.875000
394,-164.062500
395,-160.156250
396,-156.250000
397,-152.343750
398,-148.437500
399,-144.531250
400,-140.625000
401,-136.718750
402,-128.906250
403,-125.000000
404,-121.093750
405,-117.187500
406,-113.281250
407,-109.375000
408,-105.468750
409,-105.468750
410,-93.750000
411,-89.843750
412,-85.937500
413,-82.031250
414,-78.125000
415,-74.218750
416,-70.312500
417,-66.406250
418,-62.500000
419,-54.687500
420,-50.781250
421,-46.875000
422,-42.968750
423,-39.062500
424,-35.156250
425,-31.250000
426,-27.343750
427,-23.437500
428,-19.531250
429,-15.625000
430,-11.718750
431,-7.812500
432,-3.906250
433,0.000000
434,3.906250
435,7.812500
436,11.718750
437,15.625000
438,19.531250
439,23.437500
440,27.343750
441,31.250000
442,35.156250
443,39.062500
444,42.968750
445,46.875000
446,50.781250
447,54.687500
448,54.687500
449,62.500000
450,62.500000
451,66.406250
452,70.312500
453,74.218750
454,74.218750
455,78.125000
456,82.031250
457,85.937500
458,89.843750
459,93.750000
460,93.750000
461,97.656250
462,101.562500
463,105.468750
464,109.375000
465,109.375000
466,113.281250
467,113.281250
468,117.187500
469,121.093750
470,121.093750
471,125.000000
472,125.000000
473,128.906250
474,132.812500
475,132.812500
476,136.718750
477,136.718750
478,140.625000
479,144.531250
480,144.531250
481,144.531250
482,148.437500
483,148.437500
484,152.343750
485,152.343750
486,156.250000
487,156.250000
488,156.250000
489,160.156250
490,160.156250
491,164.062500
492,164.062500
493,164.062500
494,167.968750
495,167.968750
496,167.968750
497,167.968750
498,171.875000
499,171.875000
500,171.875000
501,171.875000
502,175.781250
503,175.781250
504,175.781250
505,179.687500
506,179.687500
507,179.687500
508,179.687500
509,179.687500
510,183.593750
511,179.687500
512,183.593750
513,183.593750
514,183.593750
515,183.593750
516,183.593750
517,183.593750
518,183.593750
519,183.593750
520,187.500000
521,187.500000
522,187.500000
523,187.500000
524,187.500000
525,187.500000
526,187.500000
527,187.500000
528,187.500000
529,187.500000
530,187.500000
531,187.500000
532,187.500000
533,187.500000
534,187.500000
535,187.500000
536,187.500000
537,183.593750
538,183.593750
539,183.593750
540,183.593750
541,183.593750
542,183.593750
543,183.593750
544,183.593750
545,179.687500
546,179.687500
547,179.687500
548,179.687500
549,179.687500
550,179.687500
551,175.781250
552,175.781250
553,175.781250
554,175.781250
555,171.875000
556,171.875000
557,171.875000
558,167.968750
559,167.968750
560,167.968750
561,167.968750
562,164.062500
563,164.062500
564,164.062500
565,160.156250
566,160.156250
567,156.250000
568,156.250000
569,156.250000
570,152.343750
571,152.343750
572,148.437500
573,148.437500
574,144.531250
575,144.531250
576,140.625000
577,140.625000
578,136.718750
579,136.718750
580,132.812500
581,132.812500
582,128.906250
583,125.000000
584,125.000000
585,121.093750
586,121.093750
587,117.187500
588,113.281250
589,113.281250
590,109.375000
591,105.468750
592,105.468750
593,101.562500
594,97.656250
595,97.656250
596,93.750000
597,89.843750
598,85.937500
599,85.937500
600,82.031250
601,78.125000
602,74.218750
603,70.312500
604,66.406250
605,66.406250
606,62.500000
607,58.593750
608,54.687500
609,50.781250
610,46.875000
611,42.968750
612,39.062500
613,35.156250
614,31.250000
615,27.343750
616,23.437500
617,19.531250
618,15.625000
619,15.625000
620,7.812500
621,3.906250
622,0.000000
623,-3.906250
624,-7.812500
625,-11.718750
626,-15.625000
627,-19.531250
628,-23.437500
629,-27.343750
630,-31.250000
631,-35.156250
632,-39.062500
633,-42.968750
634,-46.875000
635,-50.781250
636,-58.593750
637,-62.500000
638,-66.406250
639,-70.312500
640,-74.218750
641,-78.125000
642,-82.031250
643,-89.843750
644,-93.750000
645,-97.656250
646,-101.562500
647,-105.468750
648,-109.375000
649,-113.281250
650,-117.187500
651,-121.093750
652,-128.906250
653,-128.906250
654,-136.718750
655,-140.625000
656,-140.625000
657,-144.531250
658,-152.343750
659,-156.250000
660,-160.156250
661,-164.062500
662,-167.968750
663,-171.875000
664,-175.781250
665,-179.687500
666,-183.593750
667,-187.500000
668,-191.406250
669,-195.312500
670,-199.218750
671,-203.125000
672,-207.031250
673,-210.937500
674,-214.843750
675,-218.750000
676,-222.656250
677,-226.562500
678,-230.468750
679,-234.375000
680,-238.281250
681,-242.187500
682,-242.187500
683,-246.093750
684,-250.000000
685,-253.906250
686,-257.812500
687,-257.812500
688,-261.718750
689,-265.625000
690,-269.531250
691,-273.437500
692,-273.437500
693,-277.343750
694,-281.250000
695,-281.250000
696,-285.156250
697,-289.062500
698,-289.062500
699,-292.968750
700,-296.875000
701,-296.875000
702,-300.781250
703,-304.687500
704,-304.687500
705,-304.687500
706,-308.593750
707,-312.500000
708,-312.500000
709,-316.406250
710,-316.406250
711,-316.406250
712,-320.312500
713,-320.312500
714,-324.218750
715,-324.218750
716,-324.218750
717,-328.125000
718,-328.125000
719,-328.125000
720,-328.125000
721,-332.031250
722,-332.031250
723,-332.031250
724,-335.937500
725,-335.937500
726,-335.937500
727,-335.937500
728,-335.937500
729,-335.937500
730,-339.843750
731,-339.843750
732,-339.843750
733,-339.843750
734,-339.843750
735,-339.843750
736,-339.843750
737,-339.843750
738,-339.843750
739,-339.843750
740,-339.843750
741,-339.843750
742,-335.937500
743,-339.843750
744,-335.937500
745,-335.937500
746,-335.937500
747,-335.937500
748,-335.937500
749,-332.031250
750,-332.031250
751,-332.031250
752,-332.031250
753,-328.125000
754,-328.125000
755,-328.125000
756,-324.218750
757,-324.218750
758,-324.218750
759,-320.312500
760,-320.312500
761,-316.406250
762,-316.406250
763,-316.406250
764,-316.406250
765,-312.500000
766,-308.593750
767,-308.593750
768,-304.687500
769,-304.687500
770,-300.781250
771,-296.875000
772,-296.875000
773,-292.968750
774,-292.968750
775,-289.062500
776,-285.156250
777,-281.250000
778,-281.250000
779,-277.343750
780,-273.437500
781,-273.437500
782,-269.531250
783,-265.625000
784,-261.718750
785,-257.812500
786,-257.812500
787,-253.906250
788,-250.000000
789,-246.093750
790,-246.093750
791,-242.187500
792,-238.281250
793,-234.375000
794,-230.468750
795,-226.562500
796,-218.750000
797,-218.750000
798,-214.843750
799,-210.937500
800,-207.031250
801,-203.125000
802,-199.218750
803,-195.312500
804,-191.406250
805,-187.500000
806,-183.593750
807,-179.687500
808,-175.781250
809,-171.875000
810,-167.968750
811,-164.062500
812,-160.156250
813,-156.250000
814,-152.343750
815,-144.531250
816,-144.531250
817,-136.718750
818,-132.812500
819,-128.906250
820,-125.000000
821,-121.093750
822,-117.187500
823,-113.281250
824,-109.375000
825,-101.562500
826,-97.656250
827,-93.750000
828,-89.843750
829,-85.937500
830,-82.031250
831,-78.125000
832,-74.218750
833,-70.312500
834,-62.500000
835,-58.593750
836,-54.687500
837,-50.781250
838,-46.875000
839,-42.968750
840,-39.062500
841,-35.156250
842,-31.250000
843,-23.437500
844,-23.437500
845,-19.531250
846,-11.718750
847,-7.812500
848,-7.812500
849,0.000000
850,3.906250
851,7.812500
852,11.718750
853,15.625000
854,19.531250
855,23.437500
856,27.343750
857,31.250000
858,35.156250
859,39.062500
860,39.062500
861,42.968750
862,46.875000
863,50.781250
864,54.687500
865,58.593750
866,62.500000
867,66.406250
868,66.406250
869,70.312500
870,74.218750
871,78.125000
872,82.031250
873,85.937500
874,85.937500
875,89.843750
876,93.750000
877,97.656250
878,101.562500
879,101.562500
880,105.468750
881,109.375000
882,109.375000
883,113.281250
884,117.187500
885,117.187500
886,121.093750
887,125.000000
888,125.000000
889,128.906250
890,128.906250
891,132.812500
892,132.812500
893,136.718750
894,136.718750
895,140.625000
896,144.531250
897,144.531250
898,148.437500
899,148.437500
900,148.437500
901,152.343750
902,152.343750
903,156.250000
904,156.250000
905,160.156250
906,160.156250
907,160.156250
908,164.062500
909,164.062500
910,167.968750
911,167.968750
912,167.968750
913,167.968750
914,171.875000
915,171.875000
916,171.875000
917,171.875000
918,175.781250
919,175.781250
920,175.781250
921,175.781250
922,179.687500
923,179.687500
924,179.687500
925,179.687500
926,183.593750
927,183.593750
928,183.593750
929,183.593750
930,183.593750
931,183.593750
932,183.593750
933,183.593750
934,187.500000
935,187.500000
936,187.500000
937,187.500000
938,187.500000
939,187.500000
940,187.500000
941,187.500000
942,187.500000
943,187.500000
944,187.500000
945,187.500000
946,187.500000
947,187.500000
948,187.500000
949,187.500000
950,187.500000
951,187.500000
952,187.500000
953,187.500000
954,183.593750
955,183.593750
956,183.593750
957,183.593750
958,183.593750
959,183.593750
960,183.593750
961,183.593750
962,179.687500
963,179.687500
964,179.687500
965,179.687500
966,179.687500
967,175.781250
968,175.781250
969,175.781250
970,175.781250
971,171.875000
972,171.875000
973,171.875000
974,171.875000
975,171.875000
976,167.968750
977,167.968750
978,167.968750
979,164.062500
980,164.062500
981,164.062500
982,160.156250
983,160.156250
984,156.250000
985,156.250000
986,156.250000
987,152.343750
988,152.343750
989,152.343750
990,148.437500
991,144.531250
992,144.531250
993,140.625000
994,140.625000
995,136.718750
996,136.718750
997,132.812500
998,128.906250
999,128.906250
1000,128.906250
1001,125.000000
1002,125.000000
1003,121.093750
1004,117.187500
1005,113.281250
1006,113.281250
1007,109.375000
1008,105.468750
1009,105.468750
1010,101.562500
1011,97.656250
1012,93.750000
1013,89.843750
1014,89.843750
1015,85.937500
1016,82.031250
1017,78.125000
1018,74.218750
1019,74.218750
1020,70.312500
1021,66.406250
1022,62.500000
1023,58.593750
1024,54.687500
1025,54.687500
1026,50.781250
1027,46.875000
1028,42.968750
1029,39.062500
1030,35.156250
1031,31.250000
1032,27.343750
1033,23.437500
1034,19.531250
1035,15.625000
1036,11.718750
1037,7.812500
1038,3.906250
1039,0.000000
1040,-3.906250
1041,-7.812500
1042,-11.718750
1043,-15.625000
1044,-19.531250
1045,-23.437500
1046,-27.343750
1047,-31.250000
1048,-39.062500
1049,-39.062500
1050,-42.968750
1051,-46.875000
1052,-54.687500
1053,-58.593750
1054,-62.500000
1055,-66.406250
1056,-70.312500
1057,-74.218750
1058,-78.125000
1059,-85.937500
1060,-85.937500
1061,-89.843750
1062,-97.656250
1063,-101.562500
1064,-105.468750
1065,-109.375000
1066,-113.281250
1067,-117.187500
1068,-121.093750
1069,-128.906250
1070,-132.812500
1071,-132.812500
1072,-140.625000
1073,-144.531250
1074,-148.437500
1075,-152.343750
1076,-156.250000
1077,-160.156250
1078,-164.062500
1079,-167.968750
1080,-171.875000
1081,-175.781250
1082,-179.687500
1083,-187.500000
1084,-187.500000
1085,-191.406250
1086,-195.312500
1087,-199.218750
1088,-203.125000
1089,-207.031250
1090,-210.937500
1091,-214.843750
1092,-218.750000
1093,-222.656250
1094,-226.562500
1095,-230.468750
1096,-234.375000
1097,-238.281250
1098,-242.187500
1099,-246.093750
1100,-246.093750
1101,-250.000000
1102,-253.906250
1103,-257.812500
1104,-261.718750
1105,-265.625000
1106,-265.625000
1107,-269.531250
1108,-273.437500
1109,-273.437500
1110,-277.343750
1111,-281.250000
1112,-285.156250
1113,-285.156250
1114,-289.062500
1115,-292.968750
1116,-292.968750
1117,-296.875000
1118,-296.875000
1119,-300.781250
1120,-304.687500
1121,-304.687500
1122,-308.593750
1123,-308.593750
1124,-312.500000
1125,-312.500000
1126,-316.406250
1127,-316.406250
1128,-320.312500
1129,-320.312500
1130,-324.218750
1131,-324.218750
1132,-324.218750
1133,-324.218750
1134,-328.125000
1135,-328.125000
1136,-328.125000
1137,-332.031250
1138,-332.031250
1139,-332.031250
1140,-335.937500
1141,-335.937500
1142,-335.937500
1143,-335.937500
1144,-335.937500
1145,-335.937500
1146,-335.937500
1147,-339.843750
1148,-339.843750
1149,-339.843750
1150,-339.843750
1151,-339.843750
1152,-339.843750
1153,-339.843750
1154,-339.843750
1155,-339.843750
1156,-339.843750
1157,-339.843750
1158,-339.843750
1159,-339.843750
1160,-335.937500
1161,-335.937500
1162,-335.937500
1163,-335.937500
1164,-335.937500
1165,-335.937500
1166,-332.031250
1167,-332.031250
1168,-332.031250
1169,-332.031250
1170,-328.125000
1171,-328.125000
1172,-328.125000
1173,-324.218750
1174,-324.218750
1175,-324.218750
1176,-320.312500
1177,-320.312500
1178,-316.406250
1179,-316.406250
1180,-316.406250
1181,-312.500000
1182,-312.500000
1183,-308.593750
1184,-304.687500
1185,-304.687500
1186,-300.781250
1187,-300.781250
1188,-296.875000
1189,-296.875000
1190,-292.968750
1191,-289.062500
1192,-289.062500
1193,-285.156250
1194,-285.156250
1195,-281.250000
1196,-277.343750
1197,-273.437500
1198,-273.437500
1199,-269.531250
1200,-265.625000
1201,-261.718750
1202,-261.718750
1203,-257.812500
1204,-253.906250
1205,-250.000000
1206,-246.093750
1207,-242.187500
1208,-242.187500
1209,-238.281250
1210,-234.375000
1211,-230.468750
1212,-226.562500
1213,-222.656250
1214,-218.750000
1215,-214.843750
1216,-210.937500
1217,-207.031250
1218,-203.125000
1219,-199.218750
1220,-195.312500
1221,-191.406250
1222,-187.500000
1223,-183.593750
1224,-179.687500
1225,-175.781250
1226,-171.875000
1227,-167.968750
1228,-164.062500
1229,-160.156250
1230,-156.250000
1231,-152.343750
1232,-144.531250
1233,-140.625000
1234,-136.718750
1235,-132.812500
1236,-128.906250
1237,-125.000000
1238,-121.093750
1239,-117.187500
1240,-113.281250
1241,-109.375000
1242,-101.562500
1243,-97.656250
1244,-93.750000
1245,-89.843750
1246,-85.937500
1247,-78.125000
1248,-78.125000
1249,-70.312500
1250,-66.406250
1251,-62.500000
1252,-58.593750
1253,-54.687500
1254,-50.781250
1255,-46.875000
1256,-42.968750
1257,-39.062500
1258,-35.156250
1259,-27.343750
1260,-23.437500
1261,-19.531250
1262,-15.625000
1263,-11.718750
1264,-7.812500
1265,-7.812500
1266,0.000000
1267,3.906250
1268,7.812500
1269,11.718750
1270,15.625000
1271,19.531250
1272,23.437500
1273,27.343750
1274,31.250000
1275,35.156250
1276,35.156250
1277,42.968750
1278,42.968750
1279,46.875000
1280,50.781250
1281,54.687500
1282,58.593750
1283,62.500000
1284,62.500000
