Practicum8/data/opgave5/opgave5_freq2/data_82_009.csv

Channel              :,CH1
Frequency            :,1.200kHz
Period               :,0.833ms
PK-PK                :,476.6mV
Probe attenuation    :,1X
Voltage per ADC value:,0.244141mV
Time interval        :,2.00000us

index,CH1_Voltage(mV)
1,-62.500000
2,-62.500000
3,-58.593750
4,-50.781250
5,-50.781250
6,-46.875000
7,-42.968750
8,-39.062500
9,-35.156250
10,-31.250000
11,-27.343750
12,-23.437500
13,-19.531250
14,-15.625000
15,-11.718750
16,-7.812500
17,-3.906250
18,-3.906250
19,0.000000
20,3.906250
21,7.812500
22,11.718750
23,15.625000
24,19.531250
25,23.437500
26,23.437500
27,27.343750
28,31.250000
29,35.156250
30,39.062500
31,39.062500
32,42.968750
33,46.875000
34,46.875000
35,50.781250
36,54.687500
37,58.593750
38,58.593750
39,62.500000
40,66.406250
41,70.312500
42,70.312500
43,74.218750
44,74.218750
45,78.125000
46,82.031250
47,85.937500
48,85.937500
49,89.843750
50,89.843750
51,93.750000
52,93.750000
53,97.656250
54,101.562500
55,101.562500
56,101.562500
57,105.468750
58,105.468750
59,109.375000
60,113.281250
61,113.281250
62,117.187500
63,117.187500
64,117.187500
65,121.093750
66,121.093750
67,125.000000
68,125.000000
69,128.906250
70,128.906250
71,128.906250
72,128.906250
73,132.812500
74,132.812500
75,136.718750
76,136.718750
77,136.718750
78,140.625000
79,140.625000
80,140.625000
81,140.625000
82,144.531250
83,144.531250
84,144.531250
85,144.531250
86,148.437500
87,148.437500
88,148.437500
89,148.437500
90,148.437500
91,152.343750
92,152.343750
93,152.343750
94,152.343750
95,152.343750
96,152.343750
97,152.343750
98,156.250000
99,152.343750
100,156.250000
101,156.250000
102,156.250000
103,156.250000
104,156.250000
105,156.250000
106,156.250000
107,156.250000
108,156.250000
109,156.250000
110,156.250000
111,156.250000
112,156.250000
113,156.250000
114,156.250000
115,156.250000
116,156.250000
117,156.250000
118,156.250000
119,156.250000
120,152.343750
121,156.250000
122,152.343750
123,156.250000
124,152.343750
125,152.343750
126,152.343750
127,152.343750
128,152.343750
129,148.437500
130,148.437500
131,148.437500
132,148.437500
133,148.437500
134,144.531250
135,144.531250
136,144.531250
137,144.531250
138,140.625000
139,140.625000
140,140.625000
141,140.625000
142,140.625000
143,136.718750
144,136.718750
145,136.718750
146,132.812500
147,132.812500
148,132.812500
149,128.906250
150,125.000000
151,125.000000
152,125.000000
153,125.000000
154,121.093750
155,121.093750
156,117.187500
157,117.187500
158,117.187500
159,113.281250
160,109.375000
161,109.375000
162,105.468750
163,105.468750
164,105.468750
165,101.562500
166,97.656250
167,97.656250
168,93.750000
169,93.750000
170,89.843750
171,85.937500
172,85.937500
173,82.031250
174,82.031250
175,78.125000
176,74.218750
177,74.218750
178,70.312500
179,66.406250
180,66.406250
181,62.500000
182,58.593750
183,58.593750
184,54.687500
185,50.781250
186,46.875000
187,42.968750
188,42.968750
189,39.062500
190,35.156250
191,31.250000
192,27.343750
193,27.343750
194,23.437500
195,19.531250
196,15.625000
197,11.718750
198,7.812500
199,7.812500
200,3.906250
201,0.000000
202,-3.906250
203,-7.812500
204,-11.718750
205,-15.625000
206,-15.625000
207,-23.437500
208,-23.437500
209,-31.250000
210,-31.250000
211,-35.156250
212,-39.062500
213,-42.968750
214,-46.875000
215,-50.781250
216,-54.687500
217,-58.593750
218,-62.500000
219,-66.406250
220,-70.312500
221,-74.218750
222,-78.125000
223,-82.031250
224,-85.937500
225,-89.843750
226,-93.750000
227,-97.656250
228,-101.562500
229,-105.468750
230,-109.375000
231,-113.281250
232,-117.187500
233,-121.093750
234,-125.000000
235,-128.906250
236,-128.906250
237,-136.718750
238,-136.718750
239,-140.625000
240,-148.437500
241,-148.437500
242,-152.343750
243,-156.250000
244,-160.156250
245,-164.062500
246,-167.968750
247,-171.875000
248,-175.781250
249,-179.687500
250,-183.593750
251,-183.593750
252,-187.500000
253,-191.406250
254,-195.312500
255,-199.218750
256,-203.125000
257,-207.031250
258,-210.937500
259,-214.843750
260,-214.843750
261,-218.750000
262,-222.656250
263,-226.562500
264,-230.468750
265,-230.468750
266,-234.375000
267,-234.375000
268,-238.281250
269,-242.187500
270,-242.187500
271,-246.093750
272,-250.000000
273,-253.906250
274,-261.718750
275,-257.812500
276,-261.718750
277,-261.718750
278,-265.625000
279,-269.531250
280,-269.531250
281,-273.437500
282,-273.437500
283,-277.343750
284,-277.343750
285,-281.250000
286,-281.250000
287,-285.156250
288,-285.156250
289,-289.062500
290,-289.062500
291,-289.062500
292,-292.968750
293,-296.875000
294,-296.875000
295,-296.875000
296,-300.781250
297,-300.781250
298,-300.781250
299,-304.687500
300,-304.687500
301,-304.687500
302,-304.687500
303,-308.593750
304,-308.593750
305,-308.593750
306,-308.593750
307,-308.593750
308,-312.500000
309,-312.500000
310,-312.500000
311,-312.500000
312,-312.500000
313,-312.500000
314,-312.500000
315,-316.406250
316,-316.406250
317,-316.406250
318,-316.406250
319,-316.406250
320,-312.500000
321,-316.406250
322,-316.406250
323,-312.500000
324,-312.500000
325,-312.500000
326,-312.500000
327,-312.500000
328,-312.500000
329,-312.500000
330,-312.500000
331,-308.593750
332,-308.593750
333,-308.593750
334,-308.593750
335,-304.687500
336,-304.687500
337,-304.687500
338,-304.687500
339,-300.781250
340,-300.781250
341,-300.781250
342,-296.875000
343,-292.968750
344,-292.968750
345,-292.968750
346,-292.968750
347,-289.062500
348,-285.156250
349,-285.156250
350,-285.156250
351,-281.250000
352,-281.250000
353,-277.343750
354,-277.343750
355,-273.437500
356,-269.531250
357,-269.531250
358,-265.625000
359,-265.625000
360,-261.718750
361,-257.812500
362,-257.812500
363,-253.906250
364,-250.000000
365,-250.000000
366,-246.093750
367,-242.187500
368,-242.187500
369,-238.281250
370,-234.375000
371,-230.468750
372,-230.468750
373,-226.562500
374,-222.656250
375,-218.750000
376,-214.843750
377,-214.843750
378,-210.937500
379,-207.031250
380,-203.125000
381,-199.218750
382,-195.312500
383,-195.312500
384,-191.406250
385,-187.500000
386,-183.593750
387,-179.687500
388,-175.781250
389,-171.875000
390,-167.968750
391,-164.062500
392,-160.156250
393,-156.250000
394,-152.343750
395,-148.437500
396,-148.437500
397,-144.531250
398,-136.718750
399,-136.718750
400,-132.812500
401,-128.906250
402,-125.000000
403,-121.093750
404,-117.187500
405,-113.281250
406,-109.375000
407,-105.468750
408,-101.562500
409,-97.656250
410,-93.750000
411,-89.843750
412,-85.937500
413,-82.031250
414,-78.125000
415,-74.218750
416,-70.312500
417,-66.406250
418,-62.500000
419,-58.593750
420,-54.687500
421,-50.781250
422,-46.875000
423,-42.968750
424,-39.062500
425,-35.156250
426,-31.250000
427,-31.250000
428,-27.343750
429,-19.531250
430,-19.531250
431,-15.625000
432,-11.718750
433,-7.812500
434,-3.906250
435,0.000000
436,3.906250
437,7.812500
438,7.812500
439,11.718750
440,15.625000
441,19.531250
442,23.437500
443,27.343750
444,31.250000
445,31.250000
446,35.156250
447,39.062500
448,39.062500
449,42.968750
450,46.875000
451,50.781250
452,54.687500
453,54.687500
454,58.593750
455,62.500000
456,62.500000
457,66.406250
458,70.312500
459,74.218750
460,74.218750
461,78.125000
462,78.125000
463,82.031250
464,85.937500
465,85.937500
466,89.843750
467,89.843750
468,93.750000
469,97.656250
470,97.656250
471,101.562500
472,101.562500
473,105.468750
474,105.468750
475,109.375000
476,109.375000
477,113.281250
478,113.281250
479,117.187500
480,117.187500
481,121.093750
482,121.093750
483,121.093750
484,125.000000
485,125.000000
486,128.906250
487,128.906250
488,128.906250
489,132.812500
490,132.812500
491,132.812500
492,136.718750
493,136.718750
494,136.718750
495,140.625000
496,140.625000
497,140.625000
498,140.625000
499,140.625000
500,144.531250
501,144.531250
502,144.531250
503,148.437500
504,144.531250
505,148.437500
506,148.437500
507,148.437500
508,152.343750
509,152.343750
510,152.343750
511,152.343750
512,152.343750
513,152.343750
514,152.343750
515,152.343750
516,156.250000
517,156.250000
518,156.250000
519,156.250000
520,156.250000
521,156.250000
522,156.250000
523,156.250000
524,156.250000
525,156.250000
526,156.250000
527,156.250000
528,156.250000
529,156.250000
530,156.250000
531,156.250000
532,156.250000
533,156.250000
534,156.250000
535,156.250000
536,156.250000
537,156.250000
538,152.343750
539,152.343750
540,152.343750
541,152.343750
542,152.343750
543,152.343750
544,152.343750
545,152.343750
546,148.437500
547,148.437500
548,148.437500
549,148.437500
550,144.531250
551,144.531250
552,144.531250
553,144.531250
554,144.531250
555,140.625000
556,140.625000
557,140.625000
558,136.718750
559,136.718750
560,136.718750
561,136.718750
562,132.812500
563,132.812500
564,128.906250
565,128.906250
566,128.906250
567,125.000000
568,125.000000
569,125.000000
570,121.093750
571,121.093750
572,121.093750
573,117.187500
574,117.187500
575,113.281250
576,113.281250
577,109.375000
578,109.375000
579,105.468750
580,105.468750
581,101.562500
582,101.562500
583,97.656250
584,97.656250
585,93.750000
586,89.843750
587,89.843750
588,85.937500
589,82.031250
590,82.031250
591,82.031250
592,78.125000
593,74.218750
594,74.218750
595,70.312500
596,66.406250
597,62.500000
598,62.500000
599,58.593750
600,54.687500
601,50.781250
602,50.781250
603,46.875000
604,42.968750
605,39.062500
606,39.062500
607,35.156250
608,31.250000
609,27.343750
610,23.437500
611,23.437500
612,19.531250
613,15.625000
614,11.718750
615,7.812500
616,3.906250
617,0.000000
618,0.000000
619,-3.906250
620,-7.812500
621,-11.718750
622,-15.625000
623,-19.531250
624,-23.437500
625,-27.343750
626,-31.250000
627,-35.156250
628,-39.062500
629,-42.968750
630,-46.875000
631,-50.781250
632,-50.781250
633,-54.687500
634,-62.500000
635,-62.500000
636,-66.406250
637,-70.312500
638,-74.218750
639,-78.125000
640,-85.937500
641,-85.937500
642,-89.843750
643,-93.750000
644,-97.656250
645,-101.562500
646,-105.468750
647,-109.375000
648,-113.281250
649,-117.187500
650,-121.093750
651,-125.000000
652,-128.906250
653,-132.812500
654,-136.718750
655,-140.625000
656,-144.531250
657,-148.437500
658,-148.437500
659,-152.343750
660,-160.156250
661,-160.156250
662,-164.062500
663,-167.968750
664,-171.875000
665,-175.781250
666,-179.687500
667,-183.593750
668,-187.500000
669,-191.406250
670,-191.406250
671,-195.312500
672,-203.125000
673,-203.125000
674,-207.031250
675,-210.937500
676,-214.843750
677,-218.750000
678,-218.750000
679,-222.656250
680,-226.562500
681,-230.468750
682,-230.468750
683,-234.375000
684,-238.281250
685,-242.187500
686,-242.187500
687,-246.093750
688,-250.000000
689,-250.000000
690,-253.906250
691,-257.812500
692,-257.812500
693,-261.718750
694,-265.625000
695,-265.625000
696,-269.531250
697,-273.437500
698,-273.437500
699,-277.343750
700,-277.343750
701,-277.343750
702,-281.250000
703,-285.156250
704,-285.156250
705,-285.156250
706,-289.062500
707,-292.968750
708,-292.968750
709,-292.968750
710,-296.875000
711,-296.875000
712,-296.875000
713,-300.781250
714,-300.781250
715,-304.687500
716,-304.687500
717,-304.687500
718,-304.687500
719,-308.593750
720,-308.593750
721,-308.593750
722,-308.593750
723,-312.500000
724,-312.500000
725,-312.500000
726,-312.500000
727,-312.500000
728,-312.500000
729,-312.500000
730,-312.500000
731,-312.500000
732,-312.500000
733,-312.500000
734,-316.406250
735,-312.500000
736,-312.500000
737,-312.500000
738,-312.500000
739,-312.500000
740,-312.500000
741,-312.500000
742,-312.500000
743,-312.500000
744,-312.500000
745,-312.500000
746,-308.593750
747,-308.593750
748,-308.593750
749,-308.593750
750,-308.593750
751,-304.687500
752,-304.687500
753,-304.687500
754,-304.687500
755,-300.781250
756,-300.781250
757,-300.781250
758,-296.875000
759,-296.875000
760,-292.968750
761,-292.968750
762,-292.968750
763,-289.062500
764,-289.062500
765,-289.062500
766,-285.156250
767,-285.156250
768,-281.250000
769,-281.250000
770,-277.343750
771,-273.437500
772,-273.437500
773,-269.531250
774,-269.531250
775,-265.625000
776,-265.625000
777,-261.718750
778,-257.812500
779,-257.812500
780,-253.906250
781,-250.000000
782,-250.000000
783,-246.093750
784,-242.187500
785,-238.281250
786,-238.281250
787,-234.375000
788,-230.468750
789,-226.562500
790,-222.656250
791,-222.656250
792,-218.750000
793,-214.843750
794,-210.937500
795,-207.031250
796,-207.031250
797,-203.125000
798,-199.218750
799,-195.312500
800,-191.406250
801,-187.500000
802,-183.593750
803,-179.687500
804,-179.687500
805,-175.781250
806,-171.875000
807,-167.968750
808,-164.062500
809,-160.156250
810,-156.250000
811,-152.343750
812,-148.437500
813,-144.531250
814,-144.531250
815,-136.718750
816,-132.812500
817,-128.906250
818,-128.906250
819,-121.093750
820,-121.093750
821,-117.187500
822,-113.281250
823,-105.468750
824,-105.468750
825,-101.562500
826,-97.656250
827,-93.750000
828,-89.843750
829,-85.937500
830,-82.031250
831,-78.125000
832,-74.218750
833,-70.312500
834,-66.406250
835,-62.500000
836,-58.593750
837,-54.687500
838,-50.781250
839,-46.875000
840,-42.968750
841,-39.062500
842,-35.156250
843,-27.343750
844,-27.343750
845,-23.437500
846,-19.531250
847,-19.531250
848,-15.625000
849,-11.718750
850,-7.812500
851,-3.906250
852,0.000000
853,3.906250
854,7.812500
855,11.718750
856,11.718750
857,15.625000
858,19.531250
859,23.437500
860,27.343750
861,31.250000
862,31.250000
863,35.156250
864,39.062500
865,39.062500
866,46.875000
867,46.875000
868,50.781250
869,54.687500
870,54.687500
871,58.593750
872,62.500000
873,66.406250
874,66.406250
875,70.312500
876,74.218750
877,74.218750
878,78.125000
879,82.031250
880,82.031250
881,85.937500
882,85.937500
883,89.843750
884,93.750000
885,97.656250
886,97.656250
887,97.656250
888,101.562500
889,101.562500
890,105.468750
891,105.468750
892,109.375000
893,109.375000
894,113.281250
895,113.281250
896,117.187500
897,117.187500
898,121.093750
899,121.093750
900,121.093750
901,125.000000
902,125.000000
903,128.906250
904,128.906250
905,128.906250
906,132.812500
907,132.812500
908,132.812500
909,136.718750
910,136.718750
911,140.625000
912,140.625000
913,140.625000
914,140.625000
915,140.625000
916,144.531250
917,144.531250
918,144.531250
919,144.531250
920,148.437500
921,148.437500
922,148.437500
923,148.437500
924,148.437500
925,152.343750
926,152.343750
927,152.343750
928,152.343750
929,152.343750
930,152.343750
931,152.343750
932,152.343750
933,156.250000
934,156.250000
935,156.250000
936,156.250000
937,156.250000
938,156.250000
939,156.250000
940,156.250000
941,156.250000
942,156.250000
943,156.250000
944,156.250000
945,156.250000
946,156.250000
947,156.250000
948,156.250000
949,156.250000
950,156.250000
951,156.250000
952,156.250000
953,156.250000
954,152.343750
955,152.343750
956,148.437500
957,152.343750
958,152.343750
959,152.343750
960,152.343750
961,148.437500
962,148.437500
963,148.437500
964,148.437500
965,148.437500
966,148.437500
967,144.531250
968,144.531250
969,144.531250
970,144.531250
971,144.531250
972,140.625000
973,140.625000
974,140.625000
975,140.625000
976,136.718750
977,136.718750
978,136.718750
979,132.812500
980,132.812500
981,132.812500
982,128.906250
983,128.906250
984,128.906250
985,125.000000
986,125.000000
987,121.093750
988,121.093750
989,121.093750
990,117.187500
991,117.187500
992,113.281250
993,113.281250
994,109.375000
995,109.375000
996,105.468750
997,105.468750
998,101.562500
999,101.562500
1000,97.656250
1001,93.750000
1002,93.750000
1003,89.843750
1004,89.843750
1005,85.937500
1006,85.937500
1007,82.031250
1008,78.125000
1009,78.125000
1010,74.218750
1011,70.312500
1012,66.406250
1013,66.406250
1014,62.500000
1015,58.593750
1016,58.593750
1017,54.687500
1018,50.781250
1019,46.875000
1020,46.875000
1021,42.968750
1022,39.062500
1023,35.156250
1024,35.156250
1025,31.250000
1026,27.343750
1027,23.437500
1028,15.625000
1029,19.531250
1030,15.625000
1031,11.718750
1032,7.812500
1033,3.906250
1034,0.000000
1035,-3.906250
1036,-7.812500
1037,-7.812500
1038,-11.718750
1039,-15.625000
1040,-19.531250
1041,-23.437500
1042,-27.343750
1043,-31.250000
1044,-35.156250
1045,-39.062500
1046,-42.968750
1047,-46.875000
1048,-50.781250
1049,-54.687500
1050,-58.593750
1051,-62.500000
1052,-62.500000
1053,-70.312500
1054,-74.218750
1055,-74.218750
1056,-78.125000
1057,-82.031250
1058,-85.937500
1059,-93.750000
1060,-93.750000
1061,-97.656250
1062,-101.562500
1063,-105.468750
1064,-109.375000
1065,-113.281250
1066,-117.187500
1067,-121.093750
1068,-125.000000
1069,-128.906250
1070,-132.812500
1071,-136.718750
1072,-140.625000
1073,-144.531250
1074,-148.437500
1075,-152.343750
1076,-156.250000
1077,-160.156250
1078,-164.062500
1079,-167.968750
1080,-171.875000
1081,-175.781250
1082,-175.781250
1083,-179.687500
1084,-183.593750
1085,-187.500000
1086,-191.406250
1087,-195.312500
1088,-199.218750
1089,-199.218750
1090,-203.125000
1091,-207.031250
1092,-210.937500
1093,-214.843750
1094,-210.937500
1095,-222.656250
1096,-226.562500
1097,-226.562500
1098,-230.468750
1099,-234.375000
1100,-234.375000
1101,-238.281250
1102,-242.187500
1103,-246.093750
1104,-246.093750
1105,-250.000000
1106,-253.906250
1107,-253.906250
1108,-257.812500
1109,-257.812500
1110,-261.718750
1111,-265.625000
1112,-265.625000
1113,-269.531250
1114,-269.531250
1115,-273.437500
1116,-273.437500
1117,-277.343750
1118,-281.250000
1119,-281.250000
1120,-285.156250
1121,-285.156250
1122,-289.062500
1123,-289.062500
1124,-289.062500
1125,-292.968750
1126,-292.968750
1127,-296.875000
1128,-296.875000
1129,-296.875000
1130,-300.781250
1131,-300.781250
1132,-300.781250
1133,-304.687500
1134,-304.687500
1135,-304.687500
1136,-308.593750
1137,-308.593750
1138,-308.593750
1139,-308.593750
1140,-308.593750
1141,-312.500000
1142,-312.500000
1143,-312.500000
1144,-312.500000
1145,-312.500000
1146,-316.406250
1147,-312.500000
1148,-312.500000
1149,-316.406250
1150,-312.500000
1151,-312.500000
1152,-316.406250
1153,-316.406250
1154,-312.500000
1155,-316.406250
1156,-312.500000
1157,-312.500000
1158,-312.500000
1159,-312.500000
1160,-312.500000
1161,-312.500000
1162,-312.500000
1163,-312.500000
1164,-308.593750
1165,-308.593750
1166,-308.593750
1167,-304.687500
1168,-304.687500
1169,-304.687500
1170,-304.687500
1171,-304.687500
1172,-300.781250
1173,-300.781250
1174,-296.875000
1175,-296.875000
1176,-296.875000
1177,-296.875000
1178,-292.968750
1179,-292.968750
1180,-289.062500
1181,-285.156250
1182,-285.156250
1183,-285.156250
1184,-281.250000
1185,-281.250000
1186,-277.343750
1187,-277.343750
1188,-273.437500
1189,-277.343750
1190,-269.531250
1191,-265.625000
1192,-265.625000
1193,-261.718750
1194,-261.718750
1195,-257.812500
1196,-253.906250
1197,-253.906250
1198,-250.000000
1199,-246.093750
1200,-246.093750
1201,-242.187500
1202,-238.281250
1203,-234.375000
1204,-234.375000
1205,-230.468750
1206,-226.562500
1207,-222.656250
1208,-218.750000
1209,-218.750000
1210,-214.843750
1211,-210.937500
1212,-207.031250
1213,-203.125000
1214,-203.125000
1215,-199.218750
1216,-195.312500
1217,-191.406250
1218,-187.500000
1219,-183.593750
1220,-179.687500
1221,-175.781250
1222,-171.875000
1223,-171.875000
1224,-167.968750
1225,-164.062500
1226,-160.156250
1227,-156.250000
1228,-152.343750
1229,-148.437500
1230,-144.531250
1231,-140.625000
1232,-136.718750
1233,-132.812500
1234,-128.906250
1235,-125.000000
1236,-121.093750
1237,-117.187500
1238,-113.281250
1239,-109.375000
1240,-105.468750
1241,-101.562500
1242,-97.656250
1243,-93.750000
1244,-89.843750
1245,-85.937500
1246,-82.031250
1247,-78.125000
1248,-74.218750
1249,-70.312500
1250,-70.312500
1251,-62.500000
1252,-58.593750
1253,-54.687500
1254,-50.781250
1255,-50.781250
1256,-46.875000
1257,-42.968750
1258,-39.062500
1259,-35.156250
1260,-31.250000
1261,-27.343750
1262,-23.437500
1263,-19.531250
1264,-15.625000
1265,-11.718750
1266,-7.812500
1267,-3.906250
1268,0.000000
1269,0.000000
1270,3.906250
1271,7.812500
1272,11.718750
1273,15.625000
1274,19.531250
1275,19.531250
1276,23.437500
1277,27.343750
1278,31.250000
1279,31.250000
1280,35.156250
1281,39.062500
1282,42.968750
1283,46.875000
1284,50.781250
1285,50.781250
1286,54.687500
1287,58.593750
