Practicum8/data/opgave5/opgave5_freq2/data_82_012.csv

Channel              :,CH1
Frequency            :,1.200kHz
Period               :,0.833ms
PK-PK                :,480.5mV
Probe attenuation    :,1X
Voltage per ADC value:,0.244141mV
Time interval        :,2.00000us

index,CH1_Voltage(mV)
1,-66.406250
2,-66.406250
3,-58.593750
4,-58.593750
5,-54.687500
6,-50.781250
7,-46.875000
8,-42.968750
9,-39.062500
10,-35.156250
11,-31.250000
12,-27.343750
13,-23.437500
14,-19.531250
15,-15.625000
16,-11.718750
17,-7.812500
18,-3.906250
19,0.000000
20,3.906250
21,7.812500
22,11.718750
23,11.718750
24,19.531250
25,19.531250
26,23.437500
27,27.343750
28,31.250000
29,35.156250
30,39.062500
31,42.968750
32,42.968750
33,46.875000
34,50.781250
35,54.687500
36,58.593750
37,62.500000
38,62.500000
39,70.312500
40,70.312500
41,74.218750
42,74.218750
43,78.125000
44,82.031250
45,82.031250
46,85.937500
47,89.843750
48,93.750000
49,93.750000
50,97.656250
51,101.562500
52,101.562500
53,105.468750
54,105.468750
55,109.375000
56,113.281250
57,113.281250
58,117.187500
59,121.093750
60,121.093750
61,125.000000
62,125.000000
63,125.000000
64,128.906250
65,132.812500
66,132.812500
67,136.718750
68,136.718750
69,136.718750
70,140.625000
71,144.531250
72,144.531250
73,144.531250
74,148.437500
75,148.437500
76,148.437500
77,152.343750
78,152.343750
79,156.250000
80,156.250000
81,156.250000
82,160.156250
83,160.156250
84,160.156250
85,164.062500
86,164.062500
87,164.062500
88,164.062500
89,167.968750
90,167.968750
91,167.968750
92,167.968750
93,171.875000
94,171.875000
95,171.875000
96,171.875000
97,171.875000
98,175.781250
99,175.781250
100,175.781250
101,175.781250
102,175.781250
103,175.781250
104,175.781250
105,175.781250
106,175.781250
107,175.781250
108,179.687500
109,179.687500
110,179.687500
111,179.687500
112,179.687500
113,179.687500
114,179.687500
115,179.687500
116,179.687500
117,179.687500
118,179.687500
119,179.687500
120,179.687500
121,179.687500
122,179.687500
123,179.687500
124,179.687500
125,179.687500
126,179.687500
127,175.781250
128,175.781250
129,175.781250
130,175.781250
131,175.781250
132,175.781250
133,171.875000
134,171.875000
135,171.875000
136,171.875000
137,171.875000
138,171.875000
139,171.875000
140,171.875000
141,167.968750
142,167.968750
143,167.968750
144,167.968750
145,164.062500
146,164.062500
147,164.062500
148,164.062500
149,164.062500
150,160.156250
151,160.156250
152,156.250000
153,156.250000
154,156.250000
155,152.343750
156,152.343750
157,148.437500
158,148.437500
159,148.437500
160,144.531250
161,144.531250
162,144.531250
163,140.625000
164,140.625000
165,136.718750
166,136.718750
167,132.812500
168,132.812500
169,128.906250
170,128.906250
171,125.000000
172,125.000000
173,121.093750
174,121.093750
175,117.187500
176,113.281250
177,109.375000
178,109.375000
179,109.375000
180,105.468750
181,101.562500
182,101.562500
183,97.656250
184,93.750000
185,89.843750
186,89.843750
187,85.937500
188,82.031250
189,82.031250
190,74.218750
191,74.218750
192,70.312500
193,70.312500
194,66.406250
195,62.500000
196,58.593750
197,58.593750
198,54.687500
199,50.781250
200,46.875000
201,42.968750
202,39.062500
203,39.062500
204,31.250000
205,31.250000
206,27.343750
207,23.437500
208,19.531250
209,15.625000
210,11.718750
211,7.812500
212,3.906250
213,0.000000
214,0.000000
215,-3.906250
216,-7.812500
217,-11.718750
218,-15.625000
219,-19.531250
220,-23.437500
221,-27.343750
222,-31.250000
223,-35.156250
224,-39.062500
225,-42.968750
226,-46.875000
227,-50.781250
228,-54.687500
229,-58.593750
230,-62.500000
231,-66.406250
232,-70.312500
233,-74.218750
234,-78.125000
235,-82.031250
236,-85.937500
237,-89.843750
238,-93.750000
239,-97.656250
240,-101.562500
241,-105.468750
242,-109.375000
243,-113.281250
244,-117.187500
245,-121.093750
246,-125.000000
247,-128.906250
248,-132.812500
249,-136.718750
250,-136.718750
251,-140.625000
252,-144.531250
253,-148.437500
254,-152.343750
255,-156.250000
256,-160.156250
257,-164.062500
258,-167.968750
259,-171.875000
260,-175.781250
261,-179.687500
262,-179.687500
263,-183.593750
264,-187.500000
265,-187.500000
266,-195.312500
267,-199.218750
268,-203.125000
269,-203.125000
270,-207.031250
271,-210.937500
272,-210.937500
273,-214.843750
274,-218.750000
275,-222.656250
276,-222.656250
277,-226.562500
278,-230.468750
279,-234.375000
280,-234.375000
281,-238.281250
282,-242.187500
283,-242.187500
284,-246.093750
285,-246.093750
286,-250.000000
287,-253.906250
288,-253.906250
289,-257.812500
290,-257.812500
291,-261.718750
292,-265.625000
293,-265.625000
294,-265.625000
295,-269.531250
296,-269.531250
297,-273.437500
298,-273.437500
299,-277.343750
300,-277.343750
301,-277.343750
302,-281.250000
303,-281.250000
304,-281.250000
305,-285.156250
306,-285.156250
307,-289.062500
308,-289.062500
309,-289.062500
310,-289.062500
311,-292.968750
312,-292.968750
313,-292.968750
314,-292.968750
315,-292.968750
316,-296.875000
317,-296.875000
318,-296.875000
319,-296.875000
320,-296.875000
321,-296.875000
322,-296.875000
323,-296.875000
324,-296.875000
325,-296.875000
326,-296.875000
327,-296.875000
328,-296.875000
329,-296.875000
330,-296.875000
331,-296.875000
332,-296.875000
333,-292.968750
334,-292.968750
335,-292.968750
336,-292.968750
337,-292.968750
338,-292.968750
339,-292.968750
340,-289.062500
341,-289.062500
342,-289.062500
343,-285.156250
344,-285.156250
345,-285.156250
346,-285.156250
347,-281.250000
348,-281.250000
349,-277.343750
350,-277.343750
351,-277.343750
352,-273.437500
353,-273.437500
354,-269.531250
355,-269.531250
356,-265.625000
357,-265.625000
358,-261.718750
359,-261.718750
360,-257.812500
361,-257.812500
362,-253.906250
363,-250.000000
364,-250.000000
365,-246.093750
366,-246.093750
367,-242.187500
368,-238.281250
369,-242.187500
370,-234.375000
371,-230.468750
372,-230.468750
373,-226.562500
374,-222.656250
375,-222.656250
376,-218.750000
377,-214.843750
378,-210.937500
379,-207.031250
380,-207.031250
381,-203.125000
382,-199.218750
383,-195.312500
384,-191.406250
385,-187.500000
386,-187.500000
387,-183.593750
388,-179.687500
389,-175.781250
390,-171.875000
391,-167.968750
392,-167.968750
393,-160.156250
394,-160.156250
395,-156.250000
396,-148.437500
397,-148.437500
398,-144.531250
399,-140.625000
400,-136.718750
401,-132.812500
402,-128.906250
403,-125.000000
404,-121.093750
405,-117.187500
406,-113.281250
407,-109.375000
408,-105.468750
409,-101.562500
410,-97.656250
411,-93.750000
412,-89.843750
413,-85.937500
414,-82.031250
415,-78.125000
416,-74.218750
417,-70.312500
418,-66.406250
419,-62.500000
420,-58.593750
421,-54.687500
422,-50.781250
423,-46.875000
424,-42.968750
425,-39.062500
426,-35.156250
427,-31.250000
428,-27.343750
429,-23.437500
430,-19.531250
431,-15.625000
432,-11.718750
433,-7.812500
434,-7.812500
435,-3.906250
436,3.906250
437,3.906250
438,7.812500
439,11.718750
440,15.625000
441,19.531250
442,23.437500
443,27.343750
444,31.250000
445,31.250000
446,35.156250
447,39.062500
448,42.968750
449,46.875000
450,50.781250
451,50.781250
452,54.687500
453,58.593750
454,62.500000
455,66.406250
456,66.406250
457,70.312500
458,74.218750
459,78.125000
460,78.125000
461,82.031250
462,85.937500
463,89.843750
464,89.843750
465,93.750000
466,97.656250
467,97.656250
468,101.562500
469,105.468750
470,105.468750
471,109.375000
472,113.281250
473,113.281250
474,117.187500
475,117.187500
476,121.093750
477,121.093750
478,125.000000
479,125.000000
480,128.906250
481,128.906250
482,132.812500
483,136.718750
484,136.718750
485,136.718750
486,140.625000
487,140.625000
488,144.531250
489,144.531250
490,148.437500
491,148.437500
492,148.437500
493,152.343750
494,152.343750
495,156.250000
496,156.250000
497,156.250000
498,160.156250
499,160.156250
500,160.156250
501,160.156250
502,164.062500
503,164.062500
504,164.062500
505,164.062500
506,167.968750
507,167.968750
508,167.968750
509,167.968750
510,171.875000
511,171.875000
512,171.875000
513,171.875000
514,171.875000
515,171.875000
516,175.781250
517,175.781250
518,175.781250
519,175.781250
520,175.781250
521,175.781250
522,175.781250
523,175.781250
524,179.687500
525,175.781250
526,179.687500
527,179.687500
528,179.687500
529,179.687500
530,179.687500
531,179.687500
532,179.687500
533,179.687500
534,179.687500
535,179.687500
536,179.687500
537,179.687500
538,179.687500
539,179.687500
540,179.687500
541,179.687500
542,179.687500
543,179.687500
544,175.781250
545,175.781250
546,175.781250
547,175.781250
548,175.781250
549,175.781250
550,171.875000
551,171.875000
552,171.875000
553,171.875000
554,171.875000
555,171.875000
556,171.875000
557,171.875000
558,167.968750
559,167.968750
560,167.968750
561,164.062500
562,164.062500
563,164.062500
564,164.062500
565,160.156250
566,160.156250
567,160.156250
568,156.250000
569,156.250000
570,156.250000
571,152.343750
572,152.343750
573,152.343750
574,148.437500
575,148.437500
576,144.531250
577,144.531250
578,144.531250
579,140.625000
580,140.625000
581,136.718750
582,136.718750
583,132.812500
584,132.812500
585,128.906250
586,128.906250
587,125.000000
588,125.000000
589,121.093750
590,121.093750
591,117.187500
592,117.187500
593,113.281250
594,109.375000
595,109.375000
596,105.468750
597,105.468750
598,101.562500
599,97.656250
600,97.656250
601,93.750000
602,89.843750
603,89.843750
604,85.937500
605,82.031250
606,82.031250
607,78.125000
608,74.218750
609,70.312500
610,70.312500
611,66.406250
612,62.500000
613,58.593750
614,54.687500
615,50.781250
616,50.781250
617,46.875000
618,42.968750
619,39.062500
620,39.062500
621,31.250000
622,31.250000
623,27.343750
624,23.437500
625,15.625000
626,15.625000
627,11.718750
628,7.812500
629,3.906250
630,0.000000
631,-3.906250
632,-7.812500
633,-7.812500
634,-11.718750
635,-19.531250
636,-19.531250
637,-23.437500
638,-27.343750
639,-31.250000
640,-35.156250
641,-39.062500
642,-42.968750
643,-46.875000
644,-50.781250
645,-54.687500
646,-58.593750
647,-62.500000
648,-66.406250
649,-70.312500
650,-74.218750
651,-78.125000
652,-82.031250
653,-85.937500
654,-89.843750
655,-93.750000
656,-97.656250
657,-101.562500
658,-105.468750
659,-109.375000
660,-113.281250
661,-117.187500
662,-121.093750
663,-125.000000
664,-128.906250
665,-132.812500
666,-136.718750
667,-140.625000
668,-144.531250
669,-144.531250
670,-152.343750
671,-152.343750
672,-156.250000
673,-160.156250
674,-164.062500
675,-167.968750
676,-171.875000
677,-175.781250
678,-175.781250
679,-179.687500
680,-183.593750
681,-187.500000
682,-191.406250
683,-195.312500
684,-199.218750
685,-199.218750
686,-203.125000
687,-207.031250
688,-210.937500
689,-214.843750
690,-214.843750
691,-218.750000
692,-222.656250
693,-226.562500
694,-226.562500
695,-230.468750
696,-234.375000
697,-234.375000
698,-238.281250
699,-242.187500
700,-246.093750
701,-246.093750
702,-250.000000
703,-250.000000
704,-253.906250
705,-253.906250
706,-257.812500
707,-261.718750
708,-261.718750
709,-265.625000
710,-265.625000
711,-269.531250
712,-269.531250
713,-273.437500
714,-273.437500
715,-273.437500
716,-277.343750
717,-277.343750
718,-281.250000
719,-281.250000
720,-281.250000
721,-285.156250
722,-285.156250
723,-285.156250
724,-289.062500
725,-289.062500
726,-289.062500
727,-289.062500
728,-292.968750
729,-292.968750
730,-292.968750
731,-292.968750
732,-292.968750
733,-296.875000
734,-296.875000
735,-296.875000
736,-296.875000
737,-296.875000
738,-296.875000
739,-296.875000
740,-296.875000
741,-296.875000
742,-296.875000
743,-296.875000
744,-296.875000
745,-296.875000
746,-296.875000
747,-296.875000
748,-296.875000
749,-296.875000
750,-296.875000
751,-292.968750
752,-292.968750
753,-292.968750
754,-292.968750
755,-289.062500
756,-289.062500
757,-289.062500
758,-289.062500
759,-289.062500
760,-285.156250
761,-285.156250
762,-285.156250
763,-281.250000
764,-281.250000
765,-281.250000
766,-281.250000
767,-277.343750
768,-273.437500
769,-273.437500
770,-273.437500
771,-269.531250
772,-269.531250
773,-265.625000
774,-265.625000
775,-261.718750
776,-261.718750
777,-257.812500
778,-257.812500
779,-253.906250
780,-250.000000
781,-250.000000
782,-246.093750
783,-246.093750
784,-242.187500
785,-238.281250
786,-238.281250
787,-234.375000
788,-230.468750
789,-226.562500
790,-226.562500
791,-222.656250
792,-218.750000
793,-214.843750
794,-214.843750
795,-210.937500
796,-207.031250
797,-207.031250
798,-203.125000
799,-199.218750
800,-195.312500
801,-191.406250
802,-187.500000
803,-183.593750
804,-183.593750
805,-179.687500
806,-175.781250
807,-171.875000
808,-167.968750
809,-164.062500
810,-160.156250
811,-156.250000
812,-152.343750
813,-148.437500
814,-148.437500
815,-140.625000
816,-140.625000
817,-136.718750
818,-132.812500
819,-128.906250
820,-125.000000
821,-121.093750
822,-117.187500
823,-113.281250
824,-109.375000
825,-105.468750
826,-101.562500
827,-97.656250
828,-93.750000
829,-89.843750
830,-85.937500
831,-82.031250
832,-78.125000
833,-74.218750
834,-70.312500
835,-66.406250
836,-62.500000
837,-58.593750
838,-54.687500
839,-50.781250
840,-46.875000
841,-42.968750
842,-39.062500
843,-35.156250
844,-31.250000
845,-27.343750
846,-23.437500
847,-19.531250
848,-15.625000
849,-11.718750
850,-7.812500
851,-3.906250
852,0.000000
853,3.906250
854,7.812500
855,11.718750
856,11.718750
857,15.625000
858,19.531250
859,23.437500
860,27.343750
861,31.250000
862,35.156250
863,35.156250
864,42.968750
865,46.875000
866,46.875000
867,50.781250
868,54.687500
869,58.593750
870,58.593750
871,62.500000
872,66.406250
873,70.312500
874,74.218750
875,74.218750
876,78.125000
877,82.031250
878,82.031250
879,85.937500
880,89.843750
881,93.750000
882,93.750000
883,97.656250
884,101.562500
885,101.562500
886,105.468750
887,105.468750
888,109.375000
889,113.281250
890,113.281250
891,117.187500
892,117.187500
893,121.093750
894,125.000000
895,125.000000
896,128.906250
897,128.906250
898,132.812500
899,132.812500
900,136.718750
901,136.718750
902,136.718750
903,140.625000
904,140.625000
905,144.531250
906,144.531250
907,148.437500
908,148.437500
909,152.343750
910,152.343750
911,152.343750
912,156.250000
913,156.250000
914,156.250000
915,160.156250
916,160.156250
917,160.156250
918,160.156250
919,164.062500
920,164.062500
921,164.062500
922,167.968750
923,167.968750
924,167.968750
925,167.968750
926,167.968750
927,171.875000
928,171.875000
929,171.875000
930,171.875000
931,175.781250
932,175.781250
933,175.781250
934,175.781250
935,175.781250
936,175.781250
937,175.781250
938,175.781250
939,179.687500
940,179.687500
941,179.687500
942,179.687500
943,179.687500
944,179.687500
945,179.687500
946,179.687500
947,179.687500
948,179.687500
949,179.687500
950,179.687500
951,179.687500
952,179.687500
953,179.687500
954,179.687500
955,179.687500
956,179.687500
957,179.687500
958,179.687500
959,175.781250
960,175.781250
961,175.781250
962,175.781250
963,175.781250
964,175.781250
965,175.781250
966,175.781250
967,175.781250
968,171.875000
969,175.781250
970,171.875000
971,171.875000
972,171.875000
973,171.875000
974,167.968750
975,167.968750
976,167.968750
977,167.968750
978,164.062500
979,164.062500
980,160.156250
981,160.156250
982,164.062500
983,160.156250
984,160.156250
985,160.156250
986,156.250000
987,156.250000
988,156.250000
989,152.343750
990,152.343750
991,148.437500
992,148.437500
993,144.531250
994,144.531250
995,144.531250
996,140.625000
997,140.625000
998,136.718750
999,136.718750
1000,132.812500
1001,132.812500
1002,128.906250
1003,128.906250
1004,128.906250
1005,125.000000
1006,121.093750
1007,121.093750
1008,117.187500
1009,117.187500
1010,113.281250
1011,109.375000
1012,109.375000
1013,105.468750
1014,101.562500
1015,101.562500
1016,97.656250
1017,93.750000
1018,93.750000
1019,89.843750
1020,85.937500
1021,85.937500
1022,82.031250
1023,78.125000
1024,74.218750
1025,74.218750
1026,70.312500
1027,66.406250
1028,62.500000
1029,62.500000
1030,58.593750
1031,54.687500
1032,50.781250
1033,46.875000
1034,46.875000
1035,42.968750
1036,39.062500
1037,35.156250
1038,31.250000
1039,27.343750
1040,23.437500
1041,19.531250
1042,19.531250
1043,15.625000
1044,11.718750
1045,7.812500
1046,3.906250
1047,0.000000
1048,-3.906250
1049,-7.812500
1050,-11.718750
1051,-11.718750
1052,-19.531250
1053,-23.437500
1054,-27.343750
1055,-31.250000
1056,-35.156250
1057,-39.062500
1058,-42.968750
1059,-46.875000
1060,-46.875000
1061,-50.781250
1062,-54.687500
1063,-58.593750
1064,-62.500000
1065,-66.406250
1066,-74.218750
1067,-78.125000
1068,-78.125000
1069,-82.031250
1070,-85.937500
1071,-89.843750
1072,-97.656250
1073,-97.656250
1074,-101.562500
1075,-105.468750
1076,-109.375000
1077,-113.281250
1078,-117.187500
1079,-121.093750
1080,-125.000000
1081,-128.906250
1082,-132.812500
1083,-132.812500
1084,-140.625000
1085,-144.531250
1086,-148.437500
1087,-152.343750
1088,-156.250000
1089,-160.156250
1090,-164.062500
1091,-167.968750
1092,-167.968750
1093,-171.875000
1094,-175.781250
1095,-179.687500
1096,-183.593750
1097,-187.500000
1098,-191.406250
1099,-195.312500
1100,-195.312500
1101,-199.218750
1102,-203.125000
1103,-207.031250
1104,-207.031250
1105,-210.937500
1106,-214.843750
1107,-218.750000
1108,-222.656250
1109,-222.656250
1110,-226.562500
1111,-230.468750
1112,-230.468750
1113,-234.375000
1114,-238.281250
1115,-242.187500
1116,-242.187500
1117,-246.093750
1118,-246.093750
1119,-253.906250
1120,-253.906250
1121,-253.906250
1122,-257.812500
1123,-257.812500
1124,-261.718750
1125,-261.718750
1126,-265.625000
1127,-265.625000
1128,-269.531250
1129,-269.531250
1130,-273.437500
1131,-273.437500
1132,-277.343750
1133,-277.343750
1134,-277.343750
1135,-281.250000
1136,-281.250000
1137,-285.156250
1138,-285.156250
1139,-285.156250
1140,-289.062500
1141,-289.062500
1142,-289.062500
1143,-289.062500
1144,-289.062500
1145,-292.968750
1146,-292.968750
1147,-292.968750
1148,-292.968750
1149,-292.968750
1150,-296.875000
1151,-296.875000
1152,-296.875000
1153,-296.875000
1154,-296.875000
1155,-296.875000
1156,-296.875000
1157,-296.875000
1158,-296.875000
1159,-296.875000
1160,-296.875000
1161,-296.875000
1162,-296.875000
1163,-296.875000
1164,-296.875000
1165,-296.875000
1166,-296.875000
1167,-296.875000
1168,-292.968750
1169,-292.968750
1170,-292.968750
1171,-292.968750
1172,-289.062500
1173,-292.968750
1174,-289.062500
1175,-289.062500
1176,-289.062500
1177,-285.156250
1178,-285.156250
1179,-285.156250
1180,-281.250000
1181,-281.250000
1182,-281.250000
1183,-277.343750
1184,-277.343750
1185,-273.437500
1186,-273.437500
1187,-269.531250
1188,-269.531250
1189,-265.625000
1190,-265.625000
1191,-261.718750
1192,-261.718750
1193,-257.812500
1194,-257.812500
1195,-253.906250
1196,-253.906250
1197,-250.000000
1198,-250.000000
1199,-246.093750
1200,-242.187500
1201,-242.187500
1202,-238.281250
1203,-234.375000
1204,-234.375000
1205,-230.468750
1206,-226.562500
1207,-222.656250
1208,-222.656250
1209,-218.750000
1210,-214.843750
1211,-210.937500
1212,-210.937500
1213,-207.031250
1214,-203.125000
1215,-199.218750
1216,-199.218750
1217,-195.312500
1218,-191.406250
1219,-187.500000
1220,-183.593750
1221,-179.687500
1222,-179.687500
1223,-175.781250
1224,-171.875000
1225,-167.968750
1226,-164.062500
1227,-160.156250
1228,-156.250000
1229,-152.343750
1230,-148.437500
1231,-144.531250
1232,-140.625000
1233,-140.625000
1234,-132.812500
1235,-128.906250
1236,-125.000000
1237,-121.093750
1238,-117.187500
1239,-117.187500
1240,-109.375000
1241,-105.468750
1242,-101.562500
1243,-101.562500
1244,-97.656250
1245,-93.750000
1246,-85.937500
1247,-82.031250
1248,-78.125000
1249,-74.218750
1250,-74.218750
1251,-66.406250
1252,-62.500000
1253,-58.593750
1254,-58.593750
1255,-50.781250
1256,-46.875000
1257,-42.968750
1258,-39.062500
1259,-39.062500
1260,-31.250000
1261,-31.250000
1262,-23.437500
1263,-19.531250
1264,-19.531250
1265,-15.625000
1266,-11.718750
1267,-7.812500
1268,-3.906250
1269,0.000000
1270,3.906250
1271,7.812500
1272,11.718750
1273,15.625000
1274,15.625000
1275,23.437500
1276,23.437500
1277,27.343750
1278,31.250000
1279,35.156250
1280,39.062500
1281,42.968750
1282,46.875000
1283,46.875000
1284,50.781250
1285,54.687500
1286,58.593750
1287,58.593750
1288,62.500000
