Practicum8/data/opgave5/opgave5_freq2/data_82_016.csv

Channel              :,CH1
Frequency            :,1.200kHz
Period               :,0.833ms
PK-PK                :,140.6mV
Probe attenuation    :,1X
Voltage per ADC value:,0.244141mV
Time interval        :,2.00000us

index,CH1_Voltage(mV)
1,-50.781250
2,-50.781250
3,-50.781250
4,-50.781250
5,-50.781250
6,-46.875000
7,-46.875000
8,-46.875000
9,-46.875000
10,-42.968750
11,-42.968750
12,-42.968750
13,-42.968750
14,-42.968750
15,-39.062500
16,-39.062500
17,-39.062500
18,-35.156250
19,-35.156250
20,-35.156250
21,-31.250000
22,-31.250000
23,-31.250000
24,-31.250000
25,-31.250000
26,-27.343750
27,-27.343750
28,-27.343750
29,-27.343750
30,-23.437500
31,-23.437500
32,-23.437500
33,-23.437500
34,-19.531250
35,-19.531250
36,-19.531250
37,-19.531250
38,-19.531250
39,-15.625000
40,-15.625000
41,-15.625000
42,-11.718750
43,-11.718750
44,-11.718750
45,-11.718750
46,-7.812500
47,-7.812500
48,-7.812500
49,-7.812500
50,-7.812500
51,-3.906250
52,-3.906250
53,-3.906250
54,-3.906250
55,0.000000
56,0.000000
57,0.000000
58,0.000000
59,0.000000
60,3.906250
61,3.906250
62,3.906250
63,3.906250
64,7.812500
65,7.812500
66,7.812500
67,7.812500
68,7.812500
69,11.718750
70,11.718750
71,11.718750
72,11.718750
73,11.718750
74,15.625000
75,15.625000
76,15.625000
77,15.625000
78,15.625000
79,15.625000
80,19.531250
81,19.531250
82,19.531250
83,19.531250
84,19.531250
85,23.437500
86,23.437500
87,23.437500
88,23.437500
89,23.437500
90,23.437500
91,23.437500
92,27.343750
93,27.343750
94,27.343750
95,27.343750
96,27.343750
97,27.343750
98,27.343750
99,27.343750
100,31.250000
101,31.250000
102,31.250000
103,31.250000
104,31.250000
105,31.250000
106,31.250000
107,31.250000
108,35.156250
109,31.250000
110,35.156250
111,35.156250
112,35.156250
113,35.156250
114,35.156250
115,35.156250
116,35.156250
117,35.156250
118,35.156250
119,35.156250
120,35.156250
121,39.062500
122,35.156250
123,35.156250
124,35.156250
125,39.062500
126,39.062500
127,35.156250
128,39.062500
129,39.062500
130,39.062500
131,39.062500
132,39.062500
133,39.062500
134,39.062500
135,39.062500
136,39.062500
137,39.062500
138,39.062500
139,39.062500
140,39.062500
141,39.062500
142,39.062500
143,39.062500
144,39.062500
145,39.062500
146,39.062500
147,39.062500
148,39.062500
149,39.062500
150,35.156250
151,39.062500
152,35.156250
153,35.156250
154,35.156250
155,35.156250
156,35.156250
157,35.156250
158,35.156250
159,35.156250
160,35.156250
161,35.156250
162,35.156250
163,35.156250
164,35.156250
165,35.156250
166,31.250000
167,31.250000
168,31.250000
169,31.250000
170,31.250000
171,31.250000
172,31.250000
173,31.250000
174,27.343750
175,27.343750
176,27.343750
177,27.343750
178,27.343750
179,27.343750
180,27.343750
181,23.437500
182,23.437500
183,23.437500
184,23.437500
185,23.437500
186,23.437500
187,23.437500
188,23.437500
189,19.531250
190,19.531250
191,19.531250
192,19.531250
193,19.531250
194,19.531250
195,15.625000
196,15.625000
197,15.625000
198,15.625000
199,15.625000
200,11.718750
201,11.718750
202,11.718750
203,11.718750
204,11.718750
205,7.812500
206,7.812500
207,7.812500
208,7.812500
209,7.812500
210,7.812500
211,3.906250
212,3.906250
213,3.906250
214,3.906250
215,0.000000
216,0.000000
217,0.000000
218,0.000000
219,-3.906250
220,-3.906250
221,-3.906250
222,-3.906250
223,-7.812500
224,-7.812500
225,-7.812500
226,-7.812500
227,-11.718750
228,-11.718750
229,-11.718750
230,-11.718750
231,-15.625000
232,-15.625000
233,-15.625000
234,-15.625000
235,-19.531250
236,-19.531250
237,-19.531250
238,-19.531250
239,-23.437500
240,-23.437500
241,-23.437500
242,-27.343750
243,-27.343750
244,-27.343750
245,-31.250000
246,-31.250000
247,-31.250000
248,-31.250000
249,-31.250000
250,-35.156250
251,-35.156250
252,-35.156250
253,-35.156250
254,-39.062500
255,-39.062500
256,-42.968750
257,-39.062500
258,-42.968750
259,-42.968750
260,-42.968750
261,-42.968750
262,-46.875000
263,-46.875000
264,-46.875000
265,-46.875000
266,-50.781250
267,-50.781250
268,-50.781250
269,-54.687500
270,-54.687500
271,-54.687500
272,-54.687500
273,-54.687500
274,-58.593750
275,-58.593750
276,-58.593750
277,-58.593750
278,-62.500000
279,-62.500000
280,-62.500000
281,-62.500000
282,-62.500000
283,-66.406250
284,-66.406250
285,-66.406250
286,-70.312500
287,-70.312500
288,-70.312500
289,-70.312500
290,-70.312500
291,-74.218750
292,-74.218750
293,-74.218750
294,-74.218750
295,-74.218750
296,-78.125000
297,-78.125000
298,-78.125000
299,-78.125000
300,-78.125000
301,-82.031250
302,-82.031250
303,-82.031250
304,-82.031250
305,-82.031250
306,-82.031250
307,-82.031250
308,-82.031250
309,-85.937500
310,-85.937500
311,-85.937500
312,-85.937500
313,-85.937500
314,-85.937500
315,-85.937500
316,-89.843750
317,-85.937500
318,-89.843750
319,-89.843750
320,-89.843750
321,-89.843750
322,-89.843750
323,-89.843750
324,-89.843750
325,-89.843750
326,-93.750000
327,-93.750000
328,-93.750000
329,-93.750000
330,-93.750000
331,-93.750000
332,-93.750000
333,-93.750000
334,-93.750000
335,-93.750000
336,-93.750000
337,-93.750000
338,-93.750000
339,-93.750000
340,-93.750000
341,-93.750000
342,-93.750000
343,-93.750000
344,-93.750000
345,-93.750000
346,-93.750000
347,-93.750000
348,-93.750000
349,-93.750000
350,-93.750000
351,-93.750000
352,-93.750000
353,-93.750000
354,-93.750000
355,-89.843750
356,-93.750000
357,-93.750000
358,-93.750000
359,-89.843750
360,-89.843750
361,-89.843750
362,-89.843750
363,-89.843750
364,-89.843750
365,-89.843750
366,-89.843750
367,-89.843750
368,-89.843750
369,-89.843750
370,-89.843750
371,-85.937500
372,-85.937500
373,-85.937500
374,-85.937500
375,-85.937500
376,-85.937500
377,-85.937500
378,-85.937500
379,-82.031250
380,-82.031250
381,-82.031250
382,-82.031250
383,-82.031250
384,-82.031250
385,-78.125000
386,-78.125000
387,-78.125000
388,-78.125000
389,-78.125000
390,-78.125000
391,-74.218750
392,-74.218750
393,-74.218750
394,-74.218750
395,-74.218750
396,-70.312500
397,-70.312500
398,-70.312500
399,-70.312500
400,-70.312500
401,-66.406250
402,-66.406250
403,-66.406250
404,-66.406250
405,-62.500000
406,-62.500000
407,-62.500000
408,-62.500000
409,-58.593750
410,-58.593750
411,-58.593750
412,-58.593750
413,-58.593750
414,-54.687500
415,-54.687500
416,-54.687500
417,-54.687500
418,-50.781250
419,-50.781250
420,-50.781250
421,-50.781250
422,-50.781250
423,-46.875000
424,-46.875000
425,-46.875000
426,-46.875000
427,-42.968750
428,-42.968750
429,-42.968750
430,-42.968750
431,-39.062500
432,-39.062500
433,-39.062500
434,-35.156250
435,-35.156250
436,-35.156250
437,-35.156250
438,-31.250000
439,-31.250000
440,-31.250000
441,-31.250000
442,-31.250000
443,-27.343750
444,-27.343750
445,-27.343750
446,-27.343750
447,-23.437500
448,-23.437500
449,-23.437500
450,-23.437500
451,-19.531250
452,-19.531250
453,-19.531250
454,-15.625000
455,-15.625000
456,-15.625000
457,-15.625000
458,-15.625000
459,-11.718750
460,-11.718750
461,-11.718750
462,-7.812500
463,-7.812500
464,-7.812500
465,-7.812500
466,-7.812500
467,-3.906250
468,-3.906250
469,-3.906250
470,-3.906250
471,0.000000
472,0.000000
473,0.000000
474,3.906250
475,0.000000
476,3.906250
477,3.906250
478,3.906250
479,3.906250
480,3.906250
481,7.812500
482,7.812500
483,7.812500
484,7.812500
485,11.718750
486,11.718750
487,11.718750
488,11.718750
489,11.718750
490,11.718750
491,15.625000
492,15.625000
493,15.625000
494,15.625000
495,19.531250
496,19.531250
497,19.531250
498,19.531250
499,19.531250
500,19.531250
501,19.531250
502,23.437500
503,23.437500
504,23.437500
505,23.437500
506,23.437500
507,23.437500
508,23.437500
509,23.437500
510,27.343750
511,27.343750
512,27.343750
513,27.343750
514,27.343750
515,27.343750
516,31.250000
517,31.250000
518,31.250000
519,31.250000
520,31.250000
521,31.250000
522,31.250000
523,31.250000
524,31.250000
525,35.156250
526,35.156250
527,35.156250
528,35.156250
529,35.156250
530,35.156250
531,35.156250
532,35.156250
533,35.156250
534,35.156250
535,35.156250
536,35.156250
537,35.156250
538,39.062500
539,39.062500
540,39.062500
541,35.156250
542,39.062500
543,39.062500
544,39.062500
545,39.062500
546,39.062500
547,39.062500
548,39.062500
549,39.062500
550,39.062500
551,39.062500
552,39.062500
553,39.062500
554,39.062500
555,39.062500
556,39.062500
557,39.062500
558,39.062500
559,39.062500
560,39.062500
561,39.062500
562,39.062500
563,39.062500
564,39.062500
565,39.062500
566,39.062500
567,35.156250
568,39.062500
569,35.156250
570,35.156250
571,35.156250
572,35.156250
573,35.156250
574,35.156250
575,35.156250
576,35.156250
577,35.156250
578,35.156250
579,35.156250
580,35.156250
581,35.156250
582,35.156250
583,31.250000
584,31.250000
585,31.250000
586,31.250000
587,31.250000
588,31.250000
589,31.250000
590,31.250000
591,27.343750
592,27.343750
593,27.343750
594,27.343750
595,27.343750
596,27.343750
597,27.343750
598,27.343750
599,27.343750
600,23.437500
601,23.437500
602,23.437500
603,23.437500
604,23.437500
605,23.437500
606,19.531250
607,19.531250
608,19.531250
609,19.531250
610,19.531250
611,19.531250
612,15.625000
613,15.625000
614,15.625000
615,15.625000
616,15.625000
617,15.625000
618,11.718750
619,11.718750
620,11.718750
621,11.718750
622,7.812500
623,7.812500
624,7.812500
625,7.812500
626,3.906250
627,3.906250
628,3.906250
629,3.906250
630,3.906250
631,0.000000
632,0.000000
633,0.000000
634,0.000000
635,-3.906250
636,-3.906250
637,-3.906250
638,-3.906250
639,-3.906250
640,-7.812500
641,-7.812500
642,-7.812500
643,-11.718750
644,-11.718750
645,-11.718750
646,-11.718750
647,-11.718750
648,-15.625000
649,-15.625000
650,-15.625000
651,-15.625000
652,-19.531250
653,-19.531250
654,-19.531250
655,-23.437500
656,-23.437500
657,-23.437500
658,-23.437500
659,-27.343750
660,-27.343750
661,-27.343750
662,-27.343750
663,-31.250000
664,-31.250000
665,-31.250000
666,-31.250000
667,-35.156250
668,-35.156250
669,-35.156250
670,-39.062500
671,-39.062500
672,-39.062500
673,-39.062500
674,-39.062500
675,-42.968750
676,-42.968750
677,-42.968750
678,-46.875000
679,-46.875000
680,-46.875000
681,-46.875000
682,-50.781250
683,-50.781250
684,-50.781250
685,-50.781250
686,-54.687500
687,-54.687500
688,-54.687500
689,-54.687500
690,-58.593750
691,-58.593750
692,-58.593750
693,-58.593750
694,-58.593750
695,-62.500000
696,-62.500000
697,-62.500000
698,-66.406250
699,-66.406250
700,-66.406250
701,-66.406250
702,-66.406250
703,-66.406250
704,-70.312500
705,-70.312500
706,-70.312500
707,-74.218750
708,-74.218750
709,-74.218750
710,-74.218750
711,-74.218750
712,-74.218750
713,-74.218750
714,-78.125000
715,-78.125000
716,-78.125000
717,-78.125000
718,-82.031250
719,-82.031250
720,-82.031250
721,-82.031250
722,-82.031250
723,-82.031250
724,-82.031250
725,-82.031250
726,-85.937500
727,-85.937500
728,-85.937500
729,-85.937500
730,-85.937500
731,-85.937500
732,-85.937500
733,-89.843750
734,-89.843750
735,-89.843750
736,-89.843750
737,-89.843750
738,-89.843750
739,-89.843750
740,-89.843750
741,-89.843750
742,-89.843750
743,-89.843750
744,-93.750000
745,-93.750000
746,-93.750000
747,-93.750000
748,-93.750000
749,-93.750000
750,-93.750000
751,-93.750000
752,-93.750000
753,-93.750000
754,-93.750000
755,-93.750000
756,-93.750000
757,-93.750000
758,-93.750000
759,-93.750000
760,-93.750000
761,-93.750000
762,-93.750000
763,-93.750000
764,-93.750000
765,-93.750000
766,-93.750000
767,-93.750000
768,-93.750000
769,-93.750000
770,-93.750000
771,-93.750000
772,-93.750000
773,-93.750000
774,-93.750000
775,-93.750000
776,-93.750000
777,-89.843750
778,-93.750000
779,-89.843750
780,-89.843750
781,-89.843750
782,-89.843750
783,-89.843750
784,-89.843750
785,-89.843750
786,-85.937500
787,-85.937500
788,-85.937500
789,-85.937500
790,-85.937500
791,-85.937500
792,-85.937500
793,-85.937500
794,-85.937500
795,-82.031250
796,-82.031250
797,-82.031250
798,-82.031250
799,-82.031250
800,-82.031250
801,-82.031250
802,-78.125000
803,-78.125000
804,-78.125000
805,-78.125000
806,-78.125000
807,-78.125000
808,-74.218750
809,-74.218750
810,-74.218750
811,-74.218750
812,-74.218750
813,-70.312500
814,-70.312500
815,-70.312500
816,-70.312500
817,-66.406250
818,-66.406250
819,-66.406250
820,-66.406250
821,-66.406250
822,-62.500000
823,-62.500000
824,-62.500000
825,-62.500000
826,-58.593750
827,-58.593750
828,-58.593750
829,-58.593750
830,-58.593750
831,-54.687500
832,-54.687500
833,-54.687500
834,-54.687500
835,-50.781250
836,-50.781250
837,-50.781250
838,-50.781250
839,-46.875000
840,-46.875000
841,-46.875000
842,-46.875000
843,-46.875000
844,-42.968750
845,-42.968750
846,-42.968750
847,-39.062500
848,-39.062500
849,-39.062500
850,-39.062500
851,-39.062500
852,-35.156250
853,-35.156250
854,-31.250000
855,-31.250000
856,-31.250000
857,-31.250000
858,-31.250000
859,-27.343750
860,-27.343750
861,-27.343750
862,-27.343750
863,-23.437500
864,-23.437500
865,-23.437500
866,-23.437500
867,-19.531250
868,-19.531250
869,-19.531250
870,-19.531250
871,-19.531250
872,-19.531250
873,-15.625000
874,-15.625000
875,-15.625000
876,-11.718750
877,-11.718750
878,-11.718750
879,-7.812500
880,-7.812500
881,-7.812500
882,-7.812500
883,-7.812500
884,-3.906250
885,-3.906250
886,-3.906250
887,-3.906250
888,-3.906250
889,0.000000
890,0.000000
891,0.000000
892,0.000000
893,3.906250
894,3.906250
895,3.906250
896,3.906250
897,3.906250
898,7.812500
899,7.812500
900,7.812500
901,7.812500
902,11.718750
903,3.906250
904,11.718750
905,11.718750
906,11.718750
907,15.625000
908,15.625000
909,15.625000
910,15.625000
911,15.625000
912,15.625000
913,15.625000
914,19.531250
915,19.531250
916,19.531250
917,19.531250
918,19.531250
919,23.437500
920,23.437500
921,23.437500
922,23.437500
923,23.437500
924,23.437500
925,27.343750
926,27.343750
927,27.343750
928,27.343750
929,27.343750
930,27.343750
931,27.343750
932,27.343750
933,31.250000
934,31.250000
935,31.250000
936,31.250000
937,31.250000
938,31.250000
939,31.250000
940,31.250000
941,31.250000
942,31.250000
943,35.156250
944,35.156250
945,35.156250
946,35.156250
947,35.156250
948,35.156250
949,35.156250
950,35.156250
951,35.156250
952,35.156250
953,39.062500
954,35.156250
955,35.156250
956,35.156250
957,39.062500
958,39.062500
959,35.156250
960,39.062500
961,39.062500
962,39.062500
963,39.062500
964,39.062500
965,39.062500
966,39.062500
967,39.062500
968,39.062500
969,39.062500
970,39.062500
971,39.062500
972,39.062500
973,39.062500
974,39.062500
975,39.062500
976,39.062500
977,39.062500
978,39.062500
979,39.062500
980,39.062500
981,39.062500
982,39.062500
983,39.062500
984,39.062500
985,39.062500
986,35.156250
987,35.156250
988,35.156250
989,35.156250
990,35.156250
991,35.156250
992,35.156250
993,35.156250
994,35.156250
995,35.156250
996,35.156250
997,35.156250
998,35.156250
999,35.156250
1000,35.156250
1001,31.250000
1002,31.250000
1003,31.250000
1004,31.250000
1005,31.250000
1006,31.250000
1007,31.250000
1008,31.250000
1009,27.343750
1010,27.343750
1011,27.343750
1012,27.343750
1013,27.343750
1014,27.343750
1015,27.343750
1016,23.437500
1017,23.437500
1018,23.437500
1019,23.437500
1020,23.437500
1021,23.437500
1022,23.437500
1023,19.531250
1024,19.531250
1025,19.531250
1026,19.531250
1027,19.531250
1028,15.625000
1029,15.625000
1030,15.625000
1031,15.625000
1032,15.625000
1033,15.625000
1034,11.718750
1035,11.718750
1036,11.718750
1037,11.718750
1038,7.812500
1039,11.718750
1040,7.812500
1041,7.812500
1042,7.812500
1043,7.812500
1044,7.812500
1045,3.906250
1046,3.906250
1047,3.906250
1048,0.000000
1049,0.000000
1050,0.000000
1051,0.000000
1052,-3.906250
1053,-3.906250
1054,-3.906250
1055,-3.906250
1056,-3.906250
1057,-7.812500
1058,-7.812500
1059,-7.812500
1060,-7.812500
1061,-7.812500
1062,-11.718750
1063,-11.718750
1064,-11.718750
1065,-15.625000
1066,-15.625000
1067,-15.625000
1068,-19.531250
1069,-19.531250
1070,-19.531250
1071,-19.531250
1072,-23.437500
1073,-23.437500
1074,-23.437500
1075,-23.437500
1076,-27.343750
1077,-27.343750
1078,-27.343750
1079,-31.250000
1080,-31.250000
1081,-31.250000
1082,-31.250000
1083,-31.250000
1084,-35.156250
1085,-35.156250
1086,-35.156250
1087,-39.062500
1088,-39.062500
1089,-39.062500
1090,-39.062500
1091,-42.968750
1092,-42.968750
1093,-42.968750
1094,-42.968750
1095,-46.875000
1096,-46.875000
1097,-46.875000
1098,-46.875000
1099,-50.781250
1100,-50.781250
1101,-50.781250
1102,-50.781250
1103,-54.687500
1104,-54.687500
1105,-54.687500
1106,-54.687500
1107,-54.687500
1108,-58.593750
1109,-58.593750
1110,-58.593750
1111,-62.500000
1112,-62.500000
1113,-62.500000
1114,-62.500000
1115,-66.406250
1116,-66.406250
1117,-66.406250
1118,-66.406250
1119,-66.406250
1120,-70.312500
1121,-70.312500
1122,-70.312500
1123,-70.312500
1124,-70.312500
1125,-74.218750
1126,-74.218750
1127,-74.218750
1128,-74.218750
1129,-78.125000
1130,-78.125000
1131,-78.125000
1132,-78.125000
1133,-78.125000
1134,-78.125000
1135,-82.031250
1136,-82.031250
1137,-78.125000
1138,-82.031250
1139,-82.031250
1140,-82.031250
1141,-85.937500
1142,-85.937500
1143,-85.937500
1144,-85.937500
1145,-85.937500
1146,-85.937500
1147,-85.937500
1148,-85.937500
1149,-85.937500
1150,-89.843750
1151,-89.843750
1152,-89.843750
1153,-89.843750
1154,-89.843750
1155,-89.843750
1156,-89.843750
1157,-89.843750
1158,-89.843750
1159,-93.750000
1160,-89.843750
1161,-93.750000
1162,-93.750000
1163,-93.750000
1164,-93.750000
1165,-93.750000
1166,-93.750000
1167,-93.750000
1168,-93.750000
1169,-93.750000
1170,-93.750000
1171,-93.750000
1172,-93.750000
1173,-93.750000
1174,-93.750000
1175,-93.750000
1176,-93.750000
1177,-93.750000
1178,-93.750000
1179,-93.750000
1180,-93.750000
1181,-93.750000
1182,-93.750000
1183,-93.750000
1184,-93.750000
1185,-93.750000
1186,-93.750000
1187,-93.750000
1188,-93.750000
1189,-93.750000
1190,-93.750000
1191,-93.750000
1192,-89.843750
1193,-89.843750
1194,-89.843750
1195,-89.843750
1196,-89.843750
1197,-89.843750
1198,-89.843750
1199,-89.843750
1200,-89.843750
1201,-89.843750
1202,-89.843750
1203,-89.843750
1204,-85.937500
1205,-85.937500
1206,-85.937500
1207,-85.937500
1208,-85.937500
1209,-85.937500
1210,-85.937500
1211,-82.031250
1212,-82.031250
1213,-82.031250
1214,-82.031250
1215,-78.125000
1216,-82.031250
1217,-82.031250
1218,-82.031250
1219,-78.125000
1220,-78.125000
1221,-78.125000
1222,-78.125000
1223,-74.218750
1224,-74.218750
1225,-74.218750
1226,-74.218750
1227,-74.218750
1228,-74.218750
1229,-70.312500
1230,-70.312500
1231,-70.312500
1232,-70.312500
1233,-70.312500
1234,-70.312500
1235,-66.406250
1236,-66.406250
1237,-66.406250
1238,-66.406250
1239,-62.500000
1240,-62.500000
1241,-62.500000
1242,-62.500000
1243,-58.593750
1244,-58.593750
1245,-58.593750
1246,-58.593750
1247,-54.687500
1248,-54.687500
1249,-54.687500
1250,-54.687500
1251,-54.687500
1252,-50.781250
1253,-50.781250
1254,-50.781250
1255,-46.875000
1256,-46.875000
1257,-46.875000
1258,-46.875000
1259,-46.875000
1260,-42.968750
1261,-42.968750
1262,-42.968750
1263,-42.968750
1264,-39.062500
1265,-39.062500
1266,-35.156250
1267,-35.156250
1268,-35.156250
1269,-35.156250
1270,-35.156250
1271,-35.156250
1272,-31.250000
1273,-31.250000
1274,-31.250000
1275,-31.250000
1276,-27.343750
1277,-27.343750
1278,-27.343750
1279,-23.437500
1280,-27.343750
1281,-23.437500
1282,-23.437500
1283,-23.437500
1284,-19.531250
1285,-19.531250
1286,-19.531250
1287,-19.531250
1288,-15.625000
1289,-15.625000
1290,-15.625000
1291,-15.625000
1292,-11.718750
1293,-11.718750
1294,-11.718750
1295,-11.718750
1296,-3.906250
1297,-7.812500
1298,-7.812500
1299,-7.812500
1300,-3.906250
1301,-3.906250
1302,-7.812500
1303,-3.906250
1304,0.000000
1305,0.000000
1306,0.000000
1307,0.000000
1308,0.000000
1309,3.906250
1310,3.906250
1311,3.906250
1312,3.906250
1313,7.812500
1314,3.906250
1315,7.812500
1316,7.812500
1317,7.812500
1318,7.812500
1319,11.718750
1320,11.718750
1321,11.718750
1322,11.718750
1323,11.718750
1324,15.625000
1325,15.625000
1326,15.625000
1327,15.625000
1328,15.625000
1329,15.625000
1330,19.531250
1331,19.531250
1332,19.531250
1333,19.531250
1334,19.531250
1335,19.531250
1336,23.437500
1337,23.437500
1338,23.437500
1339,23.437500
1340,23.437500
1341,23.437500
1342,23.437500
1343,27.343750
1344,27.343750
1345,27.343750
1346,27.343750
1347,27.343750
