Practicum8/data/opgave5/opgave5_freq2/data_82_005.csv

Channel              :,CH1
Frequency            :,1.200kHz
Period               :,0.833ms
PK-PK                :,164.1mV
Probe attenuation    :,1X
Voltage per ADC value:,0.244141mV
Time interval        :,2.00000us

index,CH1_Voltage(mV)
1,-50.781250
2,-50.781250
3,-54.687500
4,-46.875000
5,-46.875000
6,-46.875000
7,-46.875000
8,-46.875000
9,-42.968750
10,-42.968750
11,-42.968750
12,-39.062500
13,-39.062500
14,-39.062500
15,-35.156250
16,-35.156250
17,-35.156250
18,-35.156250
19,-31.250000
20,-31.250000
21,-31.250000
22,-27.343750
23,-27.343750
24,-27.343750
25,-27.343750
26,-23.437500
27,-23.437500
28,-23.437500
29,-19.531250
30,-19.531250
31,-19.531250
32,-15.625000
33,-15.625000
34,-15.625000
35,-15.625000
36,-11.718750
37,-11.718750
38,-11.718750
39,-11.718750
40,-7.812500
41,-7.812500
42,-3.906250
43,-3.906250
44,-3.906250
45,-3.906250
46,-3.906250
47,0.000000
48,0.000000
49,0.000000
50,3.906250
51,3.906250
52,3.906250
53,3.906250
54,7.812500
55,7.812500
56,7.812500
57,7.812500
58,11.718750
59,11.718750
60,11.718750
61,11.718750
62,15.625000
63,15.625000
64,15.625000
65,19.531250
66,19.531250
67,19.531250
68,19.531250
69,19.531250
70,23.437500
71,23.437500
72,23.437500
73,23.437500
74,23.437500
75,27.343750
76,27.343750
77,31.250000
78,31.250000
79,27.343750
80,31.250000
81,31.250000
82,31.250000
83,31.250000
84,35.156250
85,35.156250
86,35.156250
87,35.156250
88,35.156250
89,39.062500
90,39.062500
91,39.062500
92,39.062500
93,39.062500
94,39.062500
95,42.968750
96,42.968750
97,42.968750
98,42.968750
99,42.968750
100,42.968750
101,46.875000
102,46.875000
103,46.875000
104,46.875000
105,46.875000
106,46.875000
107,46.875000
108,50.781250
109,50.781250
110,50.781250
111,50.781250
112,50.781250
113,50.781250
114,50.781250
115,50.781250
116,50.781250
117,54.687500
118,50.781250
119,54.687500
120,54.687500
121,54.687500
122,54.687500
123,54.687500
124,54.687500
125,54.687500
126,54.687500
127,54.687500
128,54.687500
129,54.687500
130,54.687500
131,54.687500
132,54.687500
133,54.687500
134,54.687500
135,54.687500
136,54.687500
137,54.687500
138,54.687500
139,54.687500
140,54.687500
141,54.687500
142,54.687500
143,54.687500
144,54.687500
145,54.687500
146,54.687500
147,54.687500
148,54.687500
149,54.687500
150,54.687500
151,54.687500
152,54.687500
153,54.687500
154,54.687500
155,54.687500
156,54.687500
157,54.687500
158,54.687500
159,54.687500
160,50.781250
161,54.687500
162,50.781250
163,50.781250
164,50.781250
165,50.781250
166,50.781250
167,50.781250
168,50.781250
169,50.781250
170,46.875000
171,46.875000
172,46.875000
173,46.875000
174,46.875000
175,46.875000
176,46.875000
177,42.968750
178,42.968750
179,42.968750
180,42.968750
181,42.968750
182,42.968750
183,42.968750
184,39.062500
185,39.062500
186,39.062500
187,39.062500
188,39.062500
189,39.062500
190,35.156250
191,35.156250
192,35.156250
193,35.156250
194,35.156250
195,31.250000
196,31.250000
197,31.250000
198,31.250000
199,27.343750
200,27.343750
201,27.343750
202,27.343750
203,27.343750
204,23.437500
205,19.531250
206,23.437500
207,19.531250
208,19.531250
209,19.531250
210,19.531250
211,15.625000
212,15.625000
213,15.625000
214,15.625000
215,11.718750
216,11.718750
217,11.718750
218,7.812500
219,7.812500
220,7.812500
221,7.812500
222,3.906250
223,3.906250
224,3.906250
225,3.906250
226,0.000000
227,0.000000
228,0.000000
229,-3.906250
230,-3.906250
231,-3.906250
232,-7.812500
233,-7.812500
234,-7.812500
235,-11.718750
236,-11.718750
237,-11.718750
238,-15.625000
239,-15.625000
240,-15.625000
241,-15.625000
242,-15.625000
243,-19.531250
244,-19.531250
245,-23.437500
246,-23.437500
247,-23.437500
248,-23.437500
249,-27.343750
250,-27.343750
251,-27.343750
252,-31.250000
253,-31.250000
254,-31.250000
255,-35.156250
256,-35.156250
257,-35.156250
258,-35.156250
259,-39.062500
260,-39.062500
261,-42.968750
262,-42.968750
263,-42.968750
264,-42.968750
265,-46.875000
266,-46.875000
267,-46.875000
268,-50.781250
269,-50.781250
270,-50.781250
271,-50.781250
272,-54.687500
273,-54.687500
274,-54.687500
275,-58.593750
276,-58.593750
277,-58.593750
278,-58.593750
279,-62.500000
280,-62.500000
281,-62.500000
282,-62.500000
283,-66.406250
284,-66.406250
285,-66.406250
286,-70.312500
287,-70.312500
288,-70.312500
289,-70.312500
290,-74.218750
291,-74.218750
292,-74.218750
293,-74.218750
294,-78.125000
295,-78.125000
296,-78.125000
297,-78.125000
298,-78.125000
299,-82.031250
300,-82.031250
301,-82.031250
302,-82.031250
303,-82.031250
304,-85.937500
305,-85.937500
306,-85.937500
307,-85.937500
308,-85.937500
309,-85.937500
310,-85.937500
311,-89.843750
312,-89.843750
313,-89.843750
314,-89.843750
315,-89.843750
316,-93.750000
317,-89.843750
318,-93.750000
319,-93.750000
320,-93.750000
321,-93.750000
322,-93.750000
323,-93.750000
324,-93.750000
325,-93.750000
326,-93.750000
327,-97.656250
328,-97.656250
329,-97.656250
330,-97.656250
331,-97.656250
332,-93.750000
333,-97.656250
334,-97.656250
335,-97.656250
336,-97.656250
337,-97.656250
338,-97.656250
339,-97.656250
340,-97.656250
341,-97.656250
342,-97.656250
343,-97.656250
344,-97.656250
345,-97.656250
346,-97.656250
347,-97.656250
348,-97.656250
349,-97.656250
350,-97.656250
351,-97.656250
352,-97.656250
353,-97.656250
354,-97.656250
355,-97.656250
356,-97.656250
357,-97.656250
358,-97.656250
359,-97.656250
360,-97.656250
361,-97.656250
362,-93.750000
363,-93.750000
364,-93.750000
365,-93.750000
366,-93.750000
367,-93.750000
368,-93.750000
369,-93.750000
370,-89.843750
371,-93.750000
372,-89.843750
373,-89.843750
374,-89.843750
375,-89.843750
376,-89.843750
377,-89.843750
378,-85.937500
379,-85.937500
380,-85.937500
381,-85.937500
382,-85.937500
383,-82.031250
384,-82.031250
385,-82.031250
386,-82.031250
387,-82.031250
388,-82.031250
389,-78.125000
390,-78.125000
391,-78.125000
392,-78.125000
393,-78.125000
394,-74.218750
395,-74.218750
396,-74.218750
397,-78.125000
398,-74.218750
399,-70.312500
400,-70.312500
401,-70.312500
402,-70.312500
403,-66.406250
404,-66.406250
405,-66.406250
406,-66.406250
407,-62.500000
408,-62.500000
409,-62.500000
410,-62.500000
411,-62.500000
412,-58.593750
413,-58.593750
414,-58.593750
415,-54.687500
416,-54.687500
417,-54.687500
418,-50.781250
419,-50.781250
420,-50.781250
421,-50.781250
422,-46.875000
423,-46.875000
424,-46.875000
425,-42.968750
426,-42.968750
427,-42.968750
428,-42.968750
429,-39.062500
430,-39.062500
431,-35.156250
432,-39.062500
433,-35.156250
434,-35.156250
435,-35.156250
436,-31.250000
437,-31.250000
438,-31.250000
439,-27.343750
440,-27.343750
441,-27.343750
442,-27.343750
443,-23.437500
444,-23.437500
445,-23.437500
446,-19.531250
447,-19.531250
448,-19.531250
449,-19.531250
450,-15.625000
451,-15.625000
452,-15.625000
453,-11.718750
454,-11.718750
455,-11.718750
456,-7.812500
457,-7.812500
458,-7.812500
459,-7.812500
460,-3.906250
461,-3.906250
462,-3.906250
463,0.000000
464,0.000000
465,0.000000
466,0.000000
467,3.906250
468,3.906250
469,3.906250
470,3.906250
471,7.812500
472,7.812500
473,7.812500
474,7.812500
475,11.718750
476,11.718750
477,11.718750
478,11.718750
479,15.625000
480,15.625000
481,15.625000
482,15.625000
483,19.531250
484,19.531250
485,19.531250
486,23.437500
487,19.531250
488,23.437500
489,23.437500
490,23.437500
491,27.343750
492,27.343750
493,27.343750
494,27.343750
495,27.343750
496,31.250000
497,31.250000
498,31.250000
499,31.250000
500,31.250000
501,35.156250
502,35.156250
503,35.156250
504,35.156250
505,35.156250
506,39.062500
507,39.062500
508,39.062500
509,39.062500
510,42.968750
511,42.968750
512,42.968750
513,42.968750
514,42.968750
515,42.968750
516,42.968750
517,46.875000
518,46.875000
519,46.875000
520,46.875000
521,46.875000
522,46.875000
523,46.875000
524,46.875000
525,46.875000
526,50.781250
527,50.781250
528,50.781250
529,50.781250
530,50.781250
531,50.781250
532,50.781250
533,50.781250
534,50.781250
535,50.781250
536,54.687500
537,54.687500
538,54.687500
539,54.687500
540,54.687500
541,54.687500
542,54.687500
543,54.687500
544,54.687500
545,54.687500
546,54.687500
547,54.687500
548,54.687500
549,54.687500
550,54.687500
551,54.687500
552,54.687500
553,54.687500
554,58.593750
555,54.687500
556,54.687500
557,54.687500
558,54.687500
559,54.687500
560,54.687500
561,54.687500
562,54.687500
563,54.687500
564,54.687500
565,54.687500
566,54.687500
567,54.687500
568,54.687500
569,54.687500
570,54.687500
571,54.687500
572,54.687500
573,54.687500
574,54.687500
575,54.687500
576,54.687500
577,54.687500
578,50.781250
579,50.781250
580,50.781250
581,50.781250
582,50.781250
583,50.781250
584,50.781250
585,50.781250
586,50.781250
587,46.875000
588,46.875000
589,46.875000
590,46.875000
591,46.875000
592,46.875000
593,46.875000
594,42.968750
595,42.968750
596,42.968750
597,42.968750
598,42.968750
599,42.968750
600,39.062500
601,39.062500
602,39.062500
603,39.062500
604,39.062500
605,35.156250
606,35.156250
607,35.156250
608,35.156250
609,35.156250
610,31.250000
611,31.250000
612,31.250000
613,31.250000
614,31.250000
615,27.343750
616,27.343750
617,27.343750
618,27.343750
619,27.343750
620,23.437500
621,23.437500
622,23.437500
623,19.531250
624,19.531250
625,19.531250
626,19.531250
627,19.531250
628,15.625000
629,15.625000
630,15.625000
631,15.625000
632,11.718750
633,11.718750
634,11.718750
635,11.718750
636,7.812500
637,7.812500
638,7.812500
639,7.812500
640,3.906250
641,3.906250
642,3.906250
643,0.000000
644,0.000000
645,0.000000
646,0.000000
647,-3.906250
648,-3.906250
649,-3.906250
650,-7.812500
651,-7.812500
652,-7.812500
653,-11.718750
654,-11.718750
655,-11.718750
656,-15.625000
657,-15.625000
658,-15.625000
659,-15.625000
660,-19.531250
661,-19.531250
662,-19.531250
663,-23.437500
664,-23.437500
665,-23.437500
666,-27.343750
667,-27.343750
668,-27.343750
669,-31.250000
670,-31.250000
671,-31.250000
672,-35.156250
673,-35.156250
674,-35.156250
675,-35.156250
676,-39.062500
677,-39.062500
678,-42.968750
679,-42.968750
680,-42.968750
681,-42.968750
682,-46.875000
683,-46.875000
684,-46.875000
685,-50.781250
686,-50.781250
687,-50.781250
688,-50.781250
689,-54.687500
690,-54.687500
691,-54.687500
692,-58.593750
693,-58.593750
694,-58.593750
695,-58.593750
696,-62.500000
697,-62.500000
698,-62.500000
699,-66.406250
700,-66.406250
701,-66.406250
702,-66.406250
703,-66.406250
704,-70.312500
705,-70.312500
706,-70.312500
707,-74.218750
708,-74.218750
709,-74.218750
710,-74.218750
711,-74.218750
712,-78.125000
713,-78.125000
714,-78.125000
715,-78.125000
716,-78.125000
717,-82.031250
718,-82.031250
719,-82.031250
720,-82.031250
721,-82.031250
722,-85.937500
723,-85.937500
724,-85.937500
725,-85.937500
726,-89.843750
727,-85.937500
728,-89.843750
729,-89.843750
730,-89.843750
731,-89.843750
732,-89.843750
733,-93.750000
734,-93.750000
735,-93.750000
736,-93.750000
737,-93.750000
738,-93.750000
739,-93.750000
740,-93.750000
741,-93.750000
742,-97.656250
743,-97.656250
744,-93.750000
745,-97.656250
746,-97.656250
747,-97.656250
748,-97.656250
749,-97.656250
750,-97.656250
751,-97.656250
752,-97.656250
753,-97.656250
754,-97.656250
755,-97.656250
756,-97.656250
757,-97.656250
758,-97.656250
759,-97.656250
760,-97.656250
761,-97.656250
762,-97.656250
763,-97.656250
764,-97.656250
765,-97.656250
766,-97.656250
767,-97.656250
768,-97.656250
769,-97.656250
770,-97.656250
771,-97.656250
772,-97.656250
773,-97.656250
774,-93.750000
775,-97.656250
776,-97.656250
777,-97.656250
778,-93.750000
779,-93.750000
780,-93.750000
781,-93.750000
782,-93.750000
783,-93.750000
784,-93.750000
785,-93.750000
786,-93.750000
787,-93.750000
788,-89.843750
789,-89.843750
790,-89.843750
791,-89.843750
792,-89.843750
793,-89.843750
794,-89.843750
795,-85.937500
796,-85.937500
797,-85.937500
798,-82.031250
799,-85.937500
800,-85.937500
801,-82.031250
802,-82.031250
803,-82.031250
804,-82.031250
805,-82.031250
806,-78.125000
807,-78.125000
808,-78.125000
809,-78.125000
810,-74.218750
811,-74.218750
812,-74.218750
813,-74.218750
814,-74.218750
815,-70.312500
816,-70.312500
817,-70.312500
818,-70.312500
819,-70.312500
820,-66.406250
821,-66.406250
822,-66.406250
823,-62.500000
824,-62.500000
825,-62.500000
826,-62.500000
827,-62.500000
828,-58.593750
829,-58.593750
830,-54.687500
831,-54.687500
832,-54.687500
833,-54.687500
834,-50.781250
835,-50.781250
836,-50.781250
837,-50.781250
838,-46.875000
839,-46.875000
840,-46.875000
841,-42.968750
842,-42.968750
843,-42.968750
844,-42.968750
845,-39.062500
846,-39.062500
847,-39.062500
848,-35.156250
849,-35.156250
850,-35.156250
851,-35.156250
852,-35.156250
853,-31.250000
854,-31.250000
855,-31.250000
856,-27.343750
857,-27.343750
858,-27.343750
859,-23.437500
860,-23.437500
861,-23.437500
862,-23.437500
863,-19.531250
864,-19.531250
865,-15.625000
866,-15.625000
867,-15.625000
868,-15.625000
869,-11.718750
870,-11.718750
871,-11.718750
872,-11.718750
873,-7.812500
874,-7.812500
875,-7.812500
876,-3.906250
877,-3.906250
878,-3.906250
879,-3.906250
880,0.000000
881,0.000000
882,0.000000
883,3.906250
884,3.906250
885,3.906250
886,3.906250
887,7.812500
888,7.812500
889,7.812500
890,7.812500
891,11.718750
892,11.718750
893,7.812500
894,11.718750
895,15.625000
896,15.625000
897,15.625000
898,19.531250
899,19.531250
900,19.531250
901,19.531250
902,19.531250
903,23.437500
904,23.437500
905,23.437500
906,23.437500
907,27.343750
908,27.343750
909,27.343750
910,27.343750
911,27.343750
912,31.250000
913,31.250000
914,31.250000
915,31.250000
916,31.250000
917,35.156250
918,35.156250
919,35.156250
920,35.156250
921,35.156250
922,35.156250
923,39.062500
924,39.062500
925,39.062500
926,42.968750
927,39.062500
928,39.062500
929,42.968750
930,42.968750
931,42.968750
932,42.968750
933,42.968750
934,42.968750
935,46.875000
936,46.875000
937,42.968750
938,46.875000
939,46.875000
940,46.875000
941,46.875000
942,50.781250
943,50.781250
944,50.781250
945,50.781250
946,50.781250
947,50.781250
948,50.781250
949,50.781250
950,50.781250
951,50.781250
952,50.781250
953,50.781250
954,54.687500
955,54.687500
956,54.687500
957,54.687500
958,54.687500
959,54.687500
960,54.687500
961,54.687500
962,54.687500
963,54.687500
964,54.687500
965,54.687500
966,54.687500
967,54.687500
968,54.687500
969,54.687500
970,54.687500
971,54.687500
972,54.687500
973,54.687500
974,50.781250
975,54.687500
976,54.687500
977,54.687500
978,54.687500
979,54.687500
980,54.687500
981,54.687500
982,54.687500
983,54.687500
984,54.687500
985,54.687500
986,54.687500
987,54.687500
988,54.687500
989,50.781250
990,50.781250
991,54.687500
992,50.781250
993,50.781250
994,50.781250
995,50.781250
996,50.781250
997,50.781250
998,50.781250
999,50.781250
1000,50.781250
1001,50.781250
1002,50.781250
1003,50.781250
1004,46.875000
1005,46.875000
1006,46.875000
1007,46.875000
1008,46.875000
1009,46.875000
1010,42.968750
1011,42.968750
1012,42.968750
1013,42.968750
1014,42.968750
1015,42.968750
1016,42.968750
1017,39.062500
1018,39.062500
1019,39.062500
1020,39.062500
1021,39.062500
1022,39.062500
1023,35.156250
1024,35.156250
1025,35.156250
1026,35.156250
1027,35.156250
1028,31.250000
1029,31.250000
1030,31.250000
1031,27.343750
1032,31.250000
1033,27.343750
1034,27.343750
1035,27.343750
1036,27.343750
1037,23.437500
1038,23.437500
1039,23.437500
1040,23.437500
1041,19.531250
1042,19.531250
1043,19.531250
1044,19.531250
1045,15.625000
1046,15.625000
1047,15.625000
1048,11.718750
1049,11.718750
1050,11.718750
1051,11.718750
1052,7.812500
1053,7.812500
1054,7.812500
1055,3.906250
1056,3.906250
1057,3.906250
1058,3.906250
1059,0.000000
1060,0.000000
1061,0.000000
1062,0.000000
1063,-3.906250
1064,-3.906250
1065,-3.906250
1066,-7.812500
1067,-7.812500
1068,-7.812500
1069,-11.718750
1070,-11.718750
1071,-11.718750
1072,-11.718750
1073,-15.625000
1074,-15.625000
1075,-15.625000
1076,-19.531250
1077,-19.531250
1078,-19.531250
1079,-23.437500
1080,-23.437500
1081,-23.437500
1082,-27.343750
1083,-27.343750
1084,-27.343750
1085,-27.343750
1086,-31.250000
1087,-31.250000
1088,-31.250000
1089,-35.156250
1090,-35.156250
1091,-35.156250
1092,-39.062500
1093,-39.062500
1094,-39.062500
1095,-42.968750
1096,-42.968750
1097,-42.968750
1098,-46.875000
1099,-46.875000
1100,-46.875000
1101,-46.875000
1102,-50.781250
1103,-50.781250
1104,-50.781250
1105,-54.687500
1106,-54.687500
1107,-54.687500
1108,-58.593750
1109,-58.593750
1110,-58.593750
1111,-58.593750
1112,-62.500000
1113,-62.500000
1114,-62.500000
1115,-62.500000
1116,-66.406250
1117,-66.406250
1118,-66.406250
1119,-66.406250
1120,-70.312500
1121,-70.312500
1122,-70.312500
1123,-70.312500
1124,-74.218750
1125,-74.218750
1126,-74.218750
1127,-74.218750
1128,-78.125000
1129,-78.125000
1130,-78.125000
1131,-78.125000
1132,-82.031250
1133,-82.031250
1134,-82.031250
1135,-82.031250
1136,-82.031250
1137,-82.031250
1138,-85.937500
1139,-85.937500
1140,-85.937500
1141,-85.937500
1142,-85.937500
1143,-89.843750
1144,-89.843750
1145,-89.843750
1146,-89.843750
1147,-89.843750
1148,-89.843750
1149,-89.843750
1150,-93.750000
1151,-93.750000
1152,-93.750000
1153,-93.750000
1154,-93.750000
1155,-93.750000
1156,-93.750000
1157,-93.750000
1158,-93.750000
1159,-93.750000
1160,-97.656250
1161,-97.656250
1162,-97.656250
1163,-97.656250
1164,-97.656250
1165,-97.656250
1166,-97.656250
1167,-97.656250
1168,-97.656250
1169,-97.656250
1170,-97.656250
1171,-97.656250
1172,-97.656250
1173,-97.656250
1174,-97.656250
1175,-97.656250
1176,-97.656250
1177,-97.656250
1178,-97.656250
1179,-101.562500
1180,-101.562500
1181,-97.656250
1182,-97.656250
1183,-97.656250
1184,-97.656250
1185,-97.656250
1186,-97.656250
1187,-97.656250
1188,-97.656250
1189,-97.656250
1190,-97.656250
1191,-97.656250
1192,-97.656250
1193,-97.656250
1194,-97.656250
1195,-93.750000
1196,-93.750000
1197,-93.750000
1198,-93.750000
1199,-93.750000
1200,-93.750000
1201,-93.750000
1202,-93.750000
1203,-93.750000
1204,-93.750000
1205,-89.843750
1206,-89.843750
1207,-89.843750
1208,-89.843750
1209,-85.937500
1210,-85.937500
1211,-85.937500
1212,-85.937500
1213,-85.937500
1214,-85.937500
1215,-85.937500
1216,-85.937500
1217,-82.031250
1218,-82.031250
1219,-82.031250
1220,-82.031250
1221,-82.031250
1222,-82.031250
1223,-78.125000
1224,-78.125000
1225,-78.125000
1226,-78.125000
1227,-74.218750
1228,-74.218750
1229,-70.312500
1230,-74.218750
1231,-70.312500
1232,-70.312500
1233,-70.312500
1234,-70.312500
1235,-66.406250
1236,-66.406250
1237,-66.406250
1238,-66.406250
1239,-62.500000
1240,-62.500000
1241,-62.500000
1242,-62.500000
1243,-58.593750
1244,-58.593750
1245,-58.593750
1246,-58.593750
1247,-54.687500
1248,-54.687500
1249,-54.687500
1250,-54.687500
1251,-54.687500
1252,-50.781250
1253,-50.781250
1254,-50.781250
1255,-46.875000
1256,-46.875000
1257,-46.875000
1258,-46.875000
1259,-42.968750
1260,-42.968750
1261,-42.968750
1262,-39.062500
1263,-39.062500
1264,-39.062500
1265,-35.156250
1266,-35.156250
1267,-35.156250
1268,-35.156250
1269,-31.250000
1270,-31.250000
1271,-31.250000
1272,-27.343750
1273,-27.343750
1274,-27.343750
1275,-27.343750
1276,-23.437500
1277,-23.437500
1278,-23.437500
1279,-19.531250
1280,-19.531250
1281,-19.531250
1282,-15.625000
1283,-15.625000
1284,-15.625000
1285,-15.625000
1286,-11.718750
1287,-11.718750
1288,-11.718750
1289,-7.812500
1290,-7.812500
1291,-7.812500
1292,-7.812500
1293,-3.906250
1294,-3.906250
1295,-3.906250
1296,0.000000
1297,0.000000
1298,0.000000
1299,0.000000
1300,3.906250
1301,3.906250
1302,3.906250
1303,7.812500
1304,7.812500
1305,7.812500
1306,7.812500
1307,11.718750
1308,11.718750
1309,11.718750
1310,11.718750
1311,15.625000
1312,15.625000
1313,15.625000
1314,15.625000
1315,19.531250
1316,19.531250
1317,19.531250
1318,19.531250
1319,23.437500
1320,23.437500
1321,23.437500
1322,23.437500
1323,23.437500
1324,23.437500
1325,27.343750
1326,27.343750
1327,27.343750
1328,27.343750
1329,31.250000
1330,31.250000
1331,31.250000
1332,31.250000
1333,35.156250
1334,35.156250
1335,35.156250
1336,35.156250
1337,35.156250
1338,35.156250
1339,39.062500
1340,39.062500
1341,35.156250
1342,39.062500
1343,39.062500
1344,42.968750
1345,42.968750
1346,42.968750
1347,42.968750
1348,42.968750
1349,42.968750
