Practicum8/data/opgave5/opgave5_freq2/data_82_013.csv

Channel              :,CH1
Frequency            :,1.200kHz
Period               :,0.833ms
PK-PK                :,367.2mV
Probe attenuation    :,1X
Voltage per ADC value:,0.244141mV
Time interval        :,2.00000us

index,CH1_Voltage(mV)
1,-58.593750
2,-58.593750
3,-54.687500
4,-54.687500
5,-50.781250
6,-46.875000
7,-42.968750
8,-42.968750
9,-39.062500
10,-35.156250
11,-31.250000
12,-31.250000
13,-27.343750
14,-23.437500
15,-19.531250
16,-19.531250
17,-15.625000
18,-11.718750
19,-7.812500
20,-7.812500
21,-3.906250
22,-3.906250
23,0.000000
24,3.906250
25,7.812500
26,7.812500
27,11.718750
28,15.625000
29,15.625000
30,19.531250
31,23.437500
32,27.343750
33,27.343750
34,31.250000
35,31.250000
36,35.156250
37,39.062500
38,39.062500
39,42.968750
40,46.875000
41,46.875000
42,50.781250
43,50.781250
44,54.687500
45,58.593750
46,58.593750
47,62.500000
48,62.500000
49,66.406250
50,70.312500
51,70.312500
52,74.218750
53,74.218750
54,78.125000
55,78.125000
56,82.031250
57,82.031250
58,85.937500
59,85.937500
60,89.843750
61,89.843750
62,93.750000
63,93.750000
64,97.656250
65,97.656250
66,101.562500
67,101.562500
68,105.468750
69,105.468750
70,105.468750
71,109.375000
72,109.375000
73,113.281250
74,113.281250
75,117.187500
76,117.187500
77,117.187500
78,117.187500
79,121.093750
80,121.093750
81,125.000000
82,125.000000
83,125.000000
84,128.906250
85,128.906250
86,128.906250
87,128.906250
88,128.906250
89,132.812500
90,132.812500
91,136.718750
92,136.718750
93,136.718750
94,136.718750
95,136.718750
96,140.625000
97,140.625000
98,140.625000
99,140.625000
100,144.531250
101,144.531250
102,144.531250
103,144.531250
104,144.531250
105,144.531250
106,144.531250
107,144.531250
108,144.531250
109,148.437500
110,148.437500
111,148.437500
112,148.437500
113,148.437500
114,148.437500
115,148.437500
116,148.437500
117,148.437500
118,148.437500
119,148.437500
120,148.437500
121,152.343750
122,148.437500
123,148.437500
124,152.343750
125,152.343750
126,152.343750
127,148.437500
128,148.437500
129,148.437500
130,148.437500
131,148.437500
132,148.437500
133,148.437500
134,148.437500
135,148.437500
136,148.437500
137,148.437500
138,148.437500
139,148.437500
140,144.531250
141,144.531250
142,144.531250
143,144.531250
144,144.531250
145,144.531250
146,144.531250
147,140.625000
148,140.625000
149,140.625000
150,140.625000
151,140.625000
152,136.718750
153,136.718750
154,136.718750
155,136.718750
156,136.718750
157,132.812500
158,132.812500
159,132.812500
160,132.812500
161,128.906250
162,128.906250
163,128.906250
164,125.000000
165,125.000000
166,125.000000
167,125.000000
168,121.093750
169,121.093750
170,117.187500
171,117.187500
172,117.187500
173,113.281250
174,113.281250
175,113.281250
176,109.375000
177,109.375000
178,105.468750
179,105.468750
180,105.468750
181,101.562500
182,97.656250
183,97.656250
184,97.656250
185,93.750000
186,93.750000
187,89.843750
188,89.843750
189,85.937500
190,85.937500
191,82.031250
192,82.031250
193,78.125000
194,78.125000
195,78.125000
196,70.312500
197,70.312500
198,66.406250
199,66.406250
200,62.500000
201,62.500000
202,58.593750
203,54.687500
204,54.687500
205,50.781250
206,50.781250
207,46.875000
208,46.875000
209,42.968750
210,39.062500
211,35.156250
212,35.156250
213,31.250000
214,31.250000
215,27.343750
216,23.437500
217,19.531250
218,19.531250
219,15.625000
220,11.718750
221,11.718750
222,7.812500
223,3.906250
224,3.906250
225,0.000000
226,-3.906250
227,-3.906250
228,-7.812500
229,-11.718750
230,-15.625000
231,-15.625000
232,-19.531250
233,-23.437500
234,-27.343750
235,-27.343750
236,-31.250000
237,-35.156250
238,-35.156250
239,-39.062500
240,-42.968750
241,-46.875000
242,-50.781250
243,-50.781250
244,-54.687500
245,-58.593750
246,-58.593750
247,-62.500000
248,-66.406250
249,-70.312500
250,-70.312500
251,-74.218750
252,-78.125000
253,-78.125000
254,-82.031250
255,-85.937500
256,-85.937500
257,-89.843750
258,-93.750000
259,-97.656250
260,-101.562500
261,-101.562500
262,-105.468750
263,-109.375000
264,-109.375000
265,-113.281250
266,-117.187500
267,-117.187500
268,-121.093750
269,-121.093750
270,-125.000000
271,-128.906250
272,-132.812500
273,-132.812500
274,-136.718750
275,-140.625000
276,-140.625000
277,-144.531250
278,-144.531250
279,-148.437500
280,-148.437500
281,-152.343750
282,-156.250000
283,-156.250000
284,-160.156250
285,-160.156250
286,-164.062500
287,-164.062500
288,-167.968750
289,-167.968750
290,-171.875000
291,-171.875000
292,-171.875000
293,-175.781250
294,-179.687500
295,-179.687500
296,-179.687500
297,-183.593750
298,-183.593750
299,-187.500000
300,-187.500000
301,-187.500000
302,-191.406250
303,-191.406250
304,-195.312500
305,-195.312500
306,-195.312500
307,-195.312500
308,-199.218750
309,-199.218750
310,-199.218750
311,-199.218750
312,-203.125000
313,-203.125000
314,-203.125000
315,-203.125000
316,-207.031250
317,-207.031250
318,-207.031250
319,-207.031250
320,-207.031250
321,-207.031250
322,-207.031250
323,-210.937500
324,-210.937500
325,-210.937500
326,-210.937500
327,-210.937500
328,-210.937500
329,-210.937500
330,-210.937500
331,-210.937500
332,-210.937500
333,-210.937500
334,-210.937500
335,-210.937500
336,-210.937500
337,-210.937500
338,-210.937500
339,-210.937500
340,-210.937500
341,-210.937500
342,-210.937500
343,-210.937500
344,-207.031250
345,-207.031250
346,-207.031250
347,-207.031250
348,-207.031250
349,-207.031250
350,-203.125000
351,-203.125000
352,-203.125000
353,-203.125000
354,-199.218750
355,-199.218750
356,-199.218750
357,-195.312500
358,-195.312500
359,-195.312500
360,-191.406250
361,-191.406250
362,-191.406250
363,-187.500000
364,-187.500000
365,-183.593750
366,-183.593750
367,-183.593750
368,-179.687500
369,-179.687500
370,-175.781250
371,-175.781250
372,-175.781250
373,-171.875000
374,-171.875000
375,-167.968750
376,-164.062500
377,-164.062500
378,-164.062500
379,-160.156250
380,-156.250000
381,-156.250000
382,-152.343750
383,-152.343750
384,-148.437500
385,-148.437500
386,-144.531250
387,-144.531250
388,-140.625000
389,-136.718750
390,-132.812500
391,-132.812500
392,-128.906250
393,-128.906250
394,-125.000000
395,-121.093750
396,-121.093750
397,-117.187500
398,-117.187500
399,-113.281250
400,-109.375000
401,-105.468750
402,-105.468750
403,-101.562500
404,-101.562500
405,-97.656250
406,-93.750000
407,-93.750000
408,-89.843750
409,-85.937500
410,-82.031250
411,-82.031250
412,-78.125000
413,-74.218750
414,-70.312500
415,-70.312500
416,-66.406250
417,-62.500000
418,-62.500000
419,-58.593750
420,-54.687500
421,-50.781250
422,-46.875000
423,-46.875000
424,-42.968750
425,-39.062500
426,-39.062500
427,-35.156250
428,-31.250000
429,-31.250000
430,-27.343750
431,-23.437500
432,-19.531250
433,-19.531250
434,-15.625000
435,-11.718750
436,-7.812500
437,-7.812500
438,-3.906250
439,0.000000
440,3.906250
441,3.906250
442,7.812500
443,11.718750
444,11.718750
445,15.625000
446,19.531250
447,19.531250
448,23.437500
449,27.343750
450,27.343750
451,31.250000
452,35.156250
453,35.156250
454,39.062500
455,39.062500
456,42.968750
457,46.875000
458,46.875000
459,50.781250
460,54.687500
461,54.687500
462,58.593750
463,58.593750
464,62.500000
465,66.406250
466,66.406250
467,70.312500
468,70.312500
469,74.218750
470,74.218750
471,78.125000
472,78.125000
473,85.937500
474,82.031250
475,85.937500
476,85.937500
477,89.843750
478,89.843750
479,93.750000
480,93.750000
481,97.656250
482,97.656250
483,101.562500
484,101.562500
485,105.468750
486,105.468750
487,109.375000
488,109.375000
489,109.375000
490,113.281250
491,113.281250
492,113.281250
493,117.187500
494,117.187500
495,117.187500
496,117.187500
497,121.093750
498,125.000000
499,125.000000
500,125.000000
501,125.000000
502,128.906250
503,132.812500
504,128.906250
505,132.812500
506,132.812500
507,132.812500
508,136.718750
509,136.718750
510,136.718750
511,136.718750
512,136.718750
513,140.625000
514,140.625000
515,140.625000
516,140.625000
517,140.625000
518,140.625000
519,144.531250
520,144.531250
521,144.531250
522,144.531250
523,144.531250
524,144.531250
525,148.437500
526,148.437500
527,148.437500
528,148.437500
529,148.437500
530,148.437500
531,148.437500
532,148.437500
533,148.437500
534,148.437500
535,148.437500
536,148.437500
537,148.437500
538,148.437500
539,152.343750
540,152.343750
541,148.437500
542,148.437500
543,148.437500
544,148.437500
545,148.437500
546,148.437500
547,148.437500
548,148.437500
549,148.437500
550,148.437500
551,148.437500
552,148.437500
553,148.437500
554,148.437500
555,148.437500
556,148.437500
557,148.437500
558,144.531250
559,144.531250
560,144.531250
561,144.531250
562,144.531250
563,144.531250
564,140.625000
565,140.625000
566,140.625000
567,140.625000
568,140.625000
569,140.625000
570,136.718750
571,136.718750
572,136.718750
573,136.718750
574,132.812500
575,132.812500
576,132.812500
577,132.812500
578,128.906250
579,132.812500
580,128.906250
581,125.000000
582,125.000000
583,125.000000
584,121.093750
585,121.093750
586,121.093750
587,117.187500
588,117.187500
589,117.187500
590,113.281250
591,113.281250
592,109.375000
593,109.375000
594,109.375000
595,105.468750
596,105.468750
597,101.562500
598,101.562500
599,101.562500
600,97.656250
601,93.750000
602,93.750000
603,89.843750
604,89.843750
605,89.843750
606,85.937500
607,82.031250
608,82.031250
609,78.125000
610,78.125000
611,74.218750
612,74.218750
613,70.312500
614,70.312500
615,66.406250
616,66.406250
617,62.500000
618,58.593750
619,58.593750
620,54.687500
621,54.687500
622,50.781250
623,46.875000
624,46.875000
625,42.968750
626,39.062500
627,35.156250
628,35.156250
629,31.250000
630,31.250000
631,27.343750
632,27.343750
633,23.437500
634,19.531250
635,19.531250
636,15.625000
637,11.718750
638,7.812500
639,7.812500
640,3.906250
641,0.000000
642,0.000000
643,-3.906250
644,-7.812500
645,-11.718750
646,-11.718750
647,-15.625000
648,-19.531250
649,-23.437500
650,-23.437500
651,-27.343750
652,-31.250000
653,-35.156250
654,-35.156250
655,-42.968750
656,-42.968750
657,-46.875000
658,-46.875000
659,-50.781250
660,-54.687500
661,-54.687500
662,-58.593750
663,-62.500000
664,-66.406250
665,-66.406250
666,-70.312500
667,-74.218750
668,-78.125000
669,-78.125000
670,-82.031250
671,-85.937500
672,-85.937500
673,-89.843750
674,-93.750000
675,-93.750000
676,-97.656250
677,-101.562500
678,-105.468750
679,-105.468750
680,-109.375000
681,-109.375000
682,-113.281250
683,-117.187500
684,-117.187500
685,-121.093750
686,-125.000000
687,-125.000000
688,-128.906250
689,-132.812500
690,-132.812500
691,-136.718750
692,-136.718750
693,-140.625000
694,-144.531250
695,-144.531250
696,-148.437500
697,-148.437500
698,-152.343750
699,-152.343750
700,-156.250000
701,-160.156250
702,-160.156250
703,-164.062500
704,-164.062500
705,-167.968750
706,-167.968750
707,-171.875000
708,-171.875000
709,-175.781250
710,-175.781250
711,-175.781250
712,-179.687500
713,-179.687500
714,-183.593750
715,-183.593750
716,-183.593750
717,-187.500000
718,-191.406250
719,-191.406250
720,-191.406250
721,-191.406250
722,-195.312500
723,-195.312500
724,-195.312500
725,-199.218750
726,-199.218750
727,-199.218750
728,-203.125000
729,-199.218750
730,-203.125000
731,-203.125000
732,-207.031250
733,-207.031250
734,-207.031250
735,-207.031250
736,-207.031250
737,-207.031250
738,-210.937500
739,-210.937500
740,-210.937500
741,-210.937500
742,-210.937500
743,-210.937500
744,-210.937500
745,-210.937500
746,-210.937500
747,-210.937500
748,-210.937500
749,-210.937500
750,-210.937500
751,-210.937500
752,-210.937500
753,-210.937500
754,-210.937500
755,-210.937500
756,-210.937500
757,-210.937500
758,-210.937500
759,-210.937500
760,-207.031250
761,-207.031250
762,-207.031250
763,-207.031250
764,-207.031250
765,-203.125000
766,-203.125000
767,-203.125000
768,-203.125000
769,-203.125000
770,-203.125000
771,-199.218750
772,-199.218750
773,-199.218750
774,-195.312500
775,-195.312500
776,-191.406250
777,-191.406250
778,-191.406250
779,-191.406250
780,-187.500000
781,-187.500000
782,-187.500000
783,-183.593750
784,-183.593750
785,-179.687500
786,-179.687500
787,-175.781250
788,-175.781250
789,-175.781250
790,-171.875000
791,-171.875000
792,-167.968750
793,-167.968750
794,-164.062500
795,-164.062500
796,-160.156250
797,-160.156250
798,-156.250000
799,-152.343750
800,-152.343750
801,-148.437500
802,-148.437500
803,-144.531250
804,-144.531250
805,-140.625000
806,-136.718750
807,-136.718750
808,-132.812500
809,-128.906250
810,-128.906250
811,-125.000000
812,-121.093750
813,-121.093750
814,-117.187500
815,-117.187500
816,-113.281250
817,-109.375000
818,-105.468750
819,-105.468750
820,-101.562500
821,-97.656250
822,-97.656250
823,-93.750000
824,-89.843750
825,-89.843750
826,-85.937500
827,-82.031250
828,-82.031250
829,-78.125000
830,-74.218750
831,-70.312500
832,-70.312500
833,-66.406250
834,-62.500000
835,-58.593750
836,-54.687500
837,-54.687500
838,-50.781250
839,-46.875000
840,-46.875000
841,-42.968750
842,-39.062500
843,-39.062500
844,-35.156250
845,-31.250000
846,-27.343750
847,-27.343750
848,-23.437500
849,-19.531250
850,-15.625000
851,-11.718750
852,-11.718750
853,-7.812500
854,-3.906250
855,-3.906250
856,0.000000
857,3.906250
858,3.906250
859,7.812500
860,11.718750
861,11.718750
862,15.625000
863,19.531250
864,19.531250
865,23.437500
866,27.343750
867,31.250000
868,31.250000
869,35.156250
870,35.156250
871,39.062500
872,42.968750
873,46.875000
874,46.875000
875,50.781250
876,50.781250
877,54.687500
878,58.593750
879,58.593750
880,58.593750
881,62.500000
882,66.406250
883,66.406250
884,70.312500
885,74.218750
886,74.218750
887,78.125000
888,78.125000
889,82.031250
890,82.031250
891,85.937500
892,85.937500
893,89.843750
894,89.843750
895,93.750000
896,97.656250
897,97.656250
898,97.656250
899,101.562500
900,101.562500
901,101.562500
902,105.468750
903,105.468750
904,109.375000
905,109.375000
906,109.375000
907,109.375000
908,113.281250
909,117.187500
910,117.187500
911,117.187500
912,121.093750
913,121.093750
914,121.093750
915,125.000000
916,125.000000
917,128.906250
918,128.906250
919,128.906250
920,128.906250
921,128.906250
922,132.812500
923,132.812500
924,132.812500
925,136.718750
926,136.718750
927,136.718750
928,136.718750
929,140.625000
930,140.625000
931,140.625000
932,140.625000
933,140.625000
934,144.531250
935,144.531250
936,144.531250
937,144.531250
938,144.531250
939,144.531250
940,148.437500
941,144.531250
942,148.437500
943,148.437500
944,148.437500
945,148.437500
946,148.437500
947,148.437500
948,148.437500
949,148.437500
950,148.437500
951,148.437500
952,152.343750
953,152.343750
954,148.437500
955,148.437500
956,148.437500
957,152.343750
958,152.343750
959,148.437500
960,148.437500
961,148.437500
962,152.343750
963,148.437500
964,148.437500
965,148.437500
966,148.437500
967,148.437500
968,148.437500
969,148.437500
970,148.437500
971,148.437500
972,148.437500
973,148.437500
974,144.531250
975,144.531250
976,144.531250
977,144.531250
978,144.531250
979,144.531250
980,144.531250
981,140.625000
982,140.625000
983,140.625000
984,140.625000
985,140.625000
986,136.718750
987,136.718750
988,136.718750
989,136.718750
990,136.718750
991,132.812500
992,132.812500
993,132.812500
994,132.812500
995,128.906250
996,128.906250
997,125.000000
998,125.000000
999,125.000000
1000,121.093750
1001,121.093750
1002,121.093750
1003,121.093750
1004,117.187500
1005,117.187500
1006,117.187500
1007,113.281250
1008,113.281250
1009,109.375000
1010,109.375000
1011,109.375000
1012,105.468750
1013,105.468750
1014,101.562500
1015,101.562500
1016,97.656250
1017,97.656250
1018,93.750000
1019,93.750000
1020,93.750000
1021,89.843750
1022,89.843750
1023,85.937500
1024,85.937500
1025,82.031250
1026,82.031250
1027,78.125000
1028,74.218750
1029,74.218750
1030,70.312500
1031,66.406250
1032,66.406250
1033,62.500000
1034,62.500000
1035,58.593750
1036,58.593750
1037,54.687500
1038,50.781250
1039,50.781250
1040,46.875000
1041,46.875000
1042,42.968750
1043,39.062500
1044,39.062500
1045,35.156250
1046,31.250000
1047,31.250000
1048,27.343750
1049,23.437500
1050,23.437500
1051,19.531250
1052,15.625000
1053,15.625000
1054,11.718750
1055,7.812500
1056,3.906250
1057,3.906250
1058,0.000000
1059,-3.906250
1060,-3.906250
1061,-7.812500
1062,-11.718750
1063,-11.718750
1064,-15.625000
1065,-19.531250
1066,-23.437500
1067,-23.437500
1068,-27.343750
1069,-31.250000
1070,-35.156250
1071,-35.156250
1072,-39.062500
1073,-42.968750
1074,-42.968750
1075,-46.875000
1076,-50.781250
1077,-54.687500
1078,-54.687500
1079,-58.593750
1080,-66.406250
1081,-66.406250
1082,-66.406250
1083,-70.312500
1084,-74.218750
1085,-78.125000
1086,-78.125000
1087,-82.031250
1088,-85.937500
1089,-85.937500
1090,-89.843750
1091,-93.750000
1092,-97.656250
1093,-97.656250
1094,-101.562500
1095,-105.468750
1096,-105.468750
1097,-109.375000
1098,-113.281250
1099,-117.187500
1100,-117.187500
1101,-121.093750
1102,-121.093750
1103,-125.000000
1104,-128.906250
1105,-128.906250
1106,-132.812500
1107,-136.718750
1108,-136.718750
1109,-140.625000
1110,-140.625000
1111,-144.531250
1112,-148.437500
1113,-148.437500
1114,-152.343750
1115,-152.343750
1116,-156.250000
1117,-160.156250
1118,-160.156250
1119,-160.156250
1120,-164.062500
1121,-167.968750
1122,-167.968750
1123,-171.875000
1124,-171.875000
1125,-175.781250
1126,-175.781250
1127,-175.781250
1128,-179.687500
1129,-179.687500
1130,-183.593750
1131,-183.593750
1132,-187.500000
1133,-187.500000
1134,-187.500000
1135,-191.406250
1136,-191.406250
1137,-191.406250
1138,-195.312500
1139,-195.312500
1140,-195.312500
1141,-199.218750
1142,-199.218750
1143,-199.218750
1144,-203.125000
1145,-203.125000
1146,-203.125000
1147,-203.125000
1148,-207.031250
1149,-203.125000
1150,-207.031250
1151,-207.031250
1152,-207.031250
1153,-207.031250
1154,-210.937500
1155,-210.937500
1156,-210.937500
1157,-210.937500
1158,-210.937500
1159,-210.937500
1160,-210.937500
1161,-210.937500
1162,-210.937500
1163,-210.937500
1164,-210.937500
1165,-210.937500
1166,-214.843750
1167,-210.937500
1168,-210.937500
1169,-210.937500
1170,-210.937500
1171,-210.937500
1172,-210.937500
1173,-210.937500
1174,-210.937500
1175,-210.937500
1176,-210.937500
1177,-207.031250
1178,-207.031250
1179,-207.031250
1180,-207.031250
1181,-207.031250
1182,-207.031250
1183,-203.125000
1184,-203.125000
1185,-203.125000
1186,-203.125000
1187,-199.218750
1188,-199.218750
1189,-199.218750
1190,-199.218750
1191,-199.218750
1192,-195.312500
1193,-195.312500
1194,-195.312500
1195,-191.406250
1196,-191.406250
1197,-187.500000
1198,-187.500000
1199,-183.593750
1200,-183.593750
1201,-183.593750
1202,-179.687500
1203,-179.687500
1204,-175.781250
1205,-175.781250
1206,-175.781250
1207,-171.875000
1208,-167.968750
1209,-167.968750
1210,-164.062500
1211,-164.062500
1212,-160.156250
1213,-160.156250
1214,-156.250000
1215,-156.250000
1216,-152.343750
1217,-148.437500
1218,-148.437500
1219,-144.531250
1220,-144.531250
1221,-140.625000
1222,-140.625000
1223,-136.718750
1224,-132.812500
1225,-132.812500
1226,-128.906250
1227,-125.000000
1228,-125.000000
1229,-121.093750
1230,-117.187500
1231,-117.187500
1232,-113.281250
1233,-109.375000
1234,-109.375000
1235,-105.468750
1236,-105.468750
1237,-101.562500
1238,-97.656250
1239,-93.750000
1240,-93.750000
1241,-89.843750
1242,-85.937500
1243,-82.031250
1244,-82.031250
1245,-78.125000
1246,-74.218750
1247,-74.218750
1248,-70.312500
1249,-66.406250
1250,-62.500000
1251,-62.500000
1252,-58.593750
1253,-54.687500
1254,-50.781250
1255,-50.781250
1256,-46.875000
1257,-42.968750
1258,-39.062500
1259,-39.062500
1260,-39.062500
1261,-31.250000
1262,-31.250000
1263,-27.343750
1264,-23.437500
1265,-23.437500
1266,-19.531250
1267,-15.625000
1268,-11.718750
1269,-11.718750
1270,-7.812500
1271,-3.906250
1272,0.000000
1273,0.000000
1274,3.906250
1275,7.812500
1276,7.812500
1277,11.718750
1278,15.625000
1279,15.625000
1280,19.531250
1281,23.437500
1282,23.437500
1283,27.343750
1284,31.250000
1285,31.250000
1286,35.156250
1287,39.062500
1288,39.062500
1289,42.968750
1290,46.875000
1291,46.875000
1292,50.781250
1293,54.687500
1294,54.687500
1295,58.593750
1296,58.593750
1297,62.500000
1298,62.500000
