Practicum8/data/opgave3/data_75_004.csv

Channel              :,CH1
Frequency            :,1.980kHz
Period               :,0.505ms
PK-PK                :,173.8mV
Probe attenuation    :,1X
Voltage per ADC value:,0.122070mV
Time interval        :,1.00000us

index,CH1_Voltage(mV)
1,46.875000
2,46.875000
3,46.875000
4,48.828125
5,48.828125
6,50.781250
7,50.781250
8,52.734375
9,52.734375
10,54.687500
11,54.687500
12,54.687500
13,56.640625
14,56.640625
15,56.640625
16,58.593750
17,58.593750
18,60.546875
19,60.546875
20,62.500000
21,62.500000
22,62.500000
23,64.453125
24,64.453125
25,66.406250
26,66.406250
27,66.406250
28,68.359375
29,68.359375
30,68.359375
31,68.359375
32,70.312500
33,70.312500
34,70.312500
35,72.265625
36,70.312500
37,74.218750
38,74.218750
39,74.218750
40,74.218750
41,76.171875
42,76.171875
43,76.171875
44,76.171875
45,78.125000
46,78.125000
47,78.125000
48,80.078125
49,80.078125
50,80.078125
51,82.031250
52,82.031250
53,82.031250
54,82.031250
55,82.031250
56,82.031250
57,82.031250
58,83.984375
59,83.984375
60,83.984375
61,83.984375
62,85.937500
63,83.984375
64,85.937500
65,85.937500
66,85.937500
67,85.937500
68,85.937500
69,85.937500
70,87.890625
71,87.890625
72,87.890625
73,87.890625
74,87.890625
75,87.890625
76,87.890625
77,87.890625
78,89.843750
79,87.890625
80,87.890625
81,87.890625
82,87.890625
83,89.843750
84,89.843750
85,89.843750
86,89.843750
87,89.843750
88,89.843750
89,89.843750
90,89.843750
91,89.843750
92,89.843750
93,87.890625
94,89.843750
95,89.843750
96,89.843750
97,87.890625
98,89.843750
99,87.890625
100,87.890625
101,87.890625
102,87.890625
103,87.890625
104,87.890625
105,87.890625
106,87.890625
107,87.890625
108,87.890625
109,87.890625
110,87.890625
111,85.937500
112,85.937500
113,85.937500
114,85.937500
115,85.937500
116,85.937500
117,83.984375
118,83.984375
119,83.984375
120,83.984375
121,83.984375
122,83.984375
123,82.031250
124,82.031250
125,82.031250
126,80.078125
127,80.078125
128,80.078125
129,80.078125
130,80.078125
131,80.078125
132,80.078125
133,78.125000
134,78.125000
135,76.171875
136,76.171875
137,74.218750
138,76.171875
139,74.218750
140,74.218750
141,72.265625
142,72.265625
143,72.265625
144,72.265625
145,72.265625
146,70.312500
147,70.312500
148,70.312500
149,68.359375
150,68.359375
151,66.406250
152,66.406250
153,66.406250
154,64.453125
155,64.453125
156,64.453125
157,62.500000
158,62.500000
159,60.546875
160,60.546875
161,60.546875
162,58.593750
163,58.593750
164,58.593750
165,56.640625
166,56.640625
167,54.687500
168,54.687500
169,52.734375
170,52.734375
171,52.734375
172,50.781250
173,50.781250
174,48.828125
175,48.828125
176,46.875000
177,46.875000
178,44.921875
179,44.921875
180,44.921875
181,42.968750
182,41.015625
183,41.015625
184,41.015625
185,39.062500
186,39.062500
187,37.109375
188,37.109375
189,35.156250
190,35.156250
191,33.203125
192,31.250000
193,31.250000
194,31.250000
195,29.296875
196,29.296875
197,27.343750
198,25.390625
199,25.390625
200,23.437500
201,23.437500
202,21.484375
203,21.484375
204,19.531250
205,19.531250
206,17.578125
207,17.578125
208,15.625000
209,13.671875
210,13.671875
211,11.718750
212,11.718750
213,9.765625
214,9.765625
215,7.812500
216,7.812500
217,5.859375
218,5.859375
219,3.906250
220,1.953125
221,1.953125
222,0.000000
223,0.000000
224,-1.953125
225,-1.953125
226,-3.906250
227,-3.906250
228,-5.859375
229,-7.812500
230,-7.812500
231,-9.765625
232,-9.765625
233,-11.718750
234,-13.671875
235,-13.671875
236,-15.625000
237,-15.625000
238,-17.578125
239,-17.578125
240,-19.531250
241,-21.484375
242,-21.484375
243,-23.437500
244,-23.437500
245,-25.390625
246,-25.390625
247,-27.343750
248,-27.343750
249,-27.343750
250,-29.296875
251,-31.250000
252,-31.250000
253,-33.203125
254,-33.203125
255,-35.156250
256,-35.156250
257,-37.109375
258,-37.109375
259,-39.062500
260,-39.062500
261,-41.015625
262,-41.015625
263,-42.968750
264,-42.968750
265,-44.921875
266,-44.921875
267,-46.875000
268,-48.828125
269,-48.828125
270,-48.828125
271,-50.781250
272,-50.781250
273,-50.781250
274,-52.734375
275,-52.734375
276,-54.687500
277,-54.687500
278,-56.640625
279,-56.640625
280,-58.593750
281,-58.593750
282,-58.593750
283,-60.546875
284,-60.546875
285,-60.546875
286,-62.500000
287,-62.500000
288,-62.500000
289,-64.453125
290,-66.406250
291,-66.406250
292,-66.406250
293,-66.406250
294,-68.359375
295,-68.359375
296,-68.359375
297,-70.312500
298,-70.312500
299,-70.312500
300,-72.265625
301,-72.265625
302,-72.265625
303,-72.265625
304,-74.218750
305,-74.218750
306,-74.218750
307,-74.218750
308,-76.171875
309,-76.171875
310,-76.171875
311,-76.171875
312,-78.125000
313,-78.125000
314,-78.125000
315,-78.125000
316,-78.125000
317,-80.078125
318,-80.078125
319,-80.078125
320,-80.078125
321,-80.078125
322,-80.078125
323,-82.031250
324,-82.031250
325,-82.031250
326,-82.031250
327,-82.031250
328,-82.031250
329,-82.031250
330,-82.031250
331,-82.031250
332,-82.031250
333,-83.984375
334,-83.984375
335,-83.984375
336,-83.984375
337,-83.984375
338,-83.984375
339,-83.984375
340,-83.984375
341,-83.984375
342,-83.984375
343,-83.984375
344,-83.984375
345,-83.984375
346,-83.984375
347,-83.984375
348,-83.984375
349,-83.984375
350,-83.984375
351,-83.984375
352,-83.984375
353,-82.031250
354,-82.031250
355,-82.031250
356,-82.031250
357,-82.031250
358,-82.031250
359,-82.031250
360,-80.078125
361,-82.031250
362,-80.078125
363,-80.078125
364,-80.078125
365,-80.078125
366,-80.078125
367,-78.125000
368,-78.125000
369,-78.125000
370,-78.125000
371,-78.125000
372,-78.125000
373,-78.125000
374,-76.171875
375,-76.171875
376,-76.171875
377,-74.218750
378,-74.218750
379,-74.218750
380,-74.218750
381,-72.265625
382,-72.265625
383,-72.265625
384,-72.265625
385,-72.265625
386,-70.312500
387,-70.312500
388,-68.359375
389,-68.359375
390,-68.359375
391,-66.406250
392,-66.406250
393,-66.406250
394,-64.453125
395,-64.453125
396,-64.453125
397,-62.500000
398,-62.500000
399,-60.546875
400,-60.546875
401,-60.546875
402,-60.546875
403,-58.593750
404,-56.640625
405,-56.640625
406,-56.640625
407,-54.687500
408,-54.687500
409,-54.687500
410,-52.734375
411,-52.734375
412,-50.781250
413,-50.781250
414,-48.828125
415,-48.828125
416,-46.875000
417,-46.875000
418,-44.921875
419,-44.921875
420,-42.968750
421,-42.968750
422,-41.015625
423,-41.015625
424,-41.015625
425,-39.062500
426,-37.109375
427,-37.109375
428,-37.109375
429,-35.156250
430,-33.203125
431,-33.203125
432,-31.250000
433,-31.250000
434,-29.296875
435,-27.343750
436,-27.343750
437,-27.343750
438,-25.390625
439,-25.390625
440,-23.437500
441,-23.437500
442,-23.437500
443,-21.484375
444,-19.531250
445,-19.531250
446,-17.578125
447,-17.578125
448,-15.625000
449,-13.671875
450,-11.718750
451,-11.718750
452,-11.718750
453,-9.765625
454,-9.765625
455,-7.812500
456,-5.859375
457,-5.859375
458,-3.906250
459,-3.906250
460,-1.953125
461,-1.953125
462,0.000000
463,0.000000
464,1.953125
465,3.906250
466,3.906250
467,5.859375
468,5.859375
469,7.812500
470,7.812500
471,9.765625
472,11.718750
473,11.718750
474,13.671875
475,13.671875
476,15.625000
477,15.625000
478,17.578125
479,17.578125
480,19.531250
481,19.531250
482,21.484375
483,21.484375
484,23.437500
485,23.437500
486,25.390625
487,27.343750
488,27.343750
489,29.296875
490,29.296875
491,31.250000
492,31.250000
493,31.250000
494,33.203125
495,35.156250
496,35.156250
497,37.109375
498,37.109375
499,39.062500
500,39.062500
501,41.015625
502,41.015625
503,42.968750
504,42.968750
505,42.968750
506,44.921875
507,44.921875
508,46.875000
509,46.875000
510,48.828125
511,48.828125
512,50.781250
513,50.781250
514,52.734375
515,52.734375
516,54.687500
517,54.687500
518,54.687500
519,56.640625
520,56.640625
521,56.640625
522,58.593750
523,58.593750
524,60.546875
525,60.546875
526,60.546875
527,62.500000
528,64.453125
529,64.453125
530,64.453125
531,64.453125
532,66.406250
533,66.406250
534,66.406250
535,68.359375
536,68.359375
537,70.312500
538,70.312500
539,70.312500
540,72.265625
541,72.265625
542,72.265625
543,72.265625
544,74.218750
545,74.218750
546,74.218750
547,76.171875
548,76.171875
549,76.171875
550,76.171875
551,78.125000
552,78.125000
553,78.125000
554,78.125000
555,80.078125
556,80.078125
557,80.078125
558,82.031250
559,82.031250
560,82.031250
561,82.031250
562,82.031250
563,82.031250
564,83.984375
565,83.984375
566,83.984375
567,83.984375
568,83.984375
569,85.937500
570,85.937500
571,85.937500
572,85.937500
573,85.937500
574,85.937500
575,85.937500
576,85.937500
577,87.890625
578,87.890625
579,87.890625
580,87.890625
581,87.890625
582,87.890625
583,87.890625
584,89.843750
585,87.890625
586,87.890625
587,87.890625
588,87.890625
589,87.890625
590,87.890625
591,89.843750
592,89.843750
593,89.843750
594,89.843750
595,87.890625
596,89.843750
597,87.890625
598,89.843750
599,87.890625
600,87.890625
601,87.890625
602,87.890625
603,87.890625
604,87.890625
605,87.890625
606,87.890625
607,87.890625
608,87.890625
609,87.890625
610,87.890625
611,85.937500
612,87.890625
613,85.937500
614,85.937500
615,85.937500
616,85.937500
617,85.937500
618,85.937500
619,85.937500
620,85.937500
621,85.937500
622,83.984375
623,83.984375
624,83.984375
625,82.031250
626,82.031250
627,82.031250
628,82.031250
629,82.031250
630,82.031250
631,80.078125
632,80.078125
633,80.078125
634,80.078125
635,80.078125
636,80.078125
637,78.125000
638,78.125000
639,76.171875
640,76.171875
641,76.171875
642,76.171875
643,76.171875
644,74.218750
645,74.218750
646,74.218750
647,72.265625
648,72.265625
649,72.265625
650,70.312500
651,70.312500
652,70.312500
653,68.359375
654,68.359375
655,68.359375
656,68.359375
657,66.406250
658,66.406250
659,64.453125
660,64.453125
661,62.500000
662,62.500000
663,62.500000
664,62.500000
665,60.546875
666,60.546875
667,58.593750
668,58.593750
669,58.593750
670,56.640625
671,56.640625
672,54.687500
673,54.687500
674,54.687500
675,52.734375
676,52.734375
677,50.781250
678,50.781250
679,48.828125
680,48.828125
681,46.875000
682,46.875000
683,44.921875
684,44.921875
685,44.921875
686,42.968750
687,42.968750
688,41.015625
689,39.062500
690,39.062500
691,37.109375
692,37.109375
693,37.109375
694,37.109375
695,33.203125
696,33.203125
697,33.203125
698,31.250000
699,31.250000
700,29.296875
701,29.296875
702,27.343750
703,27.343750
704,25.390625
705,25.390625
706,23.437500
707,21.484375
708,21.484375
709,19.531250
710,19.531250
711,17.578125
712,17.578125
713,15.625000
714,15.625000
715,13.671875
716,13.671875
717,11.718750
718,9.765625
719,9.765625
720,7.812500
721,7.812500
722,5.859375
723,5.859375
724,3.906250
725,1.953125
726,1.953125
727,0.000000
728,0.000000
729,-1.953125
730,-1.953125
731,-3.906250
732,-3.906250
733,-5.859375
734,-5.859375
735,-7.812500
736,-9.765625
737,-9.765625
738,-11.718750
739,-11.718750
740,-13.671875
741,-13.671875
742,-15.625000
743,-17.578125
744,-17.578125
745,-17.578125
746,-19.531250
747,-21.484375
748,-21.484375
749,-23.437500
750,-23.437500
751,-25.390625
752,-25.390625
753,-27.343750
754,-29.296875
755,-29.296875
756,-31.250000
757,-31.250000
758,-31.250000
759,-33.203125
760,-33.203125
761,-35.156250
762,-37.109375
763,-37.109375
764,-37.109375
765,-39.062500
766,-39.062500
767,-41.015625
768,-41.015625
769,-42.968750
770,-44.921875
771,-44.921875
772,-44.921875
773,-46.875000
774,-46.875000
775,-48.828125
776,-48.828125
777,-50.781250
778,-50.781250
779,-52.734375
780,-52.734375
781,-52.734375
782,-54.687500
783,-54.687500
784,-56.640625
785,-56.640625
786,-56.640625
787,-58.593750
788,-58.593750
789,-60.546875
790,-60.546875
791,-62.500000
792,-62.500000
793,-62.500000
794,-64.453125
795,-64.453125
796,-64.453125
797,-66.406250
798,-66.406250
799,-66.406250
800,-68.359375
801,-68.359375
802,-70.312500
803,-70.312500
804,-70.312500
805,-70.312500
806,-70.312500
807,-72.265625
808,-72.265625
809,-72.265625
810,-72.265625
811,-74.218750
812,-74.218750
813,-76.171875
814,-76.171875
815,-76.171875
816,-76.171875
817,-76.171875
818,-78.125000
819,-78.125000
820,-78.125000
821,-78.125000
822,-78.125000
823,-78.125000
824,-80.078125
825,-80.078125
826,-80.078125
827,-80.078125
828,-80.078125
829,-80.078125
830,-80.078125
831,-82.031250
832,-80.078125
833,-82.031250
834,-82.031250
835,-82.031250
836,-82.031250
837,-82.031250
838,-82.031250
839,-82.031250
840,-82.031250
841,-82.031250
842,-82.031250
843,-83.984375
844,-82.031250
845,-82.031250
846,-82.031250
847,-82.031250
848,-82.031250
849,-83.984375
850,-82.031250
851,-82.031250
852,-82.031250
853,-82.031250
854,-82.031250
855,-83.984375
856,-82.031250
857,-82.031250
858,-82.031250
859,-82.031250
860,-82.031250
861,-82.031250
862,-82.031250
863,-82.031250
864,-80.078125
865,-80.078125
866,-80.078125
867,-80.078125
868,-80.078125
869,-80.078125
870,-80.078125
871,-80.078125
872,-78.125000
873,-78.125000
874,-78.125000
875,-78.125000
876,-76.171875
877,-76.171875
878,-76.171875
879,-76.171875
880,-74.218750
881,-74.218750
882,-74.218750
883,-74.218750
884,-74.218750
885,-72.265625
886,-72.265625
887,-72.265625
888,-72.265625
889,-70.312500
890,-72.265625
891,-70.312500
892,-68.359375
893,-68.359375
894,-68.359375
895,-66.406250
896,-66.406250
897,-66.406250
898,-64.453125
899,-64.453125
900,-64.453125
901,-64.453125
902,-62.500000
903,-62.500000
904,-60.546875
905,-60.546875
906,-58.593750
907,-58.593750
908,-58.593750
909,-56.640625
910,-56.640625
911,-54.687500
912,-54.687500
913,-54.687500
914,-52.734375
915,-52.734375
916,-50.781250
917,-50.781250
918,-50.781250
919,-48.828125
920,-48.828125
921,-46.875000
922,-46.875000
923,-44.921875
924,-44.921875
925,-42.968750
926,-42.968750
927,-41.015625
928,-41.015625
929,-39.062500
930,-39.062500
931,-37.109375
932,-37.109375
933,-35.156250
934,-33.203125
935,-33.203125
936,-33.203125
937,-31.250000
938,-31.250000
939,-29.296875
940,-29.296875
941,-27.343750
942,-25.390625
943,-25.390625
944,-23.437500
945,-23.437500
946,-21.484375
947,-21.484375
948,-19.531250
949,-19.531250
950,-17.578125
951,-15.625000
952,-15.625000
953,-15.625000
954,-13.671875
955,-13.671875
956,-11.718750
957,-9.765625
958,-9.765625
959,-7.812500
960,-5.859375
961,-5.859375
962,-3.906250
963,-3.906250
964,-1.953125
965,-1.953125
966,0.000000
967,0.000000
968,1.953125
969,1.953125
970,3.906250
971,5.859375
972,5.859375
973,5.859375
974,7.812500
975,9.765625
976,9.765625
977,11.718750
978,11.718750
979,13.671875
980,15.625000
981,15.625000
982,17.578125
983,17.578125
984,19.531250
985,19.531250
986,21.484375
987,21.484375
988,23.437500
989,23.437500
990,25.390625
991,25.390625
992,27.343750
993,27.343750
994,29.296875
995,31.250000
996,31.250000
997,31.250000
998,33.203125
999,33.203125
1000,35.156250
1001,35.156250
1002,37.109375
1003,37.109375
1004,39.062500
1005,39.062500
1006,41.015625
1007,41.015625
1008,42.968750
1009,42.968750
1010,44.921875
1011,44.921875
1012,46.875000
1013,46.875000
1014,48.828125
1015,48.828125
1016,48.828125
1017,50.781250
1018,50.781250
1019,52.734375
1020,54.687500
1021,54.687500
1022,54.687500
1023,54.687500
1024,56.640625
1025,56.640625
1026,58.593750
1027,58.593750
1028,60.546875
1029,60.546875
1030,60.546875
1031,62.500000
1032,62.500000
1033,62.500000
1034,64.453125
1035,64.453125
1036,66.406250
1037,66.406250
1038,68.359375
1039,68.359375
1040,68.359375
1041,68.359375
1042,70.312500
1043,70.312500
1044,70.312500
1045,72.265625
1046,72.265625
1047,72.265625
1048,74.218750
1049,74.218750
1050,74.218750
1051,74.218750
1052,76.171875
1053,76.171875
1054,76.171875
1055,78.125000
1056,78.125000
1057,78.125000
1058,78.125000
1059,80.078125
1060,80.078125
1061,80.078125
1062,80.078125
1063,82.031250
1064,82.031250
1065,82.031250
1066,82.031250
1067,82.031250
1068,83.984375
1069,83.984375
1070,83.984375
1071,83.984375
1072,83.984375
1073,83.984375
1074,85.937500
1075,85.937500
1076,85.937500
1077,85.937500
1078,85.937500
1079,85.937500
1080,87.890625
1081,85.937500
1082,87.890625
1083,87.890625
1084,87.890625
1085,87.890625
1086,87.890625
1087,87.890625
1088,87.890625
1089,87.890625
1090,89.843750
1091,89.843750
1092,89.843750
1093,89.843750
1094,89.843750
1095,89.843750
1096,89.843750
1097,87.890625
1098,89.843750
1099,89.843750
1100,89.843750
1101,89.843750
1102,89.843750
1103,89.843750
1104,89.843750
1105,89.843750
1106,89.843750
1107,87.890625
1108,87.890625
1109,87.890625
1110,89.843750
1111,87.890625
1112,87.890625
1113,87.890625
1114,87.890625
1115,87.890625
1116,87.890625
1117,87.890625
1118,87.890625
1119,87.890625
1120,87.890625
1121,85.937500
1122,85.937500
1123,85.937500
1124,85.937500
1125,85.937500
1126,85.937500
1127,83.984375
1128,83.984375
1129,83.984375
1130,83.984375
1131,83.984375
1132,82.031250
1133,82.031250
1134,82.031250
1135,82.031250
1136,82.031250
1137,82.031250
1138,80.078125
1139,80.078125
1140,80.078125
1141,80.078125
1142,78.125000
1143,78.125000
1144,78.125000
1145,76.171875
1146,76.171875
1147,76.171875
1148,74.218750
1149,74.218750
1150,74.218750
1151,74.218750
1152,74.218750
1153,72.265625
1154,72.265625
1155,72.265625
1156,70.312500
1157,70.312500
1158,70.312500
1159,68.359375
1160,68.359375
1161,66.406250
1162,66.406250
1163,66.406250
1164,66.406250
1165,64.453125
1166,64.453125
1167,62.500000
1168,62.500000
1169,62.500000
1170,60.546875
1171,60.546875
1172,58.593750
1173,58.593750
1174,58.593750
1175,56.640625
1176,56.640625
1177,54.687500
1178,54.687500
1179,52.734375
1180,52.734375
1181,50.781250
1182,50.781250
1183,50.781250
1184,48.828125
1185,48.828125
1186,48.828125
1187,46.875000
1188,46.875000
1189,44.921875
1190,42.968750
1191,42.968750
1192,41.015625
1193,41.015625
1194,41.015625
1195,39.062500
1196,39.062500
1197,37.109375
1198,37.109375
1199,35.156250
1200,35.156250
1201,33.203125
1202,31.250000
1203,31.250000
1204,31.250000
1205,29.296875
1206,29.296875
1207,27.343750
1208,25.390625
1209,25.390625
1210,23.437500
1211,23.437500
1212,21.484375
1213,21.484375
1214,21.484375
1215,19.531250
1216,17.578125
1217,15.625000
1218,15.625000
1219,13.671875
1220,11.718750
1221,11.718750
1222,11.718750
1223,11.718750
1224,9.765625
1225,7.812500
1226,7.812500
1227,5.859375
1228,3.906250
1229,3.906250
1230,1.953125
1231,1.953125
1232,0.000000
1233,0.000000
1234,-1.953125
1235,-1.953125
1236,-3.906250
1237,-5.859375
1238,-5.859375
1239,-7.812500
1240,-7.812500
1241,-9.765625
1242,-9.765625
1243,-11.718750
1244,-11.718750
1245,-13.671875
1246,-15.625000
1247,-15.625000
1248,-17.578125
1249,-17.578125
1250,-19.531250
1251,-19.531250
1252,-21.484375
1253,-21.484375
1254,-23.437500
1255,-23.437500
1256,-25.390625
1257,-27.343750
1258,-27.343750
1259,-27.343750
1260,-29.296875
1261,-31.250000
1262,-31.250000
1263,-31.250000
1264,-33.203125
1265,-35.156250
1266,-35.156250
1267,-37.109375
1268,-37.109375
1269,-39.062500
1270,-39.062500
1271,-41.015625
1272,-41.015625
1273,-42.968750
1274,-42.968750
1275,-44.921875
1276,-44.921875
1277,-46.875000
1278,-46.875000
1279,-48.828125
1280,-48.828125
1281,-48.828125
1282,-50.781250
1283,-50.781250
1284,-52.734375
1285,-52.734375
1286,-54.687500
1287,-54.687500
1288,-56.640625
1289,-56.640625
1290,-58.593750
1291,-58.593750
1292,-58.593750
1293,-60.546875
1294,-60.546875
1295,-60.546875
1296,-62.500000
1297,-62.500000
1298,-62.500000
1299,-64.453125
1300,-66.406250
1301,-66.406250
1302,-68.359375
1303,-68.359375
1304,-68.359375
1305,-68.359375
1306,-68.359375
1307,-70.312500
1308,-70.312500
1309,-70.312500
1310,-72.265625
1311,-72.265625
1312,-72.265625
1313,-72.265625
1314,-74.218750
1315,-74.218750
1316,-74.218750
1317,-76.171875
1318,-76.171875
1319,-76.171875
1320,-76.171875
1321,-78.125000
1322,-78.125000
1323,-78.125000
1324,-78.125000
1325,-78.125000
1326,-80.078125
1327,-80.078125
1328,-80.078125
1329,-80.078125
1330,-80.078125
1331,-80.078125
1332,-80.078125
1333,-82.031250
1334,-82.031250
1335,-82.031250
1336,-82.031250
1337,-82.031250
1338,-82.031250
1339,-83.984375
1340,-82.031250
1341,-82.031250
1342,-82.031250
1343,-83.984375
1344,-83.984375
1345,-83.984375
1346,-83.984375
1347,-83.984375
1348,-83.984375
1349,-83.984375
1350,-83.984375
1351,-83.984375
1352,-83.984375
1353,-83.984375
1354,-83.984375
1355,-83.984375
1356,-83.984375
1357,-83.984375
