Practicum8/data/opgave3/data_75_007.csv

Channel              :,CH1
Frequency            :,1.980kHz
Period               :,0.505ms
PK-PK                :,150.4mV
Probe attenuation    :,1X
Voltage per ADC value:,0.122070mV
Time interval        :,1.00000us

index,CH1_Voltage(mV)
1,41.015625
2,41.015625
3,41.015625
4,42.968750
5,42.968750
6,42.968750
7,44.921875
8,44.921875
9,46.875000
10,46.875000
11,46.875000
12,48.828125
13,48.828125
14,50.781250
15,50.781250
16,50.781250
17,52.734375
18,52.734375
19,52.734375
20,54.687500
21,54.687500
22,54.687500
23,56.640625
24,56.640625
25,56.640625
26,58.593750
27,58.593750
28,58.593750
29,58.593750
30,60.546875
31,60.546875
32,60.546875
33,62.500000
34,62.500000
35,62.500000
36,64.453125
37,64.453125
38,64.453125
39,64.453125
40,66.406250
41,66.406250
42,66.406250
43,66.406250
44,66.406250
45,68.359375
46,68.359375
47,68.359375
48,70.312500
49,70.312500
50,70.312500
51,70.312500
52,70.312500
53,70.312500
54,72.265625
55,72.265625
56,72.265625
57,72.265625
58,72.265625
59,72.265625
60,74.218750
61,74.218750
62,74.218750
63,74.218750
64,74.218750
65,74.218750
66,76.171875
67,74.218750
68,76.171875
69,76.171875
70,76.171875
71,76.171875
72,76.171875
73,76.171875
74,76.171875
75,76.171875
76,76.171875
77,76.171875
78,76.171875
79,78.125000
80,78.125000
81,78.125000
82,78.125000
83,78.125000
84,78.125000
85,78.125000
86,78.125000
87,78.125000
88,78.125000
89,78.125000
90,78.125000
91,78.125000
92,78.125000
93,78.125000
94,78.125000
95,78.125000
96,76.171875
97,78.125000
98,78.125000
99,78.125000
100,78.125000
101,78.125000
102,78.125000
103,76.171875
104,76.171875
105,76.171875
106,76.171875
107,76.171875
108,76.171875
109,76.171875
110,76.171875
111,76.171875
112,76.171875
113,76.171875
114,76.171875
115,74.218750
116,74.218750
117,74.218750
118,74.218750
119,74.218750
120,74.218750
121,74.218750
122,72.265625
123,72.265625
124,72.265625
125,72.265625
126,72.265625
127,70.312500
128,70.312500
129,70.312500
130,70.312500
131,68.359375
132,68.359375
133,68.359375
134,68.359375
135,66.406250
136,68.359375
137,66.406250
138,66.406250
139,66.406250
140,64.453125
141,64.453125
142,64.453125
143,62.500000
144,64.453125
145,62.500000
146,62.500000
147,60.546875
148,60.546875
149,60.546875
150,60.546875
151,58.593750
152,58.593750
153,58.593750
154,56.640625
155,56.640625
156,56.640625
157,54.687500
158,54.687500
159,52.734375
160,52.734375
161,52.734375
162,52.734375
163,50.781250
164,50.781250
165,48.828125
166,48.828125
167,48.828125
168,46.875000
169,46.875000
170,46.875000
171,44.921875
172,44.921875
173,42.968750
174,42.968750
175,42.968750
176,41.015625
177,41.015625
178,39.062500
179,39.062500
180,39.062500
181,37.109375
182,37.109375
183,35.156250
184,35.156250
185,35.156250
186,33.203125
187,33.203125
188,31.250000
189,31.250000
190,29.296875
191,29.296875
192,27.343750
193,27.343750
194,25.390625
195,25.390625
196,25.390625
197,23.437500
198,23.437500
199,21.484375
200,21.484375
201,19.531250
202,19.531250
203,17.578125
204,17.578125
205,17.578125
206,15.625000
207,13.671875
208,13.671875
209,13.671875
210,11.718750
211,11.718750
212,9.765625
213,9.765625
214,7.812500
215,7.812500
216,5.859375
217,5.859375
218,3.906250
219,3.906250
220,1.953125
221,1.953125
222,0.000000
223,0.000000
224,-1.953125
225,-1.953125
226,-3.906250
227,-3.906250
228,-5.859375
229,-5.859375
230,-5.859375
231,-7.812500
232,-7.812500
233,-9.765625
234,-9.765625
235,-11.718750
236,-11.718750
237,-13.671875
238,-13.671875
239,-15.625000
240,-15.625000
241,-17.578125
242,-17.578125
243,-19.531250
244,-19.531250
245,-19.531250
246,-21.484375
247,-21.484375
248,-23.437500
249,-23.437500
250,-25.390625
251,-25.390625
252,-27.343750
253,-27.343750
254,-27.343750
255,-29.296875
256,-29.296875
257,-31.250000
258,-31.250000
259,-33.203125
260,-33.203125
261,-35.156250
262,-35.156250
263,-35.156250
264,-37.109375
265,-37.109375
266,-37.109375
267,-39.062500
268,-39.062500
269,-41.015625
270,-41.015625
271,-42.968750
272,-42.968750
273,-42.968750
274,-44.921875
275,-44.921875
276,-44.921875
277,-46.875000
278,-46.875000
279,-46.875000
280,-48.828125
281,-48.828125
282,-48.828125
283,-50.781250
284,-50.781250
285,-50.781250
286,-52.734375
287,-52.734375
288,-52.734375
289,-54.687500
290,-54.687500
291,-54.687500
292,-56.640625
293,-56.640625
294,-56.640625
295,-56.640625
296,-58.593750
297,-58.593750
298,-58.593750
299,-58.593750
300,-60.546875
301,-60.546875
302,-60.546875
303,-60.546875
304,-62.500000
305,-62.500000
306,-62.500000
307,-62.500000
308,-64.453125
309,-64.453125
310,-64.453125
311,-64.453125
312,-66.406250
313,-66.406250
314,-66.406250
315,-66.406250
316,-66.406250
317,-66.406250
318,-68.359375
319,-66.406250
320,-68.359375
321,-68.359375
322,-68.359375
323,-68.359375
324,-68.359375
325,-68.359375
326,-68.359375
327,-70.312500
328,-70.312500
329,-70.312500
330,-70.312500
331,-70.312500
332,-70.312500
333,-70.312500
334,-70.312500
335,-70.312500
336,-72.265625
337,-70.312500
338,-70.312500
339,-70.312500
340,-70.312500
341,-70.312500
342,-70.312500
343,-70.312500
344,-70.312500
345,-70.312500
346,-70.312500
347,-72.265625
348,-70.312500
349,-70.312500
350,-70.312500
351,-70.312500
352,-70.312500
353,-70.312500
354,-70.312500
355,-70.312500
356,-70.312500
357,-70.312500
358,-70.312500
359,-70.312500
360,-70.312500
361,-68.359375
362,-68.359375
363,-68.359375
364,-68.359375
365,-68.359375
366,-68.359375
367,-66.406250
368,-66.406250
369,-66.406250
370,-66.406250
371,-66.406250
372,-66.406250
373,-66.406250
374,-64.453125
375,-64.453125
376,-64.453125
377,-64.453125
378,-62.500000
379,-62.500000
380,-62.500000
381,-62.500000
382,-60.546875
383,-60.546875
384,-60.546875
385,-60.546875
386,-60.546875
387,-58.593750
388,-58.593750
389,-58.593750
390,-56.640625
391,-56.640625
392,-56.640625
393,-56.640625
394,-54.687500
395,-54.687500
396,-54.687500
397,-52.734375
398,-52.734375
399,-50.781250
400,-50.781250
401,-50.781250
402,-50.781250
403,-48.828125
404,-48.828125
405,-48.828125
406,-46.875000
407,-46.875000
408,-46.875000
409,-44.921875
410,-44.921875
411,-42.968750
412,-42.968750
413,-42.968750
414,-41.015625
415,-41.015625
416,-41.015625
417,-39.062500
418,-39.062500
419,-39.062500
420,-37.109375
421,-37.109375
422,-35.156250
423,-35.156250
424,-33.203125
425,-33.203125
426,-31.250000
427,-31.250000
428,-31.250000
429,-31.250000
430,-29.296875
431,-27.343750
432,-27.343750
433,-25.390625
434,-25.390625
435,-23.437500
436,-23.437500
437,-23.437500
438,-21.484375
439,-21.484375
440,-21.484375
441,-19.531250
442,-17.578125
443,-17.578125
444,-17.578125
445,-15.625000
446,-15.625000
447,-13.671875
448,-13.671875
449,-11.718750
450,-11.718750
451,-11.718750
452,-9.765625
453,-7.812500
454,-7.812500
455,-7.812500
456,-5.859375
457,-5.859375
458,-3.906250
459,-3.906250
460,-1.953125
461,0.000000
462,0.000000
463,0.000000
464,1.953125
465,3.906250
466,3.906250
467,3.906250
468,5.859375
469,5.859375
470,5.859375
471,7.812500
472,9.765625
473,9.765625
474,11.718750
475,11.718750
476,11.718750
477,13.671875
478,13.671875
479,15.625000
480,15.625000
481,17.578125
482,17.578125
483,19.531250
484,19.531250
485,19.531250
486,21.484375
487,23.437500
488,23.437500
489,25.390625
490,25.390625
491,25.390625
492,27.343750
493,27.343750
494,29.296875
495,29.296875
496,31.250000
497,31.250000
498,31.250000
499,33.203125
500,33.203125
501,35.156250
502,35.156250
503,37.109375
504,37.109375
505,39.062500
506,39.062500
507,39.062500
508,41.015625
509,41.015625
510,42.968750
511,42.968750
512,42.968750
513,44.921875
514,44.921875
515,46.875000
516,46.875000
517,46.875000
518,48.828125
519,48.828125
520,48.828125
521,50.781250
522,50.781250
523,50.781250
524,52.734375
525,52.734375
526,54.687500
527,54.687500
528,54.687500
529,54.687500
530,54.687500
531,56.640625
532,56.640625
533,58.593750
534,58.593750
535,58.593750
536,60.546875
537,60.546875
538,60.546875
539,62.500000
540,62.500000
541,62.500000
542,62.500000
543,64.453125
544,64.453125
545,64.453125
546,64.453125
547,66.406250
548,66.406250
549,66.406250
550,66.406250
551,68.359375
552,68.359375
553,68.359375
554,68.359375
555,70.312500
556,70.312500
557,70.312500
558,70.312500
559,70.312500
560,70.312500
561,72.265625
562,72.265625
563,72.265625
564,72.265625
565,72.265625
566,72.265625
567,74.218750
568,74.218750
569,74.218750
570,74.218750
571,74.218750
572,74.218750
573,74.218750
574,74.218750
575,74.218750
576,74.218750
577,76.171875
578,76.171875
579,76.171875
580,76.171875
581,76.171875
582,76.171875
583,76.171875
584,76.171875
585,76.171875
586,76.171875
587,76.171875
588,78.125000
589,78.125000
590,76.171875
591,78.125000
592,78.125000
593,78.125000
594,76.171875
595,76.171875
596,78.125000
597,78.125000
598,78.125000
599,76.171875
600,78.125000
601,78.125000
602,78.125000
603,78.125000
604,76.171875
605,76.171875
606,76.171875
607,76.171875
608,76.171875
609,76.171875
610,76.171875
611,76.171875
612,76.171875
613,76.171875
614,76.171875
615,74.218750
616,74.218750
617,74.218750
618,74.218750
619,74.218750
620,74.218750
621,74.218750
622,74.218750
623,74.218750
624,72.265625
625,72.265625
626,72.265625
627,72.265625
628,72.265625
629,70.312500
630,70.312500
631,70.312500
632,70.312500
633,70.312500
634,70.312500
635,68.359375
636,68.359375
637,68.359375
638,68.359375
639,68.359375
640,66.406250
641,66.406250
642,66.406250
643,64.453125
644,66.406250
645,64.453125
646,64.453125
647,62.500000
648,62.500000
649,62.500000
650,62.500000
651,60.546875
652,60.546875
653,60.546875
654,60.546875
655,58.593750
656,58.593750
657,58.593750
658,56.640625
659,56.640625
660,56.640625
661,54.687500
662,54.687500
663,54.687500
664,54.687500
665,52.734375
666,50.781250
667,50.781250
668,50.781250
669,50.781250
670,50.781250
671,48.828125
672,48.828125
673,46.875000
674,46.875000
675,44.921875
676,44.921875
677,42.968750
678,42.968750
679,42.968750
680,41.015625
681,41.015625
682,41.015625
683,39.062500
684,39.062500
685,37.109375
686,37.109375
687,37.109375
688,35.156250
689,35.156250
690,33.203125
691,33.203125
692,31.250000
693,31.250000
694,29.296875
695,29.296875
696,29.296875
697,27.343750
698,27.343750
699,25.390625
700,25.390625
701,23.437500
702,23.437500
703,23.437500
704,21.484375
705,21.484375
706,19.531250
707,19.531250
708,17.578125
709,19.531250
710,15.625000
711,15.625000
712,13.671875
713,13.671875
714,11.718750
715,11.718750
716,9.765625
717,9.765625
718,9.765625
719,7.812500
720,7.812500
721,5.859375
722,5.859375
723,3.906250
724,3.906250
725,1.953125
726,1.953125
727,0.000000
728,0.000000
729,0.000000
730,-1.953125
731,-3.906250
732,-3.906250
733,-3.906250
734,-5.859375
735,-7.812500
736,-7.812500
737,-7.812500
738,-9.765625
739,-11.718750
740,-11.718750
741,-11.718750
742,-13.671875
743,-13.671875
744,-15.625000
745,-15.625000
746,-17.578125
747,-17.578125
748,-17.578125
749,-19.531250
750,-19.531250
751,-21.484375
752,-23.437500
753,-23.437500
754,-23.437500
755,-25.390625
756,-25.390625
757,-27.343750
758,-27.343750
759,-27.343750
760,-29.296875
761,-29.296875
762,-31.250000
763,-31.250000
764,-33.203125
765,-33.203125
766,-33.203125
767,-33.203125
768,-35.156250
769,-37.109375
770,-37.109375
771,-37.109375
772,-39.062500
773,-39.062500
774,-39.062500
775,-41.015625
776,-41.015625
777,-42.968750
778,-42.968750
779,-42.968750
780,-44.921875
781,-44.921875
782,-44.921875
783,-46.875000
784,-46.875000
785,-48.828125
786,-48.828125
787,-48.828125
788,-48.828125
789,-50.781250
790,-50.781250
791,-50.781250
792,-52.734375
793,-52.734375
794,-54.687500
795,-54.687500
796,-54.687500
797,-56.640625
798,-56.640625
799,-56.640625
800,-56.640625
801,-58.593750
802,-58.593750
803,-58.593750
804,-58.593750
805,-60.546875
806,-60.546875
807,-60.546875
808,-60.546875
809,-62.500000
810,-62.500000
811,-62.500000
812,-62.500000
813,-64.453125
814,-64.453125
815,-64.453125
816,-64.453125
817,-64.453125
818,-64.453125
819,-66.406250
820,-66.406250
821,-66.406250
822,-66.406250
823,-66.406250
824,-66.406250
825,-66.406250
826,-66.406250
827,-68.359375
828,-68.359375
829,-68.359375
830,-68.359375
831,-68.359375
832,-68.359375
833,-68.359375
834,-68.359375
835,-70.312500
836,-70.312500
837,-70.312500
838,-70.312500
839,-70.312500
840,-70.312500
841,-70.312500
842,-70.312500
843,-70.312500
844,-70.312500
845,-70.312500
846,-70.312500
847,-70.312500
848,-70.312500
849,-70.312500
850,-70.312500
851,-70.312500
852,-70.312500
853,-70.312500
854,-70.312500
855,-70.312500
856,-70.312500
857,-70.312500
858,-70.312500
859,-70.312500
860,-70.312500
861,-68.359375
862,-68.359375
863,-68.359375
864,-68.359375
865,-68.359375
866,-68.359375
867,-68.359375
868,-66.406250
869,-66.406250
870,-66.406250
871,-66.406250
872,-66.406250
873,-66.406250
874,-66.406250
875,-66.406250
876,-66.406250
877,-64.453125
878,-64.453125
879,-64.453125
880,-62.500000
881,-62.500000
882,-62.500000
883,-62.500000
884,-62.500000
885,-60.546875
886,-60.546875
887,-60.546875
888,-60.546875
889,-60.546875
890,-58.593750
891,-58.593750
892,-58.593750
893,-56.640625
894,-56.640625
895,-56.640625
896,-56.640625
897,-54.687500
898,-54.687500
899,-54.687500
900,-52.734375
901,-52.734375
902,-52.734375
903,-52.734375
904,-50.781250
905,-50.781250
906,-50.781250
907,-48.828125
908,-48.828125
909,-46.875000
910,-46.875000
911,-46.875000
912,-46.875000
913,-44.921875
914,-44.921875
915,-42.968750
916,-42.968750
917,-41.015625
918,-41.015625
919,-41.015625
920,-39.062500
921,-39.062500
922,-39.062500
923,-37.109375
924,-37.109375
925,-35.156250
926,-35.156250
927,-35.156250
928,-33.203125
929,-33.203125
930,-31.250000
931,-31.250000
932,-31.250000
933,-29.296875
934,-27.343750
935,-27.343750
936,-27.343750
937,-25.390625
938,-25.390625
939,-23.437500
940,-23.437500
941,-21.484375
942,-21.484375
943,-21.484375
944,-19.531250
945,-19.531250
946,-19.531250
947,-17.578125
948,-17.578125
949,-15.625000
950,-13.671875
951,-13.671875
952,-13.671875
953,-11.718750
954,-11.718750
955,-9.765625
956,-9.765625
957,-7.812500
958,-7.812500
959,-5.859375
960,-5.859375
961,-3.906250
962,-3.906250
963,-3.906250
964,-1.953125
965,-1.953125
966,0.000000
967,0.000000
968,1.953125
969,1.953125
970,3.906250
971,3.906250
972,5.859375
973,5.859375
974,7.812500
975,7.812500
976,9.765625
977,9.765625
978,11.718750
979,11.718750
980,13.671875
981,13.671875
982,15.625000
983,15.625000
984,15.625000
985,17.578125
986,17.578125
987,19.531250
988,19.531250
989,21.484375
990,21.484375
991,23.437500
992,23.437500
993,25.390625
994,25.390625
995,25.390625
996,27.343750
997,29.296875
998,29.296875
999,29.296875
1000,31.250000
1001,31.250000
1002,33.203125
1003,33.203125
1004,33.203125
1005,35.156250
1006,35.156250
1007,35.156250
1008,37.109375
1009,37.109375
1010,41.015625
1011,39.062500
1012,41.015625
1013,41.015625
1014,41.015625
1015,42.968750
1016,42.968750
1017,44.921875
1018,44.921875
1019,44.921875
1020,46.875000
1021,46.875000
1022,48.828125
1023,48.828125
1024,48.828125
1025,52.734375
1026,50.781250
1027,50.781250
1028,52.734375
1029,52.734375
1030,54.687500
1031,54.687500
1032,54.687500
1033,56.640625
1034,56.640625
1035,56.640625
1036,56.640625
1037,58.593750
1038,58.593750
1039,58.593750
1040,60.546875
1041,60.546875
1042,60.546875
1043,60.546875
1044,62.500000
1045,62.500000
1046,64.453125
1047,64.453125
1048,64.453125
1049,64.453125
1050,64.453125
1051,66.406250
1052,66.406250
1053,68.359375
1054,66.406250
1055,68.359375
1056,68.359375
1057,68.359375
1058,68.359375
1059,70.312500
1060,70.312500
1061,70.312500
1062,70.312500
1063,72.265625
1064,70.312500
1065,72.265625
1066,72.265625
1067,72.265625
1068,72.265625
1069,72.265625
1070,74.218750
1071,72.265625
1072,74.218750
1073,74.218750
1074,74.218750
1075,74.218750
1076,74.218750
1077,74.218750
1078,76.171875
1079,76.171875
1080,76.171875
1081,76.171875
1082,76.171875
1083,76.171875
1084,76.171875
1085,76.171875
1086,76.171875
1087,76.171875
1088,76.171875
1089,76.171875
1090,78.125000
1091,78.125000
1092,78.125000
1093,78.125000
1094,78.125000
1095,78.125000
1096,78.125000
1097,78.125000
1098,78.125000
1099,78.125000
1100,78.125000
1101,78.125000
1102,78.125000
1103,78.125000
1104,78.125000
1105,78.125000
1106,78.125000
1107,78.125000
1108,78.125000
1109,76.171875
1110,78.125000
1111,76.171875
1112,76.171875
1113,78.125000
1114,76.171875
1115,76.171875
1116,76.171875
1117,76.171875
1118,76.171875
1119,76.171875
1120,76.171875
1121,76.171875
1122,76.171875
1123,74.218750
1124,74.218750
1125,74.218750
1126,74.218750
1127,74.218750
1128,74.218750
1129,72.265625
1130,72.265625
1131,72.265625
1132,72.265625
1133,72.265625
1134,72.265625
1135,72.265625
1136,70.312500
1137,70.312500
1138,70.312500
1139,70.312500
1140,68.359375
1141,68.359375
1142,68.359375
1143,68.359375
1144,68.359375
1145,68.359375
1146,68.359375
1147,66.406250
1148,66.406250
1149,64.453125
1150,64.453125
1151,64.453125
1152,64.453125
1153,62.500000
1154,62.500000
1155,62.500000
1156,62.500000
1157,60.546875
1158,60.546875
1159,60.546875
1160,60.546875
1161,58.593750
1162,58.593750
1163,56.640625
1164,56.640625
1165,56.640625
1166,56.640625
1167,54.687500
1168,54.687500
1169,54.687500
1170,52.734375
1171,52.734375
1172,52.734375
1173,50.781250
1174,50.781250
1175,48.828125
1176,48.828125
1177,48.828125
1178,46.875000
1179,46.875000
1180,46.875000
1181,44.921875
1182,44.921875
1183,42.968750
1184,42.968750
1185,42.968750
1186,41.015625
1187,41.015625
1188,39.062500
1189,39.062500
1190,39.062500
1191,37.109375
1192,37.109375
1193,35.156250
1194,35.156250
1195,33.203125
1196,33.203125
1197,31.250000
1198,31.250000
1199,31.250000
1200,29.296875
1201,29.296875
1202,27.343750
1203,27.343750
1204,27.343750
1205,25.390625
1206,25.390625
1207,23.437500
1208,23.437500
1209,21.484375
1210,21.484375
1211,19.531250
1212,19.531250
1213,17.578125
1214,17.578125
1215,15.625000
1216,15.625000
1217,15.625000
1218,13.671875
1219,11.718750
1220,11.718750
1221,11.718750
1222,9.765625
1223,9.765625
1224,7.812500
1225,7.812500
1226,5.859375
1227,5.859375
1228,3.906250
1229,3.906250
1230,1.953125
1231,1.953125
1232,0.000000
1233,0.000000
1234,-1.953125
1235,-1.953125
1236,-3.906250
1237,-3.906250
1238,-5.859375
1239,-5.859375
1240,-5.859375
1241,-7.812500
1242,-7.812500
1243,-9.765625
1244,-9.765625
1245,-11.718750
1246,-11.718750
1247,-13.671875
1248,-13.671875
1249,-15.625000
1250,-15.625000
1251,-17.578125
1252,-17.578125
1253,-17.578125
1254,-19.531250
1255,-19.531250
1256,-21.484375
1257,-21.484375
1258,-23.437500
1259,-23.437500
1260,-25.390625
1261,-25.390625
1262,-25.390625
1263,-27.343750
1264,-27.343750
1265,-29.296875
1266,-29.296875
1267,-31.250000
1268,-31.250000
1269,-33.203125
1270,-33.203125
1271,-35.156250
1272,-35.156250
1273,-35.156250
1274,-37.109375
1275,-37.109375
1276,-39.062500
1277,-39.062500
1278,-39.062500
1279,-41.015625
1280,-41.015625
1281,-42.968750
1282,-42.968750
1283,-42.968750
1284,-44.921875
1285,-44.921875
1286,-44.921875
1287,-46.875000
1288,-46.875000
1289,-46.875000
1290,-48.828125
1291,-48.828125
1292,-48.828125
1293,-50.781250
1294,-50.781250
1295,-50.781250
1296,-52.734375
1297,-52.734375
1298,-52.734375
1299,-54.687500
1300,-54.687500
1301,-54.687500
1302,-54.687500
1303,-56.640625
1304,-56.640625
1305,-58.593750
1306,-56.640625
1307,-58.593750
1308,-58.593750
1309,-60.546875
1310,-60.546875
1311,-60.546875
1312,-60.546875
1313,-62.500000
1314,-62.500000
1315,-62.500000
1316,-62.500000
1317,-62.500000
1318,-64.453125
1319,-64.453125
1320,-64.453125
1321,-64.453125
1322,-64.453125
1323,-66.406250
1324,-66.406250
1325,-66.406250
1326,-66.406250
1327,-66.406250
1328,-68.359375
1329,-68.359375
1330,-68.359375
1331,-68.359375
1332,-68.359375
1333,-68.359375
1334,-68.359375
1335,-68.359375
1336,-68.359375
1337,-70.312500
1338,-70.312500
1339,-70.312500
1340,-70.312500
1341,-70.312500
1342,-70.312500
1343,-70.312500
1344,-70.312500
1345,-70.312500
1346,-70.312500
1347,-70.312500
1348,-70.312500
1349,-70.312500
1350,-70.312500
1351,-70.312500
1352,-70.312500
1353,-70.312500
1354,-70.312500
1355,-72.265625
1356,-72.265625
1357,-72.265625
1358,-70.312500
1359,-70.312500
