Practicum8/data/opgave3/data_75_002.csv

Channel              :,CH1
Frequency            :,1.980kHz
Period               :,0.505ms
PK-PK                :,197.3mV
Probe attenuation    :,1X
Voltage per ADC value:,0.122070mV
Time interval        :,1.00000us

index,CH1_Voltage(mV)
1,50.781250
2,50.781250
3,52.734375
4,52.734375
5,54.687500
6,54.687500
7,56.640625
8,58.593750
9,58.593750
10,58.593750
11,60.546875
12,60.546875
13,62.500000
14,62.500000
15,64.453125
16,64.453125
17,66.406250
18,66.406250
19,68.359375
20,68.359375
21,68.359375
22,70.312500
23,70.312500
24,72.265625
25,72.265625
26,74.218750
27,74.218750
28,74.218750
29,74.218750
30,76.171875
31,76.171875
32,78.125000
33,78.125000
34,80.078125
35,80.078125
36,80.078125
37,82.031250
38,82.031250
39,82.031250
40,83.984375
41,83.984375
42,83.984375
43,83.984375
44,85.937500
45,85.937500
46,87.890625
47,85.937500
48,87.890625
49,87.890625
50,87.890625
51,89.843750
52,89.843750
53,89.843750
54,91.796875
55,91.796875
56,91.796875
57,91.796875
58,93.750000
59,91.796875
60,93.750000
61,93.750000
62,93.750000
63,93.750000
64,93.750000
65,95.703125
66,95.703125
67,95.703125
68,95.703125
69,95.703125
70,95.703125
71,97.656250
72,97.656250
73,97.656250
74,97.656250
75,97.656250
76,97.656250
77,97.656250
78,97.656250
79,97.656250
80,97.656250
81,97.656250
82,97.656250
83,97.656250
84,99.609375
85,99.609375
86,99.609375
87,99.609375
88,99.609375
89,97.656250
90,99.609375
91,99.609375
92,99.609375
93,99.609375
94,99.609375
95,99.609375
96,99.609375
97,97.656250
98,97.656250
99,97.656250
100,97.656250
101,97.656250
102,97.656250
103,97.656250
104,97.656250
105,97.656250
106,97.656250
107,97.656250
108,97.656250
109,95.703125
110,95.703125
111,95.703125
112,95.703125
113,95.703125
114,95.703125
115,93.750000
116,93.750000
117,93.750000
118,93.750000
119,93.750000
120,93.750000
121,93.750000
122,91.796875
123,91.796875
124,91.796875
125,89.843750
126,89.843750
127,89.843750
128,89.843750
129,87.890625
130,87.890625
131,87.890625
132,87.890625
133,87.890625
134,85.937500
135,85.937500
136,85.937500
137,83.984375
138,83.984375
139,83.984375
140,82.031250
141,82.031250
142,82.031250
143,80.078125
144,80.078125
145,78.125000
146,78.125000
147,78.125000
148,76.171875
149,76.171875
150,76.171875
151,76.171875
152,74.218750
153,72.265625
154,72.265625
155,72.265625
156,70.312500
157,70.312500
158,70.312500
159,68.359375
160,68.359375
161,66.406250
162,64.453125
163,64.453125
164,64.453125
165,62.500000
166,62.500000
167,62.500000
168,60.546875
169,58.593750
170,58.593750
171,56.640625
172,56.640625
173,54.687500
174,54.687500
175,52.734375
176,52.734375
177,50.781250
178,50.781250
179,48.828125
180,48.828125
181,46.875000
182,46.875000
183,44.921875
184,44.921875
185,42.968750
186,42.968750
187,41.015625
188,41.015625
189,39.062500
190,37.109375
191,37.109375
192,35.156250
193,33.203125
194,33.203125
195,33.203125
196,31.250000
197,29.296875
198,29.296875
199,27.343750
200,27.343750
201,25.390625
202,23.437500
203,23.437500
204,21.484375
205,21.484375
206,19.531250
207,19.531250
208,17.578125
209,15.625000
210,15.625000
211,13.671875
212,11.718750
213,11.718750
214,9.765625
215,7.812500
216,7.812500
217,5.859375
218,5.859375
219,3.906250
220,3.906250
221,1.953125
222,0.000000
223,0.000000
224,-1.953125
225,-3.906250
226,-3.906250
227,-5.859375
228,-7.812500
229,-7.812500
230,-9.765625
231,-9.765625
232,-11.718750
233,-13.671875
234,-13.671875
235,-15.625000
236,-17.578125
237,-17.578125
238,-19.531250
239,-19.531250
240,-21.484375
241,-23.437500
242,-23.437500
243,-25.390625
244,-25.390625
245,-27.343750
246,-29.296875
247,-29.296875
248,-31.250000
249,-33.203125
250,-33.203125
251,-33.203125
252,-35.156250
253,-37.109375
254,-39.062500
255,-39.062500
256,-41.015625
257,-41.015625
258,-42.968750
259,-42.968750
260,-44.921875
261,-44.921875
262,-46.875000
263,-46.875000
264,-48.828125
265,-50.781250
266,-50.781250
267,-52.734375
268,-52.734375
269,-54.687500
270,-54.687500
271,-56.640625
272,-56.640625
273,-58.593750
274,-58.593750
275,-60.546875
276,-60.546875
277,-62.500000
278,-64.453125
279,-64.453125
280,-64.453125
281,-66.406250
282,-66.406250
283,-66.406250
284,-68.359375
285,-68.359375
286,-70.312500
287,-70.312500
288,-72.265625
289,-72.265625
290,-72.265625
291,-74.218750
292,-74.218750
293,-76.171875
294,-76.171875
295,-76.171875
296,-78.125000
297,-78.125000
298,-80.078125
299,-80.078125
300,-80.078125
301,-80.078125
302,-82.031250
303,-82.031250
304,-82.031250
305,-83.984375
306,-83.984375
307,-83.984375
308,-85.937500
309,-85.937500
310,-85.937500
311,-85.937500
312,-87.890625
313,-87.890625
314,-87.890625
315,-87.890625
316,-87.890625
317,-89.843750
318,-89.843750
319,-89.843750
320,-89.843750
321,-89.843750
322,-91.796875
323,-91.796875
324,-91.796875
325,-91.796875
326,-91.796875
327,-91.796875
328,-91.796875
329,-93.750000
330,-93.750000
331,-93.750000
332,-93.750000
333,-93.750000
334,-93.750000
335,-93.750000
336,-93.750000
337,-93.750000
338,-93.750000
339,-93.750000
340,-93.750000
341,-93.750000
342,-93.750000
343,-93.750000
344,-93.750000
345,-93.750000
346,-93.750000
347,-93.750000
348,-93.750000
349,-93.750000
350,-93.750000
351,-93.750000
352,-93.750000
353,-93.750000
354,-91.796875
355,-91.796875
356,-91.796875
357,-91.796875
358,-91.796875
359,-91.796875
360,-91.796875
361,-91.796875
362,-89.843750
363,-89.843750
364,-89.843750
365,-89.843750
366,-89.843750
367,-89.843750
368,-89.843750
369,-87.890625
370,-87.890625
371,-87.890625
372,-85.937500
373,-85.937500
374,-85.937500
375,-85.937500
376,-83.984375
377,-83.984375
378,-83.984375
379,-83.984375
380,-82.031250
381,-82.031250
382,-82.031250
383,-80.078125
384,-80.078125
385,-80.078125
386,-78.125000
387,-78.125000
388,-76.171875
389,-76.171875
390,-76.171875
391,-74.218750
392,-74.218750
393,-74.218750
394,-74.218750
395,-72.265625
396,-72.265625
397,-70.312500
398,-70.312500
399,-68.359375
400,-68.359375
401,-68.359375
402,-66.406250
403,-66.406250
404,-64.453125
405,-62.500000
406,-62.500000
407,-62.500000
408,-60.546875
409,-60.546875
410,-58.593750
411,-58.593750
412,-56.640625
413,-56.640625
414,-54.687500
415,-54.687500
416,-52.734375
417,-52.734375
418,-50.781250
419,-50.781250
420,-48.828125
421,-48.828125
422,-46.875000
423,-44.921875
424,-44.921875
425,-42.968750
426,-42.968750
427,-41.015625
428,-41.015625
429,-39.062500
430,-37.109375
431,-37.109375
432,-35.156250
433,-35.156250
434,-33.203125
435,-33.203125
436,-31.250000
437,-31.250000
438,-29.296875
439,-27.343750
440,-27.343750
441,-25.390625
442,-23.437500
443,-23.437500
444,-21.484375
445,-21.484375
446,-19.531250
447,-17.578125
448,-17.578125
449,-15.625000
450,-15.625000
451,-13.671875
452,-11.718750
453,-11.718750
454,-9.765625
455,-7.812500
456,-7.812500
457,-5.859375
458,-5.859375
459,-3.906250
460,-1.953125
461,-1.953125
462,0.000000
463,0.000000
464,1.953125
465,3.906250
466,5.859375
467,5.859375
468,7.812500
469,7.812500
470,9.765625
471,11.718750
472,11.718750
473,13.671875
474,13.671875
475,15.625000
476,17.578125
477,17.578125
478,19.531250
479,19.531250
480,21.484375
481,21.484375
482,23.437500
483,25.390625
484,25.390625
485,27.343750
486,29.296875
487,29.296875
488,31.250000
489,31.250000
490,33.203125
491,33.203125
492,35.156250
493,37.109375
494,37.109375
495,39.062500
496,41.015625
497,41.015625
498,41.015625
499,41.015625
500,42.968750
501,44.921875
502,44.921875
503,46.875000
504,46.875000
505,48.828125
506,50.781250
507,50.781250
508,52.734375
509,52.734375
510,54.687500
511,54.687500
512,56.640625
513,56.640625
514,58.593750
515,58.593750
516,58.593750
517,60.546875
518,62.500000
519,62.500000
520,62.500000
521,64.453125
522,64.453125
523,66.406250
524,66.406250
525,68.359375
526,68.359375
527,70.312500
528,70.312500
529,70.312500
530,72.265625
531,72.265625
532,72.265625
533,74.218750
534,74.218750
535,76.171875
536,76.171875
537,76.171875
538,78.125000
539,78.125000
540,80.078125
541,80.078125
542,80.078125
543,80.078125
544,82.031250
545,82.031250
546,83.984375
547,83.984375
548,83.984375
549,85.937500
550,85.937500
551,85.937500
552,85.937500
553,85.937500
554,87.890625
555,87.890625
556,87.890625
557,87.890625
558,89.843750
559,89.843750
560,89.843750
561,91.796875
562,91.796875
563,91.796875
564,91.796875
565,91.796875
566,93.750000
567,93.750000
568,93.750000
569,93.750000
570,93.750000
571,93.750000
572,93.750000
573,95.703125
574,95.703125
575,95.703125
576,95.703125
577,95.703125
578,95.703125
579,95.703125
580,97.656250
581,97.656250
582,97.656250
583,97.656250
584,97.656250
585,97.656250
586,97.656250
587,97.656250
588,97.656250
589,97.656250
590,97.656250
591,97.656250
592,97.656250
593,97.656250
594,97.656250
595,97.656250
596,97.656250
597,97.656250
598,99.609375
599,97.656250
600,97.656250
601,97.656250
602,97.656250
603,97.656250
604,97.656250
605,97.656250
606,97.656250
607,97.656250
608,97.656250
609,97.656250
610,97.656250
611,97.656250
612,97.656250
613,95.703125
614,95.703125
615,95.703125
616,95.703125
617,95.703125
618,95.703125
619,93.750000
620,93.750000
621,93.750000
622,93.750000
623,93.750000
624,93.750000
625,91.796875
626,91.796875
627,91.796875
628,91.796875
629,91.796875
630,89.843750
631,89.843750
632,89.843750
633,87.890625
634,87.890625
635,87.890625
636,87.890625
637,85.937500
638,85.937500
639,85.937500
640,85.937500
641,83.984375
642,83.984375
643,83.984375
644,82.031250
645,82.031250
646,82.031250
647,80.078125
648,80.078125
649,80.078125
650,78.125000
651,78.125000
652,78.125000
653,76.171875
654,76.171875
655,76.171875
656,74.218750
657,74.218750
658,72.265625
659,72.265625
660,72.265625
661,70.312500
662,70.312500
663,68.359375
664,68.359375
665,66.406250
666,66.406250
667,64.453125
668,64.453125
669,64.453125
670,62.500000
671,62.500000
672,60.546875
673,60.546875
674,58.593750
675,58.593750
676,56.640625
677,56.640625
678,54.687500
679,54.687500
680,52.734375
681,52.734375
682,50.781250
683,50.781250
684,48.828125
685,46.875000
686,46.875000
687,44.921875
688,44.921875
689,42.968750
690,42.968750
691,42.968750
692,41.015625
693,39.062500
694,39.062500
695,37.109375
696,37.109375
697,35.156250
698,33.203125
699,33.203125
700,31.250000
701,31.250000
702,29.296875
703,29.296875
704,27.343750
705,25.390625
706,25.390625
707,23.437500
708,23.437500
709,21.484375
710,21.484375
711,19.531250
712,17.578125
713,15.625000
714,15.625000
715,13.671875
716,13.671875
717,11.718750
718,9.765625
719,9.765625
720,7.812500
721,7.812500
722,5.859375
723,3.906250
724,3.906250
725,1.953125
726,1.953125
727,0.000000
728,-1.953125
729,-1.953125
730,-3.906250
731,-5.859375
732,-5.859375
733,-7.812500
734,-7.812500
735,-9.765625
736,-9.765625
737,-11.718750
738,-13.671875
739,-13.671875
740,-15.625000
741,-17.578125
742,-17.578125
743,-19.531250
744,-21.484375
745,-21.484375
746,-23.437500
747,-25.390625
748,-25.390625
749,-27.343750
750,-27.343750
751,-29.296875
752,-29.296875
753,-31.250000
754,-33.203125
755,-33.203125
756,-35.156250
757,-35.156250
758,-37.109375
759,-39.062500
760,-39.062500
761,-39.062500
762,-41.015625
763,-42.968750
764,-42.968750
765,-44.921875
766,-44.921875
767,-46.875000
768,-48.828125
769,-48.828125
770,-50.781250
771,-50.781250
772,-52.734375
773,-52.734375
774,-54.687500
775,-56.640625
776,-56.640625
777,-56.640625
778,-58.593750
779,-58.593750
780,-60.546875
781,-60.546875
782,-62.500000
783,-62.500000
784,-64.453125
785,-64.453125
786,-66.406250
787,-66.406250
788,-66.406250
789,-68.359375
790,-68.359375
791,-70.312500
792,-70.312500
793,-72.265625
794,-72.265625
795,-74.218750
796,-74.218750
797,-74.218750
798,-76.171875
799,-76.171875
800,-76.171875
801,-78.125000
802,-78.125000
803,-80.078125
804,-80.078125
805,-80.078125
806,-82.031250
807,-82.031250
808,-82.031250
809,-82.031250
810,-83.984375
811,-83.984375
812,-83.984375
813,-85.937500
814,-85.937500
815,-85.937500
816,-87.890625
817,-85.937500
818,-87.890625
819,-87.890625
820,-87.890625
821,-87.890625
822,-89.843750
823,-89.843750
824,-89.843750
825,-89.843750
826,-91.796875
827,-91.796875
828,-91.796875
829,-91.796875
830,-91.796875
831,-91.796875
832,-91.796875
833,-91.796875
834,-93.750000
835,-93.750000
836,-91.796875
837,-93.750000
838,-93.750000
839,-93.750000
840,-93.750000
841,-93.750000
842,-93.750000
843,-93.750000
844,-93.750000
845,-93.750000
846,-93.750000
847,-93.750000
848,-93.750000
849,-93.750000
850,-93.750000
851,-93.750000
852,-93.750000
853,-93.750000
854,-93.750000
855,-93.750000
856,-93.750000
857,-93.750000
858,-93.750000
859,-91.796875
860,-93.750000
861,-93.750000
862,-91.796875
863,-91.796875
864,-91.796875
865,-91.796875
866,-91.796875
867,-89.843750
868,-89.843750
869,-89.843750
870,-89.843750
871,-89.843750
872,-89.843750
873,-89.843750
874,-87.890625
875,-87.890625
876,-87.890625
877,-87.890625
878,-85.937500
879,-83.984375
880,-85.937500
881,-83.984375
882,-83.984375
883,-83.984375
884,-83.984375
885,-82.031250
886,-82.031250
887,-82.031250
888,-80.078125
889,-80.078125
890,-80.078125
891,-78.125000
892,-78.125000
893,-78.125000
894,-76.171875
895,-76.171875
896,-76.171875
897,-76.171875
898,-74.218750
899,-72.265625
900,-72.265625
901,-70.312500
902,-70.312500
903,-70.312500
904,-68.359375
905,-68.359375
906,-68.359375
907,-66.406250
908,-66.406250
909,-64.453125
910,-62.500000
911,-62.500000
912,-62.500000
913,-60.546875
914,-60.546875
915,-58.593750
916,-58.593750
917,-56.640625
918,-56.640625
919,-54.687500
920,-54.687500
921,-52.734375
922,-52.734375
923,-50.781250
924,-48.828125
925,-48.828125
926,-46.875000
927,-46.875000
928,-44.921875
929,-44.921875
930,-42.968750
931,-42.968750
932,-41.015625
933,-41.015625
934,-39.062500
935,-39.062500
936,-37.109375
937,-35.156250
938,-35.156250
939,-33.203125
940,-33.203125
941,-31.250000
942,-31.250000
943,-29.296875
944,-27.343750
945,-27.343750
946,-25.390625
947,-23.437500
948,-23.437500
949,-21.484375
950,-21.484375
951,-19.531250
952,-17.578125
953,-17.578125
954,-15.625000
955,-13.671875
956,-13.671875
957,-11.718750
958,-11.718750
959,-9.765625
960,-9.765625
961,-7.812500
962,-5.859375
963,-3.906250
964,-3.906250
965,-1.953125
966,-1.953125
967,0.000000
968,1.953125
969,1.953125
970,3.906250
971,3.906250
972,5.859375
973,7.812500
974,7.812500
975,9.765625
976,9.765625
977,11.718750
978,13.671875
979,13.671875
980,15.625000
981,17.578125
982,17.578125
983,19.531250
984,19.531250
985,21.484375
986,23.437500
987,23.437500
988,25.390625
989,27.343750
990,27.343750
991,29.296875
992,29.296875
993,31.250000
994,31.250000
995,33.203125
996,35.156250
997,35.156250
998,37.109375
999,37.109375
1000,39.062500
1001,41.015625
1002,41.015625
1003,41.015625
1004,42.968750
1005,42.968750
1006,44.921875
1007,46.875000
1008,46.875000
1009,48.828125
1010,48.828125
1011,50.781250
1012,52.734375
1013,52.734375
1014,52.734375
1015,54.687500
1016,54.687500
1017,56.640625
1018,56.640625
1019,58.593750
1020,58.593750
1021,60.546875
1022,60.546875
1023,62.500000
1024,62.500000
1025,64.453125
1026,64.453125
1027,66.406250
1028,66.406250
1029,68.359375
1030,68.359375
1031,70.312500
1032,70.312500
1033,70.312500
1034,70.312500
1035,72.265625
1036,72.265625
1037,74.218750
1038,74.218750
1039,76.171875
1040,76.171875
1041,76.171875
1042,76.171875
1043,78.125000
1044,78.125000
1045,80.078125
1046,80.078125
1047,80.078125
1048,82.031250
1049,82.031250
1050,82.031250
1051,82.031250
1052,83.984375
1053,83.984375
1054,85.937500
1055,85.937500
1056,85.937500
1057,85.937500
1058,87.890625
1059,87.890625
1060,87.890625
1061,89.843750
1062,89.843750
1063,89.843750
1064,91.796875
1065,91.796875
1066,91.796875
1067,91.796875
1068,91.796875
1069,91.796875
1070,91.796875
1071,93.750000
1072,93.750000
1073,93.750000
1074,93.750000
1075,93.750000
1076,95.703125
1077,93.750000
1078,95.703125
1079,95.703125
1080,95.703125
1081,95.703125
1082,97.656250
1083,97.656250
1084,97.656250
1085,97.656250
1086,97.656250
1087,97.656250
1088,97.656250
1089,97.656250
1090,97.656250
1091,97.656250
1092,97.656250
1093,97.656250
1094,97.656250
1095,97.656250
1096,99.609375
1097,99.609375
1098,99.609375
1099,99.609375
1100,99.609375
1101,97.656250
1102,97.656250
1103,99.609375
1104,99.609375
1105,97.656250
1106,97.656250
1107,97.656250
1108,97.656250
1109,97.656250
1110,97.656250
1111,97.656250
1112,97.656250
1113,97.656250
1114,97.656250
1115,97.656250
1116,97.656250
1117,97.656250
1118,97.656250
1119,95.703125
1120,95.703125
1121,95.703125
1122,95.703125
1123,95.703125
1124,95.703125
1125,93.750000
1126,95.703125
1127,93.750000
1128,93.750000
1129,93.750000
1130,93.750000
1131,91.796875
1132,91.796875
1133,91.796875
1134,91.796875
1135,91.796875
1136,89.843750
1137,89.843750
1138,89.843750
1139,87.890625
1140,87.890625
1141,87.890625
1142,87.890625
1143,87.890625
1144,85.937500
1145,85.937500
1146,85.937500
1147,83.984375
1148,83.984375
1149,83.984375
1150,82.031250
1151,82.031250
1152,82.031250
1153,80.078125
1154,80.078125
1155,80.078125
1156,78.125000
1157,78.125000
1158,78.125000
1159,76.171875
1160,76.171875
1161,76.171875
1162,74.218750
1163,74.218750
1164,72.265625
1165,72.265625
1166,70.312500
1167,70.312500
1168,68.359375
1169,68.359375
1170,68.359375
1171,68.359375
1172,66.406250
1173,64.453125
1174,64.453125
1175,62.500000
1176,62.500000
1177,60.546875
1178,60.546875
1179,58.593750
1180,58.593750
1181,58.593750
1182,56.640625
1183,54.687500
1184,54.687500
1185,52.734375
1186,52.734375
1187,50.781250
1188,50.781250
1189,48.828125
1190,48.828125
1191,46.875000
1192,46.875000
1193,44.921875
1194,42.968750
1195,42.968750
1196,41.015625
1197,41.015625
1198,41.015625
1199,39.062500
1200,37.109375
1201,37.109375
1202,35.156250
1203,33.203125
1204,33.203125
1205,31.250000
1206,31.250000
1207,29.296875
1208,29.296875
1209,27.343750
1210,27.343750
1211,25.390625
1212,23.437500
1213,23.437500
1214,21.484375
1215,21.484375
1216,19.531250
1217,17.578125
1218,17.578125
1219,15.625000
1220,15.625000
1221,13.671875
1222,11.718750
1223,11.718750
1224,9.765625
1225,7.812500
1226,7.812500
1227,5.859375
1228,5.859375
1229,3.906250
1230,1.953125
1231,1.953125
1232,0.000000
1233,-1.953125
1234,-1.953125
1235,-1.953125
1236,-3.906250
1237,-5.859375
1238,-5.859375
1239,-7.812500
1240,-9.765625
1241,-9.765625
1242,-11.718750
1243,-13.671875
1244,-13.671875
1245,-15.625000
1246,-17.578125
1247,-17.578125
1248,-19.531250
1249,-19.531250
1250,-21.484375
1251,-23.437500
1252,-25.390625
1253,-25.390625
1254,-27.343750
1255,-27.343750
1256,-29.296875
1257,-29.296875
1258,-31.250000
1259,-31.250000
1260,-33.203125
1261,-35.156250
1262,-35.156250
1263,-37.109375
1264,-37.109375
1265,-39.062500
1266,-39.062500
1267,-41.015625
1268,-42.968750
1269,-42.968750
1270,-44.921875
1271,-44.921875
1272,-46.875000
1273,-48.828125
1274,-48.828125
1275,-48.828125
1276,-50.781250
1277,-52.734375
1278,-52.734375
1279,-54.687500
1280,-54.687500
1281,-56.640625
1282,-56.640625
1283,-58.593750
1284,-58.593750
1285,-60.546875
1286,-60.546875
1287,-62.500000
1288,-62.500000
1289,-64.453125
1290,-64.453125
1291,-66.406250
1292,-66.406250
1293,-68.359375
1294,-68.359375
1295,-70.312500
1296,-70.312500
1297,-70.312500
1298,-72.265625
1299,-72.265625
1300,-72.265625
1301,-74.218750
1302,-74.218750
1303,-76.171875
1304,-76.171875
1305,-78.125000
1306,-78.125000
1307,-78.125000
1308,-80.078125
1309,-80.078125
1310,-80.078125
1311,-82.031250
1312,-82.031250
1313,-80.078125
1314,-83.984375
1315,-83.984375
1316,-83.984375
1317,-85.937500
1318,-85.937500
1319,-85.937500
1320,-85.937500
1321,-85.937500
1322,-87.890625
1323,-87.890625
1324,-87.890625
1325,-87.890625
1326,-87.890625
1327,-89.843750
1328,-89.843750
1329,-89.843750
1330,-89.843750
1331,-89.843750
1332,-91.796875
1333,-91.796875
1334,-91.796875
1335,-91.796875
1336,-91.796875
1337,-91.796875
1338,-93.750000
1339,-93.750000
1340,-93.750000
1341,-93.750000
1342,-93.750000
1343,-93.750000
1344,-93.750000
1345,-93.750000
1346,-93.750000
1347,-93.750000
1348,-93.750000
1349,-95.703125
1350,-93.750000
1351,-93.750000
1352,-93.750000
1353,-93.750000
1354,-95.703125
1355,-95.703125
1356,-93.750000
1357,-93.750000
