Practicum8/data/opgave3/data_75_003.csv

Channel              :,CH1
Frequency            :,1.980kHz
Period               :,0.505ms
PK-PK                :,203.1mV
Probe attenuation    :,1X
Voltage per ADC value:,0.122070mV
Time interval        :,1.00000us

index,CH1_Voltage(mV)
1,54.687500
2,54.687500
3,54.687500
4,56.640625
5,56.640625
6,58.593750
7,58.593750
8,58.593750
9,60.546875
10,62.500000
11,62.500000
12,64.453125
13,64.453125
14,66.406250
15,66.406250
16,68.359375
17,68.359375
18,68.359375
19,70.312500
20,72.265625
21,72.265625
22,74.218750
23,74.218750
24,74.218750
25,76.171875
26,76.171875
27,78.125000
28,78.125000
29,78.125000
30,78.125000
31,80.078125
32,80.078125
33,82.031250
34,83.984375
35,83.984375
36,83.984375
37,83.984375
38,83.984375
39,85.937500
40,85.937500
41,87.890625
42,87.890625
43,87.890625
44,87.890625
45,89.843750
46,89.843750
47,89.843750
48,91.796875
49,91.796875
50,91.796875
51,91.796875
52,93.750000
53,93.750000
54,93.750000
55,93.750000
56,95.703125
57,95.703125
58,95.703125
59,95.703125
60,95.703125
61,97.656250
62,97.656250
63,97.656250
64,97.656250
65,99.609375
66,99.609375
67,99.609375
68,99.609375
69,99.609375
70,101.562500
71,99.609375
72,101.562500
73,99.609375
74,101.562500
75,101.562500
76,101.562500
77,101.562500
78,101.562500
79,101.562500
80,101.562500
81,101.562500
82,101.562500
83,101.562500
84,101.562500
85,103.515625
86,101.562500
87,103.515625
88,101.562500
89,103.515625
90,103.515625
91,103.515625
92,103.515625
93,103.515625
94,101.562500
95,101.562500
96,101.562500
97,103.515625
98,101.562500
99,103.515625
100,101.562500
101,101.562500
102,101.562500
103,101.562500
104,101.562500
105,101.562500
106,101.562500
107,99.609375
108,99.609375
109,101.562500
110,99.609375
111,99.609375
112,99.609375
113,99.609375
114,99.609375
115,97.656250
116,97.656250
117,97.656250
118,97.656250
119,97.656250
120,97.656250
121,95.703125
122,95.703125
123,95.703125
124,95.703125
125,93.750000
126,91.796875
127,93.750000
128,93.750000
129,91.796875
130,91.796875
131,91.796875
132,89.843750
133,89.843750
134,89.843750
135,89.843750
136,89.843750
137,87.890625
138,87.890625
139,85.937500
140,85.937500
141,83.984375
142,83.984375
143,83.984375
144,83.984375
145,82.031250
146,82.031250
147,80.078125
148,80.078125
149,78.125000
150,78.125000
151,78.125000
152,78.125000
153,76.171875
154,76.171875
155,74.218750
156,74.218750
157,72.265625
158,72.265625
159,70.312500
160,70.312500
161,68.359375
162,68.359375
163,68.359375
164,66.406250
165,66.406250
166,66.406250
167,64.453125
168,64.453125
169,62.500000
170,60.546875
171,60.546875
172,58.593750
173,58.593750
174,56.640625
175,56.640625
176,54.687500
177,54.687500
178,52.734375
179,50.781250
180,50.781250
181,48.828125
182,48.828125
183,46.875000
184,46.875000
185,44.921875
186,42.968750
187,42.968750
188,41.015625
189,41.015625
190,39.062500
191,39.062500
192,37.109375
193,35.156250
194,33.203125
195,33.203125
196,31.250000
197,31.250000
198,29.296875
199,27.343750
200,27.343750
201,25.390625
202,25.390625
203,23.437500
204,21.484375
205,21.484375
206,19.531250
207,17.578125
208,17.578125
209,15.625000
210,15.625000
211,13.671875
212,11.718750
213,11.718750
214,9.765625
215,7.812500
216,5.859375
217,5.859375
218,3.906250
219,3.906250
220,1.953125
221,0.000000
222,-1.953125
223,-1.953125
224,-1.953125
225,-3.906250
226,-5.859375
227,-7.812500
228,-7.812500
229,-9.765625
230,-9.765625
231,-11.718750
232,-13.671875
233,-13.671875
234,-15.625000
235,-17.578125
236,-17.578125
237,-19.531250
238,-21.484375
239,-21.484375
240,-23.437500
241,-25.390625
242,-25.390625
243,-27.343750
244,-29.296875
245,-29.296875
246,-31.250000
247,-31.250000
248,-33.203125
249,-35.156250
250,-35.156250
251,-37.109375
252,-37.109375
253,-39.062500
254,-41.015625
255,-41.015625
256,-42.968750
257,-42.968750
258,-44.921875
259,-46.875000
260,-46.875000
261,-48.828125
262,-48.828125
263,-50.781250
264,-50.781250
265,-52.734375
266,-54.687500
267,-54.687500
268,-56.640625
269,-58.593750
270,-58.593750
271,-58.593750
272,-60.546875
273,-62.500000
274,-60.546875
275,-62.500000
276,-64.453125
277,-66.406250
278,-66.406250
279,-68.359375
280,-68.359375
281,-68.359375
282,-70.312500
283,-70.312500
284,-72.265625
285,-72.265625
286,-74.218750
287,-74.218750
288,-74.218750
289,-76.171875
290,-76.171875
291,-78.125000
292,-78.125000
293,-80.078125
294,-80.078125
295,-82.031250
296,-82.031250
297,-82.031250
298,-83.984375
299,-83.984375
300,-83.984375
301,-83.984375
302,-85.937500
303,-85.937500
304,-87.890625
305,-87.890625
306,-87.890625
307,-89.843750
308,-89.843750
309,-89.843750
310,-89.843750
311,-91.796875
312,-91.796875
313,-91.796875
314,-91.796875
315,-93.750000
316,-93.750000
317,-93.750000
318,-95.703125
319,-95.703125
320,-95.703125
321,-95.703125
322,-95.703125
323,-95.703125
324,-95.703125
325,-95.703125
326,-97.656250
327,-97.656250
328,-97.656250
329,-97.656250
330,-97.656250
331,-97.656250
332,-97.656250
333,-97.656250
334,-99.609375
335,-99.609375
336,-99.609375
337,-99.609375
338,-99.609375
339,-99.609375
340,-99.609375
341,-99.609375
342,-99.609375
343,-99.609375
344,-99.609375
345,-99.609375
346,-99.609375
347,-99.609375
348,-99.609375
349,-99.609375
350,-99.609375
351,-97.656250
352,-97.656250
353,-97.656250
354,-97.656250
355,-97.656250
356,-97.656250
357,-97.656250
358,-97.656250
359,-97.656250
360,-95.703125
361,-95.703125
362,-95.703125
363,-95.703125
364,-95.703125
365,-95.703125
366,-93.750000
367,-93.750000
368,-93.750000
369,-93.750000
370,-93.750000
371,-91.796875
372,-91.796875
373,-91.796875
374,-89.843750
375,-89.843750
376,-89.843750
377,-89.843750
378,-87.890625
379,-87.890625
380,-85.937500
381,-85.937500
382,-85.937500
383,-85.937500
384,-83.984375
385,-83.984375
386,-83.984375
387,-82.031250
388,-82.031250
389,-80.078125
390,-80.078125
391,-80.078125
392,-78.125000
393,-78.125000
394,-76.171875
395,-76.171875
396,-76.171875
397,-74.218750
398,-74.218750
399,-72.265625
400,-72.265625
401,-70.312500
402,-70.312500
403,-70.312500
404,-68.359375
405,-66.406250
406,-66.406250
407,-64.453125
408,-64.453125
409,-62.500000
410,-62.500000
411,-62.500000
412,-60.546875
413,-58.593750
414,-58.593750
415,-56.640625
416,-56.640625
417,-54.687500
418,-54.687500
419,-52.734375
420,-50.781250
421,-50.781250
422,-48.828125
423,-48.828125
424,-46.875000
425,-46.875000
426,-44.921875
427,-44.921875
428,-42.968750
429,-41.015625
430,-41.015625
431,-39.062500
432,-37.109375
433,-37.109375
434,-35.156250
435,-35.156250
436,-33.203125
437,-33.203125
438,-29.296875
439,-29.296875
440,-27.343750
441,-27.343750
442,-27.343750
443,-25.390625
444,-23.437500
445,-21.484375
446,-21.484375
447,-19.531250
448,-17.578125
449,-17.578125
450,-15.625000
451,-15.625000
452,-13.671875
453,-11.718750
454,-9.765625
455,-9.765625
456,-7.812500
457,-7.812500
458,-5.859375
459,-3.906250
460,-3.906250
461,-1.953125
462,0.000000
463,0.000000
464,1.953125
465,3.906250
466,3.906250
467,5.859375
468,7.812500
469,7.812500
470,9.765625
471,9.765625
472,11.718750
473,13.671875
474,15.625000
475,15.625000
476,17.578125
477,17.578125
478,19.531250
479,21.484375
480,21.484375
481,23.437500
482,23.437500
483,25.390625
484,27.343750
485,27.343750
486,29.296875
487,29.296875
488,31.250000
489,33.203125
490,33.203125
491,35.156250
492,37.109375
493,37.109375
494,39.062500
495,39.062500
496,41.015625
497,41.015625
498,42.968750
499,42.968750
500,44.921875
501,44.921875
502,46.875000
503,48.828125
504,48.828125
505,50.781250
506,50.781250
507,52.734375
508,54.687500
509,54.687500
510,56.640625
511,56.640625
512,58.593750
513,58.593750
514,60.546875
515,60.546875
516,62.500000
517,62.500000
518,64.453125
519,64.453125
520,64.453125
521,66.406250
522,68.359375
523,68.359375
524,70.312500
525,70.312500
526,72.265625
527,72.265625
528,72.265625
529,74.218750
530,74.218750
531,74.218750
532,76.171875
533,76.171875
534,78.125000
535,78.125000
536,80.078125
537,80.078125
538,80.078125
539,82.031250
540,82.031250
541,82.031250
542,83.984375
543,83.984375
544,85.937500
545,85.937500
546,85.937500
547,85.937500
548,87.890625
549,87.890625
550,87.890625
551,89.843750
552,89.843750
553,91.796875
554,91.796875
555,91.796875
556,91.796875
557,93.750000
558,93.750000
559,93.750000
560,93.750000
561,93.750000
562,95.703125
563,95.703125
564,95.703125
565,95.703125
566,95.703125
567,97.656250
568,97.656250
569,97.656250
570,97.656250
571,97.656250
572,99.609375
573,99.609375
574,97.656250
575,99.609375
576,99.609375
577,99.609375
578,101.562500
579,99.609375
580,99.609375
581,99.609375
582,101.562500
583,101.562500
584,101.562500
585,101.562500
586,101.562500
587,101.562500
588,101.562500
589,101.562500
590,101.562500
591,101.562500
592,101.562500
593,101.562500
594,101.562500
595,101.562500
596,101.562500
597,101.562500
598,101.562500
599,101.562500
600,101.562500
601,101.562500
602,101.562500
603,101.562500
604,101.562500
605,101.562500
606,101.562500
607,101.562500
608,101.562500
609,101.562500
610,99.609375
611,99.609375
612,99.609375
613,99.609375
614,99.609375
615,99.609375
616,99.609375
617,97.656250
618,97.656250
619,97.656250
620,97.656250
621,97.656250
622,97.656250
623,97.656250
624,95.703125
625,95.703125
626,95.703125
627,95.703125
628,95.703125
629,93.750000
630,93.750000
631,93.750000
632,93.750000
633,91.796875
634,91.796875
635,91.796875
636,89.843750
637,89.843750
638,89.843750
639,89.843750
640,87.890625
641,87.890625
642,87.890625
643,85.937500
644,85.937500
645,85.937500
646,83.984375
647,83.984375
648,83.984375
649,82.031250
650,82.031250
651,82.031250
652,80.078125
653,80.078125
654,80.078125
655,78.125000
656,78.125000
657,76.171875
658,76.171875
659,74.218750
660,74.218750
661,74.218750
662,72.265625
663,72.265625
664,72.265625
665,70.312500
666,70.312500
667,68.359375
668,66.406250
669,66.406250
670,64.453125
671,64.453125
672,64.453125
673,62.500000
674,62.500000
675,60.546875
676,58.593750
677,58.593750
678,56.640625
679,56.640625
680,54.687500
681,54.687500
682,52.734375
683,52.734375
684,50.781250
685,50.781250
686,48.828125
687,46.875000
688,46.875000
689,44.921875
690,44.921875
691,42.968750
692,42.968750
693,41.015625
694,39.062500
695,39.062500
696,37.109375
697,37.109375
698,35.156250
699,35.156250
700,33.203125
701,31.250000
702,31.250000
703,29.296875
704,27.343750
705,27.343750
706,25.390625
707,23.437500
708,23.437500
709,21.484375
710,21.484375
711,19.531250
712,19.531250
713,17.578125
714,15.625000
715,15.625000
716,13.671875
717,11.718750
718,9.765625
719,9.765625
720,7.812500
721,7.812500
722,5.859375
723,3.906250
724,3.906250
725,1.953125
726,0.000000
727,-1.953125
728,-1.953125
729,-1.953125
730,-3.906250
731,-5.859375
732,-7.812500
733,-7.812500
734,-9.765625
735,-11.718750
736,-11.718750
737,-13.671875
738,-13.671875
739,-15.625000
740,-15.625000
741,-17.578125
742,-19.531250
743,-21.484375
744,-21.484375
745,-23.437500
746,-25.390625
747,-25.390625
748,-27.343750
749,-29.296875
750,-29.296875
751,-29.296875
752,-31.250000
753,-33.203125
754,-35.156250
755,-35.156250
756,-37.109375
757,-37.109375
758,-39.062500
759,-39.062500
760,-41.015625
761,-42.968750
762,-44.921875
763,-44.921875
764,-46.875000
765,-46.875000
766,-48.828125
767,-48.828125
768,-50.781250
769,-50.781250
770,-52.734375
771,-52.734375
772,-54.687500
773,-56.640625
774,-56.640625
775,-58.593750
776,-58.593750
777,-60.546875
778,-60.546875
779,-62.500000
780,-62.500000
781,-64.453125
782,-64.453125
783,-66.406250
784,-66.406250
785,-68.359375
786,-68.359375
787,-70.312500
788,-70.312500
789,-72.265625
790,-72.265625
791,-74.218750
792,-74.218750
793,-74.218750
794,-76.171875
795,-76.171875
796,-78.125000
797,-78.125000
798,-78.125000
799,-80.078125
800,-80.078125
801,-82.031250
802,-82.031250
803,-82.031250
804,-83.984375
805,-83.984375
806,-83.984375
807,-85.937500
808,-85.937500
809,-85.937500
810,-87.890625
811,-87.890625
812,-87.890625
813,-89.843750
814,-87.890625
815,-89.843750
816,-89.843750
817,-91.796875
818,-91.796875
819,-91.796875
820,-91.796875
821,-93.750000
822,-93.750000
823,-93.750000
824,-93.750000
825,-93.750000
826,-95.703125
827,-95.703125
828,-95.703125
829,-95.703125
830,-95.703125
831,-95.703125
832,-95.703125
833,-97.656250
834,-97.656250
835,-97.656250
836,-97.656250
837,-97.656250
838,-97.656250
839,-97.656250
840,-97.656250
841,-97.656250
842,-97.656250
843,-97.656250
844,-97.656250
845,-99.609375
846,-99.609375
847,-99.609375
848,-99.609375
849,-97.656250
850,-97.656250
851,-97.656250
852,-97.656250
853,-97.656250
854,-97.656250
855,-97.656250
856,-97.656250
857,-97.656250
858,-97.656250
859,-97.656250
860,-97.656250
861,-97.656250
862,-97.656250
863,-95.703125
864,-95.703125
865,-95.703125
866,-95.703125
867,-95.703125
868,-95.703125
869,-93.750000
870,-93.750000
871,-93.750000
872,-93.750000
873,-93.750000
874,-91.796875
875,-91.796875
876,-91.796875
877,-91.796875
878,-91.796875
879,-89.843750
880,-89.843750
881,-87.890625
882,-87.890625
883,-87.890625
884,-87.890625
885,-85.937500
886,-85.937500
887,-85.937500
888,-83.984375
889,-83.984375
890,-82.031250
891,-82.031250
892,-82.031250
893,-82.031250
894,-80.078125
895,-80.078125
896,-80.078125
897,-78.125000
898,-76.171875
899,-76.171875
900,-76.171875
901,-74.218750
902,-74.218750
903,-72.265625
904,-74.218750
905,-72.265625
906,-70.312500
907,-68.359375
908,-68.359375
909,-66.406250
910,-66.406250
911,-64.453125
912,-64.453125
913,-62.500000
914,-62.500000
915,-62.500000
916,-60.546875
917,-58.593750
918,-58.593750
919,-56.640625
920,-56.640625
921,-54.687500
922,-54.687500
923,-52.734375
924,-52.734375
925,-50.781250
926,-48.828125
927,-48.828125
928,-46.875000
929,-46.875000
930,-44.921875
931,-44.921875
932,-42.968750
933,-41.015625
934,-41.015625
935,-39.062500
936,-39.062500
937,-37.109375
938,-35.156250
939,-35.156250
940,-33.203125
941,-33.203125
942,-31.250000
943,-29.296875
944,-29.296875
945,-27.343750
946,-27.343750
947,-25.390625
948,-23.437500
949,-23.437500
950,-21.484375
951,-19.531250
952,-19.531250
953,-17.578125
954,-17.578125
955,-15.625000
956,-13.671875
957,-11.718750
958,-11.718750
959,-9.765625
960,-9.765625
961,-7.812500
962,-7.812500
963,-5.859375
964,-3.906250
965,0.000000
966,-1.953125
967,0.000000
968,1.953125
969,3.906250
970,3.906250
971,3.906250
972,5.859375
973,7.812500
974,9.765625
975,9.765625
976,11.718750
977,11.718750
978,13.671875
979,15.625000
980,15.625000
981,17.578125
982,19.531250
983,19.531250
984,21.484375
985,23.437500
986,23.437500
987,25.390625
988,25.390625
989,27.343750
990,27.343750
991,29.296875
992,31.250000
993,33.203125
994,33.203125
995,33.203125
996,35.156250
997,37.109375
998,37.109375
999,39.062500
1000,41.015625
1001,41.015625
1002,42.968750
1003,42.968750
1004,44.921875
1005,44.921875
1006,46.875000
1007,48.828125
1008,48.828125
1009,50.781250
1010,50.781250
1011,52.734375
1012,52.734375
1013,54.687500
1014,54.687500
1015,56.640625
1016,56.640625
1017,58.593750
1018,58.593750
1019,60.546875
1020,60.546875
1021,62.500000
1022,64.453125
1023,64.453125
1024,66.406250
1025,66.406250
1026,66.406250
1027,68.359375
1028,68.359375
1029,70.312500
1030,70.312500
1031,72.265625
1032,72.265625
1033,74.218750
1034,74.218750
1035,76.171875
1036,76.171875
1037,76.171875
1038,78.125000
1039,78.125000
1040,78.125000
1041,80.078125
1042,80.078125
1043,82.031250
1044,82.031250
1045,82.031250
1046,83.984375
1047,83.984375
1048,83.984375
1049,85.937500
1050,85.937500
1051,85.937500
1052,87.890625
1053,87.890625
1054,89.843750
1055,89.843750
1056,89.843750
1057,89.843750
1058,89.843750
1059,91.796875
1060,91.796875
1061,91.796875
1062,93.750000
1063,93.750000
1064,93.750000
1065,93.750000
1066,95.703125
1067,95.703125
1068,95.703125
1069,95.703125
1070,97.656250
1071,97.656250
1072,97.656250
1073,97.656250
1074,97.656250
1075,97.656250
1076,99.609375
1077,99.609375
1078,99.609375
1079,99.609375
1080,99.609375
1081,99.609375
1082,101.562500
1083,101.562500
1084,101.562500
1085,101.562500
1086,101.562500
1087,101.562500
1088,101.562500
1089,101.562500
1090,101.562500
1091,103.515625
1092,101.562500
1093,101.562500
1094,101.562500
1095,101.562500
1096,103.515625
1097,103.515625
1098,103.515625
1099,103.515625
1100,103.515625
1101,103.515625
1102,101.562500
1103,101.562500
1104,101.562500
1105,103.515625
1106,103.515625
1107,103.515625
1108,101.562500
1109,101.562500
1110,101.562500
1111,101.562500
1112,101.562500
1113,101.562500
1114,101.562500
1115,101.562500
1116,101.562500
1117,101.562500
1118,99.609375
1119,99.609375
1120,99.609375
1121,99.609375
1122,99.609375
1123,99.609375
1124,99.609375
1125,97.656250
1126,97.656250
1127,97.656250
1128,97.656250
1129,97.656250
1130,95.703125
1131,95.703125
1132,95.703125
1133,95.703125
1134,95.703125
1135,93.750000
1136,93.750000
1137,93.750000
1138,93.750000
1139,91.796875
1140,91.796875
1141,91.796875
1142,89.843750
1143,89.843750
1144,89.843750
1145,87.890625
1146,87.890625
1147,87.890625
1148,87.890625
1149,85.937500
1150,85.937500
1151,85.937500
1152,83.984375
1153,83.984375
1154,83.984375
1155,82.031250
1156,82.031250
1157,80.078125
1158,80.078125
1159,80.078125
1160,78.125000
1161,78.125000
1162,78.125000
1163,76.171875
1164,76.171875
1165,74.218750
1166,74.218750
1167,72.265625
1168,72.265625
1169,72.265625
1170,70.312500
1171,68.359375
1172,68.359375
1173,66.406250
1174,66.406250
1175,66.406250
1176,64.453125
1177,64.453125
1178,62.500000
1179,62.500000
1180,60.546875
1181,58.593750
1182,58.593750
1183,58.593750
1184,56.640625
1185,56.640625
1186,54.687500
1187,52.734375
1188,52.734375
1189,50.781250
1190,50.781250
1191,48.828125
1192,48.828125
1193,46.875000
1194,46.875000
1195,44.921875
1196,44.921875
1197,42.968750
1198,41.015625
1199,41.015625
1200,39.062500
1201,39.062500
1202,37.109375
1203,35.156250
1204,33.203125
1205,33.203125
1206,31.250000
1207,29.296875
1208,29.296875
1209,29.296875
1210,27.343750
1211,25.390625
1212,25.390625
1213,23.437500
1214,23.437500
1215,23.437500
1216,19.531250
1217,19.531250
1218,17.578125
1219,15.625000
1220,15.625000
1221,13.671875
1222,11.718750
1223,11.718750
1224,9.765625
1225,9.765625
1226,7.812500
1227,5.859375
1228,5.859375
1229,3.906250
1230,1.953125
1231,0.000000
1232,0.000000
1233,-1.953125
1234,-3.906250
1235,-3.906250
1236,-5.859375
1237,-7.812500
1238,-7.812500
1239,-9.765625
1240,-9.765625
1241,-11.718750
1242,-13.671875
1243,-13.671875
1244,-15.625000
1245,-17.578125
1246,-17.578125
1247,-19.531250
1248,-21.484375
1249,-23.437500
1250,-23.437500
1251,-23.437500
1252,-25.390625
1253,-27.343750
1254,-27.343750
1255,-29.296875
1256,-31.250000
1257,-31.250000
1258,-33.203125
1259,-33.203125
1260,-35.156250
1261,-37.109375
1262,-37.109375
1263,-39.062500
1264,-41.015625
1265,-41.015625
1266,-42.968750
1267,-42.968750
1268,-44.921875
1269,-46.875000
1270,-46.875000
1271,-48.828125
1272,-48.828125
1273,-50.781250
1274,-50.781250
1275,-52.734375
1276,-54.687500
1277,-54.687500
1278,-56.640625
1279,-58.593750
1280,-58.593750
1281,-58.593750
1282,-60.546875
1283,-60.546875
1284,-62.500000
1285,-62.500000
1286,-64.453125
1287,-64.453125
1288,-66.406250
1289,-66.406250
1290,-68.359375
1291,-70.312500
1292,-70.312500
1293,-72.265625
1294,-72.265625
1295,-74.218750
1296,-74.218750
1297,-74.218750
1298,-76.171875
1299,-76.171875
1300,-78.125000
1301,-78.125000
1302,-78.125000
1303,-78.125000
1304,-80.078125
1305,-82.031250
1306,-82.031250
1307,-82.031250
1308,-85.937500
1309,-82.031250
1310,-83.984375
1311,-83.984375
1312,-85.937500
1313,-85.937500
1314,-85.937500
1315,-87.890625
1316,-87.890625
1317,-89.843750
1318,-89.843750
1319,-89.843750
1320,-89.843750
1321,-91.796875
1322,-91.796875
1323,-91.796875
1324,-93.750000
1325,-93.750000
1326,-93.750000
1327,-93.750000
1328,-93.750000
1329,-93.750000
1330,-95.703125
1331,-95.703125
1332,-97.656250
1333,-95.703125
1334,-95.703125
1335,-95.703125
1336,-97.656250
1337,-97.656250
1338,-97.656250
1339,-97.656250
1340,-97.656250
1341,-97.656250
1342,-99.609375
1343,-101.562500
1344,-99.609375
1345,-99.609375
1346,-99.609375
1347,-99.609375
1348,-99.609375
1349,-99.609375
1350,-99.609375
