Practicum8/data/opgave3/data_75_001.csv

Channel              :,CH1
Frequency            :,1.980kHz
Period               :,0.505ms
PK-PK                :,252.0mV
Probe attenuation    :,1X
Voltage per ADC value:,0.122070mV
Time interval        :,1.00000us

index,CH1_Voltage(mV)
1,62.500000
2,62.500000
3,62.500000
4,64.453125
5,66.406250
6,66.406250
7,68.359375
8,68.359375
9,70.312500
10,72.265625
11,72.265625
12,74.218750
13,74.218750
14,76.171875
15,76.171875
16,78.125000
17,80.078125
18,80.078125
19,82.031250
20,82.031250
21,83.984375
22,85.937500
23,85.937500
24,85.937500
25,87.890625
26,87.890625
27,89.843750
28,89.843750
29,91.796875
30,91.796875
31,93.750000
32,95.703125
33,95.703125
34,95.703125
35,97.656250
36,97.656250
37,99.609375
38,99.609375
39,101.562500
40,101.562500
41,101.562500
42,103.515625
43,103.515625
44,103.515625
45,105.468750
46,105.468750
47,107.421875
48,107.421875
49,107.421875
50,107.421875
51,109.375000
52,109.375000
53,111.328125
54,111.328125
55,111.328125
56,111.328125
57,111.328125
58,113.281250
59,113.281250
60,113.281250
61,115.234375
62,115.234375
63,115.234375
64,117.187500
65,117.187500
66,117.187500
67,117.187500
68,117.187500
69,117.187500
70,117.187500
71,119.140625
72,119.140625
73,119.140625
74,119.140625
75,119.140625
76,121.093750
77,121.093750
78,121.093750
79,121.093750
80,121.093750
81,121.093750
82,121.093750
83,121.093750
84,121.093750
85,121.093750
86,121.093750
87,121.093750
88,123.046875
89,121.093750
90,121.093750
91,121.093750
92,123.046875
93,123.046875
94,121.093750
95,123.046875
96,121.093750
97,123.046875
98,121.093750
99,121.093750
100,121.093750
101,121.093750
102,121.093750
103,121.093750
104,121.093750
105,121.093750
106,121.093750
107,121.093750
108,119.140625
109,119.140625
110,119.140625
111,119.140625
112,119.140625
113,119.140625
114,119.140625
115,119.140625
116,117.187500
117,117.187500
118,117.187500
119,117.187500
120,115.234375
121,115.234375
122,115.234375
123,115.234375
124,113.281250
125,113.281250
126,113.281250
127,111.328125
128,111.328125
129,111.328125
130,111.328125
131,111.328125
132,109.375000
133,109.375000
134,107.421875
135,107.421875
136,107.421875
137,105.468750
138,105.468750
139,105.468750
140,103.515625
141,103.515625
142,101.562500
143,101.562500
144,99.609375
145,99.609375
146,99.609375
147,99.609375
148,97.656250
149,97.656250
150,95.703125
151,95.703125
152,93.750000
153,91.796875
154,91.796875
155,91.796875
156,89.843750
157,89.843750
158,87.890625
159,87.890625
160,85.937500
161,85.937500
162,83.984375
163,83.984375
164,82.031250
165,82.031250
166,80.078125
167,78.125000
168,78.125000
169,76.171875
170,76.171875
171,74.218750
172,72.265625
173,72.265625
174,70.312500
175,70.312500
176,68.359375
177,66.406250
178,64.453125
179,64.453125
180,62.500000
181,60.546875
182,60.546875
183,58.593750
184,58.593750
185,56.640625
186,54.687500
187,52.734375
188,52.734375
189,50.781250
190,50.781250
191,48.828125
192,46.875000
193,44.921875
194,42.968750
195,42.968750
196,41.015625
197,39.062500
198,39.062500
199,37.109375
200,35.156250
201,33.203125
202,33.203125
203,31.250000
204,29.296875
205,27.343750
206,27.343750
207,25.390625
208,23.437500
209,21.484375
210,21.484375
211,19.531250
212,17.578125
213,15.625000
214,15.625000
215,13.671875
216,11.718750
217,9.765625
218,7.812500
219,7.812500
220,5.859375
221,3.906250
222,1.953125
223,0.000000
224,-1.953125
225,-1.953125
226,-3.906250
227,-5.859375
228,-7.812500
229,-7.812500
230,-9.765625
231,-11.718750
232,-13.671875
233,-15.625000
234,-17.578125
235,-17.578125
236,-19.531250
237,-21.484375
238,-23.437500
239,-23.437500
240,-25.390625
241,-27.343750
242,-29.296875
243,-29.296875
244,-31.250000
245,-33.203125
246,-35.156250
247,-37.109375
248,-37.109375
249,-39.062500
250,-41.015625
251,-42.968750
252,-44.921875
253,-44.921875
254,-46.875000
255,-48.828125
256,-50.781250
257,-50.781250
258,-52.734375
259,-54.687500
260,-56.640625
261,-56.640625
262,-58.593750
263,-60.546875
264,-62.500000
265,-62.500000
266,-64.453125
267,-66.406250
268,-68.359375
269,-68.359375
270,-70.312500
271,-70.312500
272,-72.265625
273,-74.218750
274,-74.218750
275,-76.171875
276,-78.125000
277,-80.078125
278,-80.078125
279,-82.031250
280,-82.031250
281,-83.984375
282,-85.937500
283,-85.937500
284,-87.890625
285,-87.890625
286,-89.843750
287,-89.843750
288,-91.796875
289,-91.796875
290,-93.750000
291,-95.703125
292,-95.703125
293,-95.703125
294,-97.656250
295,-97.656250
296,-99.609375
297,-101.562500
298,-101.562500
299,-103.515625
300,-103.515625
301,-105.468750
302,-105.468750
303,-105.468750
304,-107.421875
305,-107.421875
306,-107.421875
307,-109.375000
308,-109.375000
309,-111.328125
310,-111.328125
311,-111.328125
312,-113.281250
313,-113.281250
314,-115.234375
315,-115.234375
316,-115.234375
317,-115.234375
318,-117.187500
319,-117.187500
320,-117.187500
321,-117.187500
322,-117.187500
323,-119.140625
324,-119.140625
325,-119.140625
326,-119.140625
327,-121.093750
328,-121.093750
329,-121.093750
330,-121.093750
331,-121.093750
332,-121.093750
333,-121.093750
334,-123.046875
335,-121.093750
336,-123.046875
337,-123.046875
338,-123.046875
339,-123.046875
340,-123.046875
341,-123.046875
342,-123.046875
343,-123.046875
344,-123.046875
345,-123.046875
346,-123.046875
347,-123.046875
348,-123.046875
349,-123.046875
350,-123.046875
351,-123.046875
352,-123.046875
353,-123.046875
354,-121.093750
355,-121.093750
356,-121.093750
357,-121.093750
358,-121.093750
359,-121.093750
360,-119.140625
361,-119.140625
362,-119.140625
363,-119.140625
364,-119.140625
365,-117.187500
366,-117.187500
367,-117.187500
368,-117.187500
369,-117.187500
370,-115.234375
371,-115.234375
372,-115.234375
373,-113.281250
374,-113.281250
375,-113.281250
376,-111.328125
377,-111.328125
378,-111.328125
379,-109.375000
380,-109.375000
381,-109.375000
382,-107.421875
383,-107.421875
384,-105.468750
385,-105.468750
386,-105.468750
387,-103.515625
388,-103.515625
389,-101.562500
390,-101.562500
391,-99.609375
392,-99.609375
393,-97.656250
394,-97.656250
395,-95.703125
396,-95.703125
397,-93.750000
398,-93.750000
399,-91.796875
400,-91.796875
401,-89.843750
402,-89.843750
403,-87.890625
404,-87.890625
405,-85.937500
406,-83.984375
407,-82.031250
408,-82.031250
409,-80.078125
410,-80.078125
411,-78.125000
412,-76.171875
413,-76.171875
414,-74.218750
415,-72.265625
416,-72.265625
417,-70.312500
418,-68.359375
419,-68.359375
420,-66.406250
421,-64.453125
422,-64.453125
423,-62.500000
424,-60.546875
425,-58.593750
426,-58.593750
427,-56.640625
428,-56.640625
429,-52.734375
430,-52.734375
431,-50.781250
432,-48.828125
433,-48.828125
434,-46.875000
435,-44.921875
436,-42.968750
437,-41.015625
438,-41.015625
439,-39.062500
440,-37.109375
441,-35.156250
442,-35.156250
443,-33.203125
444,-31.250000
445,-29.296875
446,-29.296875
447,-27.343750
448,-25.390625
449,-23.437500
450,-21.484375
451,-21.484375
452,-19.531250
453,-17.578125
454,-15.625000
455,-13.671875
456,-13.671875
457,-11.718750
458,-9.765625
459,-7.812500
460,-5.859375
461,-3.906250
462,-3.906250
463,-1.953125
464,0.000000
465,1.953125
466,1.953125
467,3.906250
468,5.859375
469,7.812500
470,9.765625
471,9.765625
472,11.718750
473,13.671875
474,15.625000
475,17.578125
476,17.578125
477,19.531250
478,21.484375
479,23.437500
480,23.437500
481,25.390625
482,27.343750
483,29.296875
484,31.250000
485,31.250000
486,33.203125
487,35.156250
488,35.156250
489,37.109375
490,39.062500
491,41.015625
492,41.015625
493,42.968750
494,44.921875
495,46.875000
496,46.875000
497,48.828125
498,50.781250
499,52.734375
500,52.734375
501,54.687500
502,56.640625
503,56.640625
504,58.593750
505,58.593750
506,60.546875
507,62.500000
508,62.500000
509,64.453125
510,66.406250
511,68.359375
512,68.359375
513,70.312500
514,70.312500
515,72.265625
516,74.218750
517,74.218750
518,76.171875
519,76.171875
520,78.125000
521,80.078125
522,80.078125
523,82.031250
524,82.031250
525,83.984375
526,83.984375
527,85.937500
528,85.937500
529,87.890625
530,87.890625
531,89.843750
532,89.843750
533,91.796875
534,91.796875
535,93.750000
536,93.750000
537,95.703125
538,95.703125
539,95.703125
540,97.656250
541,97.656250
542,99.609375
543,99.609375
544,101.562500
545,101.562500
546,101.562500
547,103.515625
548,105.468750
549,105.468750
550,105.468750
551,105.468750
552,107.421875
553,107.421875
554,107.421875
555,109.375000
556,109.375000
557,109.375000
558,111.328125
559,111.328125
560,111.328125
561,113.281250
562,113.281250
563,113.281250
564,113.281250
565,115.234375
566,115.234375
567,115.234375
568,115.234375
569,115.234375
570,117.187500
571,117.187500
572,117.187500
573,117.187500
574,119.140625
575,119.140625
576,119.140625
577,119.140625
578,119.140625
579,119.140625
580,119.140625
581,121.093750
582,121.093750
583,121.093750
584,121.093750
585,121.093750
586,121.093750
587,121.093750
588,121.093750
589,123.046875
590,123.046875
591,123.046875
592,123.046875
593,121.093750
594,121.093750
595,123.046875
596,123.046875
597,123.046875
598,123.046875
599,123.046875
600,123.046875
601,123.046875
602,123.046875
603,123.046875
604,121.093750
605,121.093750
606,121.093750
607,121.093750
608,121.093750
609,121.093750
610,121.093750
611,121.093750
612,121.093750
613,121.093750
614,121.093750
615,119.140625
616,119.140625
617,119.140625
618,119.140625
619,119.140625
620,117.187500
621,117.187500
622,117.187500
623,117.187500
624,117.187500
625,117.187500
626,115.234375
627,115.234375
628,115.234375
629,113.281250
630,113.281250
631,113.281250
632,111.328125
633,113.281250
634,111.328125
635,111.328125
636,111.328125
637,109.375000
638,109.375000
639,107.421875
640,107.421875
641,107.421875
642,105.468750
643,105.468750
644,105.468750
645,103.515625
646,103.515625
647,103.515625
648,101.562500
649,101.562500
650,99.609375
651,99.609375
652,97.656250
653,95.703125
654,95.703125
655,95.703125
656,95.703125
657,93.750000
658,93.750000
659,91.796875
660,91.796875
661,89.843750
662,89.843750
663,87.890625
664,85.937500
665,85.937500
666,83.984375
667,83.984375
668,83.984375
669,82.031250
670,82.031250
671,80.078125
672,78.125000
673,78.125000
674,76.171875
675,74.218750
676,74.218750
677,72.265625
678,70.312500
679,70.312500
680,68.359375
681,68.359375
682,66.406250
683,64.453125
684,64.453125
685,62.500000
686,62.500000
687,60.546875
688,58.593750
689,56.640625
690,56.640625
691,54.687500
692,52.734375
693,52.734375
694,50.781250
695,48.828125
696,46.875000
697,46.875000
698,44.921875
699,44.921875
700,42.968750
701,41.015625
702,39.062500
703,37.109375
704,37.109375
705,35.156250
706,33.203125
707,31.250000
708,31.250000
709,29.296875
710,27.343750
711,27.343750
712,25.390625
713,23.437500
714,21.484375
715,19.531250
716,19.531250
717,17.578125
718,15.625000
719,13.671875
720,11.718750
721,11.718750
722,9.765625
723,7.812500
724,5.859375
725,5.859375
726,3.906250
727,1.953125
728,0.000000
729,0.000000
730,-1.953125
731,-3.906250
732,-5.859375
733,-7.812500
734,-9.765625
735,-9.765625
736,-11.718750
737,-13.671875
738,-15.625000
739,-15.625000
740,-17.578125
741,-19.531250
742,-21.484375
743,-23.437500
744,-25.390625
745,-25.390625
746,-27.343750
747,-29.296875
748,-31.250000
749,-33.203125
750,-33.203125
751,-35.156250
752,-37.109375
753,-39.062500
754,-39.062500
755,-41.015625
756,-42.968750
757,-44.921875
758,-44.921875
759,-46.875000
760,-48.828125
761,-50.781250
762,-52.734375
763,-52.734375
764,-54.687500
765,-56.640625
766,-56.640625
767,-58.593750
768,-60.546875
769,-62.500000
770,-62.500000
771,-64.453125
772,-64.453125
773,-66.406250
774,-68.359375
775,-70.312500
776,-70.312500
777,-72.265625
778,-74.218750
779,-74.218750
780,-76.171875
781,-78.125000
782,-78.125000
783,-80.078125
784,-82.031250
785,-82.031250
786,-83.984375
787,-85.937500
788,-85.937500
789,-87.890625
790,-87.890625
791,-89.843750
792,-89.843750
793,-91.796875
794,-91.796875
795,-93.750000
796,-95.703125
797,-95.703125
798,-97.656250
799,-97.656250
800,-99.609375
801,-99.609375
802,-101.562500
803,-101.562500
804,-103.515625
805,-103.515625
806,-103.515625
807,-105.468750
808,-105.468750
809,-107.421875
810,-107.421875
811,-109.375000
812,-109.375000
813,-111.328125
814,-111.328125
815,-111.328125
816,-113.281250
817,-113.281250
818,-113.281250
819,-113.281250
820,-115.234375
821,-115.234375
822,-117.187500
823,-117.187500
824,-117.187500
825,-117.187500
826,-117.187500
827,-119.140625
828,-119.140625
829,-119.140625
830,-119.140625
831,-119.140625
832,-121.093750
833,-121.093750
834,-121.093750
835,-121.093750
836,-123.046875
837,-123.046875
838,-123.046875
839,-123.046875
840,-123.046875
841,-123.046875
842,-123.046875
843,-123.046875
844,-123.046875
845,-123.046875
846,-123.046875
847,-123.046875
848,-123.046875
849,-123.046875
850,-123.046875
851,-123.046875
852,-125.000000
853,-123.046875
854,-123.046875
855,-123.046875
856,-123.046875
857,-123.046875
858,-123.046875
859,-123.046875
860,-121.093750
861,-121.093750
862,-121.093750
863,-123.046875
864,-121.093750
865,-121.093750
866,-121.093750
867,-119.140625
868,-119.140625
869,-119.140625
870,-119.140625
871,-119.140625
872,-117.187500
873,-117.187500
874,-117.187500
875,-115.234375
876,-115.234375
877,-115.234375
878,-115.234375
879,-113.281250
880,-113.281250
881,-111.328125
882,-111.328125
883,-111.328125
884,-109.375000
885,-109.375000
886,-109.375000
887,-107.421875
888,-107.421875
889,-105.468750
890,-105.468750
891,-105.468750
892,-105.468750
893,-103.515625
894,-101.562500
895,-99.609375
896,-99.609375
897,-99.609375
898,-97.656250
899,-97.656250
900,-95.703125
901,-95.703125
902,-93.750000
903,-91.796875
904,-91.796875
905,-91.796875
906,-91.796875
907,-89.843750
908,-87.890625
909,-87.890625
910,-85.937500
911,-83.984375
912,-83.984375
913,-82.031250
914,-82.031250
915,-80.078125
916,-78.125000
917,-76.171875
918,-76.171875
919,-74.218750
920,-72.265625
921,-72.265625
922,-70.312500
923,-70.312500
924,-66.406250
925,-66.406250
926,-64.453125
927,-62.500000
928,-62.500000
929,-60.546875
930,-60.546875
931,-58.593750
932,-56.640625
933,-54.687500
934,-54.687500
935,-52.734375
936,-50.781250
937,-48.828125
938,-48.828125
939,-46.875000
940,-44.921875
941,-44.921875
942,-42.968750
943,-41.015625
944,-39.062500
945,-37.109375
946,-35.156250
947,-35.156250
948,-33.203125
949,-31.250000
950,-29.296875
951,-29.296875
952,-27.343750
953,-25.390625
954,-23.437500
955,-21.484375
956,-19.531250
957,-19.531250
958,-17.578125
959,-13.671875
960,-15.625000
961,-13.671875
962,-11.718750
963,-9.765625
964,-7.812500
965,-7.812500
966,-5.859375
967,-3.906250
968,-1.953125
969,0.000000
970,0.000000
971,3.906250
972,3.906250
973,5.859375
974,7.812500
975,7.812500
976,9.765625
977,11.718750
978,13.671875
979,15.625000
980,15.625000
981,17.578125
982,19.531250
983,21.484375
984,21.484375
985,23.437500
986,25.390625
987,27.343750
988,27.343750
989,29.296875
990,31.250000
991,33.203125
992,35.156250
993,35.156250
994,37.109375
995,39.062500
996,39.062500
997,41.015625
998,42.968750
999,42.968750
1000,46.875000
1001,46.875000
1002,48.828125
1003,48.828125
1004,50.781250
1005,52.734375
1006,54.687500
1007,52.734375
1008,56.640625
1009,58.593750
1010,58.593750
1011,60.546875
1012,62.500000
1013,62.500000
1014,64.453125
1015,66.406250
1016,66.406250
1017,68.359375
1018,68.359375
1019,70.312500
1020,70.312500
1021,72.265625
1022,74.218750
1023,76.171875
1024,76.171875
1025,78.125000
1026,78.125000
1027,80.078125
1028,80.078125
1029,82.031250
1030,83.984375
1031,83.984375
1032,85.937500
1033,85.937500
1034,87.890625
1035,87.890625
1036,89.843750
1037,89.843750
1038,91.796875
1039,91.796875
1040,91.796875
1041,93.750000
1042,95.703125
1043,95.703125
1044,95.703125
1045,97.656250
1046,97.656250
1047,99.609375
1048,99.609375
1049,99.609375
1050,101.562500
1051,101.562500
1052,103.515625
1053,103.515625
1054,103.515625
1055,105.468750
1056,105.468750
1057,107.421875
1058,107.421875
1059,107.421875
1060,109.375000
1061,109.375000
1062,109.375000
1063,111.328125
1064,111.328125
1065,111.328125
1066,111.328125
1067,113.281250
1068,113.281250
1069,115.234375
1070,115.234375
1071,117.187500
1072,115.234375
1073,115.234375
1074,115.234375
1075,115.234375
1076,117.187500
1077,117.187500
1078,117.187500
1079,117.187500
1080,117.187500
1081,119.140625
1082,119.140625
1083,119.140625
1084,119.140625
1085,121.093750
1086,119.140625
1087,121.093750
1088,119.140625
1089,119.140625
1090,121.093750
1091,121.093750
1092,121.093750
1093,121.093750
1094,121.093750
1095,123.046875
1096,121.093750
1097,121.093750
1098,121.093750
1099,121.093750
1100,121.093750
1101,123.046875
1102,121.093750
1103,123.046875
1104,121.093750
1105,121.093750
1106,121.093750
1107,121.093750
1108,121.093750
1109,121.093750
1110,121.093750
1111,121.093750
1112,121.093750
1113,121.093750
1114,121.093750
1115,121.093750
1116,121.093750
1117,119.140625
1118,119.140625
1119,119.140625
1120,119.140625
1121,119.140625
1122,119.140625
1123,119.140625
1124,119.140625
1125,117.187500
1126,117.187500
1127,117.187500
1128,117.187500
1129,117.187500
1130,115.234375
1131,115.234375
1132,115.234375
1133,115.234375
1134,113.281250
1135,113.281250
1136,113.281250
1137,113.281250
1138,111.328125
1139,111.328125
1140,111.328125
1141,109.375000
1142,109.375000
1143,109.375000
1144,107.421875
1145,107.421875
1146,107.421875
1147,105.468750
1148,105.468750
1149,105.468750
1150,103.515625
1151,103.515625
1152,103.515625
1153,101.562500
1154,101.562500
1155,99.609375
1156,99.609375
1157,97.656250
1158,97.656250
1159,95.703125
1160,95.703125
1161,95.703125
1162,93.750000
1163,93.750000
1164,91.796875
1165,91.796875
1166,89.843750
1167,89.843750
1168,87.890625
1169,87.890625
1170,85.937500
1171,83.984375
1172,83.984375
1173,83.984375
1174,82.031250
1175,82.031250
1176,80.078125
1177,78.125000
1178,78.125000
1179,76.171875
1180,74.218750
1181,74.218750
1182,72.265625
1183,72.265625
1184,70.312500
1185,68.359375
1186,68.359375
1187,66.406250
1188,64.453125
1189,64.453125
1190,62.500000
1191,62.500000
1192,60.546875
1193,58.593750
1194,56.640625
1195,56.640625
1196,54.687500
1197,52.734375
1198,52.734375
1199,50.781250
1200,48.828125
1201,48.828125
1202,46.875000
1203,44.921875
1204,42.968750
1205,42.968750
1206,41.015625
1207,39.062500
1208,37.109375
1209,37.109375
1210,35.156250
1211,33.203125
1212,33.203125
1213,31.250000
1214,29.296875
1215,27.343750
1216,25.390625
1217,25.390625
1218,23.437500
1219,21.484375
1220,19.531250
1221,19.531250
1222,17.578125
1223,15.625000
1224,13.671875
1225,13.671875
1226,9.765625
1227,9.765625
1228,7.812500
1229,5.859375
1230,5.859375
1231,3.906250
1232,1.953125
1233,0.000000
1234,-1.953125
1235,-3.906250
1236,-3.906250
1237,-5.859375
1238,-7.812500
1239,-9.765625
1240,-11.718750
1241,-11.718750
1242,-13.671875
1243,-15.625000
1244,-17.578125
1245,-17.578125
1246,-19.531250
1247,-21.484375
1248,-23.437500
1249,-25.390625
1250,-25.390625
1251,-27.343750
1252,-29.296875
1253,-31.250000
1254,-33.203125
1255,-33.203125
1256,-35.156250
1257,-37.109375
1258,-37.109375
1259,-39.062500
1260,-41.015625
1261,-42.968750
1262,-44.921875
1263,-44.921875
1264,-46.875000
1265,-48.828125
1266,-50.781250
1267,-52.734375
1268,-52.734375
1269,-54.687500
1270,-54.687500
1271,-56.640625
1272,-58.593750
1273,-60.546875
1274,-62.500000
1275,-62.500000
1276,-66.406250
1277,-66.406250
1278,-68.359375
1279,-68.359375
1280,-70.312500
1281,-70.312500
1282,-72.265625
1283,-74.218750
1284,-74.218750
1285,-76.171875
1286,-78.125000
1287,-78.125000
1288,-80.078125
1289,-80.078125
1290,-82.031250
1291,-83.984375
1292,-85.937500
1293,-85.937500
1294,-87.890625
1295,-87.890625
1296,-89.843750
1297,-91.796875
1298,-91.796875
1299,-91.796875
1300,-91.796875
1301,-93.750000
1302,-95.703125
1303,-97.656250
1304,-97.656250
1305,-99.609375
1306,-99.609375
1307,-99.609375
1308,-101.562500
1309,-103.515625
1310,-103.515625
1311,-105.468750
1312,-105.468750
1313,-105.468750
1314,-107.421875
1315,-107.421875
1316,-109.375000
1317,-109.375000
1318,-109.375000
1319,-111.328125
1320,-111.328125
1321,-111.328125
1322,-113.281250
1323,-113.281250
