Practicum8/data/cas_sam/2000Hz_26_1cm/data_81_131.csv

Channel              :		CH1
Frequency            :		1.986kHz
Period               :		0.503ms
PK-PK                :		58.59mV
Probe attenuation    :		1X
Voltage per ADC value:		0.122070mV
Time interval        :		2.00000us
""
index		CH1_Voltage(mV)
1.0,35.15625
2.0,35.15625
3.0,37.109375
4.0,35.15625
5.0,39.0625
6.0,35.15625
7.0,39.0625
8.0,35.15625
9.0,37.109375
10.0,35.15625
11.0,39.0625
12.0,35.15625
13.0,39.0625
14.0,35.15625
15.0,37.109375
16.0,35.15625
17.0,37.109375
18.0,35.15625
19.0,39.0625
20.0,35.15625
21.0,37.109375
22.0,33.203125
23.0,37.109375
24.0,33.203125
25.0,37.109375
26.0,33.203125
27.0,35.15625
28.0,33.203125
29.0,37.109375
30.0,31.25
31.0,35.15625
32.0,31.25
33.0,35.15625
34.0,31.25
35.0,33.203125
36.0,29.296875
37.0,33.203125
38.0,29.296875
39.0,33.203125
40.0,27.34375
41.0,33.203125
42.0,27.34375
43.0,31.25
44.0,27.34375
45.0,31.25
46.0,25.390625
47.0,29.296875
48.0,25.390625
49.0,29.296875
50.0,23.4375
51.0,27.34375
52.0,23.4375
53.0,27.34375
54.0,21.484375
55.0,25.390625
56.0,19.53125
57.0,25.390625
58.0,19.53125
59.0,23.4375
60.0,19.53125
61.0,21.484375
62.0,17.578125
63.0,21.484375
64.0,15.625
65.0,19.53125
66.0,13.671875
67.0,17.578125
68.0,13.671875
69.0,17.578125
70.0,11.71875
71.0,15.625
72.0,11.71875
73.0,15.625
74.0,9.765625
75.0,13.671875
76.0,9.765625
77.0,11.71875
78.0,5.859375
79.0,11.71875
80.0,5.859375
81.0,9.765625
82.0,5.859375
83.0,7.8125
84.0,3.90625
85.0,7.8125
86.0,3.90625
87.0,5.859375
88.0,1.953125
89.0,5.859375
90.0,0.0
91.0,3.90625
92.0,0.0
93.0,1.953125
94.0,-1.953125
95.0,1.953125
96.0,-1.953125
97.0,0.0
98.0,-3.90625
99.0,0.0
100.0,-3.90625
101.0,-1.953125
102.0,-5.859375
103.0,-1.953125
104.0,-5.859375
105.0,-3.90625
106.0,-7.8125
107.0,-3.90625
108.0,-7.8125
109.0,-5.859375
110.0,-9.765625
111.0,-5.859375
112.0,-9.765625
113.0,-5.859375
114.0,-9.765625
115.0,-7.8125
116.0,-11.71875
117.0,-7.8125
118.0,-11.71875
119.0,-9.765625
120.0,-11.71875
121.0,-9.765625
122.0,-13.671875
123.0,-9.765625
124.0,-13.671875
125.0,-9.765625
126.0,-13.671875
127.0,-11.71875
128.0,-13.671875
129.0,-9.765625
130.0,-13.671875
131.0,-11.71875
132.0,-13.671875
133.0,-9.765625
134.0,-13.671875
135.0,-11.71875
136.0,-15.625
137.0,-11.71875
138.0,-13.671875
139.0,-11.71875
140.0,-13.671875
141.0,-11.71875
142.0,-13.671875
143.0,-11.71875
144.0,-13.671875
145.0,-11.71875
146.0,-13.671875
147.0,-11.71875
148.0,-13.671875
149.0,-9.765625
150.0,-11.71875
151.0,-9.765625
152.0,-11.71875
153.0,-9.765625
154.0,-11.71875
155.0,-9.765625
156.0,-11.71875
157.0,-7.8125
158.0,-11.71875
159.0,-7.8125
160.0,-9.765625
161.0,-7.8125
162.0,-9.765625
163.0,-5.859375
164.0,-7.8125
165.0,-5.859375
166.0,-7.8125
167.0,-3.90625
168.0,-5.859375
169.0,-3.90625
170.0,-5.859375
171.0,-1.953125
172.0,-5.859375
173.0,-1.953125
174.0,-3.90625
175.0,0.0
176.0,-1.953125
177.0,0.0
178.0,-1.953125
179.0,1.953125
180.0,0.0
181.0,1.953125
182.0,0.0
183.0,3.90625
184.0,1.953125
185.0,3.90625
186.0,1.953125
187.0,5.859375
188.0,3.90625
189.0,7.8125
190.0,5.859375
191.0,9.765625
192.0,5.859375
193.0,9.765625
194.0,7.8125
195.0,11.71875
196.0,9.765625
197.0,13.671875
198.0,9.765625
199.0,13.671875
200.0,11.71875
201.0,15.625
202.0,13.671875
203.0,15.625
204.0,13.671875
205.0,17.578125
206.0,13.671875
207.0,17.578125
208.0,15.625
209.0,19.53125
210.0,17.578125
211.0,21.484375
212.0,17.578125
213.0,21.484375
214.0,19.53125
215.0,23.4375
216.0,19.53125
217.0,23.4375
218.0,21.484375
219.0,25.390625
220.0,23.4375
221.0,27.34375
222.0,23.4375
223.0,27.34375
224.0,25.390625
225.0,27.34375
226.0,25.390625
227.0,29.296875
228.0,27.34375
229.0,29.296875
230.0,27.34375
231.0,31.25
232.0,29.296875
233.0,31.25
234.0,29.296875
235.0,33.203125
236.0,29.296875
237.0,33.203125
238.0,31.25
239.0,35.15625
240.0,31.25
241.0,35.15625
242.0,31.25
243.0,35.15625
244.0,33.203125
245.0,35.15625
246.0,33.203125
247.0,37.109375
248.0,33.203125
249.0,37.109375
250.0,33.203125
251.0,37.109375
252.0,35.15625
253.0,37.109375
254.0,35.15625
255.0,37.109375
256.0,35.15625
257.0,39.0625
258.0,35.15625
259.0,39.0625
260.0,35.15625
261.0,37.109375
262.0,35.15625
263.0,39.0625
264.0,35.15625
265.0,39.0625
266.0,35.15625
267.0,37.109375
268.0,35.15625
269.0,37.109375
270.0,35.15625
271.0,39.0625
272.0,33.203125
273.0,37.109375
274.0,33.203125
275.0,37.109375
276.0,33.203125
277.0,37.109375
278.0,33.203125
279.0,35.15625
280.0,31.25
281.0,37.109375
282.0,31.25
283.0,35.15625
284.0,31.25
285.0,35.15625
286.0,31.25
287.0,33.203125
288.0,29.296875
289.0,33.203125
290.0,29.296875
291.0,33.203125
292.0,29.296875
293.0,33.203125
294.0,27.34375
295.0,31.25
296.0,25.390625
297.0,31.25
298.0,25.390625
299.0,29.296875
300.0,25.390625
301.0,29.296875
302.0,23.4375
303.0,27.34375
304.0,23.4375
305.0,27.34375
306.0,21.484375
307.0,25.390625
308.0,19.53125
309.0,23.4375
310.0,19.53125
311.0,23.4375
312.0,17.578125
313.0,21.484375
314.0,17.578125
315.0,21.484375
316.0,15.625
317.0,19.53125
318.0,15.625
319.0,17.578125
320.0,13.671875
321.0,17.578125
322.0,11.71875
323.0,15.625
324.0,11.71875
325.0,15.625
326.0,9.765625
327.0,13.671875
328.0,9.765625
329.0,11.71875
330.0,7.8125
331.0,11.71875
332.0,5.859375
333.0,9.765625
334.0,3.90625
335.0,7.8125
336.0,3.90625
337.0,7.8125
338.0,1.953125
339.0,5.859375
340.0,1.953125
341.0,5.859375
342.0,0.0
343.0,3.90625
344.0,0.0
345.0,1.953125
346.0,-3.90625
347.0,1.953125
348.0,-3.90625
349.0,0.0
350.0,-3.90625
351.0,0.0
352.0,-5.859375
353.0,-1.953125
354.0,-5.859375
355.0,-1.953125
356.0,-7.8125
357.0,-1.953125
358.0,-9.765625
359.0,-3.90625
360.0,-7.8125
361.0,-5.859375
362.0,-9.765625
363.0,-5.859375
364.0,-9.765625
365.0,-5.859375
366.0,-11.71875
367.0,-7.8125
368.0,-11.71875
369.0,-7.8125
370.0,-11.71875
371.0,-9.765625
372.0,-13.671875
373.0,-9.765625
374.0,-13.671875
375.0,-9.765625
376.0,-13.671875
377.0,-9.765625
378.0,-13.671875
379.0,-11.71875
380.0,-15.625
381.0,-9.765625
382.0,-15.625
383.0,-11.71875
384.0,-15.625
385.0,-11.71875
386.0,-13.671875
387.0,-11.71875
388.0,-15.625
389.0,-11.71875
390.0,-15.625
391.0,-11.71875
392.0,-15.625
393.0,-11.71875
394.0,-13.671875
395.0,-11.71875
396.0,-13.671875
397.0,-11.71875
398.0,-13.671875
399.0,-9.765625
400.0,-13.671875
401.0,-9.765625
402.0,-13.671875
403.0,-9.765625
404.0,-13.671875
405.0,-9.765625
406.0,-11.71875
407.0,-9.765625
408.0,-11.71875
409.0,-7.8125
410.0,-11.71875
411.0,-7.8125
412.0,-9.765625
413.0,-7.8125
414.0,-9.765625
415.0,-5.859375
416.0,-7.8125
417.0,-5.859375
418.0,-7.8125
419.0,-3.90625
420.0,-7.8125
421.0,-3.90625
422.0,-5.859375
423.0,-1.953125
424.0,-5.859375
425.0,-1.953125
426.0,-3.90625
427.0,-1.953125
428.0,-1.953125
429.0,0.0
430.0,-1.953125
431.0,1.953125
432.0,0.0
433.0,1.953125
434.0,0.0
435.0,3.90625
436.0,1.953125
437.0,5.859375
438.0,1.953125
439.0,5.859375
440.0,3.90625
441.0,7.8125
442.0,5.859375
443.0,9.765625
444.0,5.859375
445.0,9.765625
446.0,7.8125
447.0,9.765625
448.0,7.8125
449.0,13.671875
450.0,9.765625
451.0,13.671875
452.0,9.765625
453.0,13.671875
454.0,11.71875
455.0,15.625
456.0,13.671875
457.0,17.578125
458.0,13.671875
459.0,19.53125
460.0,15.625
461.0,19.53125
462.0,17.578125
463.0,21.484375
464.0,19.53125
465.0,21.484375
466.0,19.53125
467.0,23.4375
468.0,21.484375
469.0,23.4375
470.0,21.484375
471.0,25.390625
472.0,23.4375
473.0,25.390625
474.0,23.4375
475.0,27.34375
476.0,25.390625
477.0,29.296875
478.0,25.390625
479.0,29.296875
480.0,27.34375
481.0,29.296875
482.0,27.34375
483.0,31.25
484.0,29.296875
485.0,31.25
486.0,29.296875
487.0,33.203125
488.0,29.296875
489.0,33.203125
490.0,31.25
491.0,33.203125
492.0,31.25
493.0,35.15625
494.0,31.25
495.0,35.15625
496.0,33.203125
497.0,35.15625
498.0,31.25
499.0,37.109375
500.0,33.203125
501.0,37.109375
502.0,33.203125
503.0,37.109375
504.0,33.203125
505.0,37.109375
506.0,33.203125
507.0,37.109375
508.0,33.203125
509.0,37.109375
510.0,33.203125
511.0,37.109375
512.0,35.15625
513.0,37.109375
514.0,35.15625
515.0,37.109375
516.0,35.15625
517.0,39.0625
518.0,35.15625
519.0,39.0625
520.0,35.15625
521.0,37.109375
522.0,35.15625
523.0,37.109375
524.0,33.203125
525.0,37.109375
526.0,33.203125
527.0,37.109375
528.0,33.203125
529.0,37.109375
530.0,33.203125
531.0,35.15625
532.0,33.203125
533.0,35.15625
534.0,31.25
535.0,35.15625
536.0,31.25
537.0,35.15625
538.0,31.25
539.0,33.203125
540.0,29.296875
541.0,33.203125
542.0,29.296875
543.0,33.203125
544.0,27.34375
545.0,31.25
546.0,27.34375
547.0,31.25
548.0,25.390625
549.0,29.296875
550.0,25.390625
551.0,29.296875
552.0,25.390625
553.0,27.34375
554.0,23.4375
555.0,27.34375
556.0,21.484375
557.0,27.34375
558.0,21.484375
559.0,25.390625
560.0,19.53125
561.0,23.4375
562.0,19.53125
563.0,23.4375
564.0,19.53125
565.0,21.484375
566.0,15.625
567.0,21.484375
568.0,15.625
569.0,19.53125
570.0,13.671875
571.0,19.53125
572.0,13.671875
573.0,17.578125
574.0,11.71875
575.0,15.625
576.0,11.71875
577.0,15.625
578.0,9.765625
579.0,13.671875
580.0,9.765625
581.0,11.71875
582.0,7.8125
583.0,11.71875
584.0,5.859375
585.0,9.765625
586.0,3.90625
587.0,9.765625
588.0,3.90625
589.0,7.8125
590.0,1.953125
591.0,5.859375
592.0,1.953125
593.0,5.859375
594.0,0.0
595.0,3.90625
596.0,0.0
597.0,1.953125
598.0,-1.953125
599.0,1.953125
600.0,-3.90625
601.0,1.953125
602.0,-3.90625
603.0,0.0
604.0,-5.859375
605.0,-1.953125
606.0,-5.859375
607.0,-1.953125
608.0,-7.8125
609.0,-3.90625
610.0,-7.8125
611.0,-3.90625
612.0,-7.8125
613.0,-5.859375
614.0,-9.765625
615.0,-5.859375
616.0,-11.71875
617.0,-5.859375
618.0,-11.71875
619.0,-7.8125
620.0,-11.71875
621.0,-7.8125
622.0,-11.71875
623.0,-9.765625
624.0,-11.71875
625.0,-9.765625
626.0,-13.671875
627.0,-9.765625
628.0,-13.671875
629.0,-9.765625
630.0,-13.671875
631.0,-11.71875
632.0,-15.625
633.0,-9.765625
634.0,-13.671875
635.0,-11.71875
636.0,-15.625
637.0,-11.71875
638.0,-13.671875
639.0,-11.71875
640.0,-15.625
641.0,-11.71875
642.0,-13.671875
643.0,-11.71875
644.0,-15.625
645.0,-11.71875
646.0,-13.671875
647.0,-11.71875
648.0,-13.671875
649.0,-11.71875
650.0,-13.671875
651.0,-9.765625
652.0,-13.671875
653.0,-9.765625
654.0,-13.671875
655.0,-9.765625
656.0,-13.671875
657.0,-9.765625
658.0,-11.71875
659.0,-9.765625
660.0,-11.71875
661.0,-7.8125
662.0,-11.71875
663.0,-7.8125
664.0,-9.765625
665.0,-7.8125
666.0,-9.765625
667.0,-5.859375
668.0,-7.8125
669.0,-5.859375
670.0,-7.8125
671.0,-3.90625
672.0,-5.859375
673.0,-3.90625
674.0,-5.859375
675.0,-1.953125
676.0,-5.859375
677.0,-1.953125
678.0,-3.90625
679.0,0.0
680.0,-1.953125
681.0,0.0
682.0,-1.953125
683.0,1.953125
684.0,-1.953125
685.0,1.953125
686.0,0.0
687.0,3.90625
688.0,1.953125
689.0,3.90625
690.0,1.953125
691.0,5.859375
692.0,3.90625
693.0,7.8125
694.0,5.859375
695.0,7.8125
696.0,5.859375
697.0,9.765625
698.0,7.8125
699.0,11.71875
700.0,7.8125
701.0,11.71875
702.0,9.765625
703.0,13.671875
704.0,11.71875
705.0,13.671875
706.0,11.71875
707.0,17.578125
708.0,13.671875
709.0,17.578125
710.0,15.625
711.0,17.578125
712.0,15.625
713.0,19.53125
714.0,17.578125
715.0,19.53125
716.0,17.578125
717.0,21.484375
718.0,19.53125
719.0,23.4375
720.0,21.484375
721.0,23.4375
722.0,21.484375
723.0,25.390625
724.0,23.4375
725.0,25.390625
726.0,23.4375
727.0,27.34375
728.0,25.390625
729.0,29.296875
730.0,25.390625
731.0,29.296875
732.0,27.34375
733.0,29.296875
734.0,27.34375
735.0,31.25
736.0,27.34375
737.0,31.25
738.0,29.296875
739.0,33.203125
740.0,29.296875
741.0,33.203125
742.0,31.25
743.0,33.203125
744.0,31.25
745.0,35.15625
746.0,31.25
747.0,35.15625
748.0,33.203125
749.0,35.15625
750.0,33.203125
751.0,35.15625
752.0,33.203125
753.0,37.109375
754.0,33.203125
755.0,37.109375
756.0,35.15625
757.0,37.109375
758.0,35.15625
759.0,37.109375
760.0,35.15625
761.0,37.109375
762.0,35.15625
763.0,39.0625
764.0,35.15625
765.0,37.109375
766.0,35.15625
767.0,37.109375
768.0,33.203125
769.0,37.109375
770.0,35.15625
771.0,37.109375
772.0,35.15625
773.0,37.109375
774.0,35.15625
775.0,37.109375
776.0,33.203125
777.0,37.109375
778.0,33.203125
779.0,37.109375
780.0,33.203125
781.0,37.109375
782.0,33.203125
783.0,35.15625
784.0,31.25
785.0,35.15625
786.0,31.25
787.0,35.15625
788.0,31.25
789.0,35.15625
790.0,31.25
791.0,33.203125
792.0,29.296875
793.0,33.203125
794.0,29.296875
795.0,33.203125
796.0,27.34375
797.0,31.25
798.0,27.34375
799.0,31.25
800.0,25.390625
801.0,29.296875
802.0,25.390625
803.0,29.296875
804.0,25.390625
805.0,27.34375
806.0,23.4375
807.0,27.34375
808.0,23.4375
809.0,25.390625
810.0,21.484375
811.0,25.390625
812.0,19.53125
813.0,23.4375
814.0,19.53125
815.0,21.484375
816.0,19.53125
817.0,21.484375
818.0,15.625
819.0,21.484375
820.0,15.625
821.0,19.53125
822.0,13.671875
823.0,17.578125
824.0,13.671875
825.0,17.578125
826.0,11.71875
827.0,15.625
828.0,9.765625
829.0,13.671875
830.0,9.765625
831.0,13.671875
832.0,7.8125
833.0,11.71875
834.0,5.859375
835.0,11.71875
836.0,5.859375
837.0,9.765625
838.0,3.90625
839.0,7.8125
840.0,3.90625
841.0,5.859375
842.0,1.953125
843.0,5.859375
844.0,1.953125
845.0,3.90625
846.0,0.0
847.0,3.90625
848.0,0.0
849.0,1.953125
850.0,-1.953125
851.0,0.0
852.0,-3.90625
853.0,0.0
854.0,-5.859375
855.0,0.0
856.0,-5.859375
857.0,-1.953125
858.0,-5.859375
859.0,-3.90625
860.0,-7.8125
861.0,-3.90625
862.0,-7.8125
863.0,-3.90625
864.0,-9.765625
865.0,-5.859375
866.0,-9.765625
867.0,-5.859375
868.0,-9.765625
869.0,-5.859375
870.0,-11.71875
871.0,-7.8125
872.0,-11.71875
873.0,-7.8125
874.0,-11.71875
875.0,-9.765625
876.0,-11.71875
877.0,-9.765625
878.0,-13.671875
879.0,-9.765625
880.0,-15.625
881.0,-9.765625
882.0,-13.671875
883.0,-11.71875
884.0,-13.671875
885.0,-11.71875
886.0,-15.625
887.0,-11.71875
888.0,-13.671875
889.0,-11.71875
890.0,-15.625
891.0,-11.71875
892.0,-15.625
893.0,-11.71875
894.0,-15.625
895.0,-11.71875
896.0,-15.625
897.0,-11.71875
898.0,-13.671875
899.0,-11.71875
900.0,-13.671875
901.0,-11.71875
902.0,-15.625
903.0,-9.765625
904.0,-13.671875
905.0,-9.765625
906.0,-13.671875
907.0,-9.765625
908.0,-11.71875
909.0,-9.765625
910.0,-11.71875
911.0,-7.8125
912.0,-11.71875
913.0,-7.8125
914.0,-11.71875
915.0,-7.8125
916.0,-9.765625
917.0,-7.8125
918.0,-9.765625
919.0,-5.859375
920.0,-7.8125
921.0,-5.859375
922.0,-7.8125
923.0,-3.90625
924.0,-7.8125
925.0,-3.90625
926.0,-5.859375
927.0,-1.953125
928.0,-5.859375
929.0,-1.953125
930.0,-3.90625
931.0,0.0
932.0,-1.953125
933.0,0.0
934.0,-1.953125
935.0,1.953125
936.0,0.0
937.0,1.953125
938.0,0.0
939.0,3.90625
940.0,1.953125
941.0,5.859375
942.0,1.953125
943.0,5.859375
944.0,3.90625
945.0,7.8125
946.0,5.859375
947.0,7.8125
948.0,5.859375
949.0,9.765625
950.0,7.8125
951.0,9.765625
952.0,9.765625
953.0,11.71875
954.0,9.765625
955.0,13.671875
956.0,11.71875
957.0,15.625
958.0,11.71875
959.0,15.625
960.0,13.671875
961.0,17.578125
962.0,13.671875
963.0,17.578125
964.0,15.625
965.0,19.53125
966.0,17.578125
967.0,19.53125
968.0,17.578125
969.0,23.4375
970.0,19.53125
971.0,23.4375
972.0,19.53125
973.0,23.4375
974.0,21.484375
975.0,25.390625
976.0,23.4375
977.0,25.390625
978.0,23.4375
979.0,27.34375
980.0,23.4375
981.0,29.296875
982.0,25.390625
983.0,29.296875
984.0,27.34375
985.0,29.296875
986.0,27.34375
987.0,31.25
988.0,29.296875
989.0,31.25
990.0,29.296875
991.0,31.25
992.0,29.296875
993.0,33.203125
994.0,31.25
995.0,33.203125
996.0,31.25
997.0,33.203125
998.0,31.25
999.0,35.15625
1000.0,33.203125
1001.0,35.15625
1002.0,33.203125
1003.0,37.109375
1004.0,33.203125
1005.0,37.109375
1006.0,33.203125
1007.0,37.109375
1008.0,35.15625
1009.0,37.109375
1010.0,33.203125
1011.0,37.109375
1012.0,33.203125
1013.0,37.109375
1014.0,33.203125
1015.0,39.0625
1016.0,35.15625
1017.0,37.109375
1018.0,35.15625
1019.0,37.109375
1020.0,35.15625
1021.0,39.0625
1022.0,35.15625
1023.0,37.109375
1024.0,35.15625
1025.0,37.109375
1026.0,33.203125
1027.0,37.109375
1028.0,33.203125
1029.0,37.109375
1030.0,33.203125
1031.0,37.109375
1032.0,33.203125
1033.0,37.109375
1034.0,33.203125
1035.0,35.15625
1036.0,31.25
1037.0,35.15625
1038.0,31.25
1039.0,35.15625
1040.0,31.25
1041.0,35.15625
1042.0,31.25
1043.0,33.203125
1044.0,29.296875
1045.0,33.203125
1046.0,29.296875
1047.0,33.203125
1048.0,29.296875
1049.0,31.25
1050.0,27.34375
1051.0,31.25
1052.0,25.390625
1053.0,29.296875
1054.0,25.390625
1055.0,29.296875
1056.0,23.4375
1057.0,27.34375
1058.0,23.4375
1059.0,27.34375
1060.0,23.4375
1061.0,25.390625
1062.0,21.484375
1063.0,25.390625
1064.0,19.53125
1065.0,23.4375
1066.0,19.53125
1067.0,23.4375
1068.0,17.578125
1069.0,21.484375
1070.0,17.578125
1071.0,21.484375
1072.0,15.625
1073.0,19.53125
1074.0,13.671875
1075.0,17.578125
1076.0,13.671875
1077.0,17.578125
1078.0,11.71875
1079.0,15.625
1080.0,11.71875
1081.0,13.671875
1082.0,9.765625
1083.0,13.671875
1084.0,7.8125
1085.0,11.71875
1086.0,7.8125
1087.0,9.765625
1088.0,5.859375
1089.0,9.765625
1090.0,3.90625
1091.0,7.8125
1092.0,3.90625
1093.0,7.8125
1094.0,1.953125
1095.0,5.859375
1096.0,0.0
1097.0,3.90625
1098.0,0.0
1099.0,3.90625
1100.0,-1.953125
1101.0,1.953125
1102.0,-1.953125
1103.0,0.0
1104.0,-3.90625
1105.0,0.0
1106.0,-3.90625
1107.0,0.0
1108.0,-5.859375
1109.0,-1.953125
1110.0,-7.8125
1111.0,-3.90625
1112.0,-7.8125
1113.0,-3.90625
1114.0,-7.8125
1115.0,-3.90625
1116.0,-9.765625
1117.0,-5.859375
1118.0,-9.765625
1119.0,-7.8125
1120.0,-11.71875
1121.0,-7.8125
1122.0,-11.71875
1123.0,-7.8125
1124.0,-11.71875
1125.0,-7.8125
1126.0,-11.71875
1127.0,-9.765625
1128.0,-13.671875
1129.0,-9.765625
1130.0,-13.671875
1131.0,-9.765625
1132.0,-15.625
1133.0,-9.765625
1134.0,-13.671875
1135.0,-11.71875
1136.0,-13.671875
1137.0,-11.71875
1138.0,-15.625
1139.0,-11.71875
1140.0,-15.625
1141.0,-11.71875
1142.0,-15.625
1143.0,-11.71875
1144.0,-15.625
1145.0,-11.71875
1146.0,-15.625
1147.0,-11.71875
1148.0,-15.625
1149.0,-9.765625
1150.0,-13.671875
1151.0,-11.71875
1152.0,-13.671875
1153.0,-11.71875
1154.0,-15.625
1155.0,-9.765625
1156.0,-13.671875
1157.0,-9.765625
1158.0,-13.671875
1159.0,-9.765625
1160.0,-13.671875
1161.0,-9.765625
1162.0,-11.71875
1163.0,-7.8125
1164.0,-11.71875
1165.0,-7.8125
1166.0,-11.71875
1167.0,-7.8125
1168.0,-9.765625
1169.0,-7.8125
1170.0,-9.765625
1171.0,-5.859375
1172.0,-9.765625
1173.0,-5.859375
1174.0,-7.8125
1175.0,-5.859375
1176.0,-7.8125
1177.0,-3.90625
1178.0,-5.859375
1179.0,-1.953125
1180.0,-5.859375
1181.0,-1.953125
1182.0,-3.90625
1183.0,0.0
1184.0,-1.953125
1185.0,0.0
1186.0,-1.953125
1187.0,1.953125
1188.0,-1.953125
1189.0,1.953125
1190.0,0.0
1191.0,3.90625
1192.0,0.0
1193.0,5.859375
1194.0,1.953125
1195.0,5.859375
1196.0,3.90625
1197.0,7.8125
1198.0,5.859375
1199.0,7.8125
1200.0,5.859375
1201.0,9.765625
1202.0,7.8125
1203.0,9.765625
1204.0,7.8125
1205.0,11.71875
1206.0,9.765625
1207.0,13.671875
1208.0,11.71875
1209.0,13.671875
1210.0,11.71875
1211.0,15.625
1212.0,13.671875
1213.0,17.578125
1214.0,13.671875
1215.0,19.53125
1216.0,15.625
1217.0,19.53125
1218.0,17.578125
1219.0,19.53125
1220.0,17.578125
1221.0,21.484375
1222.0,19.53125
1223.0,23.4375
1224.0,19.53125
1225.0,23.4375
1226.0,21.484375
1227.0,25.390625
1228.0,21.484375
1229.0,25.390625
1230.0,23.4375
1231.0,27.34375
1232.0,25.390625
1233.0,29.296875
1234.0,23.4375
1235.0,29.296875
1236.0,25.390625
1237.0,29.296875
1238.0,27.34375
1239.0,31.25
1240.0,27.34375
1241.0,31.25
1242.0,29.296875
1243.0,33.203125
1244.0,29.296875
1245.0,33.203125
1246.0,29.296875
1247.0,33.203125
1248.0,31.25
1249.0,35.15625
1250.0,31.25
1251.0,35.15625
1252.0,33.203125
1253.0,35.15625
1254.0,31.25
1255.0,37.109375
1256.0,33.203125
1257.0,37.109375
1258.0,33.203125
1259.0,37.109375
1260.0,33.203125
1261.0,37.109375
1262.0,33.203125
1263.0,37.109375
1264.0,33.203125
1265.0,37.109375
1266.0,33.203125
1267.0,39.0625
1268.0,35.15625
1269.0,37.109375
1270.0,35.15625
1271.0,37.109375
1272.0,33.203125
1273.0,39.0625
1274.0,33.203125
1275.0,37.109375
1276.0,33.203125
1277.0,37.109375
1278.0,33.203125
1279.0,37.109375
1280.0,33.203125
1281.0,37.109375
1282.0,33.203125
1283.0,37.109375
1284.0,31.25
1285.0,35.15625
1286.0,33.203125
1287.0,35.15625
1288.0,33.203125
1289.0,35.15625
1290.0,31.25
1291.0,35.15625
1292.0,31.25
1293.0,33.203125
1294.0,31.25
1295.0,33.203125
1296.0,29.296875
1297.0,33.203125
1298.0,29.296875
1299.0,33.203125
1300.0,27.34375
