Practicum8/data/cas_sam/2000Hz_26_1cm/data_81_144.csv

Channel              :		CH1
Frequency            :		1.989kHz
Period               :		0.503ms
PK-PK                :		76.17mV
Probe attenuation    :		1X
Voltage per ADC value:		0.122070mV
Time interval        :		2.00000us
""
index		CH1_Voltage(mV)
1.0,37.109375
2.0,37.109375
3.0,33.203125
4.0,37.109375
5.0,33.203125
6.0,39.0625
7.0,35.15625
8.0,39.0625
9.0,35.15625
10.0,39.0625
11.0,37.109375
12.0,41.015625
13.0,37.109375
14.0,41.015625
15.0,37.109375
16.0,41.015625
17.0,37.109375
18.0,41.015625
19.0,37.109375
20.0,42.96875
21.0,39.0625
22.0,41.015625
23.0,39.0625
24.0,42.96875
25.0,39.0625
26.0,41.015625
27.0,39.0625
28.0,41.015625
29.0,39.0625
30.0,41.015625
31.0,39.0625
32.0,41.015625
33.0,37.109375
34.0,41.015625
35.0,37.109375
36.0,41.015625
37.0,37.109375
38.0,41.015625
39.0,35.15625
40.0,39.0625
41.0,37.109375
42.0,39.0625
43.0,35.15625
44.0,39.0625
45.0,33.203125
46.0,39.0625
47.0,35.15625
48.0,37.109375
49.0,33.203125
50.0,37.109375
51.0,31.25
52.0,37.109375
53.0,31.25
54.0,35.15625
55.0,31.25
56.0,33.203125
57.0,29.296875
58.0,33.203125
59.0,27.34375
60.0,31.25
61.0,25.390625
62.0,31.25
63.0,25.390625
64.0,29.296875
65.0,23.4375
66.0,27.34375
67.0,21.484375
68.0,27.34375
69.0,19.53125
70.0,25.390625
71.0,19.53125
72.0,23.4375
73.0,17.578125
74.0,21.484375
75.0,17.578125
76.0,21.484375
77.0,15.625
78.0,19.53125
79.0,13.671875
80.0,17.578125
81.0,11.71875
82.0,15.625
83.0,9.765625
84.0,13.671875
85.0,7.8125
86.0,11.71875
87.0,5.859375
88.0,11.71875
89.0,5.859375
90.0,9.765625
91.0,3.90625
92.0,7.8125
93.0,1.953125
94.0,5.859375
95.0,0.0
96.0,3.90625
97.0,-1.953125
98.0,1.953125
99.0,-3.90625
100.0,0.0
101.0,-5.859375
102.0,0.0
103.0,-5.859375
104.0,-3.90625
105.0,-7.8125
106.0,-3.90625
107.0,-9.765625
108.0,-5.859375
109.0,-9.765625
110.0,-7.8125
111.0,-13.671875
112.0,-9.765625
113.0,-13.671875
114.0,-9.765625
115.0,-15.625
116.0,-11.71875
117.0,-15.625
118.0,-13.671875
119.0,-17.578125
120.0,-13.671875
121.0,-19.53125
122.0,-15.625
123.0,-19.53125
124.0,-17.578125
125.0,-21.484375
126.0,-17.578125
127.0,-21.484375
128.0,-19.53125
129.0,-23.4375
130.0,-19.53125
131.0,-23.4375
132.0,-21.484375
133.0,-25.390625
134.0,-21.484375
135.0,-27.34375
136.0,-21.484375
137.0,-25.390625
138.0,-23.4375
139.0,-27.34375
140.0,-23.4375
141.0,-27.34375
142.0,-23.4375
143.0,-27.34375
144.0,-25.390625
145.0,-29.296875
146.0,-25.390625
147.0,-27.34375
148.0,-25.390625
149.0,-27.34375
150.0,-25.390625
151.0,-29.296875
152.0,-25.390625
153.0,-27.34375
154.0,-25.390625
155.0,-29.296875
156.0,-25.390625
157.0,-27.34375
158.0,-25.390625
159.0,-27.34375
160.0,-23.4375
161.0,-27.34375
162.0,-23.4375
163.0,-27.34375
164.0,-23.4375
165.0,-25.390625
166.0,-23.4375
167.0,-25.390625
168.0,-21.484375
169.0,-25.390625
170.0,-21.484375
171.0,-23.4375
172.0,-21.484375
173.0,-23.4375
174.0,-19.53125
175.0,-21.484375
176.0,-19.53125
177.0,-21.484375
178.0,-17.578125
179.0,-21.484375
180.0,-15.625
181.0,-19.53125
182.0,-15.625
183.0,-17.578125
184.0,-15.625
185.0,-17.578125
186.0,-11.71875
187.0,-17.578125
188.0,-11.71875
189.0,-13.671875
190.0,-9.765625
191.0,-11.71875
192.0,-7.8125
193.0,-11.71875
194.0,-7.8125
195.0,-11.71875
196.0,-5.859375
197.0,-7.8125
198.0,-3.90625
199.0,-5.859375
200.0,-1.953125
201.0,-5.859375
202.0,0.0
203.0,-5.859375
204.0,1.953125
205.0,-1.953125
206.0,1.953125
207.0,0.0
208.0,3.90625
209.0,1.953125
210.0,5.859375
211.0,1.953125
212.0,9.765625
213.0,5.859375
214.0,9.765625
215.0,7.8125
216.0,9.765625
217.0,7.8125
218.0,13.671875
219.0,9.765625
220.0,15.625
221.0,9.765625
222.0,17.578125
223.0,11.71875
224.0,19.53125
225.0,11.71875
226.0,21.484375
227.0,15.625
228.0,21.484375
229.0,15.625
230.0,23.4375
231.0,19.53125
232.0,23.4375
233.0,21.484375
234.0,25.390625
235.0,21.484375
236.0,27.34375
237.0,21.484375
238.0,29.296875
239.0,23.4375
240.0,31.25
241.0,23.4375
242.0,33.203125
243.0,25.390625
244.0,33.203125
245.0,27.34375
246.0,35.15625
247.0,29.296875
248.0,35.15625
249.0,31.25
250.0,35.15625
251.0,31.25
252.0,37.109375
253.0,31.25
254.0,39.0625
255.0,31.25
256.0,39.0625
257.0,33.203125
258.0,41.015625
259.0,33.203125
260.0,41.015625
261.0,35.15625
262.0,41.015625
263.0,35.15625
264.0,42.96875
265.0,37.109375
266.0,41.015625
267.0,39.0625
268.0,41.015625
269.0,37.109375
270.0,42.96875
271.0,37.109375
272.0,42.96875
273.0,37.109375
274.0,42.96875
275.0,37.109375
276.0,42.96875
277.0,37.109375
278.0,44.921875
279.0,37.109375
280.0,42.96875
281.0,37.109375
282.0,41.015625
283.0,39.0625
284.0,41.015625
285.0,37.109375
286.0,42.96875
287.0,35.15625
288.0,42.96875
289.0,35.15625
290.0,42.96875
291.0,35.15625
292.0,41.015625
293.0,35.15625
294.0,41.015625
295.0,33.203125
296.0,41.015625
297.0,33.203125
298.0,41.015625
299.0,33.203125
300.0,37.109375
301.0,31.25
302.0,37.109375
303.0,29.296875
304.0,37.109375
305.0,29.296875
306.0,35.15625
307.0,27.34375
308.0,35.15625
309.0,25.390625
310.0,35.15625
311.0,25.390625
312.0,33.203125
313.0,25.390625
314.0,33.203125
315.0,25.390625
316.0,29.296875
317.0,23.4375
318.0,27.34375
319.0,19.53125
320.0,27.34375
321.0,19.53125
322.0,25.390625
323.0,17.578125
324.0,25.390625
325.0,15.625
326.0,23.4375
327.0,13.671875
328.0,21.484375
329.0,11.71875
330.0,19.53125
331.0,11.71875
332.0,19.53125
333.0,11.71875
334.0,15.625
335.0,7.8125
336.0,13.671875
337.0,5.859375
338.0,13.671875
339.0,3.90625
340.0,13.671875
341.0,1.953125
342.0,9.765625
343.0,1.953125
344.0,7.8125
345.0,0.0
346.0,7.8125
347.0,-1.953125
348.0,5.859375
349.0,-1.953125
350.0,1.953125
351.0,-3.90625
352.0,0.0
353.0,-7.8125
354.0,1.953125
355.0,-7.8125
356.0,0.0
357.0,-9.765625
358.0,-1.953125
359.0,-11.71875
360.0,-3.90625
361.0,-13.671875
362.0,-5.859375
363.0,-15.625
364.0,-7.8125
365.0,-13.671875
366.0,-9.765625
367.0,-15.625
368.0,-11.71875
369.0,-19.53125
370.0,-11.71875
371.0,-19.53125
372.0,-13.671875
373.0,-21.484375
374.0,-13.671875
375.0,-21.484375
376.0,-15.625
377.0,-23.4375
378.0,-15.625
379.0,-25.390625
380.0,-15.625
381.0,-25.390625
382.0,-17.578125
383.0,-23.4375
384.0,-21.484375
385.0,-27.34375
386.0,-19.53125
387.0,-27.34375
388.0,-21.484375
389.0,-27.34375
390.0,-21.484375
391.0,-29.296875
392.0,-21.484375
393.0,-29.296875
394.0,-21.484375
395.0,-29.296875
396.0,-23.4375
397.0,-29.296875
398.0,-23.4375
399.0,-27.34375
400.0,-25.390625
401.0,-27.34375
402.0,-25.390625
403.0,-29.296875
404.0,-23.4375
405.0,-31.25
406.0,-23.4375
407.0,-31.25
408.0,-23.4375
409.0,-29.296875
410.0,-23.4375
411.0,-29.296875
412.0,-21.484375
413.0,-29.296875
414.0,-21.484375
415.0,-29.296875
416.0,-21.484375
417.0,-25.390625
418.0,-23.4375
419.0,-27.34375
420.0,-19.53125
421.0,-27.34375
422.0,-19.53125
423.0,-25.390625
424.0,-17.578125
425.0,-25.390625
426.0,-17.578125
427.0,-23.4375
428.0,-15.625
429.0,-23.4375
430.0,-15.625
431.0,-21.484375
432.0,-15.625
433.0,-17.578125
434.0,-15.625
435.0,-17.578125
436.0,-11.71875
437.0,-17.578125
438.0,-9.765625
439.0,-17.578125
440.0,-9.765625
441.0,-15.625
442.0,-5.859375
443.0,-13.671875
444.0,-5.859375
445.0,-13.671875
446.0,-3.90625
447.0,-9.765625
448.0,-1.953125
449.0,-7.8125
450.0,-3.90625
451.0,-5.859375
452.0,-1.953125
453.0,-5.859375
454.0,1.953125
455.0,-3.90625
456.0,3.90625
457.0,-3.90625
458.0,5.859375
459.0,-1.953125
460.0,5.859375
461.0,0.0
462.0,7.8125
463.0,1.953125
464.0,9.765625
465.0,3.90625
466.0,11.71875
467.0,7.8125
468.0,11.71875
469.0,7.8125
470.0,15.625
471.0,9.765625
472.0,15.625
473.0,9.765625
474.0,17.578125
475.0,11.71875
476.0,19.53125
477.0,13.671875
478.0,21.484375
479.0,15.625
480.0,23.4375
481.0,15.625
482.0,23.4375
483.0,19.53125
484.0,23.4375
485.0,21.484375
486.0,25.390625
487.0,21.484375
488.0,29.296875
489.0,23.4375
490.0,29.296875
491.0,23.4375
492.0,31.25
493.0,25.390625
494.0,33.203125
495.0,27.34375
496.0,33.203125
497.0,27.34375
498.0,35.15625
499.0,29.296875
500.0,35.15625
501.0,31.25
502.0,35.15625
503.0,31.25
504.0,39.0625
505.0,31.25
506.0,39.0625
507.0,31.25
508.0,39.0625
509.0,33.203125
510.0,41.015625
511.0,33.203125
512.0,41.015625
513.0,35.15625
514.0,41.015625
515.0,35.15625
516.0,41.015625
517.0,37.109375
518.0,41.015625
519.0,39.0625
520.0,41.015625
521.0,37.109375
522.0,42.96875
523.0,37.109375
524.0,42.96875
525.0,37.109375
526.0,44.921875
527.0,37.109375
528.0,44.921875
529.0,37.109375
530.0,44.921875
531.0,37.109375
532.0,44.921875
533.0,39.0625
534.0,42.96875
535.0,39.0625
536.0,41.015625
537.0,37.109375
538.0,42.96875
539.0,35.15625
540.0,42.96875
541.0,35.15625
542.0,42.96875
543.0,35.15625
544.0,42.96875
545.0,33.203125
546.0,41.015625
547.0,33.203125
548.0,41.015625
549.0,33.203125
550.0,41.015625
551.0,33.203125
552.0,37.109375
553.0,31.25
554.0,37.109375
555.0,29.296875
556.0,37.109375
557.0,29.296875
558.0,37.109375
559.0,27.34375
560.0,35.15625
561.0,25.390625
562.0,35.15625
563.0,25.390625
564.0,33.203125
565.0,23.4375
566.0,31.25
567.0,25.390625
568.0,29.296875
569.0,23.4375
570.0,27.34375
571.0,19.53125
572.0,27.34375
573.0,17.578125
574.0,25.390625
575.0,17.578125
576.0,25.390625
577.0,15.625
578.0,23.4375
579.0,13.671875
580.0,21.484375
581.0,13.671875
582.0,19.53125
583.0,11.71875
584.0,19.53125
585.0,11.71875
586.0,15.625
587.0,7.8125
588.0,13.671875
589.0,5.859375
590.0,13.671875
591.0,3.90625
592.0,11.71875
593.0,1.953125
594.0,9.765625
595.0,0.0
596.0,7.8125
597.0,0.0
598.0,7.8125
599.0,-1.953125
600.0,5.859375
601.0,-1.953125
602.0,1.953125
603.0,-3.90625
604.0,0.0
605.0,-7.8125
606.0,0.0
607.0,-9.765625
608.0,-1.953125
609.0,-9.765625
610.0,-1.953125
611.0,-11.71875
612.0,-3.90625
613.0,-13.671875
614.0,-5.859375
615.0,-15.625
616.0,-7.8125
617.0,-15.625
618.0,-9.765625
619.0,-15.625
620.0,-11.71875
621.0,-17.578125
622.0,-11.71875
623.0,-19.53125
624.0,-11.71875
625.0,-21.484375
626.0,-13.671875
627.0,-21.484375
628.0,-15.625
629.0,-23.4375
630.0,-15.625
631.0,-25.390625
632.0,-17.578125
633.0,-25.390625
634.0,-17.578125
635.0,-23.4375
636.0,-21.484375
637.0,-27.34375
638.0,-19.53125
639.0,-27.34375
640.0,-19.53125
641.0,-29.296875
642.0,-21.484375
643.0,-29.296875
644.0,-21.484375
645.0,-29.296875
646.0,-21.484375
647.0,-29.296875
648.0,-21.484375
649.0,-31.25
650.0,-23.4375
651.0,-27.34375
652.0,-25.390625
653.0,-27.34375
654.0,-25.390625
655.0,-29.296875
656.0,-23.4375
657.0,-29.296875
658.0,-23.4375
659.0,-29.296875
660.0,-21.484375
661.0,-29.296875
662.0,-23.4375
663.0,-29.296875
664.0,-21.484375
665.0,-29.296875
666.0,-21.484375
667.0,-27.34375
668.0,-21.484375
669.0,-25.390625
670.0,-23.4375
671.0,-25.390625
672.0,-19.53125
673.0,-27.34375
674.0,-19.53125
675.0,-25.390625
676.0,-17.578125
677.0,-23.4375
678.0,-17.578125
679.0,-23.4375
680.0,-15.625
681.0,-21.484375
682.0,-15.625
683.0,-21.484375
684.0,-13.671875
685.0,-17.578125
686.0,-15.625
687.0,-15.625
688.0,-13.671875
689.0,-17.578125
690.0,-9.765625
691.0,-15.625
692.0,-9.765625
693.0,-15.625
694.0,-7.8125
695.0,-13.671875
696.0,-5.859375
697.0,-11.71875
698.0,-3.90625
699.0,-11.71875
700.0,-1.953125
701.0,-7.8125
702.0,-1.953125
703.0,-5.859375
704.0,-1.953125
705.0,-5.859375
706.0,1.953125
707.0,-3.90625
708.0,3.90625
709.0,-1.953125
710.0,5.859375
711.0,0.0
712.0,7.8125
713.0,0.0
714.0,7.8125
715.0,3.90625
716.0,11.71875
717.0,3.90625
718.0,11.71875
719.0,7.8125
720.0,11.71875
721.0,9.765625
722.0,13.671875
723.0,9.765625
724.0,17.578125
725.0,11.71875
726.0,17.578125
727.0,11.71875
728.0,21.484375
729.0,13.671875
730.0,21.484375
731.0,15.625
732.0,23.4375
733.0,17.578125
734.0,25.390625
735.0,21.484375
736.0,23.4375
737.0,21.484375
738.0,25.390625
739.0,21.484375
740.0,29.296875
741.0,23.4375
742.0,31.25
743.0,23.4375
744.0,31.25
745.0,25.390625
746.0,33.203125
747.0,27.34375
748.0,33.203125
749.0,27.34375
750.0,35.15625
751.0,29.296875
752.0,35.15625
753.0,33.203125
754.0,35.15625
755.0,31.25
756.0,39.0625
757.0,31.25
758.0,39.0625
759.0,33.203125
760.0,41.015625
761.0,33.203125
762.0,41.015625
763.0,33.203125
764.0,41.015625
765.0,35.15625
766.0,42.96875
767.0,35.15625
768.0,42.96875
769.0,39.0625
770.0,41.015625
771.0,39.0625
772.0,41.015625
773.0,37.109375
774.0,44.921875
775.0,37.109375
776.0,44.921875
777.0,37.109375
778.0,42.96875
779.0,37.109375
780.0,44.921875
781.0,37.109375
782.0,44.921875
783.0,37.109375
784.0,44.921875
785.0,37.109375
786.0,44.921875
787.0,39.0625
788.0,41.015625
789.0,37.109375
790.0,42.96875
791.0,35.15625
792.0,42.96875
793.0,35.15625
794.0,42.96875
795.0,35.15625
796.0,41.015625
797.0,35.15625
798.0,41.015625
799.0,33.203125
800.0,41.015625
801.0,33.203125
802.0,41.015625
803.0,35.15625
804.0,37.109375
805.0,33.203125
806.0,35.15625
807.0,29.296875
808.0,37.109375
809.0,29.296875
810.0,37.109375
811.0,27.34375
812.0,35.15625
813.0,27.34375
814.0,33.203125
815.0,25.390625
816.0,33.203125
817.0,23.4375
818.0,31.25
819.0,25.390625
820.0,29.296875
821.0,23.4375
822.0,27.34375
823.0,19.53125
824.0,27.34375
825.0,17.578125
826.0,27.34375
827.0,15.625
828.0,25.390625
829.0,15.625
830.0,23.4375
831.0,13.671875
832.0,21.484375
833.0,11.71875
834.0,19.53125
835.0,11.71875
836.0,17.578125
837.0,11.71875
838.0,15.625
839.0,7.8125
840.0,13.671875
841.0,5.859375
842.0,13.671875
843.0,3.90625
844.0,11.71875
845.0,1.953125
846.0,9.765625
847.0,0.0
848.0,7.8125
849.0,0.0
850.0,5.859375
851.0,-1.953125
852.0,5.859375
853.0,-1.953125
854.0,1.953125
855.0,-3.90625
856.0,0.0
857.0,-7.8125
858.0,0.0
859.0,-9.765625
860.0,-1.953125
861.0,-11.71875
862.0,-3.90625
863.0,-11.71875
864.0,-3.90625
865.0,-13.671875
866.0,-5.859375
867.0,-15.625
868.0,-7.8125
869.0,-15.625
870.0,-9.765625
871.0,-15.625
872.0,-11.71875
873.0,-19.53125
874.0,-11.71875
875.0,-21.484375
876.0,-13.671875
877.0,-21.484375
878.0,-13.671875
879.0,-23.4375
880.0,-15.625
881.0,-23.4375
882.0,-15.625
883.0,-25.390625
884.0,-17.578125
885.0,-25.390625
886.0,-17.578125
887.0,-23.4375
888.0,-21.484375
889.0,-23.4375
890.0,-21.484375
891.0,-27.34375
892.0,-19.53125
893.0,-29.296875
894.0,-21.484375
895.0,-29.296875
896.0,-21.484375
897.0,-29.296875
898.0,-21.484375
899.0,-29.296875
900.0,-21.484375
901.0,-29.296875
902.0,-21.484375
903.0,-27.34375
904.0,-25.390625
905.0,-27.34375
906.0,-25.390625
907.0,-29.296875
908.0,-23.4375
909.0,-29.296875
910.0,-23.4375
911.0,-29.296875
912.0,-23.4375
913.0,-29.296875
914.0,-21.484375
915.0,-29.296875
916.0,-21.484375
917.0,-29.296875
918.0,-21.484375
919.0,-27.34375
920.0,-21.484375
921.0,-25.390625
922.0,-21.484375
923.0,-25.390625
924.0,-19.53125
925.0,-25.390625
926.0,-17.578125
927.0,-25.390625
928.0,-17.578125
929.0,-23.4375
930.0,-15.625
931.0,-23.4375
932.0,-15.625
933.0,-23.4375
934.0,-13.671875
935.0,-21.484375
936.0,-13.671875
937.0,-17.578125
938.0,-13.671875
939.0,-15.625
940.0,-11.71875
941.0,-17.578125
942.0,-9.765625
943.0,-15.625
944.0,-7.8125
945.0,-13.671875
946.0,-5.859375
947.0,-11.71875
948.0,-5.859375
949.0,-11.71875
950.0,-3.90625
951.0,-9.765625
952.0,-1.953125
953.0,-7.8125
954.0,-1.953125
955.0,-3.90625
956.0,0.0
957.0,-3.90625
958.0,1.953125
959.0,-1.953125
960.0,3.90625
961.0,-1.953125
962.0,5.859375
963.0,0.0
964.0,7.8125
965.0,1.953125
966.0,9.765625
967.0,3.90625
968.0,11.71875
969.0,5.859375
970.0,11.71875
971.0,7.8125
972.0,13.671875
973.0,11.71875
974.0,15.625
975.0,9.765625
976.0,17.578125
977.0,11.71875
978.0,19.53125
979.0,13.671875
980.0,21.484375
981.0,15.625
982.0,23.4375
983.0,15.625
984.0,23.4375
985.0,17.578125
986.0,25.390625
987.0,19.53125
988.0,25.390625
989.0,23.4375
990.0,27.34375
991.0,23.4375
992.0,31.25
993.0,23.4375
994.0,31.25
995.0,25.390625
996.0,33.203125
997.0,25.390625
998.0,33.203125
999.0,27.34375
1000.0,35.15625
1001.0,29.296875
1002.0,35.15625
1003.0,29.296875
1004.0,37.109375
1005.0,33.203125
1006.0,35.15625
1007.0,33.203125
1008.0,37.109375
1009.0,31.25
1010.0,39.0625
1011.0,33.203125
1012.0,41.015625
1013.0,33.203125
1014.0,41.015625
1015.0,35.15625
1016.0,41.015625
1017.0,35.15625
1018.0,42.96875
1019.0,35.15625
1020.0,42.96875
1021.0,39.0625
1022.0,41.015625
1023.0,39.0625
1024.0,41.015625
1025.0,37.109375
1026.0,44.921875
1027.0,37.109375
1028.0,44.921875
1029.0,37.109375
1030.0,44.921875
1031.0,37.109375
1032.0,44.921875
1033.0,37.109375
1034.0,44.921875
1035.0,37.109375
1036.0,44.921875
1037.0,37.109375
1038.0,42.96875
1039.0,39.0625
1040.0,41.015625
1041.0,35.15625
1042.0,42.96875
1043.0,35.15625
1044.0,42.96875
1045.0,35.15625
1046.0,42.96875
1047.0,35.15625
1048.0,42.96875
1049.0,33.203125
1050.0,41.015625
1051.0,33.203125
1052.0,41.015625
1053.0,33.203125
1054.0,41.015625
1055.0,33.203125
1056.0,37.109375
1057.0,33.203125
1058.0,37.109375
1059.0,29.296875
1060.0,37.109375
1061.0,29.296875
1062.0,37.109375
1063.0,27.34375
1064.0,35.15625
1065.0,27.34375
1066.0,35.15625
1067.0,25.390625
1068.0,33.203125
1069.0,23.4375
1070.0,31.25
1071.0,23.4375
1072.0,29.296875
1073.0,23.4375
1074.0,27.34375
1075.0,19.53125
1076.0,27.34375
1077.0,17.578125
1078.0,25.390625
1079.0,17.578125
1080.0,25.390625
1081.0,15.625
1082.0,23.4375
1083.0,13.671875
1084.0,21.484375
1085.0,11.71875
1086.0,19.53125
1087.0,11.71875
1088.0,19.53125
1089.0,9.765625
1090.0,13.671875
1091.0,9.765625
1092.0,13.671875
1093.0,5.859375
1094.0,13.671875
1095.0,3.90625
1096.0,11.71875
1097.0,1.953125
1098.0,9.765625
1099.0,0.0
1100.0,7.8125
1101.0,-1.953125
1102.0,5.859375
1103.0,-1.953125
1104.0,5.859375
1105.0,-1.953125
1106.0,1.953125
1107.0,-3.90625
1108.0,0.0
1109.0,-7.8125
1110.0,0.0
1111.0,-9.765625
1112.0,-1.953125
1113.0,-9.765625
1114.0,-3.90625
1115.0,-11.71875
1116.0,-3.90625
1117.0,-13.671875
1118.0,-5.859375
1119.0,-15.625
1120.0,-7.8125
1121.0,-15.625
1122.0,-9.765625
1123.0,-15.625
1124.0,-11.71875
1125.0,-19.53125
1126.0,-13.671875
1127.0,-19.53125
1128.0,-13.671875
1129.0,-21.484375
1130.0,-13.671875
1131.0,-23.4375
1132.0,-15.625
1133.0,-23.4375
1134.0,-15.625
1135.0,-25.390625
1136.0,-15.625
1137.0,-25.390625
1138.0,-17.578125
1139.0,-23.4375
1140.0,-21.484375
1141.0,-23.4375
1142.0,-21.484375
1143.0,-27.34375
1144.0,-19.53125
1145.0,-27.34375
1146.0,-21.484375
1147.0,-29.296875
1148.0,-21.484375
1149.0,-29.296875
1150.0,-21.484375
1151.0,-29.296875
1152.0,-21.484375
1153.0,-29.296875
1154.0,-21.484375
1155.0,-29.296875
1156.0,-23.4375
1157.0,-27.34375
1158.0,-25.390625
1159.0,-29.296875
1160.0,-21.484375
1161.0,-29.296875
1162.0,-21.484375
1163.0,-29.296875
1164.0,-23.4375
1165.0,-29.296875
1166.0,-21.484375
1167.0,-27.34375
1168.0,-21.484375
1169.0,-27.34375
1170.0,-21.484375
1171.0,-27.34375
1172.0,-19.53125
1173.0,-23.4375
1174.0,-21.484375
1175.0,-23.4375
1176.0,-19.53125
1177.0,-25.390625
1178.0,-17.578125
1179.0,-25.390625
1180.0,-17.578125
1181.0,-23.4375
1182.0,-15.625
1183.0,-23.4375
1184.0,-13.671875
1185.0,-21.484375
1186.0,-13.671875
1187.0,-21.484375
1188.0,-11.71875
1189.0,-15.625
1190.0,-13.671875
1191.0,-15.625
1192.0,-11.71875
1193.0,-15.625
1194.0,-7.8125
1195.0,-15.625
1196.0,-7.8125
1197.0,-13.671875
1198.0,-5.859375
1199.0,-11.71875
1200.0,-3.90625
1201.0,-9.765625
1202.0,-1.953125
1203.0,-9.765625
1204.0,-1.953125
1205.0,-7.8125
1206.0,-1.953125
1207.0,-3.90625
1208.0,0.0
1209.0,-1.953125
1210.0,3.90625
1211.0,-1.953125
1212.0,5.859375
1213.0,0.0
1214.0,7.8125
1215.0,1.953125
1216.0,7.8125
1217.0,1.953125
1218.0,9.765625
1219.0,3.90625
1220.0,11.71875
1221.0,5.859375
1222.0,13.671875
1223.0,9.765625
1224.0,13.671875
1225.0,11.71875
1226.0,15.625
1227.0,11.71875
1228.0,19.53125
1229.0,13.671875
1230.0,21.484375
1231.0,13.671875
1232.0,21.484375
1233.0,15.625
1234.0,23.4375
1235.0,17.578125
1236.0,25.390625
1237.0,17.578125
1238.0,25.390625
1239.0,19.53125
1240.0,27.34375
1241.0,23.4375
1242.0,27.34375
1243.0,23.4375
1244.0,31.25
1245.0,23.4375
1246.0,33.203125
1247.0,25.390625
1248.0,33.203125
1249.0,27.34375
1250.0,35.15625
1251.0,27.34375
1252.0,35.15625
1253.0,29.296875
1254.0,37.109375
1255.0,29.296875
1256.0,37.109375
1257.0,33.203125
1258.0,37.109375
1259.0,33.203125
1260.0,37.109375
1261.0,33.203125
1262.0,41.015625
1263.0,33.203125
1264.0,41.015625
1265.0,35.15625
1266.0,42.96875
1267.0,35.15625
1268.0,42.96875
1269.0,35.15625
1270.0,42.96875
1271.0,35.15625
1272.0,42.96875
1273.0,39.0625
1274.0,41.015625
1275.0,39.0625
1276.0,42.96875
