Practicum8/data/cas_sam/2000Hz_26_1cm/data_81_130.csv

Channel              :		CH1
Frequency            :		1.978kHz
Period               :		0.506ms
PK-PK                :		101.6mV
Probe attenuation    :		1X
Voltage per ADC value:		0.122070mV
Time interval        :		2.00000us
""
index		CH1_Voltage(mV)
1.0,58.59375
2.0,58.59375
3.0,54.6875
4.0,58.59375
5.0,54.6875
6.0,58.59375
7.0,54.6875
8.0,58.59375
9.0,54.6875
10.0,56.640625
11.0,54.6875
12.0,56.640625
13.0,52.734375
14.0,58.59375
15.0,52.734375
16.0,56.640625
17.0,52.734375
18.0,54.6875
19.0,50.78125
20.0,54.6875
21.0,50.78125
22.0,52.734375
23.0,48.828125
24.0,52.734375
25.0,48.828125
26.0,52.734375
27.0,46.875
28.0,50.78125
29.0,44.921875
30.0,50.78125
31.0,44.921875
32.0,48.828125
33.0,42.96875
34.0,46.875
35.0,41.015625
36.0,44.921875
37.0,39.0625
38.0,42.96875
39.0,37.109375
40.0,41.015625
41.0,35.15625
42.0,39.0625
43.0,33.203125
44.0,37.109375
45.0,33.203125
46.0,35.15625
47.0,29.296875
48.0,35.15625
49.0,27.34375
50.0,33.203125
51.0,25.390625
52.0,29.296875
53.0,23.4375
54.0,27.34375
55.0,21.484375
56.0,25.390625
57.0,19.53125
58.0,23.4375
59.0,17.578125
60.0,21.484375
61.0,15.625
62.0,19.53125
63.0,13.671875
64.0,17.578125
65.0,9.765625
66.0,15.625
67.0,7.8125
68.0,11.71875
69.0,5.859375
70.0,9.765625
71.0,1.953125
72.0,7.8125
73.0,1.953125
74.0,5.859375
75.0,0.0
76.0,3.90625
77.0,-1.953125
78.0,0.0
79.0,-5.859375
80.0,-1.953125
81.0,-7.8125
82.0,-1.953125
83.0,-9.765625
84.0,-5.859375
85.0,-11.71875
86.0,-7.8125
87.0,-13.671875
88.0,-9.765625
89.0,-15.625
90.0,-11.71875
91.0,-17.578125
92.0,-13.671875
93.0,-19.53125
94.0,-15.625
95.0,-21.484375
96.0,-17.578125
97.0,-23.4375
98.0,-19.53125
99.0,-23.4375
100.0,-19.53125
101.0,-25.390625
102.0,-21.484375
103.0,-27.34375
104.0,-23.4375
105.0,-29.296875
106.0,-25.390625
107.0,-29.296875
108.0,-25.390625
109.0,-31.25
110.0,-27.34375
111.0,-31.25
112.0,-29.296875
113.0,-33.203125
114.0,-29.296875
115.0,-33.203125
116.0,-31.25
117.0,-35.15625
118.0,-31.25
119.0,-35.15625
120.0,-31.25
121.0,-35.15625
122.0,-33.203125
123.0,-35.15625
124.0,-33.203125
125.0,-37.109375
126.0,-33.203125
127.0,-35.15625
128.0,-33.203125
129.0,-35.15625
130.0,-33.203125
131.0,-37.109375
132.0,-33.203125
133.0,-35.15625
134.0,-31.25
135.0,-35.15625
136.0,-31.25
137.0,-35.15625
138.0,-31.25
139.0,-35.15625
140.0,-31.25
141.0,-33.203125
142.0,-29.296875
143.0,-33.203125
144.0,-29.296875
145.0,-31.25
146.0,-29.296875
147.0,-31.25
148.0,-27.34375
149.0,-31.25
150.0,-25.390625
151.0,-29.296875
152.0,-25.390625
153.0,-27.34375
154.0,-23.4375
155.0,-25.390625
156.0,-21.484375
157.0,-23.4375
158.0,-21.484375
159.0,-23.4375
160.0,-19.53125
161.0,-21.484375
162.0,-17.578125
163.0,-19.53125
164.0,-13.671875
165.0,-17.578125
166.0,-13.671875
167.0,-15.625
168.0,-11.71875
169.0,-15.625
170.0,-9.765625
171.0,-11.71875
172.0,-7.8125
173.0,-9.765625
174.0,-5.859375
175.0,-7.8125
176.0,-3.90625
177.0,-5.859375
178.0,-1.953125
179.0,-3.90625
180.0,0.0
181.0,-1.953125
182.0,3.90625
183.0,1.953125
184.0,5.859375
185.0,3.90625
186.0,7.8125
187.0,5.859375
188.0,9.765625
189.0,7.8125
190.0,11.71875
191.0,9.765625
192.0,15.625
193.0,11.71875
194.0,15.625
195.0,15.625
196.0,19.53125
197.0,15.625
198.0,21.484375
199.0,19.53125
200.0,23.4375
201.0,21.484375
202.0,25.390625
203.0,23.4375
204.0,27.34375
205.0,25.390625
206.0,29.296875
207.0,27.34375
208.0,31.25
209.0,29.296875
210.0,33.203125
211.0,31.25
212.0,35.15625
213.0,33.203125
214.0,37.109375
215.0,35.15625
216.0,39.0625
217.0,37.109375
218.0,41.015625
219.0,39.0625
220.0,42.96875
221.0,41.015625
222.0,44.921875
223.0,42.96875
224.0,44.921875
225.0,42.96875
226.0,46.875
227.0,42.96875
228.0,48.828125
229.0,46.875
230.0,48.828125
231.0,48.828125
232.0,50.78125
233.0,48.828125
234.0,52.734375
235.0,50.78125
236.0,52.734375
237.0,50.78125
238.0,54.6875
239.0,50.78125
240.0,54.6875
241.0,52.734375
242.0,56.640625
243.0,52.734375
244.0,56.640625
245.0,54.6875
246.0,56.640625
247.0,54.6875
248.0,58.59375
249.0,54.6875
250.0,58.59375
251.0,54.6875
252.0,58.59375
253.0,54.6875
254.0,58.59375
255.0,54.6875
256.0,58.59375
257.0,54.6875
258.0,58.59375
259.0,54.6875
260.0,58.59375
261.0,54.6875
262.0,56.640625
263.0,54.6875
264.0,56.640625
265.0,54.6875
266.0,58.59375
267.0,52.734375
268.0,56.640625
269.0,52.734375
270.0,56.640625
271.0,52.734375
272.0,54.6875
273.0,50.78125
274.0,54.6875
275.0,48.828125
276.0,52.734375
277.0,48.828125
278.0,52.734375
279.0,46.875
280.0,50.78125
281.0,44.921875
282.0,50.78125
283.0,44.921875
284.0,48.828125
285.0,42.96875
286.0,46.875
287.0,42.96875
288.0,44.921875
289.0,41.015625
290.0,44.921875
291.0,39.0625
292.0,42.96875
293.0,37.109375
294.0,41.015625
295.0,35.15625
296.0,39.0625
297.0,33.203125
298.0,37.109375
299.0,31.25
300.0,35.15625
301.0,29.296875
302.0,33.203125
303.0,27.34375
304.0,31.25
305.0,25.390625
306.0,29.296875
307.0,23.4375
308.0,27.34375
309.0,21.484375
310.0,25.390625
311.0,17.578125
312.0,23.4375
313.0,15.625
314.0,19.53125
315.0,13.671875
316.0,17.578125
317.0,11.71875
318.0,15.625
319.0,9.765625
320.0,13.671875
321.0,5.859375
322.0,11.71875
323.0,5.859375
324.0,9.765625
325.0,1.953125
326.0,7.8125
327.0,0.0
328.0,5.859375
329.0,-1.953125
330.0,1.953125
331.0,-5.859375
332.0,0.0
333.0,-5.859375
334.0,-1.953125
335.0,-7.8125
336.0,-3.90625
337.0,-9.765625
338.0,-5.859375
339.0,-11.71875
340.0,-7.8125
341.0,-13.671875
342.0,-9.765625
343.0,-17.578125
344.0,-11.71875
345.0,-17.578125
346.0,-15.625
347.0,-19.53125
348.0,-17.578125
349.0,-23.4375
350.0,-17.578125
351.0,-23.4375
352.0,-19.53125
353.0,-25.390625
354.0,-21.484375
355.0,-27.34375
356.0,-23.4375
357.0,-29.296875
358.0,-25.390625
359.0,-29.296875
360.0,-25.390625
361.0,-31.25
362.0,-27.34375
363.0,-31.25
364.0,-29.296875
365.0,-33.203125
366.0,-29.296875
367.0,-33.203125
368.0,-31.25
369.0,-35.15625
370.0,-31.25
371.0,-35.15625
372.0,-31.25
373.0,-35.15625
374.0,-31.25
375.0,-35.15625
376.0,-33.203125
377.0,-37.109375
378.0,-33.203125
379.0,-35.15625
380.0,-33.203125
381.0,-37.109375
382.0,-33.203125
383.0,-37.109375
384.0,-33.203125
385.0,-37.109375
386.0,-33.203125
387.0,-35.15625
388.0,-33.203125
389.0,-35.15625
390.0,-31.25
391.0,-35.15625
392.0,-31.25
393.0,-35.15625
394.0,-31.25
395.0,-33.203125
396.0,-31.25
397.0,-33.203125
398.0,-29.296875
399.0,-31.25
400.0,-27.34375
401.0,-31.25
402.0,-27.34375
403.0,-29.296875
404.0,-25.390625
405.0,-29.296875
406.0,-23.4375
407.0,-27.34375
408.0,-23.4375
409.0,-25.390625
410.0,-21.484375
411.0,-23.4375
412.0,-19.53125
413.0,-21.484375
414.0,-17.578125
415.0,-19.53125
416.0,-15.625
417.0,-19.53125
418.0,-13.671875
419.0,-17.578125
420.0,-13.671875
421.0,-15.625
422.0,-11.71875
423.0,-11.71875
424.0,-9.765625
425.0,-11.71875
426.0,-5.859375
427.0,-7.8125
428.0,-3.90625
429.0,-5.859375
430.0,-1.953125
431.0,-3.90625
432.0,0.0
433.0,-1.953125
434.0,1.953125
435.0,0.0
436.0,3.90625
437.0,1.953125
438.0,5.859375
439.0,3.90625
440.0,7.8125
441.0,5.859375
442.0,11.71875
443.0,9.765625
444.0,13.671875
445.0,11.71875
446.0,15.625
447.0,13.671875
448.0,17.578125
449.0,15.625
450.0,19.53125
451.0,17.578125
452.0,21.484375
453.0,19.53125
454.0,25.390625
455.0,23.4375
456.0,25.390625
457.0,23.4375
458.0,29.296875
459.0,27.34375
460.0,31.25
461.0,29.296875
462.0,33.203125
463.0,31.25
464.0,35.15625
465.0,33.203125
466.0,35.15625
467.0,33.203125
468.0,39.0625
469.0,37.109375
470.0,41.015625
471.0,39.0625
472.0,41.015625
473.0,39.0625
474.0,42.96875
475.0,41.015625
476.0,44.921875
477.0,42.96875
478.0,46.875
479.0,44.921875
480.0,46.875
481.0,46.875
482.0,48.828125
483.0,46.875
484.0,50.78125
485.0,48.828125
486.0,52.734375
487.0,48.828125
488.0,52.734375
489.0,50.78125
490.0,52.734375
491.0,50.78125
492.0,54.6875
493.0,52.734375
494.0,54.6875
495.0,52.734375
496.0,56.640625
497.0,52.734375
498.0,56.640625
499.0,54.6875
500.0,56.640625
501.0,54.6875
502.0,56.640625
503.0,54.6875
504.0,58.59375
505.0,54.6875
506.0,58.59375
507.0,54.6875
508.0,58.59375
509.0,54.6875
510.0,58.59375
511.0,54.6875
512.0,58.59375
513.0,54.6875
514.0,56.640625
515.0,54.6875
516.0,56.640625
517.0,52.734375
518.0,56.640625
519.0,52.734375
520.0,56.640625
521.0,52.734375
522.0,54.6875
523.0,52.734375
524.0,54.6875
525.0,50.78125
526.0,54.6875
527.0,48.828125
528.0,52.734375
529.0,48.828125
530.0,52.734375
531.0,48.828125
532.0,50.78125
533.0,44.921875
534.0,50.78125
535.0,44.921875
536.0,48.828125
537.0,42.96875
538.0,46.875
539.0,42.96875
540.0,46.875
541.0,41.015625
542.0,44.921875
543.0,39.0625
544.0,42.96875
545.0,37.109375
546.0,41.015625
547.0,35.15625
548.0,39.0625
549.0,33.203125
550.0,37.109375
551.0,31.25
552.0,37.109375
553.0,29.296875
554.0,33.203125
555.0,27.34375
556.0,31.25
557.0,25.390625
558.0,29.296875
559.0,23.4375
560.0,27.34375
561.0,21.484375
562.0,25.390625
563.0,19.53125
564.0,23.4375
565.0,17.578125
566.0,21.484375
567.0,15.625
568.0,17.578125
569.0,13.671875
570.0,17.578125
571.0,9.765625
572.0,13.671875
573.0,7.8125
574.0,11.71875
575.0,5.859375
576.0,9.765625
577.0,3.90625
578.0,7.8125
579.0,0.0
580.0,5.859375
581.0,0.0
582.0,1.953125
583.0,-3.90625
584.0,0.0
585.0,-5.859375
586.0,-1.953125
587.0,-7.8125
588.0,-1.953125
589.0,-9.765625
590.0,-5.859375
591.0,-11.71875
592.0,-7.8125
593.0,-13.671875
594.0,-9.765625
595.0,-15.625
596.0,-11.71875
597.0,-17.578125
598.0,-13.671875
599.0,-19.53125
600.0,-15.625
601.0,-21.484375
602.0,-17.578125
603.0,-23.4375
604.0,-19.53125
605.0,-25.390625
606.0,-21.484375
607.0,-25.390625
608.0,-23.4375
609.0,-27.34375
610.0,-23.4375
611.0,-29.296875
612.0,-25.390625
613.0,-29.296875
614.0,-27.34375
615.0,-31.25
616.0,-27.34375
617.0,-33.203125
618.0,-29.296875
619.0,-33.203125
620.0,-29.296875
621.0,-33.203125
622.0,-31.25
623.0,-35.15625
624.0,-31.25
625.0,-35.15625
626.0,-31.25
627.0,-35.15625
628.0,-33.203125
629.0,-37.109375
630.0,-33.203125
631.0,-37.109375
632.0,-33.203125
633.0,-35.15625
634.0,-33.203125
635.0,-37.109375
636.0,-33.203125
637.0,-37.109375
638.0,-33.203125
639.0,-37.109375
640.0,-33.203125
641.0,-37.109375
642.0,-33.203125
643.0,-35.15625
644.0,-31.25
645.0,-35.15625
646.0,-31.25
647.0,-35.15625
648.0,-31.25
649.0,-33.203125
650.0,-31.25
651.0,-31.25
652.0,-29.296875
653.0,-31.25
654.0,-27.34375
655.0,-31.25
656.0,-27.34375
657.0,-29.296875
658.0,-25.390625
659.0,-27.34375
660.0,-23.4375
661.0,-27.34375
662.0,-21.484375
663.0,-25.390625
664.0,-21.484375
665.0,-23.4375
666.0,-19.53125
667.0,-21.484375
668.0,-17.578125
669.0,-21.484375
670.0,-15.625
671.0,-19.53125
672.0,-13.671875
673.0,-15.625
674.0,-11.71875
675.0,-13.671875
676.0,-9.765625
677.0,-11.71875
678.0,-7.8125
679.0,-9.765625
680.0,-5.859375
681.0,-7.8125
682.0,-3.90625
683.0,-5.859375
684.0,-1.953125
685.0,-3.90625
686.0,0.0
687.0,-1.953125
688.0,3.90625
689.0,0.0
690.0,5.859375
691.0,3.90625
692.0,7.8125
693.0,5.859375
694.0,9.765625
695.0,7.8125
696.0,11.71875
697.0,9.765625
698.0,13.671875
699.0,11.71875
700.0,15.625
701.0,15.625
702.0,19.53125
703.0,17.578125
704.0,21.484375
705.0,19.53125
706.0,23.4375
707.0,21.484375
708.0,25.390625
709.0,23.4375
710.0,27.34375
711.0,25.390625
712.0,29.296875
713.0,27.34375
714.0,31.25
715.0,29.296875
716.0,33.203125
717.0,31.25
718.0,35.15625
719.0,33.203125
720.0,37.109375
721.0,35.15625
722.0,39.0625
723.0,37.109375
724.0,41.015625
725.0,39.0625
726.0,42.96875
727.0,41.015625
728.0,44.921875
729.0,41.015625
730.0,46.875
731.0,42.96875
732.0,46.875
733.0,44.921875
734.0,48.828125
735.0,44.921875
736.0,50.78125
737.0,46.875
738.0,50.78125
739.0,48.828125
740.0,52.734375
741.0,50.78125
742.0,52.734375
743.0,50.78125
744.0,54.6875
745.0,52.734375
746.0,54.6875
747.0,52.734375
748.0,56.640625
749.0,52.734375
750.0,56.640625
751.0,54.6875
752.0,56.640625
753.0,52.734375
754.0,58.59375
755.0,54.6875
756.0,58.59375
757.0,54.6875
758.0,58.59375
759.0,54.6875
760.0,58.59375
761.0,54.6875
762.0,58.59375
763.0,54.6875
764.0,58.59375
765.0,54.6875
766.0,58.59375
767.0,54.6875
768.0,56.640625
769.0,54.6875
770.0,56.640625
771.0,52.734375
772.0,56.640625
773.0,52.734375
774.0,56.640625
775.0,52.734375
776.0,54.6875
777.0,50.78125
778.0,54.6875
779.0,50.78125
780.0,52.734375
781.0,48.828125
782.0,52.734375
783.0,48.828125
784.0,50.78125
785.0,46.875
786.0,50.78125
787.0,44.921875
788.0,50.78125
789.0,44.921875
790.0,48.828125
791.0,42.96875
792.0,46.875
793.0,41.015625
794.0,44.921875
795.0,39.0625
796.0,42.96875
797.0,37.109375
798.0,42.96875
799.0,37.109375
800.0,39.0625
801.0,35.15625
802.0,39.0625
803.0,33.203125
804.0,37.109375
805.0,31.25
806.0,35.15625
807.0,29.296875
808.0,33.203125
809.0,27.34375
810.0,31.25
811.0,25.390625
812.0,27.34375
813.0,23.4375
814.0,25.390625
815.0,19.53125
816.0,23.4375
817.0,17.578125
818.0,21.484375
819.0,15.625
820.0,19.53125
821.0,13.671875
822.0,17.578125
823.0,11.71875
824.0,15.625
825.0,9.765625
826.0,13.671875
827.0,5.859375
828.0,9.765625
829.0,3.90625
830.0,9.765625
831.0,1.953125
832.0,5.859375
833.0,0.0
834.0,3.90625
835.0,-1.953125
836.0,1.953125
837.0,-5.859375
838.0,1.953125
839.0,-7.8125
840.0,-1.953125
841.0,-7.8125
842.0,-5.859375
843.0,-11.71875
844.0,-7.8125
845.0,-13.671875
846.0,-7.8125
847.0,-15.625
848.0,-11.71875
849.0,-17.578125
850.0,-11.71875
851.0,-19.53125
852.0,-15.625
853.0,-21.484375
854.0,-17.578125
855.0,-23.4375
856.0,-19.53125
857.0,-23.4375
858.0,-19.53125
859.0,-25.390625
860.0,-21.484375
861.0,-27.34375
862.0,-23.4375
863.0,-27.34375
864.0,-25.390625
865.0,-31.25
866.0,-25.390625
867.0,-31.25
868.0,-27.34375
869.0,-33.203125
870.0,-29.296875
871.0,-33.203125
872.0,-29.296875
873.0,-33.203125
874.0,-31.25
875.0,-35.15625
876.0,-31.25
877.0,-35.15625
878.0,-31.25
879.0,-35.15625
880.0,-33.203125
881.0,-35.15625
882.0,-33.203125
883.0,-37.109375
884.0,-33.203125
885.0,-37.109375
886.0,-33.203125
887.0,-37.109375
888.0,-33.203125
889.0,-37.109375
890.0,-33.203125
891.0,-37.109375
892.0,-33.203125
893.0,-35.15625
894.0,-33.203125
895.0,-35.15625
896.0,-33.203125
897.0,-35.15625
898.0,-31.25
899.0,-35.15625
900.0,-31.25
901.0,-33.203125
902.0,-31.25
903.0,-33.203125
904.0,-29.296875
905.0,-31.25
906.0,-29.296875
907.0,-31.25
908.0,-27.34375
909.0,-29.296875
910.0,-27.34375
911.0,-29.296875
912.0,-25.390625
913.0,-27.34375
914.0,-23.4375
915.0,-25.390625
916.0,-21.484375
917.0,-23.4375
918.0,-21.484375
919.0,-21.484375
920.0,-19.53125
921.0,-21.484375
922.0,-17.578125
923.0,-19.53125
924.0,-15.625
925.0,-17.578125
926.0,-13.671875
927.0,-15.625
928.0,-9.765625
929.0,-11.71875
930.0,-9.765625
931.0,-11.71875
932.0,-7.8125
933.0,-9.765625
934.0,-3.90625
935.0,-7.8125
936.0,-3.90625
937.0,-3.90625
938.0,0.0
939.0,-1.953125
940.0,1.953125
941.0,0.0
942.0,3.90625
943.0,1.953125
944.0,5.859375
945.0,3.90625
946.0,9.765625
947.0,5.859375
948.0,11.71875
949.0,9.765625
950.0,13.671875
951.0,11.71875
952.0,15.625
953.0,13.671875
954.0,17.578125
955.0,15.625
956.0,21.484375
957.0,17.578125
958.0,21.484375
959.0,19.53125
960.0,23.4375
961.0,21.484375
962.0,25.390625
963.0,23.4375
964.0,29.296875
965.0,27.34375
966.0,31.25
967.0,29.296875
968.0,33.203125
969.0,31.25
970.0,35.15625
971.0,31.25
972.0,37.109375
973.0,35.15625
974.0,39.0625
975.0,35.15625
976.0,39.0625
977.0,37.109375
978.0,41.015625
979.0,39.0625
980.0,42.96875
981.0,41.015625
982.0,44.921875
983.0,42.96875
984.0,46.875
985.0,44.921875
986.0,46.875
987.0,44.921875
988.0,50.78125
989.0,46.875
990.0,50.78125
991.0,48.828125
992.0,52.734375
993.0,48.828125
994.0,52.734375
995.0,48.828125
996.0,52.734375
997.0,50.78125
998.0,54.6875
999.0,50.78125
1000.0,54.6875
1001.0,52.734375
1002.0,54.6875
1003.0,52.734375
1004.0,56.640625
1005.0,52.734375
1006.0,56.640625
1007.0,52.734375
1008.0,56.640625
1009.0,54.6875
1010.0,56.640625
1011.0,54.6875
1012.0,58.59375
1013.0,54.6875
1014.0,56.640625
1015.0,54.6875
1016.0,58.59375
1017.0,54.6875
1018.0,58.59375
1019.0,54.6875
1020.0,56.640625
1021.0,52.734375
1022.0,56.640625
1023.0,52.734375
1024.0,56.640625
1025.0,52.734375
1026.0,56.640625
1027.0,52.734375
1028.0,54.6875
1029.0,50.78125
1030.0,54.6875
1031.0,50.78125
1032.0,54.6875
1033.0,48.828125
1034.0,52.734375
1035.0,48.828125
1036.0,50.78125
1037.0,46.875
1038.0,50.78125
1039.0,46.875
1040.0,48.828125
1041.0,44.921875
1042.0,48.828125
1043.0,42.96875
1044.0,46.875
1045.0,41.015625
1046.0,44.921875
1047.0,41.015625
1048.0,44.921875
1049.0,37.109375
1050.0,42.96875
1051.0,37.109375
1052.0,41.015625
1053.0,35.15625
1054.0,39.0625
1055.0,33.203125
1056.0,37.109375
1057.0,31.25
1058.0,35.15625
1059.0,29.296875
1060.0,33.203125
1061.0,27.34375
1062.0,31.25
1063.0,25.390625
1064.0,29.296875
1065.0,23.4375
1066.0,27.34375
1067.0,21.484375
1068.0,25.390625
1069.0,19.53125
1070.0,21.484375
1071.0,15.625
1072.0,19.53125
1073.0,13.671875
1074.0,17.578125
1075.0,11.71875
1076.0,15.625
1077.0,9.765625
1078.0,13.671875
1079.0,7.8125
1080.0,11.71875
1081.0,5.859375
1082.0,9.765625
1083.0,1.953125
1084.0,7.8125
1085.0,0.0
1086.0,3.90625
1087.0,-1.953125
1088.0,1.953125
1089.0,-3.90625
1090.0,0.0
1091.0,-5.859375
1092.0,-1.953125
1093.0,-7.8125
1094.0,-3.90625
1095.0,-11.71875
1096.0,-5.859375
1097.0,-11.71875
1098.0,-7.8125
1099.0,-15.625
1100.0,-9.765625
1101.0,-15.625
1102.0,-11.71875
1103.0,-17.578125
1104.0,-13.671875
1105.0,-21.484375
1106.0,-15.625
1107.0,-23.4375
1108.0,-17.578125
1109.0,-23.4375
1110.0,-19.53125
1111.0,-25.390625
1112.0,-21.484375
1113.0,-27.34375
1114.0,-23.4375
1115.0,-29.296875
1116.0,-23.4375
1117.0,-29.296875
1118.0,-25.390625
1119.0,-29.296875
1120.0,-27.34375
1121.0,-31.25
1122.0,-27.34375
1123.0,-33.203125
1124.0,-29.296875
1125.0,-35.15625
1126.0,-31.25
1127.0,-35.15625
1128.0,-31.25
1129.0,-35.15625
1130.0,-31.25
1131.0,-37.109375
1132.0,-33.203125
1133.0,-37.109375
1134.0,-33.203125
1135.0,-37.109375
1136.0,-33.203125
1137.0,-37.109375
1138.0,-33.203125
1139.0,-37.109375
1140.0,-33.203125
1141.0,-37.109375
1142.0,-33.203125
1143.0,-37.109375
1144.0,-33.203125
1145.0,-37.109375
1146.0,-33.203125
1147.0,-35.15625
1148.0,-33.203125
1149.0,-35.15625
1150.0,-33.203125
1151.0,-35.15625
1152.0,-31.25
1153.0,-33.203125
1154.0,-31.25
1155.0,-33.203125
1156.0,-29.296875
1157.0,-33.203125
1158.0,-29.296875
1159.0,-31.25
1160.0,-27.34375
1161.0,-29.296875
1162.0,-27.34375
1163.0,-29.296875
1164.0,-25.390625
1165.0,-27.34375
1166.0,-25.390625
1167.0,-27.34375
1168.0,-21.484375
1169.0,-25.390625
1170.0,-21.484375
1171.0,-23.4375
1172.0,-19.53125
1173.0,-21.484375
1174.0,-17.578125
1175.0,-19.53125
1176.0,-15.625
1177.0,-17.578125
1178.0,-13.671875
1179.0,-15.625
1180.0,-11.71875
1181.0,-13.671875
1182.0,-9.765625
1183.0,-11.71875
1184.0,-7.8125
1185.0,-11.71875
1186.0,-5.859375
1187.0,-7.8125
1188.0,-3.90625
1189.0,-5.859375
1190.0,0.0
1191.0,-3.90625
1192.0,0.0
1193.0,-1.953125
1194.0,3.90625
1195.0,1.953125
1196.0,5.859375
1197.0,3.90625
1198.0,7.8125
1199.0,3.90625
1200.0,9.765625
1201.0,7.8125
1202.0,11.71875
1203.0,9.765625
1204.0,13.671875
1205.0,11.71875
1206.0,17.578125
1207.0,13.671875
1208.0,19.53125
1209.0,15.625
1210.0,21.484375
1211.0,19.53125
1212.0,23.4375
1213.0,21.484375
1214.0,25.390625
1215.0,23.4375
1216.0,27.34375
1217.0,25.390625
1218.0,31.25
1219.0,27.34375
1220.0,31.25
1221.0,29.296875
1222.0,33.203125
1223.0,31.25
1224.0,35.15625
1225.0,33.203125
1226.0,37.109375
1227.0,35.15625
1228.0,39.0625
1229.0,37.109375
1230.0,41.015625
1231.0,39.0625
1232.0,42.96875
1233.0,41.015625
1234.0,44.921875
1235.0,42.96875
1236.0,44.921875
1237.0,42.96875
1238.0,46.875
1239.0,44.921875
1240.0,48.828125
1241.0,44.921875
1242.0,48.828125
1243.0,46.875
1244.0,50.78125
1245.0,48.828125
1246.0,52.734375
1247.0,50.78125
1248.0,52.734375
1249.0,50.78125
1250.0,54.6875
1251.0,50.78125
1252.0,54.6875
1253.0,52.734375
1254.0,54.6875
1255.0,52.734375
1256.0,54.6875
1257.0,52.734375
1258.0,56.640625
1259.0,54.6875
1260.0,56.640625
1261.0,52.734375
1262.0,58.59375
1263.0,54.6875
1264.0,56.640625
1265.0,54.6875
1266.0,58.59375
1267.0,54.6875
1268.0,58.59375
1269.0,52.734375
1270.0,58.59375
1271.0,54.6875
1272.0,56.640625
1273.0,54.6875
1274.0,56.640625
1275.0,52.734375
1276.0,56.640625
1277.0,52.734375
1278.0,56.640625
1279.0,52.734375
1280.0,54.6875
1281.0,50.78125
