Practicum8/data/cas_sam/2000Hz_26_1cm/data_81_145.csv

Channel              :		CH1
Frequency            :		1.979kHz
Period               :		0.505ms
PK-PK                :		162.1mV
Probe attenuation    :		1X
Voltage per ADC value:		0.122070mV
Time interval        :		2.00000us
""
index		CH1_Voltage(mV)
1.0,74.21875
2.0,74.21875
3.0,80.078125
4.0,76.171875
5.0,80.078125
6.0,74.21875
7.0,82.03125
8.0,74.21875
9.0,82.03125
10.0,74.21875
11.0,82.03125
12.0,74.21875
13.0,82.03125
14.0,74.21875
15.0,82.03125
16.0,72.265625
17.0,80.078125
18.0,72.265625
19.0,80.078125
20.0,74.21875
21.0,76.171875
22.0,72.265625
23.0,76.171875
24.0,68.359375
25.0,78.125
26.0,68.359375
27.0,76.171875
28.0,66.40625
29.0,74.21875
30.0,66.40625
31.0,74.21875
32.0,64.453125
33.0,72.265625
34.0,62.5
35.0,70.3125
36.0,62.5
37.0,66.40625
38.0,60.546875
39.0,64.453125
40.0,54.6875
41.0,62.5
42.0,52.734375
43.0,60.546875
44.0,50.78125
45.0,58.59375
46.0,46.875
47.0,56.640625
48.0,44.921875
49.0,52.734375
50.0,41.015625
51.0,50.78125
52.0,41.015625
53.0,46.875
54.0,39.0625
55.0,42.96875
56.0,33.203125
57.0,39.0625
58.0,29.296875
59.0,39.0625
60.0,25.390625
61.0,35.15625
62.0,21.484375
63.0,31.25
64.0,19.53125
65.0,29.296875
66.0,15.625
67.0,25.390625
68.0,11.71875
69.0,21.484375
70.0,9.765625
71.0,15.625
72.0,5.859375
73.0,11.71875
74.0,0.0
75.0,7.8125
76.0,-3.90625
77.0,5.859375
78.0,-7.8125
79.0,1.953125
80.0,-11.71875
81.0,0.0
82.0,-15.625
83.0,-5.859375
84.0,-17.578125
85.0,-7.8125
86.0,-19.53125
87.0,-11.71875
88.0,-23.4375
89.0,-17.578125
90.0,-29.296875
91.0,-21.484375
92.0,-33.203125
93.0,-23.4375
94.0,-37.109375
95.0,-25.390625
96.0,-39.0625
97.0,-31.25
98.0,-42.96875
99.0,-33.203125
100.0,-46.875
101.0,-37.109375
102.0,-46.875
103.0,-39.0625
104.0,-48.828125
105.0,-44.921875
106.0,-52.734375
107.0,-46.875
108.0,-56.640625
109.0,-48.828125
110.0,-58.59375
111.0,-50.78125
112.0,-62.5
113.0,-52.734375
114.0,-64.453125
115.0,-56.640625
116.0,-66.40625
117.0,-56.640625
118.0,-68.359375
119.0,-58.59375
120.0,-66.40625
121.0,-62.5
122.0,-68.359375
123.0,-64.453125
124.0,-72.265625
125.0,-64.453125
126.0,-72.265625
127.0,-64.453125
128.0,-74.21875
129.0,-66.40625
130.0,-74.21875
131.0,-66.40625
132.0,-76.171875
133.0,-68.359375
134.0,-76.171875
135.0,-68.359375
136.0,-74.21875
137.0,-68.359375
138.0,-72.265625
139.0,-70.3125
140.0,-74.21875
141.0,-68.359375
142.0,-74.21875
143.0,-66.40625
144.0,-74.21875
145.0,-66.40625
146.0,-72.265625
147.0,-64.453125
148.0,-72.265625
149.0,-64.453125
150.0,-70.3125
151.0,-62.5
152.0,-68.359375
153.0,-60.546875
154.0,-66.40625
155.0,-60.546875
156.0,-62.5
157.0,-58.59375
158.0,-62.5
159.0,-54.6875
160.0,-60.546875
161.0,-52.734375
162.0,-58.59375
163.0,-50.78125
164.0,-56.640625
165.0,-48.828125
166.0,-52.734375
167.0,-44.921875
168.0,-50.78125
169.0,-42.96875
170.0,-48.828125
171.0,-41.015625
172.0,-42.96875
173.0,-37.109375
174.0,-39.0625
175.0,-31.25
176.0,-39.0625
177.0,-29.296875
178.0,-35.15625
179.0,-25.390625
180.0,-31.25
181.0,-23.4375
182.0,-27.34375
183.0,-17.578125
184.0,-23.4375
185.0,-13.671875
186.0,-19.53125
187.0,-11.71875
188.0,-15.625
189.0,-9.765625
190.0,-11.71875
191.0,-5.859375
192.0,-9.765625
193.0,0.0
194.0,-5.859375
195.0,3.90625
196.0,-1.953125
197.0,7.8125
198.0,1.953125
199.0,11.71875
200.0,5.859375
201.0,13.671875
202.0,9.765625
203.0,17.578125
204.0,13.671875
205.0,19.53125
206.0,19.53125
207.0,23.4375
208.0,21.484375
209.0,29.296875
210.0,23.4375
211.0,33.203125
212.0,25.390625
213.0,37.109375
214.0,31.25
215.0,39.0625
216.0,33.203125
217.0,42.96875
218.0,37.109375
219.0,46.875
220.0,39.0625
221.0,46.875
222.0,44.921875
223.0,48.828125
224.0,48.828125
225.0,54.6875
226.0,48.828125
227.0,56.640625
228.0,50.78125
229.0,58.59375
230.0,54.6875
231.0,62.5
232.0,56.640625
233.0,64.453125
234.0,58.59375
235.0,66.40625
236.0,60.546875
237.0,68.359375
238.0,64.453125
239.0,68.359375
240.0,66.40625
241.0,70.3125
242.0,66.40625
243.0,74.21875
244.0,66.40625
245.0,76.171875
246.0,68.359375
247.0,78.125
248.0,70.3125
249.0,78.125
250.0,72.265625
251.0,78.125
252.0,72.265625
253.0,80.078125
254.0,74.21875
255.0,80.078125
256.0,76.171875
257.0,78.125
258.0,74.21875
259.0,82.03125
260.0,74.21875
261.0,82.03125
262.0,74.21875
263.0,82.03125
264.0,74.21875
265.0,82.03125
266.0,74.21875
267.0,82.03125
268.0,74.21875
269.0,82.03125
270.0,74.21875
271.0,80.078125
272.0,76.171875
273.0,78.125
274.0,74.21875
275.0,78.125
276.0,70.3125
277.0,78.125
278.0,70.3125
279.0,76.171875
280.0,68.359375
281.0,76.171875
282.0,66.40625
283.0,74.21875
284.0,64.453125
285.0,72.265625
286.0,62.5
287.0,70.3125
288.0,64.453125
289.0,68.359375
290.0,60.546875
291.0,64.453125
292.0,58.59375
293.0,62.5
294.0,54.6875
295.0,62.5
296.0,52.734375
297.0,58.59375
298.0,50.78125
299.0,56.640625
300.0,46.875
301.0,54.6875
302.0,44.921875
303.0,50.78125
304.0,42.96875
305.0,48.828125
306.0,39.0625
307.0,44.921875
308.0,35.15625
309.0,41.015625
310.0,31.25
311.0,41.015625
312.0,27.34375
313.0,37.109375
314.0,23.4375
315.0,33.203125
316.0,19.53125
317.0,29.296875
318.0,17.578125
319.0,27.34375
320.0,13.671875
321.0,21.484375
322.0,11.71875
323.0,17.578125
324.0,7.8125
325.0,13.671875
326.0,1.953125
327.0,9.765625
328.0,-1.953125
329.0,7.8125
330.0,-5.859375
331.0,3.90625
332.0,-9.765625
333.0,0.0
334.0,-13.671875
335.0,-3.90625
336.0,-17.578125
337.0,-7.8125
338.0,-17.578125
339.0,-11.71875
340.0,-21.484375
341.0,-17.578125
342.0,-27.34375
343.0,-19.53125
344.0,-31.25
345.0,-21.484375
346.0,-35.15625
347.0,-25.390625
348.0,-39.0625
349.0,-29.296875
350.0,-41.015625
351.0,-31.25
352.0,-44.921875
353.0,-35.15625
354.0,-46.875
355.0,-39.0625
356.0,-48.828125
357.0,-42.96875
358.0,-50.78125
359.0,-46.875
360.0,-56.640625
361.0,-48.828125
362.0,-58.59375
363.0,-48.828125
364.0,-60.546875
365.0,-52.734375
366.0,-62.5
367.0,-54.6875
368.0,-64.453125
369.0,-56.640625
370.0,-66.40625
371.0,-58.59375
372.0,-66.40625
373.0,-60.546875
374.0,-68.359375
375.0,-64.453125
376.0,-70.3125
377.0,-64.453125
378.0,-72.265625
379.0,-64.453125
380.0,-74.21875
381.0,-66.40625
382.0,-74.21875
383.0,-66.40625
384.0,-74.21875
385.0,-66.40625
386.0,-74.21875
387.0,-66.40625
388.0,-74.21875
389.0,-68.359375
390.0,-72.265625
391.0,-70.3125
392.0,-72.265625
393.0,-68.359375
394.0,-74.21875
395.0,-66.40625
396.0,-72.265625
397.0,-66.40625
398.0,-72.265625
399.0,-64.453125
400.0,-72.265625
401.0,-64.453125
402.0,-70.3125
403.0,-62.5
404.0,-68.359375
405.0,-60.546875
406.0,-64.453125
407.0,-60.546875
408.0,-62.5
409.0,-58.59375
410.0,-62.5
411.0,-54.6875
412.0,-60.546875
413.0,-52.734375
414.0,-58.59375
415.0,-50.78125
416.0,-56.640625
417.0,-46.875
418.0,-54.6875
419.0,-44.921875
420.0,-50.78125
421.0,-42.96875
422.0,-48.828125
423.0,-41.015625
424.0,-42.96875
425.0,-39.0625
426.0,-39.0625
427.0,-33.203125
428.0,-39.0625
429.0,-29.296875
430.0,-35.15625
431.0,-25.390625
432.0,-31.25
433.0,-23.4375
434.0,-29.296875
435.0,-19.53125
436.0,-25.390625
437.0,-15.625
438.0,-21.484375
439.0,-13.671875
440.0,-15.625
441.0,-9.765625
442.0,-11.71875
443.0,-5.859375
444.0,-9.765625
445.0,0.0
446.0,-7.8125
447.0,3.90625
448.0,-1.953125
449.0,5.859375
450.0,0.0
451.0,9.765625
452.0,5.859375
453.0,13.671875
454.0,7.8125
455.0,17.578125
456.0,11.71875
457.0,19.53125
458.0,17.578125
459.0,23.4375
460.0,21.484375
461.0,27.34375
462.0,23.4375
463.0,31.25
464.0,25.390625
465.0,35.15625
466.0,29.296875
467.0,39.0625
468.0,33.203125
469.0,41.015625
470.0,37.109375
471.0,44.921875
472.0,39.0625
473.0,46.875
474.0,44.921875
475.0,48.828125
476.0,46.875
477.0,52.734375
478.0,48.828125
479.0,56.640625
480.0,50.78125
481.0,60.546875
482.0,54.6875
483.0,62.5
484.0,56.640625
485.0,64.453125
486.0,58.59375
487.0,66.40625
488.0,60.546875
489.0,68.359375
490.0,64.453125
491.0,68.359375
492.0,66.40625
493.0,70.3125
494.0,66.40625
495.0,74.21875
496.0,68.359375
497.0,74.21875
498.0,68.359375
499.0,78.125
500.0,70.3125
501.0,78.125
502.0,70.3125
503.0,80.078125
504.0,72.265625
505.0,80.078125
506.0,74.21875
507.0,80.078125
508.0,76.171875
509.0,78.125
510.0,74.21875
511.0,82.03125
512.0,74.21875
513.0,82.03125
514.0,74.21875
515.0,82.03125
516.0,76.171875
517.0,82.03125
518.0,74.21875
519.0,82.03125
520.0,74.21875
521.0,82.03125
522.0,74.21875
523.0,82.03125
524.0,76.171875
525.0,78.125
526.0,74.21875
527.0,78.125
528.0,72.265625
529.0,78.125
530.0,70.3125
531.0,78.125
532.0,68.359375
533.0,76.171875
534.0,68.359375
535.0,76.171875
536.0,66.40625
537.0,74.21875
538.0,64.453125
539.0,72.265625
540.0,64.453125
541.0,70.3125
542.0,62.5
543.0,66.40625
544.0,58.59375
545.0,64.453125
546.0,54.6875
547.0,64.453125
548.0,52.734375
549.0,60.546875
550.0,50.78125
551.0,58.59375
552.0,48.828125
553.0,56.640625
554.0,44.921875
555.0,54.6875
556.0,42.96875
557.0,50.78125
558.0,41.015625
559.0,46.875
560.0,37.109375
561.0,42.96875
562.0,33.203125
563.0,41.015625
564.0,29.296875
565.0,37.109375
566.0,25.390625
567.0,35.15625
568.0,21.484375
569.0,31.25
570.0,17.578125
571.0,27.34375
572.0,13.671875
573.0,25.390625
574.0,13.671875
575.0,19.53125
576.0,9.765625
577.0,15.625
578.0,3.90625
579.0,11.71875
580.0,0.0
581.0,9.765625
582.0,-3.90625
583.0,5.859375
584.0,-7.8125
585.0,1.953125
586.0,-11.71875
587.0,-1.953125
588.0,-15.625
589.0,-5.859375
590.0,-15.625
591.0,-9.765625
592.0,-19.53125
593.0,-15.625
594.0,-25.390625
595.0,-19.53125
596.0,-29.296875
597.0,-21.484375
598.0,-33.203125
599.0,-23.4375
600.0,-37.109375
601.0,-27.34375
602.0,-41.015625
603.0,-29.296875
604.0,-42.96875
605.0,-33.203125
606.0,-44.921875
607.0,-37.109375
608.0,-46.875
609.0,-42.96875
610.0,-48.828125
611.0,-44.921875
612.0,-54.6875
613.0,-46.875
614.0,-56.640625
615.0,-48.828125
616.0,-58.59375
617.0,-50.78125
618.0,-60.546875
619.0,-52.734375
620.0,-64.453125
621.0,-54.6875
622.0,-66.40625
623.0,-56.640625
624.0,-66.40625
625.0,-58.59375
626.0,-66.40625
627.0,-62.5
628.0,-70.3125
629.0,-64.453125
630.0,-72.265625
631.0,-64.453125
632.0,-72.265625
633.0,-64.453125
634.0,-72.265625
635.0,-66.40625
636.0,-74.21875
637.0,-66.40625
638.0,-74.21875
639.0,-66.40625
640.0,-74.21875
641.0,-66.40625
642.0,-72.265625
643.0,-68.359375
644.0,-72.265625
645.0,-66.40625
646.0,-74.21875
647.0,-66.40625
648.0,-72.265625
649.0,-64.453125
650.0,-72.265625
651.0,-64.453125
652.0,-72.265625
653.0,-64.453125
654.0,-70.3125
655.0,-62.5
656.0,-68.359375
657.0,-60.546875
658.0,-66.40625
659.0,-60.546875
660.0,-62.5
661.0,-58.59375
662.0,-62.5
663.0,-54.6875
664.0,-60.546875
665.0,-52.734375
666.0,-58.59375
667.0,-50.78125
668.0,-56.640625
669.0,-48.828125
670.0,-54.6875
671.0,-46.875
672.0,-52.734375
673.0,-42.96875
674.0,-48.828125
675.0,-41.015625
676.0,-42.96875
677.0,-39.0625
678.0,-41.015625
679.0,-33.203125
680.0,-39.0625
681.0,-31.25
682.0,-37.109375
683.0,-27.34375
684.0,-33.203125
685.0,-23.4375
686.0,-29.296875
687.0,-19.53125
688.0,-25.390625
689.0,-15.625
690.0,-21.484375
691.0,-13.671875
692.0,-15.625
693.0,-11.71875
694.0,-11.71875
695.0,-7.8125
696.0,-9.765625
697.0,0.0
698.0,-7.8125
699.0,1.953125
700.0,-3.90625
701.0,5.859375
702.0,0.0
703.0,9.765625
704.0,3.90625
705.0,13.671875
706.0,7.8125
707.0,17.578125
708.0,11.71875
709.0,19.53125
710.0,17.578125
711.0,21.484375
712.0,19.53125
713.0,29.296875
714.0,21.484375
715.0,31.25
716.0,25.390625
717.0,35.15625
718.0,29.296875
719.0,37.109375
720.0,33.203125
721.0,41.015625
722.0,35.15625
723.0,44.921875
724.0,39.0625
725.0,46.875
726.0,42.96875
727.0,48.828125
728.0,46.875
729.0,52.734375
730.0,48.828125
731.0,56.640625
732.0,50.78125
733.0,58.59375
734.0,52.734375
735.0,62.5
736.0,54.6875
737.0,64.453125
738.0,58.59375
739.0,66.40625
740.0,60.546875
741.0,68.359375
742.0,62.5
743.0,68.359375
744.0,66.40625
745.0,70.3125
746.0,66.40625
747.0,74.21875
748.0,68.359375
749.0,76.171875
750.0,70.3125
751.0,76.171875
752.0,70.3125
753.0,78.125
754.0,72.265625
755.0,80.078125
756.0,72.265625
757.0,80.078125
758.0,74.21875
759.0,80.078125
760.0,76.171875
761.0,80.078125
762.0,74.21875
763.0,82.03125
764.0,74.21875
765.0,82.03125
766.0,74.21875
767.0,82.03125
768.0,76.171875
769.0,83.984375
770.0,76.171875
771.0,82.03125
772.0,74.21875
773.0,82.03125
774.0,74.21875
775.0,82.03125
776.0,76.171875
777.0,78.125
778.0,76.171875
779.0,78.125
780.0,72.265625
781.0,80.078125
782.0,70.3125
783.0,78.125
784.0,70.3125
785.0,78.125
786.0,68.359375
787.0,76.171875
788.0,66.40625
789.0,74.21875
790.0,66.40625
791.0,74.21875
792.0,64.453125
793.0,70.3125
794.0,64.453125
795.0,66.40625
796.0,58.59375
797.0,66.40625
798.0,56.640625
799.0,64.453125
800.0,54.6875
801.0,62.5
802.0,52.734375
803.0,60.546875
804.0,48.828125
805.0,56.640625
806.0,44.921875
807.0,54.6875
808.0,44.921875
809.0,50.78125
810.0,42.96875
811.0,46.875
812.0,37.109375
813.0,42.96875
814.0,33.203125
815.0,42.96875
816.0,29.296875
817.0,39.0625
818.0,27.34375
819.0,37.109375
820.0,23.4375
821.0,33.203125
822.0,19.53125
823.0,29.296875
824.0,17.578125
825.0,25.390625
826.0,13.671875
827.0,21.484375
828.0,11.71875
829.0,17.578125
830.0,5.859375
831.0,13.671875
832.0,1.953125
833.0,11.71875
834.0,-1.953125
835.0,7.8125
836.0,-5.859375
837.0,1.953125
838.0,-9.765625
839.0,0.0
840.0,-13.671875
841.0,-3.90625
842.0,-15.625
843.0,-7.8125
844.0,-19.53125
845.0,-13.671875
846.0,-25.390625
847.0,-17.578125
848.0,-27.34375
849.0,-19.53125
850.0,-31.25
851.0,-21.484375
852.0,-35.15625
853.0,-25.390625
854.0,-39.0625
855.0,-29.296875
856.0,-41.015625
857.0,-33.203125
858.0,-44.921875
859.0,-35.15625
860.0,-44.921875
861.0,-41.015625
862.0,-48.828125
863.0,-42.96875
864.0,-54.6875
865.0,-44.921875
866.0,-56.640625
867.0,-46.875
868.0,-58.59375
869.0,-50.78125
870.0,-60.546875
871.0,-50.78125
872.0,-62.5
873.0,-54.6875
874.0,-64.453125
875.0,-56.640625
876.0,-64.453125
877.0,-58.59375
878.0,-66.40625
879.0,-62.5
880.0,-68.359375
881.0,-62.5
882.0,-70.3125
883.0,-62.5
884.0,-72.265625
885.0,-64.453125
886.0,-72.265625
887.0,-64.453125
888.0,-72.265625
889.0,-66.40625
890.0,-74.21875
891.0,-66.40625
892.0,-74.21875
893.0,-66.40625
894.0,-70.3125
895.0,-68.359375
896.0,-70.3125
897.0,-68.359375
898.0,-74.21875
899.0,-66.40625
900.0,-72.265625
901.0,-64.453125
902.0,-72.265625
903.0,-64.453125
904.0,-72.265625
905.0,-62.5
906.0,-70.3125
907.0,-62.5
908.0,-68.359375
909.0,-60.546875
910.0,-66.40625
911.0,-60.546875
912.0,-62.5
913.0,-58.59375
914.0,-62.5
915.0,-54.6875
916.0,-60.546875
917.0,-52.734375
918.0,-58.59375
919.0,-50.78125
920.0,-56.640625
921.0,-48.828125
922.0,-54.6875
923.0,-46.875
924.0,-50.78125
925.0,-42.96875
926.0,-48.828125
927.0,-41.015625
928.0,-44.921875
929.0,-39.0625
930.0,-41.015625
931.0,-35.15625
932.0,-41.015625
933.0,-31.25
934.0,-37.109375
935.0,-27.34375
936.0,-33.203125
937.0,-23.4375
938.0,-31.25
939.0,-21.484375
940.0,-27.34375
941.0,-17.578125
942.0,-23.4375
943.0,-13.671875
944.0,-17.578125
945.0,-11.71875
946.0,-13.671875
947.0,-7.8125
948.0,-9.765625
949.0,-1.953125
950.0,-7.8125
951.0,1.953125
952.0,-3.90625
953.0,5.859375
954.0,0.0
955.0,9.765625
956.0,3.90625
957.0,11.71875
958.0,5.859375
959.0,15.625
960.0,9.765625
961.0,17.578125
962.0,15.625
963.0,21.484375
964.0,19.53125
965.0,27.34375
966.0,21.484375
967.0,31.25
968.0,25.390625
969.0,35.15625
970.0,27.34375
971.0,37.109375
972.0,31.25
973.0,41.015625
974.0,35.15625
975.0,42.96875
976.0,37.109375
977.0,46.875
978.0,42.96875
979.0,48.828125
980.0,44.921875
981.0,50.78125
982.0,46.875
983.0,56.640625
984.0,50.78125
985.0,58.59375
986.0,52.734375
987.0,60.546875
988.0,54.6875
989.0,62.5
990.0,58.59375
991.0,66.40625
992.0,60.546875
993.0,68.359375
994.0,62.5
995.0,68.359375
996.0,66.40625
997.0,70.3125
998.0,66.40625
999.0,74.21875
1000.0,66.40625
1001.0,74.21875
1002.0,68.359375
1003.0,76.171875
1004.0,70.3125
1005.0,78.125
1006.0,70.3125
1007.0,80.078125
1008.0,72.265625
1009.0,80.078125
1010.0,74.21875
1011.0,80.078125
1012.0,76.171875
1013.0,80.078125
1014.0,76.171875
1015.0,80.078125
1016.0,76.171875
1017.0,82.03125
1018.0,76.171875
1019.0,83.984375
1020.0,76.171875
1021.0,82.03125
1022.0,76.171875
1023.0,82.03125
1024.0,74.21875
1025.0,82.03125
1026.0,76.171875
1027.0,82.03125
1028.0,76.171875
1029.0,80.078125
1030.0,76.171875
1031.0,78.125
1032.0,72.265625
1033.0,80.078125
1034.0,72.265625
1035.0,80.078125
1036.0,70.3125
1037.0,78.125
1038.0,68.359375
1039.0,76.171875
1040.0,66.40625
1041.0,74.21875
1042.0,66.40625
1043.0,74.21875
1044.0,64.453125
1045.0,72.265625
1046.0,64.453125
1047.0,68.359375
1048.0,60.546875
1049.0,66.40625
1050.0,56.640625
1051.0,66.40625
1052.0,54.6875
1053.0,64.453125
1054.0,50.78125
1055.0,60.546875
1056.0,50.78125
1057.0,58.59375
1058.0,48.828125
1059.0,56.640625
1060.0,44.921875
1061.0,52.734375
1062.0,42.96875
1063.0,48.828125
1064.0,41.015625
1065.0,44.921875
1066.0,35.15625
1067.0,42.96875
1068.0,31.25
1069.0,41.015625
1070.0,27.34375
1071.0,37.109375
1072.0,23.4375
1073.0,33.203125
1074.0,21.484375
1075.0,31.25
1076.0,17.578125
1077.0,27.34375
1078.0,15.625
1079.0,23.4375
1080.0,11.71875
1081.0,17.578125
1082.0,5.859375
1083.0,13.671875
1084.0,1.953125
1085.0,11.71875
1086.0,-1.953125
1087.0,7.8125
1088.0,-5.859375
1089.0,5.859375
1090.0,-7.8125
1091.0,1.953125
1092.0,-11.71875
1093.0,-1.953125
1094.0,-13.671875
1095.0,-5.859375
1096.0,-17.578125
1097.0,-11.71875
1098.0,-21.484375
1099.0,-15.625
1100.0,-27.34375
1101.0,-17.578125
1102.0,-31.25
1103.0,-19.53125
1104.0,-33.203125
1105.0,-23.4375
1106.0,-37.109375
1107.0,-29.296875
1108.0,-41.015625
1109.0,-31.25
1110.0,-42.96875
1111.0,-33.203125
1112.0,-42.96875
1113.0,-39.0625
1114.0,-46.875
1115.0,-41.015625
1116.0,-52.734375
1117.0,-44.921875
1118.0,-54.6875
1119.0,-46.875
1120.0,-56.640625
1121.0,-48.828125
1122.0,-60.546875
1123.0,-50.78125
1124.0,-60.546875
1125.0,-52.734375
1126.0,-64.453125
1127.0,-54.6875
1128.0,-64.453125
1129.0,-56.640625
1130.0,-64.453125
1131.0,-60.546875
1132.0,-68.359375
1133.0,-62.5
1134.0,-70.3125
1135.0,-62.5
1136.0,-72.265625
1137.0,-62.5
1138.0,-72.265625
1139.0,-64.453125
1140.0,-72.265625
1141.0,-64.453125
1142.0,-72.265625
1143.0,-66.40625
1144.0,-74.21875
1145.0,-66.40625
1146.0,-70.3125
1147.0,-68.359375
1148.0,-70.3125
1149.0,-68.359375
1150.0,-72.265625
1151.0,-66.40625
1152.0,-72.265625
1153.0,-64.453125
1154.0,-72.265625
1155.0,-64.453125
1156.0,-70.3125
1157.0,-62.5
1158.0,-70.3125
1159.0,-62.5
1160.0,-68.359375
1161.0,-60.546875
1162.0,-66.40625
1163.0,-60.546875
1164.0,-62.5
1165.0,-60.546875
1166.0,-62.5
1167.0,-56.640625
1168.0,-62.5
1169.0,-54.6875
1170.0,-60.546875
1171.0,-50.78125
1172.0,-58.59375
1173.0,-48.828125
1174.0,-54.6875
1175.0,-46.875
1176.0,-52.734375
1177.0,-42.96875
1178.0,-48.828125
1179.0,-41.015625
1180.0,-44.921875
1181.0,-39.0625
1182.0,-41.015625
1183.0,-37.109375
1184.0,-41.015625
1185.0,-31.25
1186.0,-39.0625
1187.0,-27.34375
1188.0,-35.15625
1189.0,-25.390625
1190.0,-31.25
1191.0,-21.484375
1192.0,-27.34375
1193.0,-17.578125
1194.0,-23.4375
1195.0,-13.671875
1196.0,-19.53125
1197.0,-13.671875
1198.0,-13.671875
1199.0,-9.765625
1200.0,-11.71875
1201.0,-3.90625
1202.0,-9.765625
1203.0,0.0
1204.0,-5.859375
1205.0,3.90625
1206.0,-1.953125
1207.0,7.8125
1208.0,1.953125
1209.0,11.71875
1210.0,5.859375
1211.0,15.625
1212.0,9.765625
1213.0,17.578125
1214.0,15.625
1215.0,21.484375
1216.0,19.53125
1217.0,25.390625
1218.0,21.484375
1219.0,29.296875
1220.0,23.4375
1221.0,33.203125
1222.0,27.34375
1223.0,37.109375
1224.0,31.25
1225.0,41.015625
1226.0,33.203125
1227.0,42.96875
1228.0,37.109375
1229.0,44.921875
1230.0,42.96875
1231.0,46.875
1232.0,44.921875
1233.0,50.78125
1234.0,46.875
1235.0,54.6875
1236.0,48.828125
1237.0,58.59375
1238.0,52.734375
1239.0,60.546875
1240.0,54.6875
1241.0,62.5
1242.0,56.640625
1243.0,64.453125
1244.0,58.59375
1245.0,68.359375
1246.0,62.5
1247.0,68.359375
1248.0,64.453125
1249.0,70.3125
1250.0,66.40625
1251.0,74.21875
1252.0,66.40625
1253.0,74.21875
1254.0,68.359375
1255.0,76.171875
1256.0,70.3125
1257.0,78.125
1258.0,72.265625
1259.0,80.078125
1260.0,72.265625
1261.0,80.078125
1262.0,74.21875
1263.0,80.078125
1264.0,76.171875
1265.0,80.078125
1266.0,78.125
1267.0,80.078125
1268.0,76.171875
1269.0,82.03125
1270.0,76.171875
1271.0,83.984375
1272.0,76.171875
