Practicum8/data/cas_sam/2000Hz_26_1cm/data_81_120.csv

Channel              :		CH1
Frequency            :		1.995kHz
Period               :		0.501ms
PK-PK                :		54.69mV
Probe attenuation    :		1X
Voltage per ADC value:		0.122070mV
Time interval        :		2.00000us
""
index		CH1_Voltage(mV)
1.0,27.34375
2.0,27.34375
3.0,25.390625
4.0,29.296875
5.0,25.390625
6.0,29.296875
7.0,27.34375
8.0,31.25
9.0,27.34375
10.0,31.25
11.0,27.34375
12.0,31.25
13.0,29.296875
14.0,31.25
15.0,27.34375
16.0,33.203125
17.0,29.296875
18.0,33.203125
19.0,29.296875
20.0,33.203125
21.0,29.296875
22.0,33.203125
23.0,29.296875
24.0,33.203125
25.0,31.25
26.0,33.203125
27.0,31.25
28.0,33.203125
29.0,31.25
30.0,33.203125
31.0,31.25
32.0,33.203125
33.0,29.296875
34.0,35.15625
35.0,31.25
36.0,33.203125
37.0,31.25
38.0,33.203125
39.0,31.25
40.0,33.203125
41.0,29.296875
42.0,33.203125
43.0,29.296875
44.0,33.203125
45.0,29.296875
46.0,33.203125
47.0,29.296875
48.0,31.25
49.0,27.34375
50.0,31.25
51.0,27.34375
52.0,31.25
53.0,27.34375
54.0,31.25
55.0,27.34375
56.0,29.296875
57.0,25.390625
58.0,29.296875
59.0,25.390625
60.0,29.296875
61.0,23.4375
62.0,29.296875
63.0,25.390625
64.0,27.34375
65.0,23.4375
66.0,25.390625
67.0,21.484375
68.0,25.390625
69.0,21.484375
70.0,25.390625
71.0,21.484375
72.0,25.390625
73.0,19.53125
74.0,23.4375
75.0,17.578125
76.0,21.484375
77.0,15.625
78.0,21.484375
79.0,17.578125
80.0,19.53125
81.0,15.625
82.0,19.53125
83.0,13.671875
84.0,17.578125
85.0,13.671875
86.0,17.578125
87.0,11.71875
88.0,15.625
89.0,11.71875
90.0,13.671875
91.0,9.765625
92.0,13.671875
93.0,9.765625
94.0,11.71875
95.0,7.8125
96.0,11.71875
97.0,7.8125
98.0,9.765625
99.0,5.859375
100.0,9.765625
101.0,3.90625
102.0,7.8125
103.0,3.90625
104.0,7.8125
105.0,1.953125
106.0,5.859375
107.0,0.0
108.0,3.90625
109.0,0.0
110.0,3.90625
111.0,-1.953125
112.0,1.953125
113.0,-1.953125
114.0,0.0
115.0,-1.953125
116.0,0.0
117.0,-3.90625
118.0,0.0
119.0,-5.859375
120.0,-1.953125
121.0,-5.859375
122.0,-1.953125
123.0,-5.859375
124.0,-3.90625
125.0,-7.8125
126.0,-3.90625
127.0,-7.8125
128.0,-5.859375
129.0,-9.765625
130.0,-5.859375
131.0,-9.765625
132.0,-7.8125
133.0,-9.765625
134.0,-7.8125
135.0,-13.671875
136.0,-7.8125
137.0,-11.71875
138.0,-7.8125
139.0,-11.71875
140.0,-9.765625
141.0,-11.71875
142.0,-9.765625
143.0,-13.671875
144.0,-7.8125
145.0,-13.671875
146.0,-9.765625
147.0,-13.671875
148.0,-11.71875
149.0,-15.625
150.0,-11.71875
151.0,-15.625
152.0,-9.765625
153.0,-15.625
154.0,-9.765625
155.0,-13.671875
156.0,-11.71875
157.0,-13.671875
158.0,-11.71875
159.0,-13.671875
160.0,-11.71875
161.0,-15.625
162.0,-9.765625
163.0,-13.671875
164.0,-11.71875
165.0,-13.671875
166.0,-11.71875
167.0,-15.625
168.0,-9.765625
169.0,-15.625
170.0,-7.8125
171.0,-15.625
172.0,-7.8125
173.0,-13.671875
174.0,-7.8125
175.0,-13.671875
176.0,-5.859375
177.0,-13.671875
178.0,-5.859375
179.0,-11.71875
180.0,-7.8125
181.0,-9.765625
182.0,-7.8125
183.0,-9.765625
184.0,-5.859375
185.0,-9.765625
186.0,-3.90625
187.0,-9.765625
188.0,-3.90625
189.0,-9.765625
190.0,-1.953125
191.0,-7.8125
192.0,-1.953125
193.0,-7.8125
194.0,0.0
195.0,-5.859375
196.0,0.0
197.0,-3.90625
198.0,0.0
199.0,-1.953125
200.0,0.0
201.0,-3.90625
202.0,3.90625
203.0,-1.953125
204.0,3.90625
205.0,-1.953125
206.0,5.859375
207.0,0.0
208.0,7.8125
209.0,0.0
210.0,7.8125
211.0,1.953125
212.0,9.765625
213.0,3.90625
214.0,7.8125
215.0,5.859375
216.0,9.765625
217.0,5.859375
218.0,11.71875
219.0,5.859375
220.0,13.671875
221.0,5.859375
222.0,13.671875
223.0,7.8125
224.0,15.625
225.0,9.765625
226.0,17.578125
227.0,11.71875
228.0,17.578125
229.0,11.71875
230.0,17.578125
231.0,15.625
232.0,17.578125
233.0,15.625
234.0,19.53125
235.0,15.625
236.0,21.484375
237.0,15.625
238.0,23.4375
239.0,17.578125
240.0,23.4375
241.0,17.578125
242.0,25.390625
243.0,19.53125
244.0,25.390625
245.0,19.53125
246.0,27.34375
247.0,23.4375
248.0,25.390625
249.0,23.4375
250.0,27.34375
251.0,23.4375
252.0,29.296875
253.0,23.4375
254.0,29.296875
255.0,23.4375
256.0,31.25
257.0,23.4375
258.0,31.25
259.0,25.390625
260.0,33.203125
261.0,25.390625
262.0,33.203125
263.0,27.34375
264.0,33.203125
265.0,29.296875
266.0,31.25
267.0,27.34375
268.0,33.203125
269.0,27.34375
270.0,35.15625
271.0,27.34375
272.0,35.15625
273.0,27.34375
274.0,35.15625
275.0,27.34375
276.0,35.15625
277.0,29.296875
278.0,35.15625
279.0,29.296875
280.0,35.15625
281.0,31.25
282.0,33.203125
283.0,31.25
284.0,33.203125
285.0,29.296875
286.0,35.15625
287.0,29.296875
288.0,35.15625
289.0,27.34375
290.0,35.15625
291.0,29.296875
292.0,35.15625
293.0,27.34375
294.0,35.15625
295.0,27.34375
296.0,35.15625
297.0,27.34375
298.0,33.203125
299.0,29.296875
300.0,31.25
301.0,25.390625
302.0,33.203125
303.0,25.390625
304.0,33.203125
305.0,25.390625
306.0,31.25
307.0,25.390625
308.0,31.25
309.0,23.4375
310.0,31.25
311.0,21.484375
312.0,29.296875
313.0,23.4375
314.0,29.296875
315.0,23.4375
316.0,27.34375
317.0,23.4375
318.0,25.390625
319.0,19.53125
320.0,27.34375
321.0,19.53125
322.0,25.390625
323.0,17.578125
324.0,25.390625
325.0,17.578125
326.0,23.4375
327.0,15.625
328.0,23.4375
329.0,15.625
330.0,23.4375
331.0,15.625
332.0,19.53125
333.0,15.625
334.0,17.578125
335.0,11.71875
336.0,19.53125
337.0,9.765625
338.0,17.578125
339.0,9.765625
340.0,17.578125
341.0,7.8125
342.0,17.578125
343.0,7.8125
344.0,15.625
345.0,5.859375
346.0,13.671875
347.0,5.859375
348.0,11.71875
349.0,5.859375
350.0,9.765625
351.0,1.953125
352.0,9.765625
353.0,1.953125
354.0,9.765625
355.0,0.0
356.0,7.8125
357.0,0.0
358.0,7.8125
359.0,-1.953125
360.0,5.859375
361.0,-3.90625
362.0,3.90625
363.0,-3.90625
364.0,3.90625
365.0,-1.953125
366.0,0.0
367.0,-3.90625
368.0,0.0
369.0,-5.859375
370.0,0.0
371.0,-7.8125
372.0,0.0
373.0,-7.8125
374.0,-1.953125
375.0,-9.765625
376.0,-1.953125
377.0,-9.765625
378.0,-1.953125
379.0,-11.71875
380.0,-3.90625
381.0,-11.71875
382.0,-3.90625
383.0,-9.765625
384.0,-7.8125
385.0,-13.671875
386.0,-5.859375
387.0,-13.671875
388.0,-5.859375
389.0,-13.671875
390.0,-7.8125
391.0,-15.625
392.0,-7.8125
393.0,-15.625
394.0,-7.8125
395.0,-15.625
396.0,-9.765625
397.0,-15.625
398.0,-9.765625
399.0,-13.671875
400.0,-11.71875
401.0,-13.671875
402.0,-11.71875
403.0,-15.625
404.0,-9.765625
405.0,-15.625
406.0,-9.765625
407.0,-17.578125
408.0,-9.765625
409.0,-17.578125
410.0,-9.765625
411.0,-17.578125
412.0,-9.765625
413.0,-15.625
414.0,-9.765625
415.0,-15.625
416.0,-11.71875
417.0,-13.671875
418.0,-11.71875
419.0,-15.625
420.0,-7.8125
421.0,-15.625
422.0,-7.8125
423.0,-15.625
424.0,-7.8125
425.0,-13.671875
426.0,-5.859375
427.0,-13.671875
428.0,-7.8125
429.0,-13.671875
430.0,-5.859375
431.0,-13.671875
432.0,-5.859375
433.0,-9.765625
434.0,-7.8125
435.0,-9.765625
436.0,-3.90625
437.0,-11.71875
438.0,-3.90625
439.0,-9.765625
440.0,-1.953125
441.0,-9.765625
442.0,-1.953125
443.0,-7.8125
444.0,0.0
445.0,-7.8125
446.0,0.0
447.0,-5.859375
448.0,0.0
449.0,-1.953125
450.0,0.0
451.0,-1.953125
452.0,0.0
453.0,-3.90625
454.0,3.90625
455.0,-1.953125
456.0,3.90625
457.0,-1.953125
458.0,5.859375
459.0,0.0
460.0,7.8125
461.0,0.0
462.0,7.8125
463.0,1.953125
464.0,9.765625
465.0,3.90625
466.0,9.765625
467.0,5.859375
468.0,9.765625
469.0,5.859375
470.0,13.671875
471.0,5.859375
472.0,13.671875
473.0,7.8125
474.0,15.625
475.0,7.8125
476.0,15.625
477.0,9.765625
478.0,17.578125
479.0,11.71875
480.0,19.53125
481.0,11.71875
482.0,19.53125
483.0,15.625
484.0,17.578125
485.0,17.578125
486.0,19.53125
487.0,15.625
488.0,23.4375
489.0,15.625
490.0,23.4375
491.0,17.578125
492.0,25.390625
493.0,19.53125
494.0,25.390625
495.0,19.53125
496.0,27.34375
497.0,19.53125
498.0,27.34375
499.0,21.484375
500.0,27.34375
501.0,23.4375
502.0,27.34375
503.0,23.4375
504.0,29.296875
505.0,23.4375
506.0,31.25
507.0,23.4375
508.0,31.25
509.0,25.390625
510.0,31.25
511.0,25.390625
512.0,33.203125
513.0,25.390625
514.0,33.203125
515.0,25.390625
516.0,33.203125
517.0,29.296875
518.0,31.25
519.0,29.296875
520.0,33.203125
521.0,27.34375
522.0,35.15625
523.0,27.34375
524.0,35.15625
525.0,27.34375
526.0,35.15625
527.0,27.34375
528.0,35.15625
529.0,27.34375
530.0,35.15625
531.0,29.296875
532.0,35.15625
533.0,31.25
534.0,33.203125
535.0,29.296875
536.0,35.15625
537.0,29.296875
538.0,35.15625
539.0,29.296875
540.0,35.15625
541.0,27.34375
542.0,35.15625
543.0,27.34375
544.0,35.15625
545.0,27.34375
546.0,35.15625
547.0,27.34375
548.0,35.15625
549.0,27.34375
550.0,33.203125
551.0,29.296875
552.0,31.25
553.0,25.390625
554.0,33.203125
555.0,25.390625
556.0,33.203125
557.0,23.4375
558.0,31.25
559.0,23.4375
560.0,31.25
561.0,23.4375
562.0,31.25
563.0,23.4375
564.0,29.296875
565.0,23.4375
566.0,29.296875
567.0,23.4375
568.0,25.390625
569.0,21.484375
570.0,25.390625
571.0,19.53125
572.0,27.34375
573.0,17.578125
574.0,25.390625
575.0,17.578125
576.0,23.4375
577.0,15.625
578.0,23.4375
579.0,15.625
580.0,23.4375
581.0,13.671875
582.0,21.484375
583.0,15.625
584.0,19.53125
585.0,13.671875
586.0,17.578125
587.0,11.71875
588.0,17.578125
589.0,9.765625
590.0,17.578125
591.0,9.765625
592.0,15.625
593.0,7.8125
594.0,15.625
595.0,7.8125
596.0,13.671875
597.0,5.859375
598.0,13.671875
599.0,5.859375
600.0,11.71875
601.0,5.859375
602.0,7.8125
603.0,3.90625
604.0,7.8125
605.0,0.0
606.0,7.8125
607.0,0.0
608.0,7.8125
609.0,-1.953125
610.0,5.859375
611.0,-1.953125
612.0,5.859375
613.0,-1.953125
614.0,3.90625
615.0,-3.90625
616.0,3.90625
617.0,-3.90625
618.0,0.0
619.0,-3.90625
620.0,-1.953125
621.0,-7.8125
622.0,0.0
623.0,-7.8125
624.0,0.0
625.0,-9.765625
626.0,-1.953125
627.0,-9.765625
628.0,-1.953125
629.0,-9.765625
630.0,-3.90625
631.0,-11.71875
632.0,-3.90625
633.0,-11.71875
634.0,-3.90625
635.0,-9.765625
636.0,-7.8125
637.0,-13.671875
638.0,-5.859375
639.0,-13.671875
640.0,-5.859375
641.0,-13.671875
642.0,-7.8125
643.0,-15.625
644.0,-7.8125
645.0,-15.625
646.0,-7.8125
647.0,-15.625
648.0,-7.8125
649.0,-15.625
650.0,-9.765625
651.0,-13.671875
652.0,-11.71875
653.0,-13.671875
654.0,-11.71875
655.0,-15.625
656.0,-9.765625
657.0,-15.625
658.0,-9.765625
659.0,-17.578125
660.0,-9.765625
661.0,-15.625
662.0,-9.765625
663.0,-15.625
664.0,-9.765625
665.0,-15.625
666.0,-9.765625
667.0,-15.625
668.0,-9.765625
669.0,-13.671875
670.0,-9.765625
671.0,-15.625
672.0,-7.8125
673.0,-15.625
674.0,-7.8125
675.0,-13.671875
676.0,-7.8125
677.0,-13.671875
678.0,-7.8125
679.0,-13.671875
680.0,-5.859375
681.0,-13.671875
682.0,-5.859375
683.0,-11.71875
684.0,-5.859375
685.0,-9.765625
686.0,-5.859375
687.0,-9.765625
688.0,-3.90625
689.0,-9.765625
690.0,-3.90625
691.0,-9.765625
692.0,-1.953125
693.0,-7.8125
694.0,-1.953125
695.0,-7.8125
696.0,0.0
697.0,-5.859375
698.0,0.0
699.0,-5.859375
700.0,1.953125
701.0,-1.953125
702.0,0.0
703.0,-1.953125
704.0,1.953125
705.0,-1.953125
706.0,3.90625
707.0,-1.953125
708.0,5.859375
709.0,0.0
710.0,5.859375
711.0,0.0
712.0,7.8125
713.0,1.953125
714.0,9.765625
715.0,1.953125
716.0,9.765625
717.0,3.90625
718.0,9.765625
719.0,7.8125
720.0,9.765625
721.0,7.8125
722.0,13.671875
723.0,7.8125
724.0,13.671875
725.0,7.8125
726.0,15.625
727.0,9.765625
728.0,17.578125
729.0,9.765625
730.0,17.578125
731.0,11.71875
732.0,19.53125
733.0,13.671875
734.0,19.53125
735.0,15.625
736.0,19.53125
737.0,17.578125
738.0,19.53125
739.0,15.625
740.0,23.4375
741.0,17.578125
742.0,23.4375
743.0,17.578125
744.0,25.390625
745.0,19.53125
746.0,25.390625
747.0,19.53125
748.0,27.34375
749.0,19.53125
750.0,27.34375
751.0,21.484375
752.0,27.34375
753.0,25.390625
754.0,27.34375
755.0,23.4375
756.0,29.296875
757.0,23.4375
758.0,31.25
759.0,23.4375
760.0,31.25
761.0,25.390625
762.0,31.25
763.0,25.390625
764.0,33.203125
765.0,25.390625
766.0,33.203125
767.0,27.34375
768.0,33.203125
769.0,29.296875
770.0,31.25
771.0,29.296875
772.0,33.203125
773.0,27.34375
774.0,35.15625
775.0,27.34375
776.0,35.15625
777.0,27.34375
778.0,35.15625
779.0,27.34375
780.0,35.15625
781.0,29.296875
782.0,35.15625
783.0,27.34375
784.0,37.109375
785.0,31.25
786.0,33.203125
787.0,31.25
788.0,33.203125
789.0,29.296875
790.0,35.15625
791.0,29.296875
792.0,35.15625
793.0,27.34375
794.0,35.15625
795.0,27.34375
796.0,35.15625
797.0,27.34375
798.0,35.15625
799.0,27.34375
800.0,35.15625
801.0,25.390625
802.0,33.203125
803.0,29.296875
804.0,31.25
805.0,25.390625
806.0,31.25
807.0,25.390625
808.0,31.25
809.0,23.4375
810.0,31.25
811.0,23.4375
812.0,31.25
813.0,23.4375
814.0,29.296875
815.0,21.484375
816.0,29.296875
817.0,21.484375
818.0,29.296875
819.0,23.4375
820.0,25.390625
821.0,21.484375
822.0,25.390625
823.0,19.53125
824.0,25.390625
825.0,17.578125
826.0,25.390625
827.0,17.578125
828.0,23.4375
829.0,15.625
830.0,23.4375
831.0,13.671875
832.0,21.484375
833.0,13.671875
834.0,21.484375
835.0,13.671875
836.0,19.53125
837.0,13.671875
838.0,17.578125
839.0,9.765625
840.0,17.578125
841.0,9.765625
842.0,17.578125
843.0,7.8125
844.0,15.625
845.0,5.859375
846.0,15.625
847.0,5.859375
848.0,13.671875
849.0,3.90625
850.0,11.71875
851.0,3.90625
852.0,11.71875
853.0,5.859375
854.0,7.8125
855.0,3.90625
856.0,5.859375
857.0,0.0
858.0,7.8125
859.0,0.0
860.0,5.859375
861.0,-1.953125
862.0,5.859375
863.0,-1.953125
864.0,3.90625
865.0,-3.90625
866.0,3.90625
867.0,-3.90625
868.0,1.953125
869.0,-3.90625
870.0,0.0
871.0,-5.859375
872.0,-1.953125
873.0,-7.8125
874.0,-1.953125
875.0,-9.765625
876.0,-1.953125
877.0,-9.765625
878.0,-1.953125
879.0,-9.765625
880.0,-3.90625
881.0,-11.71875
882.0,-3.90625
883.0,-11.71875
884.0,-3.90625
885.0,-11.71875
886.0,-5.859375
887.0,-11.71875
888.0,-7.8125
889.0,-13.671875
890.0,-7.8125
891.0,-15.625
892.0,-7.8125
893.0,-15.625
894.0,-7.8125
895.0,-15.625
896.0,-7.8125
897.0,-15.625
898.0,-7.8125
899.0,-15.625
900.0,-7.8125
901.0,-15.625
902.0,-9.765625
903.0,-13.671875
904.0,-11.71875
905.0,-13.671875
906.0,-11.71875
907.0,-17.578125
908.0,-9.765625
909.0,-17.578125
910.0,-9.765625
911.0,-17.578125
912.0,-9.765625
913.0,-17.578125
914.0,-9.765625
915.0,-15.625
916.0,-9.765625
917.0,-15.625
918.0,-9.765625
919.0,-15.625
920.0,-9.765625
921.0,-13.671875
922.0,-11.71875
923.0,-15.625
924.0,-7.8125
925.0,-15.625
926.0,-7.8125
927.0,-13.671875
928.0,-7.8125
929.0,-13.671875
930.0,-5.859375
931.0,-13.671875
932.0,-5.859375
933.0,-11.71875
934.0,-5.859375
935.0,-11.71875
936.0,-5.859375
937.0,-9.765625
938.0,-5.859375
939.0,-7.8125
940.0,-5.859375
941.0,-9.765625
942.0,-3.90625
943.0,-9.765625
944.0,-1.953125
945.0,-7.8125
946.0,-1.953125
947.0,-7.8125
948.0,0.0
949.0,-5.859375
950.0,0.0
951.0,-5.859375
952.0,1.953125
953.0,-1.953125
954.0,0.0
955.0,-1.953125
956.0,1.953125
957.0,-1.953125
958.0,3.90625
959.0,0.0
960.0,5.859375
961.0,0.0
962.0,7.8125
963.0,0.0
964.0,7.8125
965.0,1.953125
966.0,9.765625
967.0,3.90625
968.0,9.765625
969.0,3.90625
970.0,11.71875
971.0,7.8125
972.0,9.765625
973.0,9.765625
974.0,13.671875
975.0,7.8125
976.0,15.625
977.0,9.765625
978.0,15.625
979.0,9.765625
980.0,17.578125
981.0,11.71875
982.0,19.53125
983.0,11.71875
984.0,19.53125
985.0,13.671875
986.0,19.53125
987.0,17.578125
988.0,19.53125
989.0,17.578125
990.0,19.53125
991.0,17.578125
992.0,23.4375
993.0,17.578125
994.0,25.390625
995.0,19.53125
996.0,25.390625
997.0,19.53125
998.0,27.34375
999.0,19.53125
1000.0,27.34375
1001.0,21.484375
1002.0,27.34375
1003.0,23.4375
1004.0,27.34375
1005.0,25.390625
1006.0,27.34375
1007.0,23.4375
1008.0,29.296875
1009.0,23.4375
1010.0,31.25
1011.0,25.390625
1012.0,31.25
1013.0,27.34375
1014.0,29.296875
1015.0,25.390625
1016.0,33.203125
1017.0,27.34375
1018.0,33.203125
1019.0,25.390625
1020.0,33.203125
1021.0,29.296875
1022.0,31.25
1023.0,29.296875
1024.0,31.25
1025.0,27.34375
1026.0,35.15625
1027.0,27.34375
1028.0,35.15625
1029.0,31.25
1030.0,33.203125
1031.0,29.296875
1032.0,35.15625
1033.0,29.296875
1034.0,35.15625
1035.0,27.34375
1036.0,35.15625
1037.0,29.296875
1038.0,33.203125
1039.0,31.25
1040.0,33.203125
1041.0,29.296875
1042.0,33.203125
1043.0,29.296875
1044.0,35.15625
1045.0,29.296875
1046.0,33.203125
1047.0,29.296875
1048.0,33.203125
1049.0,29.296875
1050.0,33.203125
1051.0,25.390625
1052.0,33.203125
1053.0,27.34375
1054.0,31.25
1055.0,27.34375
1056.0,31.25
1057.0,25.390625
1058.0,31.25
1059.0,25.390625
1060.0,31.25
1061.0,25.390625
1062.0,29.296875
1063.0,25.390625
1064.0,27.34375
1065.0,23.4375
1066.0,29.296875
1067.0,23.4375
1068.0,27.34375
1069.0,21.484375
1070.0,27.34375
1071.0,21.484375
1072.0,25.390625
1073.0,21.484375
1074.0,23.4375
1075.0,19.53125
1076.0,23.4375
1077.0,19.53125
1078.0,21.484375
1079.0,17.578125
1080.0,21.484375
1081.0,17.578125
1082.0,19.53125
1083.0,15.625
1084.0,21.484375
1085.0,13.671875
1086.0,17.578125
1087.0,13.671875
1088.0,17.578125
1089.0,13.671875
1090.0,15.625
1091.0,9.765625
1092.0,15.625
1093.0,11.71875
1094.0,13.671875
1095.0,9.765625
1096.0,13.671875
1097.0,7.8125
1098.0,11.71875
1099.0,5.859375
1100.0,11.71875
1101.0,5.859375
1102.0,9.765625
1103.0,3.90625
1104.0,7.8125
1105.0,3.90625
1106.0,7.8125
1107.0,3.90625
1108.0,5.859375
1109.0,1.953125
1110.0,5.859375
1111.0,0.0
1112.0,3.90625
1113.0,0.0
1114.0,3.90625
1115.0,-1.953125
1116.0,1.953125
1117.0,-3.90625
1118.0,0.0
1119.0,-3.90625
1120.0,0.0
1121.0,-3.90625
1122.0,0.0
1123.0,-5.859375
1124.0,-1.953125
1125.0,-7.8125
1126.0,-3.90625
1127.0,-7.8125
1128.0,-3.90625
1129.0,-7.8125
1130.0,-5.859375
1131.0,-9.765625
1132.0,-5.859375
1133.0,-9.765625
1134.0,-7.8125
1135.0,-11.71875
1136.0,-7.8125
1137.0,-11.71875
1138.0,-7.8125
1139.0,-11.71875
1140.0,-9.765625
1141.0,-13.671875
1142.0,-7.8125
1143.0,-11.71875
1144.0,-9.765625
1145.0,-13.671875
1146.0,-9.765625
1147.0,-13.671875
1148.0,-9.765625
1149.0,-13.671875
1150.0,-11.71875
1151.0,-13.671875
1152.0,-11.71875
1153.0,-15.625
1154.0,-11.71875
1155.0,-13.671875
1156.0,-11.71875
1157.0,-15.625
1158.0,-11.71875
1159.0,-15.625
1160.0,-11.71875
1161.0,-15.625
1162.0,-11.71875
1163.0,-15.625
1164.0,-11.71875
1165.0,-15.625
1166.0,-11.71875
1167.0,-15.625
1168.0,-11.71875
1169.0,-13.671875
1170.0,-11.71875
1171.0,-15.625
1172.0,-11.71875
1173.0,-13.671875
1174.0,-11.71875
1175.0,-13.671875
1176.0,-9.765625
1177.0,-13.671875
1178.0,-9.765625
1179.0,-11.71875
1180.0,-9.765625
1181.0,-11.71875
1182.0,-9.765625
1183.0,-11.71875
1184.0,-7.8125
1185.0,-11.71875
1186.0,-7.8125
1187.0,-9.765625
1188.0,-5.859375
1189.0,-7.8125
1190.0,-5.859375
1191.0,-9.765625
1192.0,-5.859375
1193.0,-7.8125
1194.0,-3.90625
1195.0,-7.8125
1196.0,-3.90625
1197.0,-5.859375
1198.0,-1.953125
1199.0,-3.90625
1200.0,-1.953125
1201.0,-3.90625
1202.0,-1.953125
1203.0,-3.90625
1204.0,0.0
1205.0,-1.953125
1206.0,0.0
1207.0,0.0
1208.0,1.953125
1209.0,0.0
1210.0,3.90625
1211.0,1.953125
1212.0,5.859375
1213.0,1.953125
1214.0,5.859375
1215.0,3.90625
1216.0,5.859375
1217.0,3.90625
1218.0,7.8125
1219.0,5.859375
1220.0,9.765625
1221.0,5.859375
1222.0,9.765625
1223.0,7.8125
1224.0,11.71875
1225.0,9.765625
1226.0,13.671875
1227.0,9.765625
1228.0,13.671875
1229.0,11.71875
1230.0,15.625
1231.0,11.71875
1232.0,15.625
1233.0,13.671875
1234.0,17.578125
1235.0,15.625
1236.0,17.578125
1237.0,15.625
1238.0,19.53125
1239.0,17.578125
1240.0,19.53125
1241.0,17.578125
1242.0,21.484375
1243.0,19.53125
1244.0,21.484375
1245.0,19.53125
1246.0,23.4375
1247.0,19.53125
1248.0,23.4375
1249.0,21.484375
1250.0,25.390625
1251.0,21.484375
1252.0,25.390625
1253.0,23.4375
1254.0,27.34375
1255.0,23.4375
1256.0,27.34375
1257.0,25.390625
1258.0,27.34375
1259.0,25.390625
1260.0,29.296875
1261.0,25.390625
1262.0,29.296875
1263.0,27.34375
1264.0,29.296875
1265.0,27.34375
1266.0,31.25
1267.0,27.34375
1268.0,31.25
1269.0,27.34375
1270.0,31.25
1271.0,27.34375
1272.0,33.203125
1273.0,29.296875
1274.0,31.25
1275.0,29.296875
1276.0,33.203125
1277.0,29.296875
1278.0,33.203125
1279.0,29.296875
1280.0,33.203125
1281.0,31.25
1282.0,33.203125
1283.0,29.296875
1284.0,33.203125
1285.0,31.25
1286.0,33.203125
1287.0,29.296875
1288.0,33.203125
1289.0,29.296875
1290.0,33.203125
1291.0,31.25
1292.0,33.203125
1293.0,29.296875
1294.0,33.203125
1295.0,29.296875
1296.0,33.203125
1297.0,29.296875
1298.0,33.203125
1299.0,27.34375
1300.0,31.25
1301.0,29.296875
1302.0,31.25
1303.0,27.34375
1304.0,31.25
1305.0,27.34375
1306.0,31.25
1307.0,27.34375
1308.0,29.296875
1309.0,25.390625
1310.0,29.296875
1311.0,25.390625
1312.0,29.296875
1313.0,25.390625
1314.0,27.34375
