Practicum8/data/opgave4/opgave4_1/data_76_002.csv

Channel              :,CH1
Frequency            :,863.3Hz
Period               :,1.158ms
PK-PK                :,160.2mV
Probe attenuation    :,1X
Voltage per ADC value:,0.122070mV
Time interval        :,1.00000us

index,CH1_Voltage(mV)
1,-150.390625
2,-150.390625
3,-150.390625
4,-150.390625
5,-150.390625
6,-150.390625
7,-152.343750
8,-152.343750
9,-152.343750
10,-152.343750
11,-152.343750
12,-152.343750
13,-152.343750
14,-152.343750
15,-152.343750
16,-152.343750
17,-152.343750
18,-152.343750
19,-154.296875
20,-154.296875
21,-154.296875
22,-154.296875
23,-154.296875
24,-152.343750
25,-154.296875
26,-154.296875
27,-154.296875
28,-154.296875
29,-154.296875
30,-154.296875
31,-154.296875
32,-154.296875
33,-154.296875
34,-154.296875
35,-156.250000
36,-154.296875
37,-154.296875
38,-156.250000
39,-154.296875
40,-156.250000
41,-156.250000
42,-154.296875
43,-156.250000
44,-156.250000
45,-156.250000
46,-156.250000
47,-156.250000
48,-156.250000
49,-156.250000
50,-156.250000
51,-156.250000
52,-156.250000
53,-156.250000
54,-156.250000
55,-156.250000
56,-156.250000
57,-156.250000
58,-156.250000
59,-156.250000
60,-156.250000
61,-156.250000
62,-156.250000
63,-156.250000
64,-156.250000
65,-156.250000
66,-156.250000
67,-156.250000
68,-156.250000
69,-156.250000
70,-156.250000
71,-156.250000
72,-156.250000
73,-156.250000
74,-156.250000
75,-156.250000
76,-156.250000
77,-158.203125
78,-156.250000
79,-156.250000
80,-156.250000
81,-156.250000
82,-156.250000
83,-156.250000
84,-156.250000
85,-156.250000
86,-156.250000
87,-156.250000
88,-156.250000
89,-156.250000
90,-156.250000
91,-156.250000
92,-156.250000
93,-156.250000
94,-156.250000
95,-156.250000
96,-156.250000
97,-156.250000
98,-156.250000
99,-156.250000
100,-156.250000
101,-156.250000
102,-156.250000
103,-156.250000
104,-156.250000
105,-156.250000
106,-156.250000
107,-156.250000
108,-156.250000
109,-156.250000
110,-154.296875
111,-154.296875
112,-154.296875
113,-154.296875
114,-154.296875
115,-156.250000
116,-154.296875
117,-154.296875
118,-154.296875
119,-154.296875
120,-154.296875
121,-154.296875
122,-154.296875
123,-154.296875
124,-154.296875
125,-154.296875
126,-154.296875
127,-154.296875
128,-154.296875
129,-154.296875
130,-154.296875
131,-154.296875
132,-152.343750
133,-152.343750
134,-152.343750
135,-154.296875
136,-152.343750
137,-152.343750
138,-152.343750
139,-152.343750
140,-152.343750
141,-152.343750
142,-152.343750
143,-152.343750
144,-152.343750
145,-152.343750
146,-152.343750
147,-152.343750
148,-152.343750
149,-150.390625
150,-150.390625
151,-152.343750
152,-150.390625
153,-150.390625
154,-150.390625
155,-150.390625
156,-150.390625
157,-150.390625
158,-150.390625
159,-150.390625
160,-148.437500
161,-150.390625
162,-150.390625
163,-150.390625
164,-148.437500
165,-148.437500
166,-148.437500
167,-148.437500
168,-148.437500
169,-148.437500
170,-148.437500
171,-148.437500
172,-148.437500
173,-148.437500
174,-148.437500
175,-146.484375
176,-146.484375
177,-146.484375
178,-146.484375
179,-146.484375
180,-146.484375
181,-146.484375
182,-146.484375
183,-146.484375
184,-146.484375
185,-146.484375
186,-144.531250
187,-144.531250
188,-144.531250
189,-144.531250
190,-144.531250
191,-144.531250
192,-144.531250
193,-144.531250
194,-144.531250
195,-142.578125
196,-142.578125
197,-142.578125
198,-142.578125
199,-142.578125
200,-142.578125
201,-142.578125
202,-142.578125
203,-140.625000
204,-140.625000
205,-140.625000
206,-140.625000
207,-140.625000
208,-140.625000
209,-140.625000
210,-140.625000
211,-140.625000
212,-138.671875
213,-140.625000
214,-140.625000
215,-138.671875
216,-138.671875
217,-138.671875
218,-138.671875
219,-138.671875
220,-138.671875
221,-138.671875
222,-136.718750
223,-136.718750
224,-136.718750
225,-136.718750
226,-136.718750
227,-136.718750
228,-136.718750
229,-136.718750
230,-134.765625
231,-134.765625
232,-134.765625
233,-134.765625
234,-134.765625
235,-132.812500
236,-134.765625
237,-132.812500
238,-132.812500
239,-132.812500
240,-132.812500
241,-132.812500
242,-132.812500
243,-132.812500
244,-130.859375
245,-130.859375
246,-130.859375
247,-130.859375
248,-130.859375
249,-130.859375
250,-130.859375
251,-128.906250
252,-126.953125
253,-128.906250
254,-128.906250
255,-128.906250
256,-128.906250
257,-128.906250
258,-126.953125
259,-126.953125
260,-126.953125
261,-126.953125
262,-126.953125
263,-126.953125
264,-126.953125
265,-125.000000
266,-125.000000
267,-125.000000
268,-125.000000
269,-123.046875
270,-123.046875
271,-123.046875
272,-123.046875
273,-123.046875
274,-123.046875
275,-123.046875
276,-121.093750
277,-121.093750
278,-121.093750
279,-121.093750
280,-121.093750
281,-121.093750
282,-119.140625
283,-121.093750
284,-119.140625
285,-119.140625
286,-119.140625
287,-119.140625
288,-119.140625
289,-117.187500
290,-117.187500
291,-117.187500
292,-117.187500
293,-115.234375
294,-115.234375
295,-115.234375
296,-115.234375
297,-115.234375
298,-115.234375
299,-115.234375
300,-113.281250
301,-113.281250
302,-113.281250
303,-113.281250
304,-111.328125
305,-111.328125
306,-111.328125
307,-111.328125
308,-111.328125
309,-111.328125
310,-111.328125
311,-109.375000
312,-109.375000
313,-109.375000
314,-109.375000
315,-109.375000
316,-107.421875
317,-107.421875
318,-107.421875
319,-107.421875
320,-107.421875
321,-107.421875
322,-105.468750
323,-105.468750
324,-105.468750
325,-105.468750
326,-105.468750
327,-103.515625
328,-103.515625
329,-103.515625
330,-103.515625
331,-103.515625
332,-101.562500
333,-101.562500
334,-101.562500
335,-101.562500
336,-101.562500
337,-99.609375
338,-99.609375
339,-99.609375
340,-99.609375
341,-99.609375
342,-99.609375
343,-99.609375
344,-97.656250
345,-97.656250
346,-97.656250
347,-97.656250
348,-95.703125
349,-95.703125
350,-95.703125
351,-95.703125
352,-93.750000
353,-93.750000
354,-93.750000
355,-93.750000
356,-93.750000
357,-93.750000
358,-91.796875
359,-91.796875
360,-91.796875
361,-91.796875
362,-89.843750
363,-89.843750
364,-89.843750
365,-89.843750
366,-89.843750
367,-89.843750
368,-87.890625
369,-87.890625
370,-87.890625
371,-87.890625
372,-85.937500
373,-85.937500
374,-85.937500
375,-85.937500
376,-83.984375
377,-83.984375
378,-83.984375
379,-83.984375
380,-83.984375
381,-83.984375
382,-82.031250
383,-82.031250
384,-82.031250
385,-82.031250
386,-80.078125
387,-80.078125
388,-80.078125
389,-80.078125
390,-78.125000
391,-78.125000
392,-78.125000
393,-78.125000
394,-78.125000
395,-76.171875
396,-76.171875
397,-76.171875
398,-76.171875
399,-76.171875
400,-74.218750
401,-74.218750
402,-74.218750
403,-74.218750
404,-72.265625
405,-72.265625
406,-72.265625
407,-72.265625
408,-72.265625
409,-70.312500
410,-70.312500
411,-70.312500
412,-70.312500
413,-68.359375
414,-68.359375
415,-68.359375
416,-68.359375
417,-68.359375
418,-68.359375
419,-66.406250
420,-66.406250
421,-66.406250
422,-64.453125
423,-64.453125
424,-64.453125
425,-64.453125
426,-64.453125
427,-64.453125
428,-64.453125
429,-62.500000
430,-62.500000
431,-62.500000
432,-60.546875
433,-60.546875
434,-60.546875
435,-60.546875
436,-58.593750
437,-58.593750
438,-58.593750
439,-58.593750
440,-56.640625
441,-58.593750
442,-56.640625
443,-58.593750
444,-56.640625
445,-54.687500
446,-56.640625
447,-54.687500
448,-54.687500
449,-54.687500
450,-54.687500
451,-54.687500
452,-52.734375
453,-52.734375
454,-52.734375
455,-52.734375
456,-50.781250
457,-50.781250
458,-50.781250
459,-50.781250
460,-48.828125
461,-48.828125
462,-48.828125
463,-48.828125
464,-48.828125
465,-48.828125
466,-48.828125
467,-46.875000
468,-46.875000
469,-46.875000
470,-44.921875
471,-44.921875
472,-44.921875
473,-44.921875
474,-44.921875
475,-44.921875
476,-42.968750
477,-42.968750
478,-42.968750
479,-42.968750
480,-41.015625
481,-41.015625
482,-41.015625
483,-41.015625
484,-41.015625
485,-41.015625
486,-39.062500
487,-39.062500
488,-39.062500
489,-39.062500
490,-39.062500
491,-37.109375
492,-37.109375
493,-37.109375
494,-37.109375
495,-37.109375
496,-35.156250
497,-35.156250
498,-35.156250
499,-35.156250
500,-33.203125
501,-33.203125
502,-33.203125
503,-33.203125
504,-33.203125
505,-33.203125
506,-31.250000
507,-31.250000
508,-31.250000
509,-31.250000
510,-31.250000
511,-31.250000
512,-29.296875
513,-29.296875
514,-29.296875
515,-29.296875
516,-29.296875
517,-27.343750
518,-27.343750
519,-27.343750
520,-27.343750
521,-27.343750
522,-27.343750
523,-25.390625
524,-25.390625
525,-25.390625
526,-25.390625
527,-25.390625
528,-23.437500
529,-23.437500
530,-23.437500
531,-23.437500
532,-23.437500
533,-23.437500
534,-23.437500
535,-23.437500
536,-21.484375
537,-21.484375
538,-21.484375
539,-21.484375
540,-21.484375
541,-19.531250
542,-19.531250
543,-19.531250
544,-19.531250
545,-19.531250
546,-19.531250
547,-19.531250
548,-17.578125
549,-17.578125
550,-17.578125
551,-17.578125
552,-17.578125
553,-17.578125
554,-15.625000
555,-17.578125
556,-15.625000
557,-15.625000
558,-15.625000
559,-15.625000
560,-13.671875
561,-15.625000
562,-15.625000
563,-13.671875
564,-13.671875
565,-13.671875
566,-13.671875
567,-13.671875
568,-13.671875
569,-11.718750
570,-11.718750
571,-11.718750
572,-11.718750
573,-11.718750
574,-11.718750
575,-11.718750
576,-11.718750
577,-11.718750
578,-9.765625
579,-9.765625
580,-9.765625
581,-9.765625
582,-9.765625
583,-9.765625
584,-9.765625
585,-9.765625
586,-7.812500
587,-7.812500
588,-7.812500
589,-7.812500
590,-7.812500
591,-7.812500
592,-7.812500
593,-7.812500
594,-7.812500
595,-7.812500
596,-7.812500
597,-5.859375
598,-5.859375
599,-5.859375
600,-5.859375
601,-5.859375
602,-5.859375
603,-5.859375
604,-5.859375
605,-5.859375
606,-5.859375
607,-3.906250
608,-3.906250
609,-3.906250
610,-3.906250
611,-3.906250
612,-3.906250
613,-3.906250
614,-3.906250
615,-3.906250
616,-3.906250
617,-3.906250
618,-3.906250
619,-3.906250
620,-3.906250
621,-3.906250
622,-1.953125
623,-1.953125
624,-3.906250
625,-1.953125
626,-1.953125
627,-1.953125
628,-1.953125
629,-1.953125
630,-1.953125
631,-1.953125
632,-1.953125
633,-1.953125
634,-1.953125
635,-1.953125
636,0.000000
637,-1.953125
638,-1.953125
639,-1.953125
640,-1.953125
641,-1.953125
642,-1.953125
643,-1.953125
644,-1.953125
645,0.000000
646,0.000000
647,0.000000
648,0.000000
649,0.000000
650,0.000000
651,0.000000
652,0.000000
653,0.000000
654,0.000000
655,0.000000
656,0.000000
657,0.000000
658,0.000000
659,0.000000
660,0.000000
661,0.000000
662,0.000000
663,0.000000
664,0.000000
665,0.000000
666,0.000000
667,0.000000
668,0.000000
669,-1.953125
670,0.000000
671,0.000000
672,0.000000
673,0.000000
674,0.000000
675,0.000000
676,0.000000
677,0.000000
678,0.000000
679,0.000000
680,0.000000
681,0.000000
682,0.000000
683,0.000000
684,0.000000
685,0.000000
686,0.000000
687,0.000000
688,0.000000
689,-1.953125
690,0.000000
691,0.000000
692,-1.953125
693,-1.953125
694,-1.953125
695,-1.953125
696,-1.953125
697,-1.953125
698,-1.953125
699,-1.953125
700,-1.953125
701,-1.953125
702,-1.953125
703,-1.953125
704,-1.953125
705,-1.953125
706,-1.953125
707,-1.953125
708,-1.953125
709,-1.953125
710,-3.906250
711,-3.906250
712,-1.953125
713,-3.906250
714,-3.906250
715,-3.906250
716,-3.906250
717,-3.906250
718,-3.906250
719,-3.906250
720,-3.906250
721,-3.906250
722,-3.906250
723,-3.906250
724,-3.906250
725,-5.859375
726,-3.906250
727,-5.859375
728,-5.859375
729,-5.859375
730,-3.906250
731,-5.859375
732,-5.859375
733,-5.859375
734,-5.859375
735,-7.812500
736,-7.812500
737,-5.859375
738,-5.859375
739,-7.812500
740,-7.812500
741,-7.812500
742,-7.812500
743,-7.812500
744,-7.812500
745,-7.812500
746,-7.812500
747,-9.765625
748,-9.765625
749,-9.765625
750,-9.765625
751,-9.765625
752,-9.765625
753,-11.718750
754,-11.718750
755,-11.718750
756,-11.718750
757,-11.718750
758,-11.718750
759,-11.718750
760,-11.718750
761,-11.718750
762,-11.718750
763,-11.718750
764,-13.671875
765,-13.671875
766,-13.671875
767,-13.671875
768,-13.671875
769,-13.671875
770,-13.671875
771,-15.625000
772,-15.625000
773,-15.625000
774,-15.625000
775,-15.625000
776,-15.625000
777,-15.625000
778,-15.625000
779,-17.578125
780,-17.578125
781,-17.578125
782,-17.578125
783,-17.578125
784,-17.578125
785,-19.531250
786,-19.531250
787,-19.531250
788,-19.531250
789,-19.531250
790,-19.531250
791,-21.484375
792,-19.531250
793,-21.484375
794,-21.484375
795,-21.484375
796,-21.484375
797,-21.484375
798,-23.437500
799,-23.437500
800,-23.437500
801,-23.437500
802,-23.437500
803,-23.437500
804,-23.437500
805,-25.390625
806,-25.390625
807,-25.390625
808,-25.390625
809,-25.390625
810,-25.390625
811,-27.343750
812,-27.343750
813,-27.343750
814,-27.343750
815,-27.343750
816,-27.343750
817,-29.296875
818,-29.296875
819,-29.296875
820,-29.296875
821,-29.296875
822,-31.250000
823,-31.250000
824,-31.250000
825,-31.250000
826,-31.250000
827,-31.250000
828,-33.203125
829,-33.203125
830,-33.203125
831,-33.203125
832,-33.203125
833,-35.156250
834,-35.156250
835,-35.156250
836,-35.156250
837,-37.109375
838,-37.109375
839,-37.109375
840,-37.109375
841,-37.109375
842,-37.109375
843,-39.062500
844,-39.062500
845,-39.062500
846,-39.062500
847,-41.015625
848,-41.015625
849,-41.015625
850,-41.015625
851,-41.015625
852,-41.015625
853,-42.968750
854,-42.968750
855,-42.968750
856,-42.968750
857,-42.968750
858,-44.921875
859,-44.921875
860,-44.921875
861,-44.921875
862,-44.921875
863,-46.875000
864,-46.875000
865,-46.875000
866,-46.875000
867,-48.828125
868,-48.828125
869,-48.828125
870,-48.828125
871,-48.828125
872,-50.781250
873,-50.781250
874,-50.781250
875,-50.781250
876,-50.781250
877,-52.734375
878,-52.734375
879,-52.734375
880,-54.687500
881,-54.687500
882,-54.687500
883,-54.687500
884,-54.687500
885,-54.687500
886,-54.687500
887,-54.687500
888,-56.640625
889,-56.640625
890,-56.640625
891,-58.593750
892,-58.593750
893,-58.593750
894,-58.593750
895,-60.546875
896,-60.546875
897,-60.546875
898,-60.546875
899,-60.546875
900,-62.500000
901,-62.500000
902,-62.500000
903,-62.500000
904,-62.500000
905,-64.453125
906,-64.453125
907,-64.453125
908,-64.453125
909,-66.406250
910,-66.406250
911,-66.406250
912,-66.406250
913,-66.406250
914,-68.359375
915,-68.359375
916,-68.359375
917,-68.359375
918,-70.312500
919,-70.312500
920,-70.312500
921,-70.312500
922,-70.312500
923,-70.312500
924,-70.312500
925,-72.265625
926,-72.265625
927,-72.265625
928,-74.218750
929,-74.218750
930,-74.218750
931,-74.218750
932,-74.218750
933,-74.218750
934,-74.218750
935,-76.171875
936,-76.171875
937,-76.171875
938,-76.171875
939,-78.125000
940,-78.125000
941,-78.125000
942,-80.078125
943,-80.078125
944,-80.078125
945,-80.078125
946,-80.078125
947,-82.031250
948,-82.031250
949,-82.031250
950,-82.031250
951,-83.984375
952,-83.984375
953,-83.984375
954,-83.984375
955,-83.984375
956,-85.937500
957,-85.937500
958,-85.937500
959,-85.937500
960,-87.890625
961,-87.890625
962,-87.890625
963,-87.890625
964,-87.890625
965,-89.843750
966,-89.843750
967,-89.843750
968,-89.843750
969,-89.843750
970,-89.843750
971,-91.796875
972,-91.796875
973,-91.796875
974,-93.750000
975,-91.796875
976,-93.750000
977,-93.750000
978,-93.750000
979,-93.750000
980,-93.750000
981,-95.703125
982,-95.703125
983,-95.703125
984,-97.656250
985,-97.656250
986,-97.656250
987,-97.656250
988,-97.656250
989,-99.609375
990,-99.609375
991,-99.609375
992,-99.609375
993,-99.609375
994,-99.609375
995,-101.562500
996,-101.562500
997,-101.562500
998,-101.562500
999,-101.562500
1000,-103.515625
1001,-103.515625
1002,-103.515625
1003,-103.515625
1004,-103.515625
1005,-105.468750
1006,-105.468750
1007,-105.468750
1008,-105.468750
1009,-105.468750
1010,-107.421875
1011,-107.421875
1012,-107.421875
1013,-107.421875
1014,-107.421875
1015,-109.375000
1016,-109.375000
1017,-109.375000
1018,-109.375000
1019,-109.375000
1020,-111.328125
1021,-111.328125
1022,-111.328125
1023,-111.328125
1024,-111.328125
1025,-113.281250
1026,-113.281250
1027,-113.281250
1028,-113.281250
1029,-113.281250
1030,-113.281250
1031,-113.281250
1032,-115.234375
1033,-115.234375
1034,-115.234375
1035,-117.187500
1036,-115.234375
1037,-117.187500
1038,-117.187500
1039,-117.187500
1040,-117.187500
1041,-117.187500
1042,-119.140625
1043,-119.140625
1044,-119.140625
1045,-119.140625
1046,-119.140625
1047,-121.093750
1048,-121.093750
1049,-121.093750
1050,-121.093750
1051,-121.093750
1052,-121.093750
1053,-121.093750
1054,-123.046875
1055,-123.046875
1056,-123.046875
1057,-123.046875
1058,-123.046875
1059,-126.953125
1060,-123.046875
1061,-125.000000
1062,-125.000000
1063,-125.000000
1064,-125.000000
1065,-125.000000
1066,-125.000000
1067,-126.953125
1068,-126.953125
1069,-126.953125
1070,-126.953125
1071,-128.906250
1072,-128.906250
1073,-128.906250
1074,-128.906250
1075,-128.906250
1076,-130.859375
1077,-130.859375
1078,-130.859375
1079,-130.859375
1080,-130.859375
1081,-130.859375
1082,-130.859375
1083,-132.812500
1084,-132.812500
1085,-132.812500
1086,-132.812500
1087,-132.812500
1088,-132.812500
1089,-132.812500
1090,-134.765625
1091,-134.765625
1092,-134.765625
1093,-134.765625
1094,-134.765625
1095,-134.765625
1096,-134.765625
1097,-136.718750
1098,-136.718750
1099,-136.718750
1100,-136.718750
1101,-136.718750
1102,-138.671875
1103,-138.671875
1104,-138.671875
1105,-138.671875
1106,-138.671875
1107,-138.671875
1108,-138.671875
1109,-138.671875
1110,-140.625000
1111,-140.625000
1112,-140.625000
1113,-140.625000
1114,-140.625000
1115,-142.578125
1116,-142.578125
1117,-142.578125
1118,-142.578125
1119,-142.578125
1120,-142.578125
1121,-142.578125
1122,-142.578125
1123,-144.531250
1124,-142.578125
1125,-144.531250
1126,-144.531250
1127,-144.531250
1128,-144.531250
1129,-144.531250
1130,-144.531250
1131,-144.531250
1132,-144.531250
1133,-144.531250
1134,-144.531250
1135,-146.484375
1136,-146.484375
1137,-146.484375
1138,-146.484375
1139,-146.484375
1140,-146.484375
1141,-148.437500
1142,-148.437500
1143,-146.484375
1144,-146.484375
1145,-148.437500
1146,-148.437500
1147,-148.437500
1148,-148.437500
1149,-148.437500
1150,-150.390625
1151,-150.390625
1152,-150.390625
1153,-150.390625
1154,-148.437500
1155,-150.390625
1156,-150.390625
1157,-150.390625
1158,-150.390625
1159,-150.390625
1160,-150.390625
1161,-150.390625
1162,-150.390625
1163,-152.343750
1164,-152.343750
1165,-152.343750
1166,-152.343750
1167,-152.343750
1168,-152.343750
1169,-152.343750
1170,-152.343750
1171,-152.343750
1172,-152.343750
1173,-152.343750
1174,-152.343750
1175,-154.296875
1176,-152.343750
1177,-152.343750
1178,-152.343750
1179,-152.343750
1180,-152.343750
1181,-154.296875
1182,-154.296875
1183,-154.296875
1184,-154.296875
1185,-154.296875
1186,-154.296875
1187,-154.296875
1188,-154.296875
1189,-154.296875
1190,-154.296875
1191,-154.296875
1192,-154.296875
1193,-154.296875
1194,-154.296875
1195,-156.250000
1196,-154.296875
1197,-156.250000
1198,-154.296875
1199,-156.250000
1200,-154.296875
1201,-156.250000
1202,-156.250000
1203,-156.250000
1204,-156.250000
1205,-156.250000
1206,-156.250000
1207,-156.250000
1208,-156.250000
1209,-156.250000
1210,-156.250000
1211,-156.250000
1212,-156.250000
1213,-156.250000
1214,-156.250000
1215,-156.250000
1216,-156.250000
1217,-156.250000
1218,-156.250000
1219,-156.250000
1220,-156.250000
1221,-156.250000
1222,-156.250000
1223,-156.250000
1224,-156.250000
1225,-158.203125
1226,-156.250000
1227,-156.250000
1228,-156.250000
1229,-156.250000
1230,-156.250000
1231,-156.250000
1232,-156.250000
1233,-156.250000
1234,-156.250000
1235,-158.203125
1236,-156.250000
1237,-156.250000
1238,-156.250000
1239,-156.250000
1240,-156.250000
1241,-156.250000
1242,-156.250000
1243,-156.250000
1244,-156.250000
1245,-156.250000
1246,-156.250000
1247,-156.250000
1248,-156.250000
1249,-156.250000
1250,-156.250000
1251,-156.250000
1252,-156.250000
1253,-156.250000
1254,-156.250000
1255,-156.250000
1256,-156.250000
1257,-156.250000
1258,-156.250000
1259,-156.250000
1260,-156.250000
1261,-156.250000
1262,-156.250000
1263,-156.250000
1264,-156.250000
1265,-156.250000
1266,-156.250000
1267,-156.250000
1268,-156.250000
1269,-156.250000
1270,-154.296875
1271,-156.250000
1272,-156.250000
1273,-156.250000
1274,-156.250000
1275,-156.250000
1276,-154.296875
1277,-156.250000
1278,-154.296875
1279,-154.296875
