Practicum8/data/opgave5/f2/data_82_011.csv

Channel              :,CH1
Frequency            :,1.200kHz
Period               :,0.833ms
PK-PK                :,543.0mV
Probe attenuation    :,1X
Voltage per ADC value:,0.244141mV
Time interval        :,2.00000us

index,CH1_Voltage(mV)
1,-66.406250
2,-66.406250
3,-58.593750
4,-54.687500
5,-50.781250
6,-46.875000
7,-42.968750
8,-39.062500
9,-35.156250
10,-31.250000
11,-27.343750
12,-23.437500
13,-15.625000
14,-15.625000
15,-11.718750
16,-3.906250
17,-3.906250
18,3.906250
19,7.812500
20,11.718750
21,15.625000
22,15.625000
23,23.437500
24,27.343750
25,31.250000
26,31.250000
27,35.156250
28,42.968750
29,42.968750
30,46.875000
31,50.781250
32,54.687500
33,58.593750
34,62.500000
35,66.406250
36,70.312500
37,70.312500
38,74.218750
39,78.125000
40,82.031250
41,85.937500
42,85.937500
43,89.843750
44,93.750000
45,97.656250
46,101.562500
47,101.562500
48,105.468750
49,109.375000
50,109.375000
51,113.281250
52,113.281250
53,117.187500
54,121.093750
55,121.093750
56,125.000000
57,128.906250
58,128.906250
59,132.812500
60,132.812500
61,136.718750
62,136.718750
63,140.625000
64,140.625000
65,144.531250
66,144.531250
67,148.437500
68,148.437500
69,152.343750
70,152.343750
71,152.343750
72,156.250000
73,156.250000
74,160.156250
75,160.156250
76,164.062500
77,164.062500
78,164.062500
79,164.062500
80,167.968750
81,167.968750
82,167.968750
83,171.875000
84,171.875000
85,171.875000
86,175.781250
87,175.781250
88,175.781250
89,175.781250
90,179.687500
91,179.687500
92,179.687500
93,179.687500
94,179.687500
95,179.687500
96,183.593750
97,183.593750
98,183.593750
99,183.593750
100,183.593750
101,183.593750
102,183.593750
103,183.593750
104,183.593750
105,183.593750
106,183.593750
107,187.500000
108,183.593750
109,183.593750
110,183.593750
111,187.500000
112,187.500000
113,183.593750
114,187.500000
115,183.593750
116,183.593750
117,183.593750
118,183.593750
119,183.593750
120,183.593750
121,183.593750
122,183.593750
123,183.593750
124,183.593750
125,183.593750
126,183.593750
127,183.593750
128,179.687500
129,179.687500
130,179.687500
131,179.687500
132,179.687500
133,175.781250
134,175.781250
135,175.781250
136,175.781250
137,171.875000
138,171.875000
139,171.875000
140,171.875000
141,167.968750
142,167.968750
143,167.968750
144,164.062500
145,164.062500
146,164.062500
147,164.062500
148,160.156250
149,160.156250
150,156.250000
151,156.250000
152,156.250000
153,152.343750
154,152.343750
155,148.437500
156,148.437500
157,144.531250
158,144.531250
159,140.625000
160,140.625000
161,140.625000
162,136.718750
163,136.718750
164,132.812500
165,128.906250
166,128.906250
167,125.000000
168,125.000000
169,121.093750
170,117.187500
171,117.187500
172,113.281250
173,109.375000
174,109.375000
175,105.468750
176,101.562500
177,97.656250
178,97.656250
179,93.750000
180,89.843750
181,89.843750
182,85.937500
183,82.031250
184,78.125000
185,74.218750
186,70.312500
187,70.312500
188,66.406250
189,62.500000
190,58.593750
191,54.687500
192,50.781250
193,46.875000
194,42.968750
195,39.062500
196,35.156250
197,35.156250
198,31.250000
199,27.343750
200,23.437500
201,19.531250
202,15.625000
203,11.718750
204,7.812500
205,3.906250
206,0.000000
207,-3.906250
208,-7.812500
209,-15.625000
210,-19.531250
211,-23.437500
212,-27.343750
213,-31.250000
214,-35.156250
215,-39.062500
216,-42.968750
217,-46.875000
218,-50.781250
219,-54.687500
220,-62.500000
221,-62.500000
222,-66.406250
223,-74.218750
224,-78.125000
225,-82.031250
226,-85.937500
227,-89.843750
228,-93.750000
229,-97.656250
230,-105.468750
231,-109.375000
232,-113.281250
233,-117.187500
234,-121.093750
235,-125.000000
236,-128.906250
237,-132.812500
238,-136.718750
239,-140.625000
240,-148.437500
241,-152.343750
242,-156.250000
243,-160.156250
244,-164.062500
245,-167.968750
246,-171.875000
247,-175.781250
248,-179.687500
249,-183.593750
250,-187.500000
251,-191.406250
252,-195.312500
253,-199.218750
254,-207.031250
255,-207.031250
256,-210.937500
257,-214.843750
258,-218.750000
259,-222.656250
260,-226.562500
261,-230.468750
262,-234.375000
263,-238.281250
264,-242.187500
265,-242.187500
266,-250.000000
267,-250.000000
268,-253.906250
269,-257.812500
270,-261.718750
271,-265.625000
272,-269.531250
273,-269.531250
274,-277.343750
275,-277.343750
276,-281.250000
277,-281.250000
278,-285.156250
279,-289.062500
280,-292.968750
281,-292.968750
282,-296.875000
283,-300.781250
284,-300.781250
285,-304.687500
286,-304.687500
287,-308.593750
288,-308.593750
289,-312.500000
290,-312.500000
291,-316.406250
292,-320.312500
293,-320.312500
294,-320.312500
295,-328.125000
296,-324.218750
297,-328.125000
298,-328.125000
299,-328.125000
300,-332.031250
301,-332.031250
302,-335.937500
303,-335.937500
304,-335.937500
305,-335.937500
306,-339.843750
307,-339.843750
308,-339.843750
309,-339.843750
310,-339.843750
311,-343.750000
312,-343.750000
313,-343.750000
314,-343.750000
315,-343.750000
316,-343.750000
317,-343.750000
318,-347.656250
319,-343.750000
320,-343.750000
321,-343.750000
322,-347.656250
323,-343.750000
324,-343.750000
325,-343.750000
326,-343.750000
327,-343.750000
328,-343.750000
329,-343.750000
330,-343.750000
331,-339.843750
332,-339.843750
333,-339.843750
334,-339.843750
335,-335.937500
336,-335.937500
337,-335.937500
338,-335.937500
339,-332.031250
340,-332.031250
341,-332.031250
342,-328.125000
343,-328.125000
344,-324.218750
345,-324.218750
346,-324.218750
347,-320.312500
348,-320.312500
349,-316.406250
350,-316.406250
351,-312.500000
352,-312.500000
353,-308.593750
354,-308.593750
355,-304.687500
356,-300.781250
357,-300.781250
358,-296.875000
359,-296.875000
360,-292.968750
361,-289.062500
362,-285.156250
363,-285.156250
364,-281.250000
365,-277.343750
366,-273.437500
367,-273.437500
368,-269.531250
369,-265.625000
370,-261.718750
371,-261.718750
372,-257.812500
373,-253.906250
374,-250.000000
375,-246.093750
376,-242.187500
377,-238.281250
378,-234.375000
379,-230.468750
380,-230.468750
381,-222.656250
382,-222.656250
383,-218.750000
384,-214.843750
385,-210.937500
386,-207.031250
387,-203.125000
388,-199.218750
389,-195.312500
390,-187.500000
391,-183.593750
392,-183.593750
393,-175.781250
394,-171.875000
395,-167.968750
396,-164.062500
397,-160.156250
398,-156.250000
399,-152.343750
400,-148.437500
401,-144.531250
402,-140.625000
403,-132.812500
404,-128.906250
405,-125.000000
406,-121.093750
407,-117.187500
408,-113.281250
409,-109.375000
410,-105.468750
411,-97.656250
412,-93.750000
413,-89.843750
414,-85.937500
415,-82.031250
416,-78.125000
417,-74.218750
418,-66.406250
419,-62.500000
420,-58.593750
421,-54.687500
422,-50.781250
423,-46.875000
424,-42.968750
425,-39.062500
426,-35.156250
427,-31.250000
428,-23.437500
429,-19.531250
430,-15.625000
431,-11.718750
432,-7.812500
433,-3.906250
434,0.000000
435,3.906250
436,7.812500
437,11.718750
438,15.625000
439,19.531250
440,23.437500
441,27.343750
442,31.250000
443,35.156250
444,39.062500
445,42.968750
446,46.875000
447,46.875000
448,54.687500
449,54.687500
450,58.593750
451,62.500000
452,66.406250
453,70.312500
454,74.218750
455,78.125000
456,78.125000
457,82.031250
458,85.937500
459,89.843750
460,89.843750
461,93.750000
462,97.656250
463,101.562500
464,101.562500
465,105.468750
466,109.375000
467,109.375000
468,113.281250
469,117.187500
470,117.187500
471,121.093750
472,125.000000
473,125.000000
474,128.906250
475,128.906250
476,132.812500
477,136.718750
478,136.718750
479,140.625000
480,140.625000
481,144.531250
482,144.531250
483,148.437500
484,148.437500
485,152.343750
486,152.343750
487,152.343750
488,156.250000
489,156.250000
490,160.156250
491,160.156250
492,160.156250
493,164.062500
494,164.062500
495,164.062500
496,167.968750
497,167.968750
498,167.968750
499,171.875000
500,171.875000
501,171.875000
502,171.875000
503,175.781250
504,175.781250
505,175.781250
506,175.781250
507,175.781250
508,175.781250
509,179.687500
510,179.687500
511,179.687500
512,179.687500
513,179.687500
514,183.593750
515,183.593750
516,183.593750
517,183.593750
518,183.593750
519,183.593750
520,183.593750
521,183.593750
522,183.593750
523,183.593750
524,183.593750
525,187.500000
526,183.593750
527,183.593750
528,183.593750
529,187.500000
530,187.500000
531,183.593750
532,183.593750
533,183.593750
534,183.593750
535,183.593750
536,183.593750
537,183.593750
538,183.593750
539,183.593750
540,183.593750
541,183.593750
542,183.593750
543,183.593750
544,179.687500
545,179.687500
546,179.687500
547,179.687500
548,179.687500
549,179.687500
550,175.781250
551,175.781250
552,175.781250
553,175.781250
554,171.875000
555,171.875000
556,171.875000
557,171.875000
558,167.968750
559,167.968750
560,167.968750
561,164.062500
562,164.062500
563,164.062500
564,164.062500
565,160.156250
566,160.156250
567,156.250000
568,156.250000
569,152.343750
570,152.343750
571,152.343750
572,148.437500
573,148.437500
574,144.531250
575,144.531250
576,140.625000
577,140.625000
578,136.718750
579,136.718750
580,132.812500
581,132.812500
582,128.906250
583,128.906250
584,125.000000
585,121.093750
586,121.093750
587,117.187500
588,113.281250
589,113.281250
590,109.375000
591,105.468750
592,105.468750
593,101.562500
594,97.656250
595,97.656250
596,93.750000
597,89.843750
598,85.937500
599,82.031250
600,82.031250
601,78.125000
602,74.218750
603,70.312500
604,66.406250
605,62.500000
606,62.500000
607,58.593750
608,54.687500
609,50.781250
610,46.875000
611,42.968750
612,39.062500
613,35.156250
614,31.250000
615,27.343750
616,23.437500
617,19.531250
618,15.625000
619,11.718750
620,7.812500
621,3.906250
622,3.906250
623,-3.906250
624,-7.812500
625,-11.718750
626,-15.625000
627,-19.531250
628,-23.437500
629,-27.343750
630,-31.250000
631,-35.156250
632,-39.062500
633,-42.968750
634,-50.781250
635,-54.687500
636,-58.593750
637,-62.500000
638,-66.406250
639,-70.312500
640,-74.218750
641,-78.125000
642,-82.031250
643,-85.937500
644,-93.750000
645,-97.656250
646,-101.562500
647,-105.468750
648,-109.375000
649,-113.281250
650,-117.187500
651,-125.000000
652,-125.000000
653,-132.812500
654,-136.718750
655,-140.625000
656,-144.531250
657,-148.437500
658,-152.343750
659,-156.250000
660,-160.156250
661,-164.062500
662,-167.968750
663,-175.781250
664,-179.687500
665,-183.593750
666,-187.500000
667,-191.406250
668,-195.312500
669,-199.218750
670,-203.125000
671,-207.031250
672,-210.937500
673,-214.843750
674,-214.843750
675,-222.656250
676,-226.562500
677,-226.562500
678,-230.468750
679,-234.375000
680,-238.281250
681,-242.187500
682,-246.093750
683,-250.000000
684,-253.906250
685,-257.812500
686,-257.812500
687,-261.718750
688,-265.625000
689,-269.531250
690,-273.437500
691,-273.437500
692,-277.343750
693,-281.250000
694,-285.156250
695,-285.156250
696,-289.062500
697,-292.968750
698,-292.968750
699,-296.875000
700,-300.781250
701,-304.687500
702,-304.687500
703,-304.687500
704,-308.593750
705,-312.500000
706,-312.500000
707,-316.406250
708,-316.406250
709,-320.312500
710,-324.218750
711,-320.312500
712,-324.218750
713,-328.125000
714,-328.125000
715,-328.125000
716,-332.031250
717,-332.031250
718,-332.031250
719,-335.937500
720,-335.937500
721,-335.937500
722,-335.937500
723,-339.843750
724,-339.843750
725,-339.843750
726,-339.843750
727,-343.750000
728,-343.750000
729,-343.750000
730,-343.750000
731,-343.750000
732,-343.750000
733,-343.750000
734,-347.656250
735,-343.750000
736,-343.750000
737,-347.656250
738,-343.750000
739,-343.750000
740,-343.750000
741,-347.656250
742,-347.656250
743,-343.750000
744,-343.750000
745,-343.750000
746,-343.750000
747,-343.750000
748,-339.843750
749,-339.843750
750,-339.843750
751,-339.843750
752,-339.843750
753,-335.937500
754,-335.937500
755,-335.937500
756,-332.031250
757,-332.031250
758,-332.031250
759,-328.125000
760,-328.125000
761,-324.218750
762,-324.218750
763,-324.218750
764,-320.312500
765,-320.312500
766,-316.406250
767,-312.500000
768,-312.500000
769,-312.500000
770,-308.593750
771,-304.687500
772,-304.687500
773,-300.781250
774,-300.781250
775,-296.875000
776,-292.968750
777,-292.968750
778,-289.062500
779,-285.156250
780,-285.156250
781,-281.250000
782,-277.343750
783,-273.437500
784,-269.531250
785,-265.625000
786,-265.625000
787,-261.718750
788,-257.812500
789,-253.906250
790,-253.906250
791,-250.000000
792,-246.093750
793,-242.187500
794,-238.281250
795,-234.375000
796,-230.468750
797,-226.562500
798,-222.656250
799,-218.750000
800,-214.843750
801,-210.937500
802,-207.031250
803,-203.125000
804,-199.218750
805,-195.312500
806,-191.406250
807,-187.500000
808,-183.593750
809,-179.687500
810,-175.781250
811,-171.875000
812,-167.968750
813,-164.062500
814,-160.156250
815,-156.250000
816,-148.437500
817,-144.531250
818,-140.625000
819,-136.718750
820,-132.812500
821,-128.906250
822,-125.000000
823,-121.093750
824,-117.187500
825,-109.375000
826,-109.375000
827,-101.562500
828,-97.656250
829,-93.750000
830,-89.843750
831,-85.937500
832,-82.031250
833,-74.218750
834,-70.312500
835,-66.406250
836,-62.500000
837,-58.593750
838,-54.687500
839,-50.781250
840,-42.968750
841,-42.968750
842,-39.062500
843,-31.250000
844,-27.343750
845,-23.437500
846,-19.531250
847,-15.625000
848,-11.718750
849,-7.812500
850,-3.906250
851,0.000000
852,3.906250
853,7.812500
854,11.718750
855,15.625000
856,19.531250
857,23.437500
858,27.343750
859,31.250000
860,35.156250
861,39.062500
862,42.968750
863,46.875000
864,50.781250
865,54.687500
866,58.593750
867,58.593750
868,58.593750
869,66.406250
870,70.312500
871,74.218750
872,78.125000
873,78.125000
874,82.031250
875,85.937500
876,89.843750
877,93.750000
878,93.750000
879,97.656250
880,101.562500
881,105.468750
882,105.468750
883,109.375000
884,113.281250
885,113.281250
886,117.187500
887,117.187500
888,121.093750
889,125.000000
890,125.000000
891,128.906250
892,128.906250
893,132.812500
894,132.812500
895,136.718750
896,136.718750
897,140.625000
898,144.531250
899,144.531250
900,148.437500
901,152.343750
902,148.437500
903,152.343750
904,156.250000
905,156.250000
906,156.250000
907,160.156250
908,160.156250
909,164.062500
910,164.062500
911,164.062500
912,164.062500
913,167.968750
914,167.968750
915,167.968750
916,171.875000
917,171.875000
918,171.875000
919,175.781250
920,175.781250
921,175.781250
922,175.781250
923,179.687500
924,179.687500
925,179.687500
926,179.687500
927,179.687500
928,179.687500
929,183.593750
930,183.593750
931,183.593750
932,183.593750
933,183.593750
934,183.593750
935,183.593750
936,183.593750
937,183.593750
938,183.593750
939,187.500000
940,187.500000
941,187.500000
942,183.593750
943,187.500000
944,187.500000
945,187.500000
946,183.593750
947,187.500000
948,187.500000
949,187.500000
950,191.406250
951,183.593750
952,183.593750
953,183.593750
954,183.593750
955,183.593750
956,183.593750
957,183.593750
958,183.593750
959,183.593750
960,179.687500
961,179.687500
962,179.687500
963,179.687500
964,179.687500
965,179.687500
966,179.687500
967,175.781250
968,175.781250
969,175.781250
970,171.875000
971,171.875000
972,171.875000
973,171.875000
974,167.968750
975,167.968750
976,167.968750
977,167.968750
978,164.062500
979,164.062500
980,164.062500
981,160.156250
982,160.156250
983,160.156250
984,156.250000
985,156.250000
986,156.250000
987,152.343750
988,148.437500
989,148.437500
990,148.437500
991,144.531250
992,144.531250
993,140.625000
994,140.625000
995,136.718750
996,136.718750
997,132.812500
998,132.812500
999,128.906250
1000,125.000000
1001,125.000000
1002,121.093750
1003,117.187500
1004,117.187500
1005,113.281250
1006,113.281250
1007,109.375000
1008,105.468750
1009,101.562500
1010,101.562500
1011,97.656250
1012,93.750000
1013,93.750000
1014,89.843750
1015,85.937500
1016,82.031250
1017,78.125000
1018,78.125000
1019,78.125000
1020,70.312500
1021,66.406250
1022,62.500000
1023,62.500000
1024,54.687500
1025,54.687500
1026,50.781250
1027,46.875000
1028,42.968750
1029,39.062500
1030,35.156250
1031,31.250000
1032,27.343750
1033,23.437500
1034,19.531250
1035,15.625000
1036,11.718750
1037,7.812500
1038,3.906250
1039,0.000000
1040,-3.906250
1041,-7.812500
1042,-11.718750
1043,-15.625000
1044,-19.531250
1045,-23.437500
1046,-27.343750
1047,-31.250000
1048,-35.156250
1049,-42.968750
1050,-46.875000
1051,-50.781250
1052,-54.687500
1053,-58.593750
1054,-62.500000
1055,-66.406250
1056,-70.312500
1057,-74.218750
1058,-82.031250
1059,-85.937500
1060,-89.843750
1061,-93.750000
1062,-97.656250
1063,-101.562500
1064,-105.468750
1065,-109.375000
1066,-113.281250
1067,-121.093750
1068,-125.000000
1069,-128.906250
1070,-132.812500
1071,-136.718750
1072,-140.625000
1073,-144.531250
1074,-148.437500
1075,-156.250000
1076,-156.250000
1077,-164.062500
1078,-164.062500
1079,-171.875000
1080,-175.781250
1081,-179.687500
1082,-183.593750
1083,-187.500000
1084,-191.406250
1085,-195.312500
1086,-199.218750
1087,-203.125000
1088,-207.031250
1089,-210.937500
1090,-214.843750
1091,-218.750000
1092,-222.656250
1093,-226.562500
1094,-230.468750
1095,-234.375000
1096,-238.281250
1097,-242.187500
1098,-246.093750
1099,-246.093750
1100,-250.000000
1101,-253.906250
1102,-257.812500
1103,-261.718750
1104,-261.718750
1105,-265.625000
1106,-269.531250
1107,-273.437500
1108,-277.343750
1109,-277.343750
1110,-281.250000
1111,-285.156250
1112,-289.062500
1113,-289.062500
1114,-292.968750
1115,-296.875000
1116,-296.875000
1117,-300.781250
1118,-300.781250
1119,-304.687500
1120,-308.593750
1121,-308.593750
1122,-312.500000
1123,-312.500000
1124,-316.406250
1125,-316.406250
1126,-320.312500
1127,-320.312500
1128,-324.218750
1129,-324.218750
1130,-324.218750
1131,-328.125000
1132,-332.031250
1133,-332.031250
1134,-332.031250
1135,-332.031250
1136,-335.937500
1137,-335.937500
1138,-335.937500
1139,-339.843750
1140,-339.843750
1141,-339.843750
1142,-339.843750
1143,-343.750000
1144,-343.750000
1145,-343.750000
1146,-343.750000
1147,-343.750000
1148,-343.750000
1149,-343.750000
1150,-343.750000
1151,-343.750000
1152,-347.656250
1153,-343.750000
1154,-343.750000
1155,-343.750000
1156,-343.750000
1157,-343.750000
1158,-343.750000
1159,-343.750000
1160,-343.750000
1161,-343.750000
1162,-343.750000
1163,-343.750000
1164,-343.750000
1165,-339.843750
1166,-339.843750
1167,-339.843750
1168,-339.843750
1169,-335.937500
1170,-335.937500
1171,-335.937500
1172,-335.937500
1173,-332.031250
1174,-332.031250
1175,-332.031250
1176,-328.125000
1177,-328.125000
1178,-328.125000
1179,-324.218750
1180,-320.312500
1181,-320.312500
1182,-316.406250
1183,-316.406250
1184,-312.500000
1185,-312.500000
1186,-308.593750
1187,-308.593750
1188,-304.687500
1189,-304.687500
1190,-300.781250
1191,-296.875000
1192,-296.875000
1193,-292.968750
1194,-289.062500
1195,-289.062500
1196,-285.156250
1197,-281.250000
1198,-281.250000
1199,-277.343750
1200,-273.437500
1201,-269.531250
1202,-265.625000
1203,-265.625000
1204,-261.718750
1205,-257.812500
1206,-253.906250
1207,-250.000000
1208,-246.093750
1209,-246.093750
1210,-242.187500
1211,-234.375000
1212,-234.375000
1213,-230.468750
1214,-226.562500
1215,-222.656250
1216,-218.750000
1217,-214.843750
1218,-210.937500
1219,-207.031250
1220,-203.125000
1221,-195.312500
1222,-195.312500
1223,-191.406250
1224,-187.500000
1225,-183.593750
1226,-179.687500
1227,-175.781250
1228,-167.968750
1229,-167.968750
1230,-164.062500
1231,-156.250000
1232,-152.343750
1233,-148.437500
1234,-144.531250
1235,-140.625000
1236,-136.718750
1237,-132.812500
1238,-128.906250
1239,-121.093750
1240,-117.187500
1241,-113.281250
1242,-109.375000
1243,-105.468750
1244,-101.562500
1245,-93.750000
1246,-93.750000
1247,-85.937500
1248,-82.031250
1249,-78.125000
1250,-74.218750
1251,-70.312500
1252,-66.406250
1253,-62.500000
1254,-58.593750
1255,-54.687500
1256,-46.875000
1257,-42.968750
1258,-39.062500
1259,-35.156250
1260,-31.250000
1261,-27.343750
1262,-23.437500
1263,-19.531250
1264,-15.625000
1265,-7.812500
1266,-7.812500
1267,0.000000
1268,3.906250
1269,3.906250
1270,11.718750
1271,15.625000
1272,15.625000
1273,23.437500
1274,27.343750
1275,27.343750
1276,31.250000
1277,35.156250
1278,39.062500
1279,42.968750
1280,46.875000
1281,50.781250
1282,50.781250
1283,58.593750
1284,62.500000
