Practicum8/data/opgave5/f2/data_82_018.csv

Channel              :,CH1
Frequency            :,1.200kHz
Period               :,0.833ms
PK-PK                :,429.7mV
Probe attenuation    :,1X
Voltage per ADC value:,0.244141mV
Time interval        :,2.00000us

index,CH1_Voltage(mV)
1,-62.500000
2,-62.500000
3,-58.593750
4,-54.687500
5,-50.781250
6,-46.875000
7,-46.875000
8,-42.968750
9,-39.062500
10,-35.156250
11,-31.250000
12,-27.343750
13,-27.343750
14,-23.437500
15,-19.531250
16,-15.625000
17,-11.718750
18,-7.812500
19,-7.812500
20,-3.906250
21,0.000000
22,0.000000
23,3.906250
24,7.812500
25,11.718750
26,11.718750
27,15.625000
28,19.531250
29,23.437500
30,27.343750
31,27.343750
32,31.250000
33,35.156250
34,39.062500
35,39.062500
36,42.968750
37,46.875000
38,46.875000
39,50.781250
40,50.781250
41,54.687500
42,58.593750
43,58.593750
44,62.500000
45,66.406250
46,66.406250
47,70.312500
48,70.312500
49,74.218750
50,74.218750
51,78.125000
52,82.031250
53,82.031250
54,85.937500
55,85.937500
56,89.843750
57,89.843750
58,89.843750
59,93.750000
60,97.656250
61,97.656250
62,101.562500
63,101.562500
64,105.468750
65,105.468750
66,105.468750
67,109.375000
68,109.375000
69,109.375000
70,113.281250
71,113.281250
72,117.187500
73,117.187500
74,117.187500
75,121.093750
76,121.093750
77,121.093750
78,125.000000
79,125.000000
80,125.000000
81,128.906250
82,128.906250
83,128.906250
84,125.000000
85,132.812500
86,132.812500
87,132.812500
88,132.812500
89,132.812500
90,136.718750
91,136.718750
92,136.718750
93,136.718750
94,136.718750
95,136.718750
96,140.625000
97,140.625000
98,140.625000
99,140.625000
100,140.625000
101,140.625000
102,140.625000
103,140.625000
104,144.531250
105,144.531250
106,144.531250
107,144.531250
108,144.531250
109,144.531250
110,144.531250
111,144.531250
112,144.531250
113,144.531250
114,144.531250
115,144.531250
116,144.531250
117,144.531250
118,144.531250
119,144.531250
120,144.531250
121,144.531250
122,144.531250
123,140.625000
124,140.625000
125,140.625000
126,140.625000
127,140.625000
128,140.625000
129,140.625000
130,140.625000
131,140.625000
132,140.625000
133,136.718750
134,136.718750
135,136.718750
136,136.718750
137,132.812500
138,132.812500
139,132.812500
140,132.812500
141,132.812500
142,132.812500
143,128.906250
144,128.906250
145,128.906250
146,125.000000
147,128.906250
148,125.000000
149,125.000000
150,121.093750
151,121.093750
152,121.093750
153,117.187500
154,117.187500
155,117.187500
156,113.281250
157,113.281250
158,113.281250
159,109.375000
160,109.375000
161,105.468750
162,105.468750
163,105.468750
164,101.562500
165,101.562500
166,97.656250
167,97.656250
168,93.750000
169,93.750000
170,89.843750
171,89.843750
172,85.937500
173,85.937500
174,82.031250
175,82.031250
176,78.125000
177,78.125000
178,74.218750
179,70.312500
180,70.312500
181,66.406250
182,66.406250
183,62.500000
184,58.593750
185,58.593750
186,54.687500
187,50.781250
188,50.781250
189,46.875000
190,42.968750
191,42.968750
192,39.062500
193,35.156250
194,35.156250
195,31.250000
196,27.343750
197,23.437500
198,23.437500
199,19.531250
200,15.625000
201,11.718750
202,11.718750
203,7.812500
204,3.906250
205,0.000000
206,-3.906250
207,-3.906250
208,-7.812500
209,-7.812500
210,-15.625000
211,-19.531250
212,-19.531250
213,-23.437500
214,-27.343750
215,-31.250000
216,-35.156250
217,-39.062500
218,-39.062500
219,-42.968750
220,-46.875000
221,-50.781250
222,-54.687500
223,-58.593750
224,-62.500000
225,-62.500000
226,-66.406250
227,-70.312500
228,-74.218750
229,-82.031250
230,-82.031250
231,-85.937500
232,-85.937500
233,-89.843750
234,-97.656250
235,-97.656250
236,-101.562500
237,-105.468750
238,-109.375000
239,-113.281250
240,-113.281250
241,-117.187500
242,-121.093750
243,-125.000000
244,-128.906250
245,-132.812500
246,-136.718750
247,-136.718750
248,-140.625000
249,-144.531250
250,-148.437500
251,-152.343750
252,-156.250000
253,-160.156250
254,-160.156250
255,-164.062500
256,-167.968750
257,-171.875000
258,-171.875000
259,-175.781250
260,-179.687500
261,-183.593750
262,-183.593750
263,-187.500000
264,-191.406250
265,-195.312500
266,-195.312500
267,-199.218750
268,-203.125000
269,-203.125000
270,-207.031250
271,-210.937500
272,-214.843750
273,-214.843750
274,-218.750000
275,-218.750000
276,-222.656250
277,-222.656250
278,-226.562500
279,-230.468750
280,-230.468750
281,-234.375000
282,-234.375000
283,-238.281250
284,-238.281250
285,-242.187500
286,-242.187500
287,-246.093750
288,-246.093750
289,-250.000000
290,-250.000000
291,-253.906250
292,-253.906250
293,-253.906250
294,-257.812500
295,-257.812500
296,-261.718750
297,-261.718750
298,-261.718750
299,-261.718750
300,-265.625000
301,-265.625000
302,-265.625000
303,-269.531250
304,-269.531250
305,-269.531250
306,-269.531250
307,-273.437500
308,-273.437500
309,-273.437500
310,-273.437500
311,-273.437500
312,-273.437500
313,-277.343750
314,-277.343750
315,-277.343750
316,-277.343750
317,-277.343750
318,-277.343750
319,-277.343750
320,-277.343750
321,-277.343750
322,-277.343750
323,-277.343750
324,-277.343750
325,-277.343750
326,-277.343750
327,-277.343750
328,-277.343750
329,-277.343750
330,-277.343750
331,-277.343750
332,-277.343750
333,-273.437500
334,-273.437500
335,-273.437500
336,-273.437500
337,-269.531250
338,-269.531250
339,-269.531250
340,-269.531250
341,-269.531250
342,-265.625000
343,-265.625000
344,-265.625000
345,-261.718750
346,-261.718750
347,-261.718750
348,-257.812500
349,-257.812500
350,-253.906250
351,-253.906250
352,-253.906250
353,-250.000000
354,-250.000000
355,-246.093750
356,-246.093750
357,-242.187500
358,-242.187500
359,-238.281250
360,-238.281250
361,-234.375000
362,-234.375000
363,-230.468750
364,-230.468750
365,-226.562500
366,-222.656250
367,-222.656250
368,-218.750000
369,-214.843750
370,-214.843750
371,-210.937500
372,-210.937500
373,-207.031250
374,-203.125000
375,-203.125000
376,-199.218750
377,-195.312500
378,-195.312500
379,-191.406250
380,-187.500000
381,-183.593750
382,-183.593750
383,-179.687500
384,-175.781250
385,-171.875000
386,-167.968750
387,-167.968750
388,-164.062500
389,-160.156250
390,-156.250000
391,-156.250000
392,-152.343750
393,-148.437500
394,-144.531250
395,-140.625000
396,-136.718750
397,-136.718750
398,-132.812500
399,-128.906250
400,-125.000000
401,-121.093750
402,-117.187500
403,-117.187500
404,-113.281250
405,-109.375000
406,-105.468750
407,-101.562500
408,-97.656250
409,-93.750000
410,-89.843750
411,-89.843750
412,-85.937500
413,-82.031250
414,-78.125000
415,-74.218750
416,-70.312500
417,-66.406250
418,-66.406250
419,-58.593750
420,-58.593750
421,-54.687500
422,-50.781250
423,-46.875000
424,-42.968750
425,-42.968750
426,-35.156250
427,-35.156250
428,-31.250000
429,-27.343750
430,-23.437500
431,-19.531250
432,-19.531250
433,-15.625000
434,-11.718750
435,-7.812500
436,-3.906250
437,-3.906250
438,0.000000
439,3.906250
440,7.812500
441,7.812500
442,11.718750
443,15.625000
444,19.531250
445,23.437500
446,23.437500
447,27.343750
448,31.250000
449,31.250000
450,35.156250
451,39.062500
452,39.062500
453,42.968750
454,46.875000
455,50.781250
456,50.781250
457,54.687500
458,58.593750
459,58.593750
460,62.500000
461,62.500000
462,66.406250
463,70.312500
464,70.312500
465,74.218750
466,74.218750
467,78.125000
468,78.125000
469,82.031250
470,82.031250
471,85.937500
472,89.843750
473,89.843750
474,93.750000
475,93.750000
476,93.750000
477,97.656250
478,97.656250
479,101.562500
480,101.562500
481,105.468750
482,105.468750
483,109.375000
484,109.375000
485,109.375000
486,113.281250
487,113.281250
488,113.281250
489,117.187500
490,117.187500
491,121.093750
492,121.093750
493,121.093750
494,125.000000
495,125.000000
496,125.000000
497,128.906250
498,128.906250
499,128.906250
500,128.906250
501,128.906250
502,132.812500
503,132.812500
504,132.812500
505,132.812500
506,132.812500
507,136.718750
508,136.718750
509,136.718750
510,136.718750
511,136.718750
512,140.625000
513,140.625000
514,140.625000
515,140.625000
516,140.625000
517,140.625000
518,140.625000
519,140.625000
520,140.625000
521,144.531250
522,144.531250
523,144.531250
524,144.531250
525,144.531250
526,144.531250
527,144.531250
528,144.531250
529,144.531250
530,144.531250
531,144.531250
532,144.531250
533,144.531250
534,144.531250
535,144.531250
536,144.531250
537,144.531250
538,144.531250
539,140.625000
540,144.531250
541,140.625000
542,140.625000
543,140.625000
544,140.625000
545,140.625000
546,140.625000
547,140.625000
548,140.625000
549,136.718750
550,136.718750
551,136.718750
552,136.718750
553,136.718750
554,136.718750
555,132.812500
556,132.812500
557,132.812500
558,132.812500
559,132.812500
560,128.906250
561,128.906250
562,128.906250
563,125.000000
564,125.000000
565,125.000000
566,125.000000
567,121.093750
568,121.093750
569,121.093750
570,117.187500
571,117.187500
572,117.187500
573,113.281250
574,113.281250
575,109.375000
576,109.375000
577,109.375000
578,105.468750
579,105.468750
580,101.562500
581,101.562500
582,97.656250
583,97.656250
584,93.750000
585,93.750000
586,89.843750
587,89.843750
588,89.843750
589,85.937500
590,85.937500
591,82.031250
592,78.125000
593,78.125000
594,74.218750
595,74.218750
596,70.312500
597,70.312500
598,66.406250
599,62.500000
600,62.500000
601,58.593750
602,54.687500
603,54.687500
604,50.781250
605,50.781250
606,46.875000
607,42.968750
608,42.968750
609,39.062500
610,35.156250
611,31.250000
612,31.250000
613,27.343750
614,23.437500
615,19.531250
616,19.531250
617,15.625000
618,11.718750
619,11.718750
620,7.812500
621,3.906250
622,0.000000
623,-3.906250
624,-7.812500
625,-7.812500
626,-11.718750
627,-15.625000
628,-19.531250
629,-23.437500
630,-23.437500
631,-27.343750
632,-31.250000
633,-35.156250
634,-39.062500
635,-42.968750
636,-46.875000
637,-46.875000
638,-50.781250
639,-54.687500
640,-58.593750
641,-62.500000
642,-66.406250
643,-70.312500
644,-70.312500
645,-74.218750
646,-78.125000
647,-82.031250
648,-85.937500
649,-89.843750
650,-93.750000
651,-97.656250
652,-101.562500
653,-101.562500
654,-105.468750
655,-109.375000
656,-113.281250
657,-117.187500
658,-121.093750
659,-121.093750
660,-125.000000
661,-128.906250
662,-132.812500
663,-136.718750
664,-140.625000
665,-144.531250
666,-148.437500
667,-148.437500
668,-152.343750
669,-156.250000
670,-160.156250
671,-160.156250
672,-164.062500
673,-167.968750
674,-171.875000
675,-175.781250
676,-175.781250
677,-179.687500
678,-183.593750
679,-183.593750
680,-187.500000
681,-191.406250
682,-195.312500
683,-195.312500
684,-199.218750
685,-203.125000
686,-203.125000
687,-207.031250
688,-210.937500
689,-210.937500
690,-214.843750
691,-218.750000
692,-218.750000
693,-222.656250
694,-226.562500
695,-226.562500
696,-230.468750
697,-230.468750
698,-234.375000
699,-234.375000
700,-238.281250
701,-238.281250
702,-242.187500
703,-242.187500
704,-246.093750
705,-246.093750
706,-250.000000
707,-250.000000
708,-253.906250
709,-253.906250
710,-257.812500
711,-257.812500
712,-257.812500
713,-261.718750
714,-261.718750
715,-261.718750
716,-265.625000
717,-265.625000
718,-265.625000
719,-265.625000
720,-269.531250
721,-269.531250
722,-269.531250
723,-269.531250
724,-273.437500
725,-269.531250
726,-273.437500
727,-273.437500
728,-273.437500
729,-273.437500
730,-277.343750
731,-277.343750
732,-277.343750
733,-277.343750
734,-277.343750
735,-277.343750
736,-277.343750
737,-277.343750
738,-277.343750
739,-277.343750
740,-277.343750
741,-277.343750
742,-277.343750
743,-277.343750
744,-277.343750
745,-277.343750
746,-277.343750
747,-277.343750
748,-273.437500
749,-277.343750
750,-273.437500
751,-273.437500
752,-273.437500
753,-269.531250
754,-269.531250
755,-269.531250
756,-269.531250
757,-265.625000
758,-265.625000
759,-265.625000
760,-265.625000
761,-261.718750
762,-261.718750
763,-261.718750
764,-257.812500
765,-257.812500
766,-253.906250
767,-253.906250
768,-253.906250
769,-250.000000
770,-250.000000
771,-246.093750
772,-246.093750
773,-246.093750
774,-242.187500
775,-238.281250
776,-238.281250
777,-238.281250
778,-234.375000
779,-234.375000
780,-230.468750
781,-226.562500
782,-226.562500
783,-222.656250
784,-218.750000
785,-218.750000
786,-214.843750
787,-214.843750
788,-210.937500
789,-207.031250
790,-207.031250
791,-203.125000
792,-199.218750
793,-199.218750
794,-195.312500
795,-191.406250
796,-191.406250
797,-187.500000
798,-183.593750
799,-179.687500
800,-179.687500
801,-175.781250
802,-171.875000
803,-167.968750
804,-164.062500
805,-160.156250
806,-160.156250
807,-156.250000
808,-152.343750
809,-148.437500
810,-144.531250
811,-144.531250
812,-140.625000
813,-136.718750
814,-132.812500
815,-132.812500
816,-128.906250
817,-125.000000
818,-121.093750
819,-117.187500
820,-113.281250
821,-109.375000
822,-105.468750
823,-101.562500
824,-101.562500
825,-97.656250
826,-93.750000
827,-89.843750
828,-85.937500
829,-82.031250
830,-78.125000
831,-78.125000
832,-74.218750
833,-70.312500
834,-66.406250
835,-62.500000
836,-58.593750
837,-58.593750
838,-54.687500
839,-50.781250
840,-46.875000
841,-42.968750
842,-39.062500
843,-35.156250
844,-35.156250
845,-31.250000
846,-27.343750
847,-23.437500
848,-19.531250
849,-15.625000
850,-15.625000
851,-11.718750
852,-7.812500
853,-7.812500
854,0.000000
855,0.000000
856,3.906250
857,7.812500
858,7.812500
859,15.625000
860,15.625000
861,19.531250
862,23.437500
863,23.437500
864,27.343750
865,31.250000
866,35.156250
867,35.156250
868,39.062500
869,42.968750
870,46.875000
871,46.875000
872,50.781250
873,50.781250
874,54.687500
875,58.593750
876,58.593750
877,62.500000
878,62.500000
879,66.406250
880,70.312500
881,70.312500
882,74.218750
883,74.218750
884,78.125000
885,78.125000
886,82.031250
887,85.937500
888,85.937500
889,89.843750
890,89.843750
891,93.750000
892,97.656250
893,97.656250
894,97.656250
895,101.562500
896,101.562500
897,101.562500
898,105.468750
899,105.468750
900,109.375000
901,109.375000
902,113.281250
903,113.281250
904,113.281250
905,117.187500
906,117.187500
907,117.187500
908,117.187500
909,121.093750
910,121.093750
911,125.000000
912,125.000000
913,125.000000
914,125.000000
915,128.906250
916,128.906250
917,128.906250
918,128.906250
919,132.812500
920,132.812500
921,132.812500
922,132.812500
923,136.718750
924,132.812500
925,136.718750
926,136.718750
927,136.718750
928,140.625000
929,140.625000
930,140.625000
931,140.625000
932,140.625000
933,140.625000
934,140.625000
935,140.625000
936,140.625000
937,144.531250
938,144.531250
939,144.531250
940,144.531250
941,144.531250
942,144.531250
943,144.531250
944,144.531250
945,144.531250
946,144.531250
947,144.531250
948,144.531250
949,144.531250
950,144.531250
951,144.531250
952,144.531250
953,144.531250
954,144.531250
955,144.531250
956,144.531250
957,144.531250
958,140.625000
959,140.625000
960,140.625000
961,140.625000
962,140.625000
963,140.625000
964,140.625000
965,140.625000
966,136.718750
967,136.718750
968,136.718750
969,136.718750
970,136.718750
971,132.812500
972,132.812500
973,132.812500
974,136.718750
975,132.812500
976,128.906250
977,128.906250
978,128.906250
979,128.906250
980,125.000000
981,125.000000
982,125.000000
983,121.093750
984,121.093750
985,121.093750
986,117.187500
987,117.187500
988,113.281250
989,113.281250
990,113.281250
991,113.281250
992,109.375000
993,109.375000
994,109.375000
995,105.468750
996,105.468750
997,101.562500
998,101.562500
999,97.656250
1000,101.562500
1001,93.750000
1002,93.750000
1003,93.750000
1004,89.843750
1005,85.937500
1006,85.937500
1007,82.031250
1008,82.031250
1009,78.125000
1010,78.125000
1011,74.218750
1012,74.218750
1013,70.312500
1014,66.406250
1015,66.406250
1016,62.500000
1017,62.500000
1018,58.593750
1019,54.687500
1020,50.781250
1021,50.781250
1022,46.875000
1023,42.968750
1024,42.968750
1025,39.062500
1026,35.156250
1027,35.156250
1028,31.250000
1029,27.343750
1030,27.343750
1031,23.437500
1032,19.531250
1033,15.625000
1034,11.718750
1035,11.718750
1036,7.812500
1037,3.906250
1038,3.906250
1039,0.000000
1040,-3.906250
1041,-7.812500
1042,-11.718750
1043,-15.625000
1044,-15.625000
1045,-19.531250
1046,-23.437500
1047,-27.343750
1048,-31.250000
1049,-35.156250
1050,-35.156250
1051,-39.062500
1052,-42.968750
1053,-46.875000
1054,-50.781250
1055,-54.687500
1056,-58.593750
1057,-58.593750
1058,-62.500000
1059,-66.406250
1060,-70.312500
1061,-74.218750
1062,-78.125000
1063,-82.031250
1064,-85.937500
1065,-85.937500
1066,-89.843750
1067,-93.750000
1068,-97.656250
1069,-101.562500
1070,-105.468750
1071,-105.468750
1072,-109.375000
1073,-113.281250
1074,-117.187500
1075,-121.093750
1076,-125.000000
1077,-128.906250
1078,-132.812500
1079,-132.812500
1080,-136.718750
1081,-140.625000
1082,-144.531250
1083,-144.531250
1084,-148.437500
1085,-152.343750
1086,-156.250000
1087,-160.156250
1088,-164.062500
1089,-164.062500
1090,-167.968750
1091,-171.875000
1092,-175.781250
1093,-179.687500
1094,-179.687500
1095,-183.593750
1096,-187.500000
1097,-191.406250
1098,-191.406250
1099,-195.312500
1100,-199.218750
1101,-199.218750
1102,-203.125000
1103,-207.031250
1104,-207.031250
1105,-210.937500
1106,-214.843750
1107,-214.843750
1108,-218.750000
1109,-218.750000
1110,-222.656250
1111,-226.562500
1112,-226.562500
1113,-230.468750
1114,-234.375000
1115,-234.375000
1116,-238.281250
1117,-238.281250
1118,-238.281250
1119,-242.187500
1120,-246.093750
1121,-246.093750
1122,-246.093750
1123,-250.000000
1124,-250.000000
1125,-253.906250
1126,-253.906250
1127,-257.812500
1128,-257.812500
1129,-257.812500
1130,-261.718750
1131,-261.718750
1132,-261.718750
1133,-265.625000
1134,-265.625000
1135,-265.625000
1136,-269.531250
1137,-269.531250
1138,-269.531250
1139,-269.531250
1140,-269.531250
1141,-273.437500
1142,-273.437500
1143,-273.437500
1144,-273.437500
1145,-273.437500
1146,-277.343750
1147,-277.343750
1148,-277.343750
1149,-277.343750
1150,-277.343750
1151,-277.343750
1152,-277.343750
1153,-277.343750
1154,-277.343750
1155,-277.343750
1156,-277.343750
1157,-277.343750
1158,-277.343750
1159,-277.343750
1160,-277.343750
1161,-277.343750
1162,-277.343750
1163,-277.343750
1164,-277.343750
1165,-273.437500
1166,-273.437500
1167,-273.437500
1168,-273.437500
1169,-273.437500
1170,-273.437500
1171,-269.531250
1172,-269.531250
1173,-269.531250
1174,-269.531250
1175,-265.625000
1176,-265.625000
1177,-265.625000
1178,-265.625000
1179,-261.718750
1180,-261.718750
1181,-257.812500
1182,-257.812500
1183,-253.906250
1184,-253.906250
1185,-253.906250
1186,-250.000000
1187,-250.000000
1188,-246.093750
1189,-246.093750
1190,-242.187500
1191,-242.187500
1192,-242.187500
1193,-238.281250
1194,-234.375000
1195,-234.375000
1196,-230.468750
1197,-230.468750
1198,-226.562500
1199,-222.656250
1200,-222.656250
1201,-218.750000
1202,-218.750000
1203,-214.843750
1204,-214.843750
1205,-210.937500
1206,-207.031250
1207,-203.125000
1208,-203.125000
1209,-199.218750
1210,-195.312500
1211,-195.312500
1212,-191.406250
1213,-187.500000
1214,-187.500000
1215,-183.593750
1216,-179.687500
1217,-175.781250
1218,-171.875000
1219,-171.875000
1220,-167.968750
1221,-164.062500
1222,-164.062500
1223,-160.156250
1224,-156.250000
1225,-152.343750
1226,-148.437500
1227,-144.531250
1228,-140.625000
1229,-140.625000
1230,-136.718750
1231,-132.812500
1232,-128.906250
1233,-128.906250
1234,-125.000000
1235,-121.093750
1236,-117.187500
1237,-113.281250
1238,-109.375000
1239,-105.468750
1240,-105.468750
1241,-97.656250
1242,-97.656250
1243,-93.750000
1244,-89.843750
1245,-85.937500
1246,-82.031250
1247,-78.125000
1248,-74.218750
1249,-74.218750
1250,-70.312500
1251,-66.406250
1252,-62.500000
1253,-58.593750
1254,-54.687500
1255,-50.781250
1256,-50.781250
1257,-46.875000
1258,-42.968750
1259,-39.062500
1260,-35.156250
1261,-31.250000
1262,-27.343750
1263,-27.343750
1264,-23.437500
1265,-19.531250
1266,-15.625000
1267,-11.718750
1268,-7.812500
1269,-7.812500
1270,-3.906250
1271,0.000000
1272,3.906250
1273,3.906250
1274,7.812500
1275,11.718750
1276,15.625000
1277,15.625000
1278,19.531250
1279,23.437500
1280,27.343750
1281,27.343750
1282,31.250000
1283,35.156250
1284,35.156250
1285,39.062500
1286,42.968750
1287,46.875000
1288,46.875000
1289,50.781250
1290,54.687500
1291,54.687500
