Practicum8/data/opgave5/f2/data_82_010.csv

Channel              :,CH1
Frequency            :,1.200kHz
Period               :,0.833ms
PK-PK                :,535.2mV
Probe attenuation    :,1X
Voltage per ADC value:,0.244141mV
Time interval        :,2.00000us

index,CH1_Voltage(mV)
1,-66.406250
2,-66.406250
3,-62.500000
4,-54.687500
5,-50.781250
6,-46.875000
7,-42.968750
8,-39.062500
9,-35.156250
10,-31.250000
11,-27.343750
12,-23.437500
13,-19.531250
14,-15.625000
15,-11.718750
16,-7.812500
17,-3.906250
18,0.000000
19,3.906250
20,7.812500
21,11.718750
22,15.625000
23,19.531250
24,23.437500
25,27.343750
26,31.250000
27,35.156250
28,39.062500
29,42.968750
30,46.875000
31,50.781250
32,54.687500
33,54.687500
34,58.593750
35,62.500000
36,66.406250
37,70.312500
38,74.218750
39,74.218750
40,78.125000
41,82.031250
42,85.937500
43,89.843750
44,89.843750
45,93.750000
46,97.656250
47,97.656250
48,101.562500
49,105.468750
50,105.468750
51,109.375000
52,113.281250
53,113.281250
54,117.187500
55,121.093750
56,121.093750
57,125.000000
58,125.000000
59,128.906250
60,128.906250
61,132.812500
62,132.812500
63,136.718750
64,136.718750
65,140.625000
66,140.625000
67,144.531250
68,144.531250
69,148.437500
70,148.437500
71,148.437500
72,152.343750
73,152.343750
74,156.250000
75,156.250000
76,156.250000
77,156.250000
78,160.156250
79,160.156250
80,164.062500
81,164.062500
82,164.062500
83,164.062500
84,167.968750
85,167.968750
86,167.968750
87,167.968750
88,171.875000
89,171.875000
90,171.875000
91,171.875000
92,171.875000
93,171.875000
94,175.781250
95,175.781250
96,175.781250
97,175.781250
98,175.781250
99,175.781250
100,175.781250
101,175.781250
102,179.687500
103,179.687500
104,179.687500
105,179.687500
106,179.687500
107,179.687500
108,179.687500
109,179.687500
110,179.687500
111,179.687500
112,179.687500
113,179.687500
114,175.781250
115,179.687500
116,175.781250
117,175.781250
118,175.781250
119,175.781250
120,175.781250
121,175.781250
122,175.781250
123,175.781250
124,175.781250
125,171.875000
126,171.875000
127,171.875000
128,171.875000
129,171.875000
130,171.875000
131,171.875000
132,167.968750
133,167.968750
134,167.968750
135,164.062500
136,164.062500
137,164.062500
138,164.062500
139,164.062500
140,160.156250
141,160.156250
142,160.156250
143,156.250000
144,156.250000
145,156.250000
146,152.343750
147,152.343750
148,148.437500
149,148.437500
150,148.437500
151,144.531250
152,144.531250
153,140.625000
154,140.625000
155,140.625000
156,136.718750
157,136.718750
158,132.812500
159,132.812500
160,128.906250
161,128.906250
162,125.000000
163,121.093750
164,121.093750
165,117.187500
166,117.187500
167,113.281250
168,113.281250
169,109.375000
170,105.468750
171,101.562500
172,101.562500
173,97.656250
174,93.750000
175,93.750000
176,89.843750
177,85.937500
178,85.937500
179,82.031250
180,78.125000
181,74.218750
182,70.312500
183,66.406250
184,66.406250
185,62.500000
186,58.593750
187,54.687500
188,50.781250
189,46.875000
190,42.968750
191,42.968750
192,39.062500
193,35.156250
194,31.250000
195,27.343750
196,23.437500
197,19.531250
198,15.625000
199,11.718750
200,7.812500
201,3.906250
202,0.000000
203,-3.906250
204,-7.812500
205,-11.718750
206,-15.625000
207,-19.531250
208,-23.437500
209,-27.343750
210,-35.156250
211,-35.156250
212,-42.968750
213,-46.875000
214,-50.781250
215,-54.687500
216,-58.593750
217,-62.500000
218,-66.406250
219,-70.312500
220,-74.218750
221,-82.031250
222,-85.937500
223,-89.843750
224,-93.750000
225,-97.656250
226,-101.562500
227,-105.468750
228,-109.375000
229,-113.281250
230,-121.093750
231,-125.000000
232,-128.906250
233,-132.812500
234,-140.625000
235,-140.625000
236,-144.531250
237,-148.437500
238,-152.343750
239,-160.156250
240,-160.156250
241,-167.968750
242,-171.875000
243,-175.781250
244,-179.687500
245,-183.593750
246,-187.500000
247,-191.406250
248,-195.312500
249,-199.218750
250,-203.125000
251,-207.031250
252,-210.937500
253,-214.843750
254,-218.750000
255,-222.656250
256,-226.562500
257,-230.468750
258,-234.375000
259,-238.281250
260,-242.187500
261,-246.093750
262,-250.000000
263,-250.000000
264,-253.906250
265,-257.812500
266,-261.718750
267,-265.625000
268,-269.531250
269,-269.531250
270,-273.437500
271,-277.343750
272,-281.250000
273,-285.156250
274,-289.062500
275,-289.062500
276,-292.968750
277,-296.875000
278,-296.875000
279,-300.781250
280,-304.687500
281,-304.687500
282,-308.593750
283,-308.593750
284,-312.500000
285,-312.500000
286,-316.406250
287,-320.312500
288,-320.312500
289,-324.218750
290,-324.218750
291,-328.125000
292,-328.125000
293,-332.031250
294,-332.031250
295,-332.031250
296,-335.937500
297,-335.937500
298,-339.843750
299,-339.843750
300,-339.843750
301,-339.843750
302,-343.750000
303,-343.750000
304,-343.750000
305,-347.656250
306,-347.656250
307,-347.656250
308,-347.656250
309,-347.656250
310,-351.562500
311,-351.562500
312,-351.562500
313,-351.562500
314,-351.562500
315,-351.562500
316,-351.562500
317,-351.562500
318,-351.562500
319,-351.562500
320,-351.562500
321,-351.562500
322,-351.562500
323,-351.562500
324,-351.562500
325,-351.562500
326,-351.562500
327,-351.562500
328,-347.656250
329,-347.656250
330,-347.656250
331,-347.656250
332,-347.656250
333,-347.656250
334,-343.750000
335,-343.750000
336,-343.750000
337,-339.843750
338,-339.843750
339,-339.843750
340,-335.937500
341,-335.937500
342,-332.031250
343,-332.031250
344,-332.031250
345,-328.125000
346,-328.125000
347,-324.218750
348,-324.218750
349,-320.312500
350,-320.312500
351,-316.406250
352,-316.406250
353,-312.500000
354,-308.593750
355,-304.687500
356,-304.687500
357,-300.781250
358,-300.781250
359,-296.875000
360,-292.968750
361,-292.968750
362,-289.062500
363,-285.156250
364,-281.250000
365,-281.250000
366,-273.437500
367,-273.437500
368,-269.531250
369,-269.531250
370,-265.625000
371,-261.718750
372,-257.812500
373,-253.906250
374,-250.000000
375,-246.093750
376,-242.187500
377,-242.187500
378,-238.281250
379,-234.375000
380,-230.468750
381,-226.562500
382,-222.656250
383,-218.750000
384,-214.843750
385,-210.937500
386,-207.031250
387,-203.125000
388,-199.218750
389,-191.406250
390,-191.406250
391,-187.500000
392,-183.593750
393,-175.781250
394,-171.875000
395,-167.968750
396,-164.062500
397,-160.156250
398,-156.250000
399,-152.343750
400,-148.437500
401,-144.531250
402,-140.625000
403,-132.812500
404,-132.812500
405,-125.000000
406,-121.093750
407,-117.187500
408,-113.281250
409,-109.375000
410,-105.468750
411,-97.656250
412,-93.750000
413,-89.843750
414,-85.937500
415,-82.031250
416,-78.125000
417,-74.218750
418,-70.312500
419,-62.500000
420,-58.593750
421,-54.687500
422,-50.781250
423,-46.875000
424,-39.062500
425,-39.062500
426,-35.156250
427,-31.250000
428,-27.343750
429,-19.531250
430,-15.625000
431,-11.718750
432,-11.718750
433,-3.906250
434,0.000000
435,3.906250
436,7.812500
437,7.812500
438,15.625000
439,19.531250
440,23.437500
441,27.343750
442,31.250000
443,31.250000
444,39.062500
445,39.062500
446,42.968750
447,46.875000
448,50.781250
449,50.781250
450,58.593750
451,58.593750
452,62.500000
453,66.406250
454,70.312500
455,74.218750
456,78.125000
457,78.125000
458,82.031250
459,85.937500
460,89.843750
461,89.843750
462,93.750000
463,97.656250
464,97.656250
465,101.562500
466,105.468750
467,109.375000
468,109.375000
469,113.281250
470,113.281250
471,117.187500
472,121.093750
473,121.093750
474,125.000000
475,125.000000
476,128.906250
477,128.906250
478,132.812500
479,132.812500
480,136.718750
481,140.625000
482,140.625000
483,140.625000
484,144.531250
485,144.531250
486,148.437500
487,148.437500
488,148.437500
489,152.343750
490,152.343750
491,156.250000
492,156.250000
493,156.250000
494,160.156250
495,160.156250
496,160.156250
497,164.062500
498,164.062500
499,164.062500
500,164.062500
501,167.968750
502,167.968750
503,167.968750
504,167.968750
505,171.875000
506,171.875000
507,171.875000
508,171.875000
509,171.875000
510,175.781250
511,175.781250
512,175.781250
513,175.781250
514,175.781250
515,175.781250
516,175.781250
517,175.781250
518,175.781250
519,175.781250
520,179.687500
521,175.781250
522,175.781250
523,175.781250
524,179.687500
525,179.687500
526,179.687500
527,175.781250
528,179.687500
529,179.687500
530,179.687500
531,175.781250
532,175.781250
533,175.781250
534,175.781250
535,175.781250
536,175.781250
537,175.781250
538,175.781250
539,175.781250
540,175.781250
541,175.781250
542,175.781250
543,171.875000
544,171.875000
545,171.875000
546,171.875000
547,171.875000
548,171.875000
549,167.968750
550,167.968750
551,167.968750
552,167.968750
553,164.062500
554,164.062500
555,164.062500
556,164.062500
557,160.156250
558,160.156250
559,160.156250
560,156.250000
561,156.250000
562,156.250000
563,152.343750
564,152.343750
565,148.437500
566,148.437500
567,148.437500
568,144.531250
569,144.531250
570,140.625000
571,140.625000
572,136.718750
573,136.718750
574,136.718750
575,132.812500
576,128.906250
577,128.906250
578,125.000000
579,125.000000
580,121.093750
581,121.093750
582,117.187500
583,113.281250
584,113.281250
585,109.375000
586,109.375000
587,105.468750
588,101.562500
589,101.562500
590,97.656250
591,93.750000
592,89.843750
593,85.937500
594,85.937500
595,82.031250
596,78.125000
597,74.218750
598,74.218750
599,70.312500
600,66.406250
601,62.500000
602,58.593750
603,58.593750
604,54.687500
605,50.781250
606,46.875000
607,42.968750
608,39.062500
609,35.156250
610,35.156250
611,31.250000
612,27.343750
613,23.437500
614,15.625000
615,15.625000
616,7.812500
617,7.812500
618,3.906250
619,0.000000
620,-3.906250
621,-7.812500
622,-15.625000
623,-15.625000
624,-23.437500
625,-27.343750
626,-27.343750
627,-35.156250
628,-39.062500
629,-42.968750
630,-46.875000
631,-50.781250
632,-54.687500
633,-58.593750
634,-62.500000
635,-70.312500
636,-74.218750
637,-78.125000
638,-82.031250
639,-85.937500
640,-89.843750
641,-93.750000
642,-93.750000
643,-105.468750
644,-105.468750
645,-113.281250
646,-117.187500
647,-121.093750
648,-125.000000
649,-128.906250
650,-132.812500
651,-136.718750
652,-140.625000
653,-144.531250
654,-152.343750
655,-152.343750
656,-160.156250
657,-164.062500
658,-167.968750
659,-171.875000
660,-175.781250
661,-179.687500
662,-183.593750
663,-187.500000
664,-191.406250
665,-195.312500
666,-199.218750
667,-203.125000
668,-207.031250
669,-210.937500
670,-214.843750
671,-218.750000
672,-222.656250
673,-226.562500
674,-230.468750
675,-234.375000
676,-238.281250
677,-242.187500
678,-246.093750
679,-250.000000
680,-250.000000
681,-253.906250
682,-257.812500
683,-265.625000
684,-265.625000
685,-269.531250
686,-273.437500
687,-277.343750
688,-277.343750
689,-281.250000
690,-285.156250
691,-289.062500
692,-289.062500
693,-292.968750
694,-296.875000
695,-300.781250
696,-300.781250
697,-304.687500
698,-304.687500
699,-308.593750
700,-312.500000
701,-312.500000
702,-316.406250
703,-316.406250
704,-320.312500
705,-320.312500
706,-324.218750
707,-324.218750
708,-328.125000
709,-328.125000
710,-332.031250
711,-332.031250
712,-335.937500
713,-335.937500
714,-335.937500
715,-339.843750
716,-339.843750
717,-339.843750
718,-343.750000
719,-343.750000
720,-343.750000
721,-347.656250
722,-347.656250
723,-347.656250
724,-347.656250
725,-347.656250
726,-351.562500
727,-351.562500
728,-351.562500
729,-351.562500
730,-351.562500
731,-351.562500
732,-351.562500
733,-351.562500
734,-351.562500
735,-355.468750
736,-351.562500
737,-351.562500
738,-351.562500
739,-351.562500
740,-351.562500
741,-351.562500
742,-351.562500
743,-347.656250
744,-347.656250
745,-347.656250
746,-347.656250
747,-347.656250
748,-347.656250
749,-347.656250
750,-343.750000
751,-343.750000
752,-343.750000
753,-339.843750
754,-339.843750
755,-339.843750
756,-335.937500
757,-335.937500
758,-332.031250
759,-332.031250
760,-332.031250
761,-328.125000
762,-328.125000
763,-324.218750
764,-324.218750
765,-324.218750
766,-320.312500
767,-320.312500
768,-316.406250
769,-312.500000
770,-312.500000
771,-308.593750
772,-308.593750
773,-304.687500
774,-300.781250
775,-300.781250
776,-296.875000
777,-292.968750
778,-289.062500
779,-289.062500
780,-289.062500
781,-281.250000
782,-277.343750
783,-277.343750
784,-273.437500
785,-269.531250
786,-265.625000
787,-261.718750
788,-261.718750
789,-257.812500
790,-253.906250
791,-250.000000
792,-246.093750
793,-242.187500
794,-238.281250
795,-234.375000
796,-230.468750
797,-226.562500
798,-226.562500
799,-218.750000
800,-214.843750
801,-210.937500
802,-207.031250
803,-207.031250
804,-199.218750
805,-195.312500
806,-191.406250
807,-187.500000
808,-183.593750
809,-179.687500
810,-175.781250
811,-171.875000
812,-167.968750
813,-164.062500
814,-160.156250
815,-156.250000
816,-148.437500
817,-144.531250
818,-140.625000
819,-136.718750
820,-132.812500
821,-128.906250
822,-125.000000
823,-121.093750
824,-117.187500
825,-109.375000
826,-105.468750
827,-101.562500
828,-97.656250
829,-93.750000
830,-89.843750
831,-85.937500
832,-82.031250
833,-74.218750
834,-70.312500
835,-66.406250
836,-62.500000
837,-58.593750
838,-54.687500
839,-50.781250
840,-46.875000
841,-42.968750
842,-35.156250
843,-31.250000
844,-27.343750
845,-23.437500
846,-19.531250
847,-15.625000
848,-11.718750
849,-7.812500
850,-3.906250
851,0.000000
852,3.906250
853,7.812500
854,11.718750
855,15.625000
856,19.531250
857,23.437500
858,27.343750
859,31.250000
860,35.156250
861,39.062500
862,42.968750
863,46.875000
864,46.875000
865,50.781250
866,54.687500
867,58.593750
868,62.500000
869,66.406250
870,70.312500
871,70.312500
872,74.218750
873,78.125000
874,82.031250
875,82.031250
876,85.937500
877,89.843750
878,93.750000
879,93.750000
880,97.656250
881,101.562500
882,101.562500
883,105.468750
884,109.375000
885,113.281250
886,113.281250
887,117.187500
888,117.187500
889,121.093750
890,121.093750
891,125.000000
892,128.906250
893,128.906250
894,128.906250
895,132.812500
896,136.718750
897,136.718750
898,140.625000
899,140.625000
900,144.531250
901,144.531250
902,144.531250
903,148.437500
904,148.437500
905,148.437500
906,152.343750
907,152.343750
908,156.250000
909,156.250000
910,160.156250
911,160.156250
912,160.156250
913,160.156250
914,164.062500
915,164.062500
916,164.062500
917,164.062500
918,167.968750
919,167.968750
920,167.968750
921,167.968750
922,171.875000
923,171.875000
924,171.875000
925,171.875000
926,171.875000
927,171.875000
928,175.781250
929,175.781250
930,175.781250
931,175.781250
932,175.781250
933,175.781250
934,175.781250
935,175.781250
936,175.781250
937,175.781250
938,175.781250
939,179.687500
940,179.687500
941,179.687500
942,179.687500
943,179.687500
944,179.687500
945,179.687500
946,179.687500
947,179.687500
948,179.687500
949,175.781250
950,175.781250
951,175.781250
952,175.781250
953,175.781250
954,175.781250
955,175.781250
956,175.781250
957,175.781250
958,175.781250
959,171.875000
960,171.875000
961,171.875000
962,171.875000
963,171.875000
964,171.875000
965,171.875000
966,167.968750
967,167.968750
968,167.968750
969,167.968750
970,164.062500
971,164.062500
972,164.062500
973,160.156250
974,160.156250
975,160.156250
976,156.250000
977,156.250000
978,156.250000
979,156.250000
980,152.343750
981,152.343750
982,148.437500
983,148.437500
984,144.531250
985,144.531250
986,144.531250
987,140.625000
988,140.625000
989,136.718750
990,136.718750
991,132.812500
992,132.812500
993,128.906250
994,128.906250
995,128.906250
996,125.000000
997,121.093750
998,121.093750
999,117.187500
1000,117.187500
1001,113.281250
1002,109.375000
1003,105.468750
1004,105.468750
1005,101.562500
1006,101.562500
1007,97.656250
1008,93.750000
1009,89.843750
1010,89.843750
1011,85.937500
1012,82.031250
1013,78.125000
1014,74.218750
1015,74.218750
1016,70.312500
1017,66.406250
1018,62.500000
1019,58.593750
1020,54.687500
1021,54.687500
1022,50.781250
1023,46.875000
1024,42.968750
1025,39.062500
1026,35.156250
1027,31.250000
1028,31.250000
1029,23.437500
1030,19.531250
1031,19.531250
1032,11.718750
1033,7.812500
1034,3.906250
1035,0.000000
1036,-3.906250
1037,-7.812500
1038,-11.718750
1039,-15.625000
1040,-19.531250
1041,-23.437500
1042,-27.343750
1043,-31.250000
1044,-35.156250
1045,-39.062500
1046,-42.968750
1047,-46.875000
1048,-50.781250
1049,-54.687500
1050,-62.500000
1051,-66.406250
1052,-70.312500
1053,-74.218750
1054,-78.125000
1055,-82.031250
1056,-85.937500
1057,-89.843750
1058,-93.750000
1059,-97.656250
1060,-105.468750
1061,-109.375000
1062,-113.281250
1063,-117.187500
1064,-121.093750
1065,-125.000000
1066,-128.906250
1067,-132.812500
1068,-140.625000
1069,-144.531250
1070,-148.437500
1071,-152.343750
1072,-156.250000
1073,-160.156250
1074,-164.062500
1075,-167.968750
1076,-171.875000
1077,-175.781250
1078,-179.687500
1079,-183.593750
1080,-187.500000
1081,-191.406250
1082,-195.312500
1083,-203.125000
1084,-203.125000
1085,-210.937500
1086,-210.937500
1087,-218.750000
1088,-222.656250
1089,-226.562500
1090,-226.562500
1091,-230.468750
1092,-234.375000
1093,-238.281250
1094,-242.187500
1095,-246.093750
1096,-250.000000
1097,-253.906250
1098,-257.812500
1099,-257.812500
1100,-265.625000
1101,-265.625000
1102,-269.531250
1103,-273.437500
1104,-277.343750
1105,-281.250000
1106,-281.250000
1107,-285.156250
1108,-289.062500
1109,-289.062500
1110,-292.968750
1111,-296.875000
1112,-300.781250
1113,-300.781250
1114,-304.687500
1115,-304.687500
1116,-308.593750
1117,-312.500000
1118,-312.500000
1119,-316.406250
1120,-316.406250
1121,-320.312500
1122,-320.312500
1123,-324.218750
1124,-328.125000
1125,-328.125000
1126,-328.125000
1127,-328.125000
1128,-332.031250
1129,-332.031250
1130,-335.937500
1131,-335.937500
1132,-339.843750
1133,-339.843750
1134,-339.843750
1135,-343.750000
1136,-343.750000
1137,-343.750000
1138,-347.656250
1139,-347.656250
1140,-347.656250
1141,-347.656250
1142,-347.656250
1143,-347.656250
1144,-351.562500
1145,-347.656250
1146,-351.562500
1147,-351.562500
1148,-351.562500
1149,-351.562500
1150,-351.562500
1151,-351.562500
1152,-351.562500
1153,-351.562500
1154,-351.562500
1155,-351.562500
1156,-351.562500
1157,-351.562500
1158,-351.562500
1159,-351.562500
1160,-351.562500
1161,-347.656250
1162,-347.656250
1163,-347.656250
1164,-347.656250
1165,-347.656250
1166,-343.750000
1167,-343.750000
1168,-343.750000
1169,-343.750000
1170,-339.843750
1171,-339.843750
1172,-335.937500
1173,-335.937500
1174,-335.937500
1175,-332.031250
1176,-332.031250
1177,-332.031250
1178,-328.125000
1179,-328.125000
1180,-324.218750
1181,-324.218750
1182,-320.312500
1183,-320.312500
1184,-316.406250
1185,-316.406250
1186,-312.500000
1187,-308.593750
1188,-308.593750
1189,-304.687500
1190,-304.687500
1191,-300.781250
1192,-296.875000
1193,-292.968750
1194,-292.968750
1195,-289.062500
1196,-289.062500
1197,-285.156250
1198,-281.250000
1199,-277.343750
1200,-273.437500
1201,-269.531250
1202,-269.531250
1203,-265.625000
1204,-261.718750
1205,-257.812500
1206,-253.906250
1207,-250.000000
1208,-250.000000
1209,-246.093750
1210,-242.187500
1211,-238.281250
1212,-234.375000
1213,-230.468750
1214,-226.562500
1215,-222.656250
1216,-218.750000
1217,-214.843750
1218,-210.937500
1219,-207.031250
1220,-203.125000
1221,-199.218750
1222,-195.312500
1223,-191.406250
1224,-187.500000
1225,-183.593750
1226,-179.687500
1227,-175.781250
1228,-167.968750
1229,-167.968750
1230,-160.156250
1231,-156.250000
1232,-152.343750
1233,-148.437500
1234,-144.531250
1235,-140.625000
1236,-136.718750
1237,-132.812500
1238,-125.000000
1239,-121.093750
1240,-117.187500
1241,-113.281250
1242,-109.375000
1243,-105.468750
1244,-101.562500
1245,-97.656250
1246,-89.843750
1247,-89.843750
1248,-82.031250
1249,-78.125000
1250,-74.218750
1251,-70.312500
1252,-66.406250
1253,-62.500000
1254,-54.687500
1255,-50.781250
1256,-46.875000
1257,-42.968750
1258,-39.062500
1259,-35.156250
1260,-31.250000
1261,-27.343750
1262,-23.437500
1263,-19.531250
1264,-15.625000
1265,-11.718750
1266,-3.906250
1267,-3.906250
1268,0.000000
1269,7.812500
1270,7.812500
1271,11.718750
1272,15.625000
1273,19.531250
1274,23.437500
1275,27.343750
1276,31.250000
1277,35.156250
1278,39.062500
1279,42.968750
1280,46.875000
1281,50.781250
1282,54.687500
1283,58.593750
1284,58.593750
