Practicum8/data/opgave5/f2/data_82_017.csv

Channel              :,CH1
Frequency            :,1.200kHz
Period               :,0.833ms
PK-PK                :,304.7mV
Probe attenuation    :,1X
Voltage per ADC value:,0.244141mV
Time interval        :,2.00000us

index,CH1_Voltage(mV)
1,-58.593750
2,-58.593750
3,-54.687500
4,-50.781250
5,-50.781250
6,-46.875000
7,-46.875000
8,-42.968750
9,-42.968750
10,-39.062500
11,-35.156250
12,-35.156250
13,-31.250000
14,-31.250000
15,-27.343750
16,-27.343750
17,-23.437500
18,-19.531250
19,-19.531250
20,-15.625000
21,-15.625000
22,-11.718750
23,-11.718750
24,-7.812500
25,-3.906250
26,-3.906250
27,0.000000
28,0.000000
29,3.906250
30,3.906250
31,7.812500
32,7.812500
33,11.718750
34,11.718750
35,15.625000
36,15.625000
37,19.531250
38,19.531250
39,23.437500
40,23.437500
41,27.343750
42,27.343750
43,31.250000
44,35.156250
45,35.156250
46,35.156250
47,39.062500
48,39.062500
49,42.968750
50,42.968750
51,46.875000
52,46.875000
53,46.875000
54,50.781250
55,50.781250
56,54.687500
57,54.687500
58,58.593750
59,58.593750
60,58.593750
61,62.500000
62,62.500000
63,62.500000
64,62.500000
65,66.406250
66,70.312500
67,70.312500
68,70.312500
69,74.218750
70,74.218750
71,74.218750
72,78.125000
73,78.125000
74,78.125000
75,82.031250
76,82.031250
77,82.031250
78,82.031250
79,85.937500
80,85.937500
81,85.937500
82,85.937500
83,89.843750
84,89.843750
85,89.843750
86,93.750000
87,93.750000
88,93.750000
89,93.750000
90,93.750000
91,93.750000
92,97.656250
93,97.656250
94,97.656250
95,97.656250
96,101.562500
97,97.656250
98,101.562500
99,101.562500
100,101.562500
101,101.562500
102,101.562500
103,101.562500
104,105.468750
105,105.468750
106,105.468750
107,105.468750
108,105.468750
109,105.468750
110,105.468750
111,105.468750
112,105.468750
113,105.468750
114,105.468750
115,109.375000
116,105.468750
117,109.375000
118,109.375000
119,109.375000
120,109.375000
121,105.468750
122,109.375000
123,109.375000
124,109.375000
125,109.375000
126,109.375000
127,109.375000
128,109.375000
129,109.375000
130,105.468750
131,105.468750
132,105.468750
133,105.468750
134,105.468750
135,105.468750
136,105.468750
137,105.468750
138,105.468750
139,105.468750
140,101.562500
141,101.562500
142,101.562500
143,101.562500
144,101.562500
145,101.562500
146,97.656250
147,97.656250
148,97.656250
149,97.656250
150,97.656250
151,97.656250
152,93.750000
153,93.750000
154,93.750000
155,93.750000
156,93.750000
157,89.843750
158,89.843750
159,89.843750
160,89.843750
161,85.937500
162,85.937500
163,85.937500
164,85.937500
165,82.031250
166,82.031250
167,82.031250
168,82.031250
169,78.125000
170,78.125000
171,74.218750
172,74.218750
173,74.218750
174,74.218750
175,70.312500
176,70.312500
177,70.312500
178,66.406250
179,66.406250
180,62.500000
181,62.500000
182,62.500000
183,62.500000
184,58.593750
185,54.687500
186,54.687500
187,54.687500
188,50.781250
189,50.781250
190,46.875000
191,46.875000
192,42.968750
193,42.968750
194,39.062500
195,39.062500
196,35.156250
197,35.156250
198,35.156250
199,31.250000
200,27.343750
201,27.343750
202,23.437500
203,23.437500
204,19.531250
205,19.531250
206,15.625000
207,15.625000
208,11.718750
209,11.718750
210,7.812500
211,7.812500
212,3.906250
213,0.000000
214,0.000000
215,0.000000
216,-3.906250
217,-7.812500
218,-7.812500
219,-11.718750
220,-11.718750
221,-15.625000
222,-19.531250
223,-19.531250
224,-19.531250
225,-23.437500
226,-27.343750
227,-27.343750
228,-31.250000
229,-31.250000
230,-35.156250
231,-39.062500
232,-39.062500
233,-42.968750
234,-42.968750
235,-46.875000
236,-50.781250
237,-50.781250
238,-54.687500
239,-54.687500
240,-58.593750
241,-62.500000
242,-62.500000
243,-66.406250
244,-66.406250
245,-70.312500
246,-70.312500
247,-74.218750
248,-78.125000
249,-78.125000
250,-82.031250
251,-82.031250
252,-85.937500
253,-85.937500
254,-89.843750
255,-93.750000
256,-93.750000
257,-97.656250
258,-101.562500
259,-101.562500
260,-105.468750
261,-105.468750
262,-109.375000
263,-109.375000
264,-113.281250
265,-113.281250
266,-117.187500
267,-117.187500
268,-121.093750
269,-125.000000
270,-125.000000
271,-128.906250
272,-128.906250
273,-128.906250
274,-132.812500
275,-132.812500
276,-136.718750
277,-136.718750
278,-140.625000
279,-140.625000
280,-144.531250
281,-144.531250
282,-144.531250
283,-148.437500
284,-148.437500
285,-152.343750
286,-152.343750
287,-152.343750
288,-156.250000
289,-156.250000
290,-160.156250
291,-160.156250
292,-160.156250
293,-164.062500
294,-164.062500
295,-164.062500
296,-167.968750
297,-167.968750
298,-167.968750
299,-171.875000
300,-171.875000
301,-171.875000
302,-171.875000
303,-175.781250
304,-175.781250
305,-175.781250
306,-175.781250
307,-179.687500
308,-179.687500
309,-179.687500
310,-179.687500
311,-179.687500
312,-183.593750
313,-183.593750
314,-179.687500
315,-183.593750
316,-183.593750
317,-183.593750
318,-187.500000
319,-187.500000
320,-187.500000
321,-187.500000
322,-187.500000
323,-187.500000
324,-187.500000
325,-187.500000
326,-191.406250
327,-187.500000
328,-187.500000
329,-187.500000
330,-187.500000
331,-187.500000
332,-187.500000
333,-187.500000
334,-187.500000
335,-187.500000
336,-187.500000
337,-187.500000
338,-183.593750
339,-187.500000
340,-183.593750
341,-183.593750
342,-183.593750
343,-183.593750
344,-183.593750
345,-183.593750
346,-183.593750
347,-183.593750
348,-179.687500
349,-179.687500
350,-179.687500
351,-179.687500
352,-175.781250
353,-175.781250
354,-179.687500
355,-175.781250
356,-175.781250
357,-171.875000
358,-171.875000
359,-167.968750
360,-167.968750
361,-167.968750
362,-164.062500
363,-167.968750
364,-164.062500
365,-164.062500
366,-160.156250
367,-160.156250
368,-156.250000
369,-156.250000
370,-156.250000
371,-152.343750
372,-152.343750
373,-152.343750
374,-148.437500
375,-148.437500
376,-148.437500
377,-144.531250
378,-140.625000
379,-140.625000
380,-140.625000
381,-136.718750
382,-136.718750
383,-132.812500
384,-132.812500
385,-128.906250
386,-128.906250
387,-125.000000
388,-125.000000
389,-125.000000
390,-121.093750
391,-117.187500
392,-117.187500
393,-113.281250
394,-113.281250
395,-109.375000
396,-109.375000
397,-105.468750
398,-105.468750
399,-101.562500
400,-101.562500
401,-97.656250
402,-93.750000
403,-93.750000
404,-93.750000
405,-89.843750
406,-85.937500
407,-85.937500
408,-82.031250
409,-78.125000
410,-78.125000
411,-74.218750
412,-74.218750
413,-70.312500
414,-66.406250
415,-66.406250
416,-66.406250
417,-62.500000
418,-58.593750
419,-58.593750
420,-54.687500
421,-50.781250
422,-50.781250
423,-46.875000
424,-46.875000
425,-42.968750
426,-42.968750
427,-39.062500
428,-35.156250
429,-35.156250
430,-31.250000
431,-31.250000
432,-27.343750
433,-27.343750
434,-23.437500
435,-19.531250
436,-19.531250
437,-15.625000
438,-15.625000
439,-11.718750
440,-7.812500
441,-7.812500
442,-3.906250
443,-3.906250
444,0.000000
445,0.000000
446,3.906250
447,3.906250
448,7.812500
449,11.718750
450,11.718750
451,15.625000
452,15.625000
453,15.625000
454,19.531250
455,19.531250
456,23.437500
457,23.437500
458,27.343750
459,31.250000
460,31.250000
461,31.250000
462,35.156250
463,35.156250
464,39.062500
465,39.062500
466,42.968750
467,42.968750
468,46.875000
469,46.875000
470,46.875000
471,50.781250
472,54.687500
473,54.687500
474,54.687500
475,58.593750
476,58.593750
477,58.593750
478,62.500000
479,62.500000
480,62.500000
481,66.406250
482,66.406250
483,70.312500
484,70.312500
485,70.312500
486,74.218750
487,74.218750
488,74.218750
489,78.125000
490,78.125000
491,78.125000
492,82.031250
493,82.031250
494,82.031250
495,85.937500
496,85.937500
497,85.937500
498,85.937500
499,85.937500
500,89.843750
501,89.843750
502,89.843750
503,93.750000
504,93.750000
505,93.750000
506,93.750000
507,93.750000
508,97.656250
509,97.656250
510,97.656250
511,97.656250
512,97.656250
513,101.562500
514,101.562500
515,101.562500
516,101.562500
517,101.562500
518,101.562500
519,101.562500
520,101.562500
521,105.468750
522,105.468750
523,105.468750
524,105.468750
525,105.468750
526,105.468750
527,105.468750
528,105.468750
529,105.468750
530,105.468750
531,105.468750
532,105.468750
533,109.375000
534,105.468750
535,105.468750
536,105.468750
537,109.375000
538,105.468750
539,105.468750
540,109.375000
541,109.375000
542,105.468750
543,105.468750
544,105.468750
545,105.468750
546,105.468750
547,105.468750
548,105.468750
549,105.468750
550,105.468750
551,105.468750
552,105.468750
553,105.468750
554,105.468750
555,101.562500
556,105.468750
557,101.562500
558,101.562500
559,101.562500
560,101.562500
561,101.562500
562,101.562500
563,101.562500
564,101.562500
565,97.656250
566,97.656250
567,97.656250
568,97.656250
569,97.656250
570,93.750000
571,93.750000
572,93.750000
573,93.750000
574,93.750000
575,89.843750
576,89.843750
577,89.843750
578,85.937500
579,85.937500
580,85.937500
581,82.031250
582,82.031250
583,82.031250
584,82.031250
585,78.125000
586,78.125000
587,78.125000
588,74.218750
589,74.218750
590,74.218750
591,70.312500
592,70.312500
593,70.312500
594,66.406250
595,66.406250
596,62.500000
597,62.500000
598,62.500000
599,58.593750
600,58.593750
601,54.687500
602,54.687500
603,54.687500
604,50.781250
605,50.781250
606,46.875000
607,46.875000
608,46.875000
609,42.968750
610,42.968750
611,39.062500
612,39.062500
613,35.156250
614,35.156250
615,31.250000
616,31.250000
617,27.343750
618,27.343750
619,23.437500
620,23.437500
621,19.531250
622,19.531250
623,15.625000
624,15.625000
625,11.718750
626,11.718750
627,7.812500
628,7.812500
629,3.906250
630,3.906250
631,0.000000
632,-3.906250
633,-3.906250
634,-7.812500
635,-7.812500
636,-11.718750
637,-11.718750
638,-15.625000
639,-19.531250
640,-19.531250
641,-23.437500
642,-23.437500
643,-27.343750
644,-27.343750
645,-31.250000
646,-35.156250
647,-35.156250
648,-39.062500
649,-39.062500
650,-42.968750
651,-46.875000
652,-46.875000
653,-50.781250
654,-50.781250
655,-54.687500
656,-58.593750
657,-58.593750
658,-62.500000
659,-66.406250
660,-66.406250
661,-70.312500
662,-70.312500
663,-74.218750
664,-74.218750
665,-78.125000
666,-78.125000
667,-82.031250
668,-85.937500
669,-85.937500
670,-89.843750
671,-89.843750
672,-93.750000
673,-97.656250
674,-97.656250
675,-101.562500
676,-101.562500
677,-105.468750
678,-105.468750
679,-109.375000
680,-109.375000
681,-113.281250
682,-113.281250
683,-117.187500
684,-117.187500
685,-121.093750
686,-125.000000
687,-125.000000
688,-125.000000
689,-128.906250
690,-128.906250
691,-132.812500
692,-132.812500
693,-136.718750
694,-136.718750
695,-140.625000
696,-140.625000
697,-144.531250
698,-144.531250
699,-144.531250
700,-148.437500
701,-148.437500
702,-152.343750
703,-152.343750
704,-156.250000
705,-156.250000
706,-156.250000
707,-160.156250
708,-160.156250
709,-160.156250
710,-164.062500
711,-164.062500
712,-164.062500
713,-167.968750
714,-167.968750
715,-167.968750
716,-171.875000
717,-171.875000
718,-171.875000
719,-171.875000
720,-175.781250
721,-175.781250
722,-175.781250
723,-175.781250
724,-179.687500
725,-179.687500
726,-179.687500
727,-179.687500
728,-183.593750
729,-183.593750
730,-183.593750
731,-183.593750
732,-183.593750
733,-183.593750
734,-183.593750
735,-187.500000
736,-183.593750
737,-183.593750
738,-187.500000
739,-187.500000
740,-187.500000
741,-187.500000
742,-187.500000
743,-187.500000
744,-187.500000
745,-187.500000
746,-187.500000
747,-187.500000
748,-187.500000
749,-187.500000
750,-187.500000
751,-187.500000
752,-187.500000
753,-187.500000
754,-187.500000
755,-183.593750
756,-183.593750
757,-183.593750
758,-183.593750
759,-183.593750
760,-183.593750
761,-183.593750
762,-179.687500
763,-179.687500
764,-183.593750
765,-179.687500
766,-179.687500
767,-179.687500
768,-175.781250
769,-175.781250
770,-175.781250
771,-171.875000
772,-171.875000
773,-171.875000
774,-171.875000
775,-167.968750
776,-167.968750
777,-167.968750
778,-167.968750
779,-164.062500
780,-164.062500
781,-164.062500
782,-160.156250
783,-160.156250
784,-160.156250
785,-156.250000
786,-156.250000
787,-156.250000
788,-152.343750
789,-152.343750
790,-148.437500
791,-148.437500
792,-144.531250
793,-144.531250
794,-144.531250
795,-140.625000
796,-140.625000
797,-136.718750
798,-136.718750
799,-132.812500
800,-132.812500
801,-132.812500
802,-128.906250
803,-128.906250
804,-125.000000
805,-125.000000
806,-121.093750
807,-121.093750
808,-117.187500
809,-117.187500
810,-113.281250
811,-113.281250
812,-109.375000
813,-105.468750
814,-105.468750
815,-101.562500
816,-101.562500
817,-97.656250
818,-97.656250
819,-93.750000
820,-93.750000
821,-89.843750
822,-89.843750
823,-85.937500
824,-82.031250
825,-82.031250
826,-78.125000
827,-78.125000
828,-74.218750
829,-70.312500
830,-70.312500
831,-66.406250
832,-66.406250
833,-62.500000
834,-62.500000
835,-58.593750
836,-54.687500
837,-54.687500
838,-50.781250
839,-50.781250
840,-46.875000
841,-46.875000
842,-42.968750
843,-39.062500
844,-39.062500
845,-35.156250
846,-35.156250
847,-31.250000
848,-27.343750
849,-27.343750
850,-23.437500
851,-23.437500
852,-19.531250
853,-15.625000
854,-15.625000
855,-11.718750
856,-11.718750
857,-7.812500
858,-7.812500
859,-3.906250
860,-3.906250
861,0.000000
862,3.906250
863,3.906250
864,3.906250
865,7.812500
866,7.812500
867,11.718750
868,15.625000
869,15.625000
870,19.531250
871,19.531250
872,23.437500
873,23.437500
874,27.343750
875,27.343750
876,31.250000
877,31.250000
878,35.156250
879,35.156250
880,35.156250
881,39.062500
882,42.968750
883,42.968750
884,42.968750
885,46.875000
886,46.875000
887,50.781250
888,50.781250
889,54.687500
890,54.687500
891,54.687500
892,58.593750
893,58.593750
894,62.500000
895,62.500000
896,62.500000
897,66.406250
898,66.406250
899,66.406250
900,70.312500
901,70.312500
902,74.218750
903,74.218750
904,74.218750
905,78.125000
906,78.125000
907,78.125000
908,78.125000
909,82.031250
910,82.031250
911,82.031250
912,85.937500
913,85.937500
914,85.937500
915,85.937500
916,89.843750
917,89.843750
918,89.843750
919,93.750000
920,93.750000
921,93.750000
922,93.750000
923,93.750000
924,97.656250
925,97.656250
926,97.656250
927,97.656250
928,97.656250
929,97.656250
930,97.656250
931,101.562500
932,101.562500
933,101.562500
934,101.562500
935,101.562500
936,101.562500
937,101.562500
938,101.562500
939,105.468750
940,105.468750
941,105.468750
942,105.468750
943,105.468750
944,105.468750
945,105.468750
946,105.468750
947,105.468750
948,105.468750
949,105.468750
950,109.375000
951,105.468750
952,109.375000
953,105.468750
954,109.375000
955,109.375000
956,109.375000
957,105.468750
958,109.375000
959,109.375000
960,109.375000
961,105.468750
962,105.468750
963,105.468750
964,105.468750
965,105.468750
966,105.468750
967,105.468750
968,105.468750
969,105.468750
970,105.468750
971,105.468750
972,105.468750
973,105.468750
974,101.562500
975,101.562500
976,101.562500
977,101.562500
978,101.562500
979,101.562500
980,97.656250
981,97.656250
982,97.656250
983,97.656250
984,97.656250
985,93.750000
986,93.750000
987,93.750000
988,93.750000
989,93.750000
990,89.843750
991,89.843750
992,89.843750
993,89.843750
994,85.937500
995,85.937500
996,85.937500
997,85.937500
998,82.031250
999,82.031250
1000,82.031250
1001,78.125000
1002,78.125000
1003,78.125000
1004,74.218750
1005,74.218750
1006,74.218750
1007,74.218750
1008,70.312500
1009,70.312500
1010,70.312500
1011,66.406250
1012,66.406250
1013,62.500000
1014,62.500000
1015,58.593750
1016,58.593750
1017,58.593750
1018,54.687500
1019,54.687500
1020,54.687500
1021,50.781250
1022,50.781250
1023,46.875000
1024,46.875000
1025,42.968750
1026,42.968750
1027,42.968750
1028,39.062500
1029,39.062500
1030,35.156250
1031,35.156250
1032,31.250000
1033,31.250000
1034,27.343750
1035,27.343750
1036,23.437500
1037,19.531250
1038,19.531250
1039,19.531250
1040,15.625000
1041,11.718750
1042,11.718750
1043,7.812500
1044,7.812500
1045,3.906250
1046,3.906250
1047,0.000000
1048,0.000000
1049,-3.906250
1050,-3.906250
1051,-7.812500
1052,-11.718750
1053,-11.718750
1054,-11.718750
1055,-15.625000
1056,-19.531250
1057,-23.437500
1058,-23.437500
1059,-27.343750
1060,-27.343750
1061,-31.250000
1062,-31.250000
1063,-35.156250
1064,-39.062500
1065,-39.062500
1066,-42.968750
1067,-42.968750
1068,-46.875000
1069,-46.875000
1070,-50.781250
1071,-54.687500
1072,-54.687500
1073,-58.593750
1074,-58.593750
1075,-62.500000
1076,-66.406250
1077,-66.406250
1078,-70.312500
1079,-74.218750
1080,-74.218750
1081,-78.125000
1082,-78.125000
1083,-82.031250
1084,-82.031250
1085,-85.937500
1086,-89.843750
1087,-89.843750
1088,-93.750000
1089,-93.750000
1090,-97.656250
1091,-97.656250
1092,-101.562500
1093,-101.562500
1094,-105.468750
1095,-105.468750
1096,-109.375000
1097,-109.375000
1098,-113.281250
1099,-117.187500
1100,-117.187500
1101,-121.093750
1102,-121.093750
1103,-125.000000
1104,-125.000000
1105,-125.000000
1106,-128.906250
1107,-132.812500
1108,-132.812500
1109,-136.718750
1110,-136.718750
1111,-140.625000
1112,-140.625000
1113,-144.531250
1114,-144.531250
1115,-148.437500
1116,-148.437500
1117,-148.437500
1118,-152.343750
1119,-152.343750
1120,-156.250000
1121,-156.250000
1122,-156.250000
1123,-160.156250
1124,-160.156250
1125,-160.156250
1126,-160.156250
1127,-164.062500
1128,-164.062500
1129,-167.968750
1130,-167.968750
1131,-167.968750
1132,-171.875000
1133,-171.875000
1134,-171.875000
1135,-171.875000
1136,-175.781250
1137,-175.781250
1138,-175.781250
1139,-175.781250
1140,-179.687500
1141,-179.687500
1142,-179.687500
1143,-179.687500
1144,-183.593750
1145,-179.687500
1146,-179.687500
1147,-183.593750
1148,-183.593750
1149,-183.593750
1150,-183.593750
1151,-183.593750
1152,-187.500000
1153,-187.500000
1154,-183.593750
1155,-187.500000
1156,-187.500000
1157,-187.500000
1158,-187.500000
1159,-187.500000
1160,-187.500000
1161,-187.500000
1162,-187.500000
1163,-187.500000
1164,-187.500000
1165,-187.500000
1166,-187.500000
1167,-187.500000
1168,-187.500000
1169,-187.500000
1170,-187.500000
1171,-187.500000
1172,-183.593750
1173,-187.500000
1174,-183.593750
1175,-183.593750
1176,-183.593750
1177,-183.593750
1178,-183.593750
1179,-183.593750
1180,-179.687500
1181,-179.687500
1182,-179.687500
1183,-179.687500
1184,-179.687500
1185,-179.687500
1186,-175.781250
1187,-175.781250
1188,-175.781250
1189,-171.875000
1190,-171.875000
1191,-171.875000
1192,-167.968750
1193,-167.968750
1194,-167.968750
1195,-167.968750
1196,-167.968750
1197,-164.062500
1198,-164.062500
1199,-164.062500
1200,-160.156250
1201,-160.156250
1202,-156.250000
1203,-156.250000
1204,-156.250000
1205,-152.343750
1206,-152.343750
1207,-148.437500
1208,-148.437500
1209,-148.437500
1210,-144.531250
1211,-144.531250
1212,-140.625000
1213,-140.625000
1214,-136.718750
1215,-136.718750
1216,-136.718750
1217,-132.812500
1218,-128.906250
1219,-128.906250
1220,-128.906250
1221,-125.000000
1222,-121.093750
1223,-121.093750
1224,-121.093750
1225,-117.187500
1226,-113.281250
1227,-113.281250
1228,-109.375000
1229,-109.375000
1230,-105.468750
1231,-105.468750
1232,-105.468750
1233,-101.562500
1234,-97.656250
1235,-97.656250
1236,-93.750000
1237,-93.750000
1238,-89.843750
1239,-85.937500
1240,-85.937500
1241,-82.031250
1242,-82.031250
1243,-78.125000
1244,-74.218750
1245,-74.218750
1246,-70.312500
1247,-70.312500
1248,-66.406250
1249,-66.406250
1250,-62.500000
1251,-62.500000
1252,-58.593750
1253,-54.687500
1254,-54.687500
1255,-50.781250
1256,-46.875000
1257,-46.875000
1258,-42.968750
1259,-42.968750
1260,-39.062500
1261,-39.062500
1262,-35.156250
1263,-31.250000
1264,-31.250000
1265,-27.343750
1266,-27.343750
1267,-23.437500
1268,-19.531250
1269,-19.531250
1270,-15.625000
1271,-15.625000
1272,-11.718750
1273,-11.718750
1274,-7.812500
1275,-7.812500
1276,-3.906250
1277,0.000000
1278,0.000000
1279,3.906250
1280,3.906250
1281,7.812500
1282,7.812500
1283,11.718750
1284,15.625000
1285,15.625000
1286,15.625000
1287,19.531250
1288,19.531250
1289,23.437500
1290,27.343750
1291,27.343750
1292,27.343750
1293,31.250000
1294,31.250000
1295,35.156250
1296,35.156250
1297,39.062500
1298,39.062500
1299,42.968750
1300,42.968750
1301,42.968750
1302,46.875000
1303,46.875000
1304,50.781250
1305,50.781250
1306,54.687500
1307,54.687500
1308,54.687500
1309,58.593750
