Practicum8/data/opgave5/f2/data_82_008.csv

Channel              :,CH1
Frequency            :,1.200kHz
Period               :,0.833ms
PK-PK                :,363.3mV
Probe attenuation    :,1X
Voltage per ADC value:,0.244141mV
Time interval        :,2.00000us

index,CH1_Voltage(mV)
1,-58.593750
2,-58.593750
3,-54.687500
4,-54.687500
5,-50.781250
6,-46.875000
7,-46.875000
8,-42.968750
9,-39.062500
10,-39.062500
11,-35.156250
12,-31.250000
13,-27.343750
14,-23.437500
15,-23.437500
16,-19.531250
17,-15.625000
18,-15.625000
19,-11.718750
20,-7.812500
21,-3.906250
22,-3.906250
23,0.000000
24,0.000000
25,3.906250
26,7.812500
27,7.812500
28,11.718750
29,15.625000
30,15.625000
31,19.531250
32,23.437500
33,23.437500
34,27.343750
35,31.250000
36,31.250000
37,35.156250
38,35.156250
39,39.062500
40,39.062500
41,42.968750
42,42.968750
43,46.875000
44,50.781250
45,50.781250
46,54.687500
47,54.687500
48,58.593750
49,58.593750
50,62.500000
51,62.500000
52,62.500000
53,66.406250
54,70.312500
55,70.312500
56,70.312500
57,74.218750
58,74.218750
59,78.125000
60,78.125000
61,82.031250
62,82.031250
63,85.937500
64,85.937500
65,85.937500
66,89.843750
67,89.843750
68,89.843750
69,93.750000
70,93.750000
71,93.750000
72,97.656250
73,97.656250
74,101.562500
75,101.562500
76,101.562500
77,101.562500
78,105.468750
79,105.468750
80,105.468750
81,109.375000
82,109.375000
83,109.375000
84,109.375000
85,113.281250
86,113.281250
87,113.281250
88,113.281250
89,117.187500
90,117.187500
91,117.187500
92,117.187500
93,117.187500
94,117.187500
95,121.093750
96,121.093750
97,121.093750
98,121.093750
99,121.093750
100,121.093750
101,121.093750
102,121.093750
103,125.000000
104,125.000000
105,125.000000
106,125.000000
107,125.000000
108,125.000000
109,125.000000
110,125.000000
111,125.000000
112,125.000000
113,125.000000
114,125.000000
115,125.000000
116,125.000000
117,125.000000
118,125.000000
119,125.000000
120,125.000000
121,125.000000
122,125.000000
123,125.000000
124,125.000000
125,125.000000
126,125.000000
127,125.000000
128,125.000000
129,125.000000
130,121.093750
131,121.093750
132,121.093750
133,121.093750
134,121.093750
135,121.093750
136,121.093750
137,117.187500
138,117.187500
139,117.187500
140,117.187500
141,117.187500
142,117.187500
143,113.281250
144,113.281250
145,113.281250
146,113.281250
147,113.281250
148,109.375000
149,109.375000
150,109.375000
151,105.468750
152,105.468750
153,105.468750
154,105.468750
155,101.562500
156,101.562500
157,101.562500
158,97.656250
159,97.656250
160,97.656250
161,97.656250
162,93.750000
163,93.750000
164,89.843750
165,89.843750
166,89.843750
167,85.937500
168,85.937500
169,82.031250
170,82.031250
171,82.031250
172,78.125000
173,78.125000
174,74.218750
175,74.218750
176,70.312500
177,70.312500
178,70.312500
179,66.406250
180,62.500000
181,62.500000
182,58.593750
183,58.593750
184,54.687500
185,54.687500
186,50.781250
187,50.781250
188,46.875000
189,46.875000
190,42.968750
191,39.062500
192,39.062500
193,35.156250
194,35.156250
195,31.250000
196,27.343750
197,27.343750
198,23.437500
199,23.437500
200,19.531250
201,15.625000
202,15.625000
203,11.718750
204,11.718750
205,7.812500
206,3.906250
207,3.906250
208,0.000000
209,-3.906250
210,-3.906250
211,-7.812500
212,-11.718750
213,-15.625000
214,-15.625000
215,-19.531250
216,-23.437500
217,-23.437500
218,-27.343750
219,-31.250000
220,-31.250000
221,-35.156250
222,-39.062500
223,-42.968750
224,-42.968750
225,-46.875000
226,-50.781250
227,-54.687500
228,-54.687500
229,-58.593750
230,-62.500000
231,-62.500000
232,-66.406250
233,-70.312500
234,-74.218750
235,-74.218750
236,-78.125000
237,-82.031250
238,-85.937500
239,-85.937500
240,-89.843750
241,-89.843750
242,-97.656250
243,-97.656250
244,-101.562500
245,-101.562500
246,-105.468750
247,-109.375000
248,-113.281250
249,-113.281250
250,-117.187500
251,-121.093750
252,-125.000000
253,-125.000000
254,-128.906250
255,-132.812500
256,-132.812500
257,-136.718750
258,-140.625000
259,-140.625000
260,-144.531250
261,-144.531250
262,-148.437500
263,-152.343750
264,-152.343750
265,-156.250000
266,-160.156250
267,-160.156250
268,-164.062500
269,-164.062500
270,-167.968750
271,-167.968750
272,-171.875000
273,-175.781250
274,-175.781250
275,-179.687500
276,-179.687500
277,-183.593750
278,-183.593750
279,-187.500000
280,-187.500000
281,-187.500000
282,-191.406250
283,-195.312500
284,-195.312500
285,-199.218750
286,-199.218750
287,-199.218750
288,-203.125000
289,-203.125000
290,-207.031250
291,-207.031250
292,-207.031250
293,-210.937500
294,-210.937500
295,-214.843750
296,-214.843750
297,-214.843750
298,-218.750000
299,-218.750000
300,-218.750000
301,-218.750000
302,-222.656250
303,-222.656250
304,-222.656250
305,-222.656250
306,-222.656250
307,-226.562500
308,-226.562500
309,-226.562500
310,-226.562500
311,-230.468750
312,-230.468750
313,-230.468750
314,-230.468750
315,-230.468750
316,-230.468750
317,-234.375000
318,-230.468750
319,-230.468750
320,-230.468750
321,-234.375000
322,-234.375000
323,-234.375000
324,-234.375000
325,-234.375000
326,-234.375000
327,-230.468750
328,-234.375000
329,-230.468750
330,-230.468750
331,-230.468750
332,-230.468750
333,-230.468750
334,-230.468750
335,-230.468750
336,-230.468750
337,-230.468750
338,-226.562500
339,-226.562500
340,-226.562500
341,-226.562500
342,-226.562500
343,-226.562500
344,-222.656250
345,-222.656250
346,-222.656250
347,-218.750000
348,-222.656250
349,-218.750000
350,-214.843750
351,-214.843750
352,-214.843750
353,-210.937500
354,-210.937500
355,-210.937500
356,-207.031250
357,-207.031250
358,-207.031250
359,-203.125000
360,-203.125000
361,-199.218750
362,-199.218750
363,-195.312500
364,-195.312500
365,-195.312500
366,-191.406250
367,-187.500000
368,-187.500000
369,-183.593750
370,-183.593750
371,-179.687500
372,-179.687500
373,-175.781250
374,-175.781250
375,-171.875000
376,-171.875000
377,-167.968750
378,-167.968750
379,-164.062500
380,-160.156250
381,-160.156250
382,-156.250000
383,-156.250000
384,-152.343750
385,-148.437500
386,-148.437500
387,-144.531250
388,-140.625000
389,-140.625000
390,-136.718750
391,-136.718750
392,-132.812500
393,-128.906250
394,-128.906250
395,-125.000000
396,-121.093750
397,-121.093750
398,-117.187500
399,-113.281250
400,-109.375000
401,-109.375000
402,-105.468750
403,-101.562500
404,-101.562500
405,-97.656250
406,-93.750000
407,-89.843750
408,-89.843750
409,-85.937500
410,-82.031250
411,-82.031250
412,-78.125000
413,-74.218750
414,-70.312500
415,-70.312500
416,-66.406250
417,-62.500000
418,-58.593750
419,-58.593750
420,-54.687500
421,-50.781250
422,-46.875000
423,-46.875000
424,-42.968750
425,-39.062500
426,-39.062500
427,-35.156250
428,-31.250000
429,-27.343750
430,-27.343750
431,-23.437500
432,-23.437500
433,-19.531250
434,-15.625000
435,-15.625000
436,-11.718750
437,-7.812500
438,-3.906250
439,-3.906250
440,0.000000
441,3.906250
442,3.906250
443,7.812500
444,7.812500
445,11.718750
446,15.625000
447,15.625000
448,19.531250
449,23.437500
450,23.437500
451,27.343750
452,27.343750
453,31.250000
454,35.156250
455,35.156250
456,39.062500
457,39.062500
458,39.062500
459,46.875000
460,46.875000
461,46.875000
462,50.781250
463,54.687500
464,54.687500
465,58.593750
466,58.593750
467,62.500000
468,62.500000
469,66.406250
470,66.406250
471,66.406250
472,70.312500
473,74.218750
474,74.218750
475,78.125000
476,78.125000
477,78.125000
478,82.031250
479,82.031250
480,82.031250
481,85.937500
482,85.937500
483,89.843750
484,89.843750
485,93.750000
486,93.750000
487,97.656250
488,97.656250
489,97.656250
490,97.656250
491,101.562500
492,101.562500
493,101.562500
494,105.468750
495,105.468750
496,105.468750
497,105.468750
498,109.375000
499,109.375000
500,109.375000
501,109.375000
502,113.281250
503,113.281250
504,113.281250
505,113.281250
506,117.187500
507,117.187500
508,117.187500
509,117.187500
510,117.187500
511,117.187500
512,117.187500
513,121.093750
514,121.093750
515,121.093750
516,121.093750
517,121.093750
518,121.093750
519,121.093750
520,121.093750
521,121.093750
522,121.093750
523,125.000000
524,125.000000
525,125.000000
526,125.000000
527,125.000000
528,125.000000
529,125.000000
530,125.000000
531,125.000000
532,125.000000
533,125.000000
534,125.000000
535,125.000000
536,125.000000
537,125.000000
538,125.000000
539,125.000000
540,125.000000
541,125.000000
542,121.093750
543,125.000000
544,125.000000
545,125.000000
546,121.093750
547,125.000000
548,121.093750
549,121.093750
550,121.093750
551,121.093750
552,121.093750
553,121.093750
554,117.187500
555,117.187500
556,117.187500
557,117.187500
558,117.187500
559,113.281250
560,113.281250
561,113.281250
562,113.281250
563,113.281250
564,109.375000
565,109.375000
566,109.375000
567,109.375000
568,105.468750
569,105.468750
570,105.468750
571,105.468750
572,101.562500
573,101.562500
574,101.562500
575,97.656250
576,97.656250
577,97.656250
578,93.750000
579,93.750000
580,89.843750
581,89.843750
582,89.843750
583,85.937500
584,85.937500
585,85.937500
586,82.031250
587,82.031250
588,78.125000
589,78.125000
590,78.125000
591,74.218750
592,74.218750
593,70.312500
594,70.312500
595,70.312500
596,62.500000
597,62.500000
598,62.500000
599,58.593750
600,58.593750
601,54.687500
602,54.687500
603,50.781250
604,46.875000
605,46.875000
606,42.968750
607,42.968750
608,39.062500
609,39.062500
610,35.156250
611,35.156250
612,31.250000
613,27.343750
614,27.343750
615,23.437500
616,23.437500
617,19.531250
618,15.625000
619,15.625000
620,11.718750
621,7.812500
622,7.812500
623,3.906250
624,0.000000
625,0.000000
626,-3.906250
627,-7.812500
628,-7.812500
629,-11.718750
630,-15.625000
631,-19.531250
632,-19.531250
633,-23.437500
634,-27.343750
635,-27.343750
636,-31.250000
637,-35.156250
638,-35.156250
639,-39.062500
640,-42.968750
641,-42.968750
642,-46.875000
643,-50.781250
644,-54.687500
645,-54.687500
646,-58.593750
647,-62.500000
648,-66.406250
649,-66.406250
650,-70.312500
651,-74.218750
652,-78.125000
653,-78.125000
654,-82.031250
655,-85.937500
656,-89.843750
657,-89.843750
658,-93.750000
659,-97.656250
660,-97.656250
661,-101.562500
662,-105.468750
663,-105.468750
664,-109.375000
665,-113.281250
666,-117.187500
667,-117.187500
668,-121.093750
669,-125.000000
670,-125.000000
671,-128.906250
672,-132.812500
673,-132.812500
674,-136.718750
675,-140.625000
676,-140.625000
677,-144.531250
678,-148.437500
679,-148.437500
680,-152.343750
681,-152.343750
682,-156.250000
683,-160.156250
684,-160.156250
685,-164.062500
686,-167.968750
687,-167.968750
688,-171.875000
689,-171.875000
690,-175.781250
691,-179.687500
692,-179.687500
693,-179.687500
694,-183.593750
695,-187.500000
696,-187.500000
697,-191.406250
698,-191.406250
699,-191.406250
700,-195.312500
701,-199.218750
702,-199.218750
703,-199.218750
704,-203.125000
705,-203.125000
706,-207.031250
707,-207.031250
708,-207.031250
709,-210.937500
710,-210.937500
711,-210.937500
712,-214.843750
713,-214.843750
714,-214.843750
715,-218.750000
716,-218.750000
717,-222.656250
718,-222.656250
719,-222.656250
720,-222.656250
721,-226.562500
722,-226.562500
723,-222.656250
724,-226.562500
725,-226.562500
726,-226.562500
727,-230.468750
728,-230.468750
729,-230.468750
730,-230.468750
731,-230.468750
732,-230.468750
733,-230.468750
734,-230.468750
735,-234.375000
736,-234.375000
737,-234.375000
738,-234.375000
739,-234.375000
740,-234.375000
741,-234.375000
742,-234.375000
743,-234.375000
744,-230.468750
745,-234.375000
746,-234.375000
747,-230.468750
748,-230.468750
749,-230.468750
750,-230.468750
751,-230.468750
752,-230.468750
753,-230.468750
754,-226.562500
755,-226.562500
756,-226.562500
757,-226.562500
758,-226.562500
759,-226.562500
760,-222.656250
761,-222.656250
762,-222.656250
763,-222.656250
764,-218.750000
765,-218.750000
766,-218.750000
767,-218.750000
768,-214.843750
769,-214.843750
770,-214.843750
771,-210.937500
772,-210.937500
773,-207.031250
774,-207.031250
775,-207.031250
776,-203.125000
777,-203.125000
778,-199.218750
779,-199.218750
780,-199.218750
781,-195.312500
782,-191.406250
783,-191.406250
784,-191.406250
785,-187.500000
786,-187.500000
787,-183.593750
788,-183.593750
789,-179.687500
790,-175.781250
791,-175.781250
792,-175.781250
793,-167.968750
794,-167.968750
795,-167.968750
796,-164.062500
797,-164.062500
798,-160.156250
799,-156.250000
800,-156.250000
801,-152.343750
802,-148.437500
803,-148.437500
804,-144.531250
805,-140.625000
806,-140.625000
807,-136.718750
808,-132.812500
809,-132.812500
810,-128.906250
811,-125.000000
812,-125.000000
813,-121.093750
814,-117.187500
815,-117.187500
816,-113.281250
817,-109.375000
818,-109.375000
819,-105.468750
820,-101.562500
821,-97.656250
822,-97.656250
823,-93.750000
824,-89.843750
825,-89.843750
826,-85.937500
827,-82.031250
828,-78.125000
829,-78.125000
830,-74.218750
831,-70.312500
832,-66.406250
833,-66.406250
834,-62.500000
835,-62.500000
836,-58.593750
837,-54.687500
838,-50.781250
839,-50.781250
840,-46.875000
841,-42.968750
842,-39.062500
843,-39.062500
844,-35.156250
845,-31.250000
846,-31.250000
847,-27.343750
848,-23.437500
849,-19.531250
850,-19.531250
851,-15.625000
852,-15.625000
853,-11.718750
854,-7.812500
855,-3.906250
856,0.000000
857,0.000000
858,3.906250
859,3.906250
860,7.812500
861,11.718750
862,11.718750
863,15.625000
864,19.531250
865,19.531250
866,23.437500
867,27.343750
868,27.343750
869,31.250000
870,31.250000
871,35.156250
872,39.062500
873,39.062500
874,42.968750
875,42.968750
876,46.875000
877,46.875000
878,50.781250
879,54.687500
880,54.687500
881,54.687500
882,58.593750
883,58.593750
884,62.500000
885,66.406250
886,66.406250
887,66.406250
888,70.312500
889,70.312500
890,74.218750
891,74.218750
892,78.125000
893,78.125000
894,78.125000
895,82.031250
896,82.031250
897,85.937500
898,85.937500
899,85.937500
900,89.843750
901,89.843750
902,93.750000
903,93.750000
904,93.750000
905,97.656250
906,97.656250
907,97.656250
908,101.562500
909,101.562500
910,101.562500
911,105.468750
912,105.468750
913,105.468750
914,105.468750
915,109.375000
916,109.375000
917,109.375000
918,113.281250
919,109.375000
920,113.281250
921,113.281250
922,113.281250
923,117.187500
924,117.187500
925,117.187500
926,117.187500
927,117.187500
928,121.093750
929,117.187500
930,121.093750
931,121.093750
932,121.093750
933,121.093750
934,121.093750
935,121.093750
936,125.000000
937,125.000000
938,125.000000
939,125.000000
940,125.000000
941,125.000000
942,125.000000
943,125.000000
944,125.000000
945,125.000000
946,125.000000
947,125.000000
948,125.000000
949,125.000000
950,125.000000
951,125.000000
952,125.000000
953,125.000000
954,125.000000
955,125.000000
956,125.000000
957,125.000000
958,125.000000
959,125.000000
960,125.000000
961,125.000000
962,121.093750
963,121.093750
964,121.093750
965,121.093750
966,121.093750
967,121.093750
968,121.093750
969,121.093750
970,121.093750
971,117.187500
972,117.187500
973,117.187500
974,117.187500
975,117.187500
976,113.281250
977,113.281250
978,113.281250
979,113.281250
980,113.281250
981,109.375000
982,109.375000
983,109.375000
984,109.375000
985,105.468750
986,105.468750
987,105.468750
988,105.468750
989,101.562500
990,101.562500
991,97.656250
992,97.656250
993,97.656250
994,97.656250
995,93.750000
996,93.750000
997,93.750000
998,89.843750
999,89.843750
1000,89.843750
1001,85.937500
1002,85.937500
1003,82.031250
1004,82.031250
1005,78.125000
1006,78.125000
1007,78.125000
1008,74.218750
1009,70.312500
1010,70.312500
1011,70.312500
1012,66.406250
1013,66.406250
1014,62.500000
1015,62.500000
1016,58.593750
1017,58.593750
1018,54.687500
1019,54.687500
1020,50.781250
1021,46.875000
1022,46.875000
1023,42.968750
1024,42.968750
1025,39.062500
1026,39.062500
1027,35.156250
1028,31.250000
1029,31.250000
1030,27.343750
1031,23.437500
1032,23.437500
1033,19.531250
1034,19.531250
1035,15.625000
1036,11.718750
1037,11.718750
1038,7.812500
1039,7.812500
1040,3.906250
1041,0.000000
1042,0.000000
1043,-3.906250
1044,-7.812500
1045,-11.718750
1046,-11.718750
1047,-15.625000
1048,-19.531250
1049,-19.531250
1050,-23.437500
1051,-27.343750
1052,-27.343750
1053,-31.250000
1054,-35.156250
1055,-39.062500
1056,-39.062500
1057,-42.968750
1058,-46.875000
1059,-50.781250
1060,-50.781250
1061,-54.687500
1062,-58.593750
1063,-58.593750
1064,-62.500000
1065,-66.406250
1066,-70.312500
1067,-70.312500
1068,-74.218750
1069,-78.125000
1070,-82.031250
1071,-82.031250
1072,-85.937500
1073,-89.843750
1074,-89.843750
1075,-93.750000
1076,-97.656250
1077,-101.562500
1078,-101.562500
1079,-105.468750
1080,-109.375000
1081,-109.375000
1082,-113.281250
1083,-117.187500
1084,-117.187500
1085,-121.093750
1086,-125.000000
1087,-128.906250
1088,-128.906250
1089,-132.812500
1090,-136.718750
1091,-136.718750
1092,-140.625000
1093,-140.625000
1094,-144.531250
1095,-148.437500
1096,-148.437500
1097,-152.343750
1098,-152.343750
1099,-156.250000
1100,-160.156250
1101,-164.062500
1102,-164.062500
1103,-167.968750
1104,-167.968750
1105,-171.875000
1106,-175.781250
1107,-175.781250
1108,-179.687500
1109,-179.687500
1110,-183.593750
1111,-183.593750
1112,-187.500000
1113,-187.500000
1114,-187.500000
1115,-191.406250
1116,-195.312500
1117,-195.312500
1118,-199.218750
1119,-199.218750
1120,-199.218750
1121,-203.125000
1122,-203.125000
1123,-207.031250
1124,-207.031250
1125,-207.031250
1126,-210.937500
1127,-210.937500
1128,-210.937500
1129,-214.843750
1130,-214.843750
1131,-214.843750
1132,-218.750000
1133,-218.750000
1134,-218.750000
1135,-222.656250
1136,-222.656250
1137,-222.656250
1138,-222.656250
1139,-226.562500
1140,-226.562500
1141,-226.562500
1142,-226.562500
1143,-226.562500
1144,-226.562500
1145,-230.468750
1146,-230.468750
1147,-230.468750
1148,-230.468750
1149,-230.468750
1150,-234.375000
1151,-234.375000
1152,-230.468750
1153,-234.375000
1154,-230.468750
1155,-230.468750
1156,-234.375000
1157,-234.375000
1158,-234.375000
1159,-234.375000
1160,-234.375000
1161,-234.375000
1162,-230.468750
1163,-230.468750
1164,-230.468750
1165,-230.468750
1166,-230.468750
1167,-230.468750
1168,-230.468750
1169,-230.468750
1170,-230.468750
1171,-226.562500
1172,-226.562500
1173,-226.562500
1174,-226.562500
1175,-226.562500
1176,-222.656250
1177,-222.656250
1178,-222.656250
1179,-222.656250
1180,-222.656250
1181,-218.750000
1182,-218.750000
1183,-218.750000
1184,-214.843750
1185,-214.843750
1186,-214.843750
1187,-210.937500
1188,-210.937500
1189,-210.937500
1190,-207.031250
1191,-207.031250
1192,-203.125000
1193,-203.125000
1194,-199.218750
1195,-199.218750
1196,-199.218750
1197,-195.312500
1198,-195.312500
1199,-191.406250
1200,-191.406250
1201,-187.500000
1202,-187.500000
1203,-183.593750
1204,-183.593750
1205,-179.687500
1206,-179.687500
1207,-175.781250
1208,-175.781250
1209,-171.875000
1210,-167.968750
1211,-167.968750
1212,-164.062500
1213,-164.062500
1214,-160.156250
1215,-160.156250
1216,-156.250000
1217,-152.343750
1218,-152.343750
1219,-148.437500
1220,-144.531250
1221,-144.531250
1222,-140.625000
1223,-136.718750
1224,-136.718750
1225,-132.812500
1226,-128.906250
1227,-128.906250
1228,-125.000000
1229,-121.093750
1230,-121.093750
1231,-117.187500
1232,-117.187500
1233,-113.281250
1234,-109.375000
1235,-105.468750
1236,-105.468750
1237,-101.562500
1238,-97.656250
1239,-93.750000
1240,-93.750000
1241,-89.843750
1242,-85.937500
1243,-85.937500
1244,-82.031250
1245,-78.125000
1246,-74.218750
1247,-74.218750
1248,-70.312500
1249,-66.406250
1250,-62.500000
1251,-62.500000
1252,-58.593750
1253,-54.687500
1254,-54.687500
1255,-50.781250
1256,-46.875000
1257,-46.875000
1258,-42.968750
1259,-39.062500
1260,-35.156250
1261,-35.156250
1262,-31.250000
1263,-27.343750
1264,-23.437500
1265,-23.437500
1266,-19.531250
1267,-15.625000
1268,-15.625000
1269,-11.718750
1270,-7.812500
1271,-7.812500
1272,-3.906250
1273,0.000000
1274,0.000000
1275,3.906250
1276,7.812500
1277,7.812500
1278,11.718750
1279,11.718750
1280,15.625000
1281,19.531250
1282,19.531250
1283,23.437500
1284,27.343750
1285,27.343750
1286,31.250000
1287,35.156250
1288,35.156250
1289,39.062500
1290,39.062500
1291,42.968750
1292,42.968750
1293,46.875000
1294,50.781250
1295,50.781250
1296,50.781250
1297,54.687500
1298,58.593750
