Practicum8/data/opgave5/f2/data_82_003.csv

Channel              :,CH1
Frequency            :,1.200kHz
Period               :,0.833ms
PK-PK                :,429.7mV
Probe attenuation    :,1X
Voltage per ADC value:,0.244141mV
Time interval        :,2.00000us

index,CH1_Voltage(mV)
1,-58.593750
2,-58.593750
3,-54.687500
4,-50.781250
5,-46.875000
6,-42.968750
7,-39.062500
8,-35.156250
9,-35.156250
10,-31.250000
11,-27.343750
12,-23.437500
13,-19.531250
14,-15.625000
15,-11.718750
16,-11.718750
17,-7.812500
18,-3.906250
19,0.000000
20,3.906250
21,7.812500
22,7.812500
23,11.718750
24,15.625000
25,19.531250
26,23.437500
27,23.437500
28,27.343750
29,31.250000
30,35.156250
31,39.062500
32,39.062500
33,46.875000
34,46.875000
35,46.875000
36,50.781250
37,54.687500
38,58.593750
39,62.500000
40,62.500000
41,66.406250
42,66.406250
43,70.312500
44,74.218750
45,78.125000
46,78.125000
47,82.031250
48,82.031250
49,85.937500
50,89.843750
51,89.843750
52,93.750000
53,97.656250
54,97.656250
55,101.562500
56,101.562500
57,105.468750
58,105.468750
59,109.375000
60,109.375000
61,113.281250
62,117.187500
63,117.187500
64,121.093750
65,121.093750
66,121.093750
67,125.000000
68,125.000000
69,128.906250
70,128.906250
71,128.906250
72,132.812500
73,136.718750
74,136.718750
75,136.718750
76,140.625000
77,140.625000
78,140.625000
79,144.531250
80,144.531250
81,144.531250
82,148.437500
83,148.437500
84,148.437500
85,152.343750
86,152.343750
87,156.250000
88,152.343750
89,156.250000
90,156.250000
91,156.250000
92,156.250000
93,160.156250
94,160.156250
95,160.156250
96,160.156250
97,164.062500
98,164.062500
99,164.062500
100,164.062500
101,164.062500
102,167.968750
103,164.062500
104,167.968750
105,167.968750
106,167.968750
107,167.968750
108,167.968750
109,167.968750
110,167.968750
111,167.968750
112,167.968750
113,171.875000
114,171.875000
115,171.875000
116,167.968750
117,171.875000
118,171.875000
119,171.875000
120,171.875000
121,171.875000
122,171.875000
123,171.875000
124,167.968750
125,171.875000
126,171.875000
127,171.875000
128,167.968750
129,167.968750
130,167.968750
131,167.968750
132,167.968750
133,167.968750
134,167.968750
135,167.968750
136,167.968750
137,167.968750
138,164.062500
139,164.062500
140,164.062500
141,164.062500
142,164.062500
143,160.156250
144,160.156250
145,160.156250
146,160.156250
147,160.156250
148,156.250000
149,156.250000
150,156.250000
151,156.250000
152,156.250000
153,152.343750
154,152.343750
155,152.343750
156,148.437500
157,148.437500
158,148.437500
159,144.531250
160,144.531250
161,140.625000
162,140.625000
163,140.625000
164,140.625000
165,136.718750
166,136.718750
167,132.812500
168,132.812500
169,128.906250
170,128.906250
171,125.000000
172,125.000000
173,125.000000
174,121.093750
175,121.093750
176,117.187500
177,117.187500
178,113.281250
179,109.375000
180,109.375000
181,109.375000
182,105.468750
183,101.562500
184,101.562500
185,97.656250
186,97.656250
187,93.750000
188,89.843750
189,89.843750
190,85.937500
191,85.937500
192,82.031250
193,78.125000
194,78.125000
195,74.218750
196,70.312500
197,70.312500
198,66.406250
199,62.500000
200,62.500000
201,58.593750
202,54.687500
203,50.781250
204,50.781250
205,46.875000
206,42.968750
207,39.062500
208,39.062500
209,35.156250
210,31.250000
211,27.343750
212,27.343750
213,23.437500
214,19.531250
215,15.625000
216,11.718750
217,11.718750
218,7.812500
219,3.906250
220,0.000000
221,-3.906250
222,-7.812500
223,-7.812500
224,-15.625000
225,-15.625000
226,-19.531250
227,-23.437500
228,-27.343750
229,-31.250000
230,-35.156250
231,-39.062500
232,-39.062500
233,-42.968750
234,-46.875000
235,-50.781250
236,-54.687500
237,-58.593750
238,-62.500000
239,-62.500000
240,-66.406250
241,-70.312500
242,-74.218750
243,-78.125000
244,-82.031250
245,-85.937500
246,-85.937500
247,-93.750000
248,-93.750000
249,-97.656250
250,-101.562500
251,-105.468750
252,-109.375000
253,-109.375000
254,-113.281250
255,-117.187500
256,-121.093750
257,-125.000000
258,-128.906250
259,-132.812500
260,-132.812500
261,-136.718750
262,-140.625000
263,-144.531250
264,-148.437500
265,-152.343750
266,-152.343750
267,-152.343750
268,-156.250000
269,-160.156250
270,-164.062500
271,-167.968750
272,-167.968750
273,-171.875000
274,-175.781250
275,-175.781250
276,-179.687500
277,-183.593750
278,-183.593750
279,-187.500000
280,-191.406250
281,-191.406250
282,-195.312500
283,-199.218750
284,-199.218750
285,-203.125000
286,-203.125000
287,-207.031250
288,-210.937500
289,-210.937500
290,-214.843750
291,-214.843750
292,-218.750000
293,-218.750000
294,-222.656250
295,-222.656250
296,-226.562500
297,-226.562500
298,-230.468750
299,-230.468750
300,-234.375000
301,-234.375000
302,-234.375000
303,-234.375000
304,-238.281250
305,-238.281250
306,-242.187500
307,-242.187500
308,-242.187500
309,-242.187500
310,-246.093750
311,-246.093750
312,-246.093750
313,-250.000000
314,-246.093750
315,-250.000000
316,-250.000000
317,-250.000000
318,-250.000000
319,-250.000000
320,-250.000000
321,-253.906250
322,-253.906250
323,-253.906250
324,-253.906250
325,-253.906250
326,-253.906250
327,-253.906250
328,-253.906250
329,-253.906250
330,-253.906250
331,-253.906250
332,-253.906250
333,-253.906250
334,-250.000000
335,-250.000000
336,-250.000000
337,-250.000000
338,-250.000000
339,-250.000000
340,-250.000000
341,-250.000000
342,-246.093750
343,-246.093750
344,-246.093750
345,-246.093750
346,-246.093750
347,-242.187500
348,-242.187500
349,-242.187500
350,-238.281250
351,-238.281250
352,-238.281250
353,-234.375000
354,-234.375000
355,-234.375000
356,-230.468750
357,-230.468750
358,-226.562500
359,-226.562500
360,-222.656250
361,-222.656250
362,-222.656250
363,-218.750000
364,-218.750000
365,-214.843750
366,-214.843750
367,-210.937500
368,-210.937500
369,-207.031250
370,-207.031250
371,-203.125000
372,-199.218750
373,-199.218750
374,-195.312500
375,-191.406250
376,-191.406250
377,-187.500000
378,-187.500000
379,-183.593750
380,-179.687500
381,-179.687500
382,-175.781250
383,-171.875000
384,-167.968750
385,-167.968750
386,-164.062500
387,-160.156250
388,-156.250000
389,-156.250000
390,-152.343750
391,-148.437500
392,-144.531250
393,-140.625000
394,-140.625000
395,-136.718750
396,-132.812500
397,-128.906250
398,-125.000000
399,-125.000000
400,-121.093750
401,-117.187500
402,-113.281250
403,-109.375000
404,-109.375000
405,-105.468750
406,-101.562500
407,-97.656250
408,-93.750000
409,-89.843750
410,-85.937500
411,-82.031250
412,-82.031250
413,-78.125000
414,-74.218750
415,-70.312500
416,-66.406250
417,-62.500000
418,-58.593750
419,-54.687500
420,-50.781250
421,-50.781250
422,-46.875000
423,-42.968750
424,-39.062500
425,-35.156250
426,-31.250000
427,-31.250000
428,-27.343750
429,-23.437500
430,-19.531250
431,-15.625000
432,-11.718750
433,-7.812500
434,-7.812500
435,-3.906250
436,0.000000
437,3.906250
438,7.812500
439,11.718750
440,11.718750
441,15.625000
442,19.531250
443,23.437500
444,27.343750
445,27.343750
446,35.156250
447,35.156250
448,39.062500
449,39.062500
450,42.968750
451,46.875000
452,50.781250
453,54.687500
454,54.687500
455,58.593750
456,62.500000
457,66.406250
458,66.406250
459,70.312500
460,70.312500
461,74.218750
462,78.125000
463,78.125000
464,82.031250
465,85.937500
466,85.937500
467,89.843750
468,93.750000
469,93.750000
470,97.656250
471,101.562500
472,101.562500
473,101.562500
474,105.468750
475,109.375000
476,109.375000
477,113.281250
478,113.281250
479,117.187500
480,117.187500
481,121.093750
482,121.093750
483,121.093750
484,125.000000
485,125.000000
486,128.906250
487,128.906250
488,132.812500
489,132.812500
490,132.812500
491,136.718750
492,136.718750
493,140.625000
494,140.625000
495,140.625000
496,144.531250
497,144.531250
498,144.531250
499,148.437500
500,148.437500
501,148.437500
502,152.343750
503,152.343750
504,152.343750
505,152.343750
506,156.250000
507,156.250000
508,156.250000
509,160.156250
510,160.156250
511,160.156250
512,160.156250
513,164.062500
514,164.062500
515,164.062500
516,164.062500
517,164.062500
518,164.062500
519,167.968750
520,164.062500
521,167.968750
522,167.968750
523,167.968750
524,167.968750
525,167.968750
526,167.968750
527,167.968750
528,167.968750
529,171.875000
530,171.875000
531,171.875000
532,171.875000
533,171.875000
534,167.968750
535,171.875000
536,171.875000
537,171.875000
538,171.875000
539,171.875000
540,171.875000
541,171.875000
542,171.875000
543,171.875000
544,167.968750
545,167.968750
546,167.968750
547,167.968750
548,167.968750
549,167.968750
550,167.968750
551,167.968750
552,167.968750
553,167.968750
554,164.062500
555,164.062500
556,164.062500
557,164.062500
558,164.062500
559,160.156250
560,160.156250
561,160.156250
562,160.156250
563,160.156250
564,160.156250
565,156.250000
566,156.250000
567,156.250000
568,156.250000
569,152.343750
570,152.343750
571,152.343750
572,148.437500
573,148.437500
574,148.437500
575,148.437500
576,144.531250
577,144.531250
578,140.625000
579,140.625000
580,140.625000
581,136.718750
582,136.718750
583,132.812500
584,132.812500
585,128.906250
586,128.906250
587,128.906250
588,128.906250
589,125.000000
590,121.093750
591,121.093750
592,121.093750
593,117.187500
594,113.281250
595,113.281250
596,109.375000
597,109.375000
598,109.375000
599,105.468750
600,101.562500
601,101.562500
602,97.656250
603,97.656250
604,93.750000
605,89.843750
606,89.843750
607,85.937500
608,82.031250
609,82.031250
610,78.125000
611,78.125000
612,74.218750
613,70.312500
614,66.406250
615,66.406250
616,62.500000
617,58.593750
618,58.593750
619,54.687500
620,50.781250
621,46.875000
622,42.968750
623,42.968750
624,39.062500
625,35.156250
626,35.156250
627,31.250000
628,27.343750
629,23.437500
630,19.531250
631,19.531250
632,15.625000
633,11.718750
634,7.812500
635,3.906250
636,0.000000
637,-3.906250
638,-3.906250
639,-7.812500
640,-11.718750
641,-15.625000
642,-19.531250
643,-23.437500
644,-23.437500
645,-27.343750
646,-31.250000
647,-35.156250
648,-39.062500
649,-42.968750
650,-46.875000
651,-46.875000
652,-50.781250
653,-54.687500
654,-58.593750
655,-62.500000
656,-66.406250
657,-70.312500
658,-74.218750
659,-74.218750
660,-78.125000
661,-82.031250
662,-85.937500
663,-89.843750
664,-93.750000
665,-97.656250
666,-97.656250
667,-101.562500
668,-105.468750
669,-109.375000
670,-113.281250
671,-117.187500
672,-121.093750
673,-121.093750
674,-125.000000
675,-128.906250
676,-132.812500
677,-136.718750
678,-136.718750
679,-140.625000
680,-144.531250
681,-148.437500
682,-152.343750
683,-152.343750
684,-156.250000
685,-160.156250
686,-164.062500
687,-164.062500
688,-167.968750
689,-171.875000
690,-171.875000
691,-175.781250
692,-179.687500
693,-179.687500
694,-183.593750
695,-187.500000
696,-191.406250
697,-191.406250
698,-195.312500
699,-195.312500
700,-199.218750
701,-203.125000
702,-203.125000
703,-207.031250
704,-207.031250
705,-210.937500
706,-210.937500
707,-214.843750
708,-218.750000
709,-218.750000
710,-218.750000
711,-222.656250
712,-222.656250
713,-226.562500
714,-226.562500
715,-230.468750
716,-230.468750
717,-234.375000
718,-234.375000
719,-234.375000
720,-238.281250
721,-238.281250
722,-238.281250
723,-242.187500
724,-242.187500
725,-242.187500
726,-242.187500
727,-246.093750
728,-246.093750
729,-246.093750
730,-250.000000
731,-250.000000
732,-250.000000
733,-250.000000
734,-250.000000
735,-250.000000
736,-253.906250
737,-253.906250
738,-253.906250
739,-253.906250
740,-253.906250
741,-253.906250
742,-253.906250
743,-253.906250
744,-253.906250
745,-253.906250
746,-253.906250
747,-253.906250
748,-253.906250
749,-253.906250
750,-253.906250
751,-253.906250
752,-253.906250
753,-253.906250
754,-250.000000
755,-250.000000
756,-250.000000
757,-250.000000
758,-250.000000
759,-250.000000
760,-246.093750
761,-246.093750
762,-246.093750
763,-246.093750
764,-242.187500
765,-242.187500
766,-242.187500
767,-242.187500
768,-238.281250
769,-238.281250
770,-238.281250
771,-234.375000
772,-234.375000
773,-230.468750
774,-230.468750
775,-226.562500
776,-226.562500
777,-226.562500
778,-222.656250
779,-222.656250
780,-218.750000
781,-218.750000
782,-214.843750
783,-210.937500
784,-210.937500
785,-210.937500
786,-207.031250
787,-203.125000
788,-203.125000
789,-199.218750
790,-199.218750
791,-195.312500
792,-195.312500
793,-191.406250
794,-191.406250
795,-183.593750
796,-183.593750
797,-179.687500
798,-175.781250
799,-175.781250
800,-171.875000
801,-167.968750
802,-167.968750
803,-164.062500
804,-160.156250
805,-156.250000
806,-152.343750
807,-152.343750
808,-148.437500
809,-144.531250
810,-144.531250
811,-140.625000
812,-136.718750
813,-132.812500
814,-128.906250
815,-125.000000
816,-125.000000
817,-121.093750
818,-117.187500
819,-113.281250
820,-109.375000
821,-109.375000
822,-105.468750
823,-101.562500
824,-97.656250
825,-93.750000
826,-89.843750
827,-85.937500
828,-85.937500
829,-82.031250
830,-78.125000
831,-74.218750
832,-70.312500
833,-66.406250
834,-62.500000
835,-58.593750
836,-54.687500
837,-54.687500
838,-50.781250
839,-46.875000
840,-42.968750
841,-39.062500
842,-35.156250
843,-31.250000
844,-27.343750
845,-27.343750
846,-23.437500
847,-19.531250
848,-15.625000
849,-11.718750
850,-7.812500
851,-7.812500
852,-3.906250
853,0.000000
854,3.906250
855,7.812500
856,11.718750
857,15.625000
858,15.625000
859,19.531250
860,23.437500
861,27.343750
862,27.343750
863,31.250000
864,35.156250
865,39.062500
866,42.968750
867,42.968750
868,46.875000
869,50.781250
870,54.687500
871,54.687500
872,58.593750
873,62.500000
874,62.500000
875,66.406250
876,70.312500
877,70.312500
878,74.218750
879,74.218750
880,78.125000
881,82.031250
882,85.937500
883,85.937500
884,89.843750
885,89.843750
886,93.750000
887,97.656250
888,97.656250
889,101.562500
890,101.562500
891,105.468750
892,109.375000
893,109.375000
894,113.281250
895,113.281250
896,117.187500
897,117.187500
898,121.093750
899,121.093750
900,121.093750
901,125.000000
902,125.000000
903,128.906250
904,132.812500
905,132.812500
906,132.812500
907,136.718750
908,136.718750
909,136.718750
910,140.625000
911,140.625000
912,144.531250
913,144.531250
914,144.531250
915,148.437500
916,148.437500
917,148.437500
918,148.437500
919,152.343750
920,152.343750
921,152.343750
922,156.250000
923,156.250000
924,156.250000
925,156.250000
926,160.156250
927,160.156250
928,160.156250
929,160.156250
930,160.156250
931,164.062500
932,164.062500
933,164.062500
934,164.062500
935,164.062500
936,167.968750
937,167.968750
938,167.968750
939,167.968750
940,167.968750
941,167.968750
942,167.968750
943,167.968750
944,167.968750
945,167.968750
946,171.875000
947,171.875000
948,167.968750
949,171.875000
950,171.875000
951,171.875000
952,171.875000
953,171.875000
954,171.875000
955,171.875000
956,171.875000
957,171.875000
958,171.875000
959,167.968750
960,167.968750
961,167.968750
962,167.968750
963,167.968750
964,167.968750
965,167.968750
966,167.968750
967,167.968750
968,167.968750
969,167.968750
970,167.968750
971,164.062500
972,164.062500
973,164.062500
974,164.062500
975,164.062500
976,164.062500
977,160.156250
978,160.156250
979,160.156250
980,160.156250
981,160.156250
982,156.250000
983,156.250000
984,156.250000
985,156.250000
986,152.343750
987,152.343750
988,152.343750
989,152.343750
990,148.437500
991,148.437500
992,148.437500
993,144.531250
994,144.531250
995,140.625000
996,140.625000
997,140.625000
998,136.718750
999,136.718750
1000,136.718750
1001,132.812500
1002,132.812500
1003,128.906250
1004,128.906250
1005,125.000000
1006,125.000000
1007,121.093750
1008,121.093750
1009,117.187500
1010,117.187500
1011,113.281250
1012,113.281250
1013,109.375000
1014,109.375000
1015,105.468750
1016,105.468750
1017,101.562500
1018,101.562500
1019,97.656250
1020,93.750000
1021,93.750000
1022,89.843750
1023,85.937500
1024,85.937500
1025,82.031250
1026,82.031250
1027,78.125000
1028,74.218750
1029,74.218750
1030,70.312500
1031,66.406250
1032,66.406250
1033,62.500000
1034,58.593750
1035,58.593750
1036,54.687500
1037,50.781250
1038,46.875000
1039,46.875000
1040,42.968750
1041,39.062500
1042,35.156250
1043,35.156250
1044,31.250000
1045,27.343750
1046,23.437500
1047,19.531250
1048,15.625000
1049,15.625000
1050,11.718750
1051,7.812500
1052,3.906250
1053,0.000000
1054,-3.906250
1055,-3.906250
1056,-7.812500
1057,-11.718750
1058,-15.625000
1059,-19.531250
1060,-19.531250
1061,-23.437500
1062,-27.343750
1063,-31.250000
1064,-35.156250
1065,-39.062500
1066,-42.968750
1067,-46.875000
1068,-46.875000
1069,-50.781250
1070,-54.687500
1071,-58.593750
1072,-62.500000
1073,-66.406250
1074,-70.312500
1075,-74.218750
1076,-74.218750
1077,-82.031250
1078,-82.031250
1079,-85.937500
1080,-89.843750
1081,-93.750000
1082,-97.656250
1083,-97.656250
1084,-101.562500
1085,-105.468750
1086,-109.375000
1087,-113.281250
1088,-117.187500
1089,-121.093750
1090,-121.093750
1091,-125.000000
1092,-128.906250
1093,-132.812500
1094,-136.718750
1095,-136.718750
1096,-140.625000
1097,-144.531250
1098,-148.437500
1099,-152.343750
1100,-156.250000
1101,-156.250000
1102,-160.156250
1103,-164.062500
1104,-164.062500
1105,-167.968750
1106,-171.875000
1107,-171.875000
1108,-175.781250
1109,-179.687500
1110,-183.593750
1111,-183.593750
1112,-187.500000
1113,-191.406250
1114,-191.406250
1115,-195.312500
1116,-195.312500
1117,-199.218750
1118,-199.218750
1119,-203.125000
1120,-207.031250
1121,-207.031250
1122,-210.937500
1123,-210.937500
1124,-214.843750
1125,-214.843750
1126,-218.750000
1127,-218.750000
1128,-222.656250
1129,-222.656250
1130,-226.562500
1131,-226.562500
1132,-230.468750
1133,-230.468750
1134,-230.468750
1135,-234.375000
1136,-234.375000
1137,-238.281250
1138,-238.281250
1139,-238.281250
1140,-242.187500
1141,-242.187500
1142,-242.187500
1143,-242.187500
1144,-246.093750
1145,-246.093750
1146,-246.093750
1147,-246.093750
1148,-250.000000
1149,-250.000000
1150,-250.000000
1151,-250.000000
1152,-250.000000
1153,-250.000000
1154,-253.906250
1155,-253.906250
1156,-253.906250
1157,-253.906250
1158,-253.906250
1159,-253.906250
1160,-253.906250
1161,-253.906250
1162,-253.906250
1163,-253.906250
1164,-253.906250
1165,-253.906250
1166,-253.906250
1167,-253.906250
1168,-253.906250
1169,-250.000000
1170,-253.906250
1171,-250.000000
1172,-250.000000
1173,-250.000000
1174,-250.000000
1175,-250.000000
1176,-250.000000
1177,-246.093750
1178,-246.093750
1179,-246.093750
1180,-242.187500
1181,-242.187500
1182,-242.187500
1183,-242.187500
1184,-238.281250
1185,-238.281250
1186,-238.281250
1187,-234.375000
1188,-234.375000
1189,-230.468750
1190,-230.468750
1191,-230.468750
1192,-226.562500
1193,-226.562500
1194,-226.562500
1195,-222.656250
1196,-222.656250
1197,-218.750000
1198,-218.750000
1199,-214.843750
1200,-210.937500
1201,-210.937500
1202,-207.031250
1203,-207.031250
1204,-203.125000
1205,-203.125000
1206,-199.218750
1207,-199.218750
1208,-195.312500
1209,-191.406250
1210,-191.406250
1211,-187.500000
1212,-183.593750
1213,-183.593750
1214,-179.687500
1215,-175.781250
1216,-171.875000
1217,-171.875000
1218,-167.968750
1219,-164.062500
1220,-164.062500
1221,-160.156250
1222,-156.250000
1223,-156.250000
1224,-152.343750
1225,-148.437500
1226,-144.531250
1227,-140.625000
1228,-140.625000
1229,-136.718750
1230,-132.812500
1231,-128.906250
1232,-125.000000
1233,-121.093750
1234,-121.093750
1235,-117.187500
1236,-113.281250
1237,-109.375000
1238,-105.468750
1239,-101.562500
1240,-97.656250
1241,-93.750000
1242,-93.750000
1243,-89.843750
1244,-85.937500
1245,-82.031250
1246,-78.125000
1247,-74.218750
1248,-74.218750
1249,-70.312500
1250,-66.406250
1251,-62.500000
1252,-58.593750
1253,-54.687500
1254,-54.687500
1255,-50.781250
1256,-42.968750
1257,-42.968750
1258,-39.062500
1259,-35.156250
1260,-31.250000
1261,-27.343750
1262,-27.343750
1263,-19.531250
1264,-19.531250
1265,-15.625000
1266,-11.718750
1267,-7.812500
1268,-3.906250
1269,0.000000
1270,0.000000
1271,3.906250
1272,7.812500
1273,11.718750
1274,15.625000
1275,19.531250
1276,19.531250
1277,23.437500
1278,27.343750
1279,31.250000
1280,31.250000
1281,35.156250
1282,39.062500
1283,42.968750
1284,42.968750
1285,46.875000
1286,46.875000
1287,54.687500
1288,54.687500
1289,58.593750
1290,62.500000
1291,66.406250
1292,66.406250
