Practicum8/data/opgave5/f2/data_82_004.csv

Channel              :,CH1
Frequency            :,1.200kHz
Period               :,0.833ms
PK-PK                :,304.7mV
Probe attenuation    :,1X
Voltage per ADC value:,0.244141mV
Time interval        :,2.00000us

index,CH1_Voltage(mV)
1,-54.687500
2,-54.687500
3,-54.687500
4,-50.781250
5,-46.875000
6,-46.875000
7,-42.968750
8,-42.968750
9,-39.062500
10,-39.062500
11,-35.156250
12,-31.250000
13,-31.250000
14,-27.343750
15,-27.343750
16,-23.437500
17,-19.531250
18,-19.531250
19,-15.625000
20,-11.718750
21,-11.718750
22,-7.812500
23,-7.812500
24,-3.906250
25,-3.906250
26,0.000000
27,0.000000
28,3.906250
29,7.812500
30,7.812500
31,11.718750
32,11.718750
33,15.625000
34,15.625000
35,19.531250
36,23.437500
37,23.437500
38,27.343750
39,27.343750
40,31.250000
41,31.250000
42,35.156250
43,35.156250
44,39.062500
45,39.062500
46,39.062500
47,42.968750
48,46.875000
49,46.875000
50,46.875000
51,50.781250
52,54.687500
53,54.687500
54,58.593750
55,58.593750
56,58.593750
57,62.500000
58,62.500000
59,66.406250
60,66.406250
61,70.312500
62,70.312500
63,70.312500
64,74.218750
65,74.218750
66,78.125000
67,78.125000
68,78.125000
69,82.031250
70,82.031250
71,85.937500
72,85.937500
73,85.937500
74,89.843750
75,89.843750
76,89.843750
77,93.750000
78,93.750000
79,93.750000
80,97.656250
81,97.656250
82,97.656250
83,101.562500
84,101.562500
85,101.562500
86,101.562500
87,105.468750
88,105.468750
89,105.468750
90,109.375000
91,109.375000
92,109.375000
93,109.375000
94,113.281250
95,113.281250
96,113.281250
97,113.281250
98,113.281250
99,113.281250
100,117.187500
101,117.187500
102,117.187500
103,117.187500
104,117.187500
105,117.187500
106,117.187500
107,121.093750
108,121.093750
109,121.093750
110,121.093750
111,121.093750
112,121.093750
113,121.093750
114,125.000000
115,121.093750
116,125.000000
117,125.000000
118,125.000000
119,125.000000
120,125.000000
121,125.000000
122,125.000000
123,125.000000
124,125.000000
125,125.000000
126,125.000000
127,125.000000
128,125.000000
129,125.000000
130,125.000000
131,125.000000
132,125.000000
133,125.000000
134,125.000000
135,125.000000
136,125.000000
137,121.093750
138,125.000000
139,125.000000
140,125.000000
141,125.000000
142,125.000000
143,121.093750
144,121.093750
145,121.093750
146,121.093750
147,121.093750
148,121.093750
149,121.093750
150,121.093750
151,117.187500
152,117.187500
153,117.187500
154,117.187500
155,109.375000
156,113.281250
157,113.281250
158,113.281250
159,113.281250
160,113.281250
161,113.281250
162,109.375000
163,109.375000
164,109.375000
165,109.375000
166,105.468750
167,105.468750
168,105.468750
169,105.468750
170,101.562500
171,101.562500
172,101.562500
173,97.656250
174,97.656250
175,97.656250
176,93.750000
177,93.750000
178,93.750000
179,89.843750
180,89.843750
181,89.843750
182,85.937500
183,85.937500
184,85.937500
185,82.031250
186,82.031250
187,78.125000
188,78.125000
189,78.125000
190,74.218750
191,74.218750
192,74.218750
193,70.312500
194,70.312500
195,66.406250
196,66.406250
197,62.500000
198,62.500000
199,58.593750
200,58.593750
201,54.687500
202,54.687500
203,54.687500
204,50.781250
205,50.781250
206,46.875000
207,42.968750
208,42.968750
209,39.062500
210,39.062500
211,35.156250
212,35.156250
213,31.250000
214,31.250000
215,27.343750
216,27.343750
217,23.437500
218,23.437500
219,19.531250
220,19.531250
221,15.625000
222,11.718750
223,11.718750
224,7.812500
225,7.812500
226,3.906250
227,3.906250
228,0.000000
229,-3.906250
230,-3.906250
231,-7.812500
232,-7.812500
233,-11.718750
234,-15.625000
235,-15.625000
236,-19.531250
237,-19.531250
238,-23.437500
239,-27.343750
240,-27.343750
241,-31.250000
242,-35.156250
243,-35.156250
244,-39.062500
245,-39.062500
246,-42.968750
247,-42.968750
248,-46.875000
249,-50.781250
250,-50.781250
251,-54.687500
252,-54.687500
253,-58.593750
254,-62.500000
255,-62.500000
256,-66.406250
257,-66.406250
258,-70.312500
259,-70.312500
260,-74.218750
261,-74.218750
262,-78.125000
263,-82.031250
264,-82.031250
265,-85.937500
266,-85.937500
267,-89.843750
268,-93.750000
269,-93.750000
270,-97.656250
271,-97.656250
272,-101.562500
273,-101.562500
274,-105.468750
275,-105.468750
276,-109.375000
277,-109.375000
278,-113.281250
279,-113.281250
280,-117.187500
281,-117.187500
282,-121.093750
283,-121.093750
284,-125.000000
285,-125.000000
286,-125.000000
287,-128.906250
288,-128.906250
289,-132.812500
290,-132.812500
291,-136.718750
292,-136.718750
293,-136.718750
294,-140.625000
295,-140.625000
296,-140.625000
297,-144.531250
298,-144.531250
299,-148.437500
300,-148.437500
301,-148.437500
302,-152.343750
303,-152.343750
304,-152.343750
305,-156.250000
306,-156.250000
307,-156.250000
308,-156.250000
309,-160.156250
310,-160.156250
311,-160.156250
312,-164.062500
313,-164.062500
314,-164.062500
315,-164.062500
316,-164.062500
317,-167.968750
318,-167.968750
319,-167.968750
320,-167.968750
321,-167.968750
322,-167.968750
323,-167.968750
324,-171.875000
325,-171.875000
326,-167.968750
327,-171.875000
328,-171.875000
329,-171.875000
330,-171.875000
331,-171.875000
332,-171.875000
333,-171.875000
334,-171.875000
335,-171.875000
336,-171.875000
337,-171.875000
338,-171.875000
339,-171.875000
340,-171.875000
341,-171.875000
342,-171.875000
343,-171.875000
344,-171.875000
345,-171.875000
346,-171.875000
347,-167.968750
348,-171.875000
349,-167.968750
350,-167.968750
351,-167.968750
352,-167.968750
353,-164.062500
354,-164.062500
355,-164.062500
356,-164.062500
357,-164.062500
358,-160.156250
359,-160.156250
360,-160.156250
361,-160.156250
362,-156.250000
363,-156.250000
364,-156.250000
365,-156.250000
366,-152.343750
367,-152.343750
368,-152.343750
369,-152.343750
370,-148.437500
371,-148.437500
372,-144.531250
373,-144.531250
374,-144.531250
375,-140.625000
376,-140.625000
377,-140.625000
378,-136.718750
379,-136.718750
380,-132.812500
381,-132.812500
382,-132.812500
383,-128.906250
384,-128.906250
385,-125.000000
386,-125.000000
387,-121.093750
388,-121.093750
389,-117.187500
390,-117.187500
391,-117.187500
392,-113.281250
393,-113.281250
394,-109.375000
395,-109.375000
396,-105.468750
397,-101.562500
398,-101.562500
399,-101.562500
400,-97.656250
401,-93.750000
402,-93.750000
403,-89.843750
404,-89.843750
405,-85.937500
406,-85.937500
407,-82.031250
408,-78.125000
409,-78.125000
410,-74.218750
411,-74.218750
412,-70.312500
413,-70.312500
414,-66.406250
415,-66.406250
416,-62.500000
417,-58.593750
418,-58.593750
419,-54.687500
420,-54.687500
421,-50.781250
422,-46.875000
423,-46.875000
424,-42.968750
425,-42.968750
426,-39.062500
427,-39.062500
428,-35.156250
429,-31.250000
430,-31.250000
431,-27.343750
432,-27.343750
433,-23.437500
434,-19.531250
435,-19.531250
436,-15.625000
437,-15.625000
438,-11.718750
439,-7.812500
440,-7.812500
441,-3.906250
442,-3.906250
443,0.000000
444,0.000000
445,3.906250
446,3.906250
447,7.812500
448,11.718750
449,11.718750
450,15.625000
451,15.625000
452,19.531250
453,19.531250
454,23.437500
455,27.343750
456,27.343750
457,27.343750
458,31.250000
459,35.156250
460,35.156250
461,39.062500
462,39.062500
463,42.968750
464,42.968750
465,46.875000
466,46.875000
467,50.781250
468,50.781250
469,54.687500
470,54.687500
471,54.687500
472,58.593750
473,58.593750
474,62.500000
475,62.500000
476,66.406250
477,66.406250
478,70.312500
479,70.312500
480,70.312500
481,74.218750
482,74.218750
483,78.125000
484,78.125000
485,78.125000
486,82.031250
487,82.031250
488,85.937500
489,85.937500
490,85.937500
491,89.843750
492,89.843750
493,89.843750
494,93.750000
495,93.750000
496,93.750000
497,97.656250
498,97.656250
499,97.656250
500,101.562500
501,101.562500
502,101.562500
503,105.468750
504,105.468750
505,105.468750
506,105.468750
507,105.468750
508,105.468750
509,109.375000
510,109.375000
511,109.375000
512,113.281250
513,113.281250
514,113.281250
515,113.281250
516,113.281250
517,113.281250
518,117.187500
519,117.187500
520,117.187500
521,117.187500
522,117.187500
523,117.187500
524,121.093750
525,121.093750
526,121.093750
527,121.093750
528,121.093750
529,121.093750
530,121.093750
531,121.093750
532,125.000000
533,125.000000
534,125.000000
535,125.000000
536,125.000000
537,125.000000
538,125.000000
539,125.000000
540,125.000000
541,125.000000
542,125.000000
543,125.000000
544,125.000000
545,125.000000
546,125.000000
547,125.000000
548,125.000000
549,125.000000
550,125.000000
551,125.000000
552,125.000000
553,125.000000
554,125.000000
555,125.000000
556,125.000000
557,125.000000
558,121.093750
559,121.093750
560,121.093750
561,121.093750
562,121.093750
563,121.093750
564,121.093750
565,121.093750
566,117.187500
567,117.187500
568,117.187500
569,117.187500
570,117.187500
571,117.187500
572,113.281250
573,113.281250
574,113.281250
575,113.281250
576,113.281250
577,109.375000
578,109.375000
579,109.375000
580,109.375000
581,109.375000
582,105.468750
583,105.468750
584,105.468750
585,105.468750
586,101.562500
587,101.562500
588,101.562500
589,101.562500
590,97.656250
591,97.656250
592,97.656250
593,93.750000
594,93.750000
595,93.750000
596,89.843750
597,89.843750
598,89.843750
599,85.937500
600,85.937500
601,85.937500
602,82.031250
603,82.031250
604,78.125000
605,78.125000
606,78.125000
607,74.218750
608,74.218750
609,70.312500
610,70.312500
611,70.312500
612,66.406250
613,66.406250
614,62.500000
615,62.500000
616,58.593750
617,58.593750
618,54.687500
619,54.687500
620,54.687500
621,50.781250
622,46.875000
623,46.875000
624,46.875000
625,42.968750
626,39.062500
627,39.062500
628,35.156250
629,35.156250
630,31.250000
631,31.250000
632,27.343750
633,27.343750
634,23.437500
635,19.531250
636,19.531250
637,19.531250
638,15.625000
639,11.718750
640,11.718750
641,7.812500
642,3.906250
643,3.906250
644,0.000000
645,0.000000
646,-3.906250
647,-3.906250
648,-11.718750
649,-7.812500
650,-11.718750
651,-15.625000
652,-15.625000
653,-19.531250
654,-23.437500
655,-23.437500
656,-27.343750
657,-27.343750
658,-31.250000
659,-31.250000
660,-35.156250
661,-35.156250
662,-39.062500
663,-42.968750
664,-42.968750
665,-46.875000
666,-50.781250
667,-50.781250
668,-54.687500
669,-58.593750
670,-58.593750
671,-62.500000
672,-62.500000
673,-66.406250
674,-70.312500
675,-70.312500
676,-70.312500
677,-74.218750
678,-78.125000
679,-78.125000
680,-82.031250
681,-85.937500
682,-85.937500
683,-85.937500
684,-89.843750
685,-93.750000
686,-93.750000
687,-97.656250
688,-97.656250
689,-101.562500
690,-101.562500
691,-105.468750
692,-105.468750
693,-109.375000
694,-113.281250
695,-113.281250
696,-113.281250
697,-117.187500
698,-117.187500
699,-121.093750
700,-121.093750
701,-125.000000
702,-125.000000
703,-128.906250
704,-128.906250
705,-128.906250
706,-132.812500
707,-132.812500
708,-136.718750
709,-136.718750
710,-140.625000
711,-140.625000
712,-140.625000
713,-144.531250
714,-144.531250
715,-144.531250
716,-148.437500
717,-148.437500
718,-148.437500
719,-152.343750
720,-152.343750
721,-152.343750
722,-152.343750
723,-156.250000
724,-156.250000
725,-156.250000
726,-160.156250
727,-160.156250
728,-160.156250
729,-160.156250
730,-164.062500
731,-164.062500
732,-164.062500
733,-164.062500
734,-164.062500
735,-167.968750
736,-167.968750
737,-167.968750
738,-167.968750
739,-167.968750
740,-167.968750
741,-167.968750
742,-171.875000
743,-171.875000
744,-171.875000
745,-171.875000
746,-171.875000
747,-171.875000
748,-171.875000
749,-171.875000
750,-171.875000
751,-171.875000
752,-171.875000
753,-171.875000
754,-171.875000
755,-171.875000
756,-171.875000
757,-171.875000
758,-171.875000
759,-171.875000
760,-171.875000
761,-171.875000
762,-171.875000
763,-167.968750
764,-171.875000
765,-167.968750
766,-167.968750
767,-167.968750
768,-167.968750
769,-167.968750
770,-167.968750
771,-164.062500
772,-164.062500
773,-164.062500
774,-164.062500
775,-160.156250
776,-160.156250
777,-160.156250
778,-160.156250
779,-160.156250
780,-156.250000
781,-156.250000
782,-156.250000
783,-152.343750
784,-152.343750
785,-152.343750
786,-148.437500
787,-148.437500
788,-148.437500
789,-144.531250
790,-144.531250
791,-144.531250
792,-140.625000
793,-140.625000
794,-136.718750
795,-136.718750
796,-136.718750
797,-132.812500
798,-132.812500
799,-128.906250
800,-128.906250
801,-125.000000
802,-125.000000
803,-125.000000
804,-121.093750
805,-121.093750
806,-117.187500
807,-117.187500
808,-113.281250
809,-113.281250
810,-109.375000
811,-109.375000
812,-105.468750
813,-105.468750
814,-101.562500
815,-101.562500
816,-97.656250
817,-97.656250
818,-93.750000
819,-93.750000
820,-89.843750
821,-85.937500
822,-85.937500
823,-85.937500
824,-82.031250
825,-78.125000
826,-78.125000
827,-74.218750
828,-74.218750
829,-70.312500
830,-70.312500
831,-66.406250
832,-62.500000
833,-62.500000
834,-58.593750
835,-54.687500
836,-54.687500
837,-54.687500
838,-50.781250
839,-46.875000
840,-46.875000
841,-42.968750
842,-42.968750
843,-39.062500
844,-35.156250
845,-35.156250
846,-31.250000
847,-31.250000
848,-27.343750
849,-23.437500
850,-23.437500
851,-19.531250
852,-19.531250
853,-15.625000
854,-11.718750
855,-11.718750
856,-7.812500
857,-7.812500
858,-3.906250
859,-3.906250
860,0.000000
861,3.906250
862,3.906250
863,7.812500
864,11.718750
865,11.718750
866,11.718750
867,15.625000
868,15.625000
869,19.531250
870,23.437500
871,23.437500
872,27.343750
873,27.343750
874,31.250000
875,31.250000
876,35.156250
877,35.156250
878,39.062500
879,39.062500
880,42.968750
881,42.968750
882,46.875000
883,46.875000
884,50.781250
885,50.781250
886,54.687500
887,54.687500
888,54.687500
889,58.593750
890,62.500000
891,62.500000
892,62.500000
893,66.406250
894,66.406250
895,70.312500
896,70.312500
897,74.218750
898,74.218750
899,78.125000
900,78.125000
901,78.125000
902,78.125000
903,82.031250
904,82.031250
905,85.937500
906,85.937500
907,85.937500
908,89.843750
909,89.843750
910,93.750000
911,93.750000
912,93.750000
913,93.750000
914,97.656250
915,97.656250
916,97.656250
917,101.562500
918,101.562500
919,101.562500
920,105.468750
921,105.468750
922,105.468750
923,105.468750
924,109.375000
925,109.375000
926,109.375000
927,109.375000
928,109.375000
929,113.281250
930,113.281250
931,113.281250
932,113.281250
933,113.281250
934,117.187500
935,117.187500
936,117.187500
937,117.187500
938,117.187500
939,117.187500
940,121.093750
941,121.093750
942,121.093750
943,121.093750
944,121.093750
945,121.093750
946,121.093750
947,125.000000
948,121.093750
949,125.000000
950,125.000000
951,125.000000
952,125.000000
953,125.000000
954,125.000000
955,125.000000
956,125.000000
957,125.000000
958,125.000000
959,125.000000
960,125.000000
961,125.000000
962,125.000000
963,125.000000
964,125.000000
965,125.000000
966,125.000000
967,125.000000
968,125.000000
969,125.000000
970,125.000000
971,125.000000
972,125.000000
973,125.000000
974,125.000000
975,121.093750
976,121.093750
977,121.093750
978,121.093750
979,121.093750
980,121.093750
981,121.093750
982,121.093750
983,121.093750
984,117.187500
985,117.187500
986,117.187500
987,117.187500
988,117.187500
989,117.187500
990,113.281250
991,113.281250
992,113.281250
993,113.281250
994,113.281250
995,109.375000
996,109.375000
997,109.375000
998,109.375000
999,105.468750
1000,105.468750
1001,105.468750
1002,105.468750
1003,101.562500
1004,101.562500
1005,101.562500
1006,97.656250
1007,97.656250
1008,97.656250
1009,97.656250
1010,93.750000
1011,93.750000
1012,93.750000
1013,89.843750
1014,89.843750
1015,85.937500
1016,85.937500
1017,85.937500
1018,82.031250
1019,82.031250
1020,82.031250
1021,78.125000
1022,78.125000
1023,78.125000
1024,74.218750
1025,74.218750
1026,70.312500
1027,70.312500
1028,66.406250
1029,66.406250
1030,66.406250
1031,62.500000
1032,62.500000
1033,58.593750
1034,58.593750
1035,54.687500
1036,54.687500
1037,50.781250
1038,50.781250
1039,46.875000
1040,46.875000
1041,42.968750
1042,42.968750
1043,39.062500
1044,39.062500
1045,35.156250
1046,35.156250
1047,31.250000
1048,27.343750
1049,27.343750
1050,23.437500
1051,23.437500
1052,19.531250
1053,19.531250
1054,15.625000
1055,15.625000
1056,11.718750
1057,11.718750
1058,7.812500
1059,7.812500
1060,3.906250
1061,0.000000
1062,0.000000
1063,-3.906250
1064,-3.906250
1065,-7.812500
1066,-11.718750
1067,-11.718750
1068,-15.625000
1069,-15.625000
1070,-19.531250
1071,-23.437500
1072,-23.437500
1073,-27.343750
1074,-27.343750
1075,-31.250000
1076,-35.156250
1077,-35.156250
1078,-39.062500
1079,-42.968750
1080,-42.968750
1081,-46.875000
1082,-46.875000
1083,-50.781250
1084,-54.687500
1085,-54.687500
1086,-58.593750
1087,-62.500000
1088,-62.500000
1089,-62.500000
1090,-66.406250
1091,-70.312500
1092,-74.218750
1093,-74.218750
1094,-74.218750
1095,-78.125000
1096,-82.031250
1097,-82.031250
1098,-85.937500
1099,-85.937500
1100,-89.843750
1101,-89.843750
1102,-93.750000
1103,-93.750000
1104,-97.656250
1105,-101.562500
1106,-101.562500
1107,-105.468750
1108,-105.468750
1109,-109.375000
1110,-109.375000
1111,-109.375000
1112,-113.281250
1113,-117.187500
1114,-117.187500
1115,-117.187500
1116,-121.093750
1117,-121.093750
1118,-125.000000
1119,-125.000000
1120,-128.906250
1121,-128.906250
1122,-132.812500
1123,-132.812500
1124,-132.812500
1125,-136.718750
1126,-136.718750
1127,-140.625000
1128,-140.625000
1129,-140.625000
1130,-144.531250
1131,-144.531250
1132,-144.531250
1133,-148.437500
1134,-148.437500
1135,-152.343750
1136,-152.343750
1137,-152.343750
1138,-156.250000
1139,-156.250000
1140,-156.250000
1141,-156.250000
1142,-160.156250
1143,-160.156250
1144,-160.156250
1145,-160.156250
1146,-160.156250
1147,-164.062500
1148,-164.062500
1149,-164.062500
1150,-164.062500
1151,-167.968750
1152,-167.968750
1153,-167.968750
1154,-167.968750
1155,-167.968750
1156,-167.968750
1157,-167.968750
1158,-167.968750
1159,-171.875000
1160,-171.875000
1161,-171.875000
1162,-171.875000
1163,-171.875000
1164,-171.875000
1165,-171.875000
1166,-171.875000
1167,-171.875000
1168,-171.875000
1169,-171.875000
1170,-171.875000
1171,-171.875000
1172,-171.875000
1173,-171.875000
1174,-171.875000
1175,-171.875000
1176,-171.875000
1177,-171.875000
1178,-171.875000
1179,-171.875000
1180,-171.875000
1181,-167.968750
1182,-167.968750
1183,-167.968750
1184,-167.968750
1185,-167.968750
1186,-167.968750
1187,-164.062500
1188,-164.062500
1189,-164.062500
1190,-164.062500
1191,-164.062500
1192,-160.156250
1193,-160.156250
1194,-160.156250
1195,-160.156250
1196,-156.250000
1197,-156.250000
1198,-156.250000
1199,-152.343750
1200,-152.343750
1201,-152.343750
1202,-148.437500
1203,-148.437500
1204,-148.437500
1205,-144.531250
1206,-144.531250
1207,-144.531250
1208,-144.531250
1209,-140.625000
1210,-140.625000
1211,-140.625000
1212,-136.718750
1213,-132.812500
1214,-132.812500
1215,-132.812500
1216,-128.906250
1217,-128.906250
1218,-128.906250
1219,-125.000000
1220,-121.093750
1221,-121.093750
1222,-121.093750
1223,-117.187500
1224,-117.187500
1225,-113.281250
1226,-113.281250
1227,-109.375000
1228,-109.375000
1229,-105.468750
1230,-105.468750
1231,-101.562500
1232,-101.562500
1233,-97.656250
1234,-97.656250
1235,-93.750000
1236,-93.750000
1237,-89.843750
1238,-85.937500
1239,-85.937500
1240,-82.031250
1241,-82.031250
1242,-78.125000
1243,-78.125000
1244,-74.218750
1245,-74.218750
1246,-70.312500
1247,-66.406250
1248,-66.406250
1249,-62.500000
1250,-58.593750
1251,-58.593750
1252,-58.593750
1253,-54.687500
1254,-50.781250
1255,-50.781250
1256,-46.875000
1257,-42.968750
1258,-42.968750
1259,-39.062500
1260,-39.062500
1261,-35.156250
1262,-31.250000
1263,-31.250000
1264,-27.343750
1265,-27.343750
1266,-23.437500
1267,-23.437500
1268,-19.531250
1269,-19.531250
1270,-15.625000
1271,-11.718750
1272,-11.718750
1273,-7.812500
1274,-3.906250
1275,-3.906250
1276,0.000000
1277,0.000000
1278,3.906250
1279,3.906250
1280,3.906250
1281,7.812500
1282,11.718750
1283,15.625000
1284,15.625000
1285,15.625000
1286,19.531250
1287,23.437500
1288,23.437500
1289,27.343750
1290,27.343750
1291,31.250000
1292,31.250000
1293,35.156250
1294,35.156250
1295,39.062500
1296,39.062500
1297,42.968750
1298,42.968750
1299,46.875000
1300,46.875000
1301,50.781250
1302,50.781250
1303,54.687500
1304,54.687500
1305,58.593750
1306,58.593750
1307,62.500000
