Practicum8/data/opgave5/f2/data_82_007.csv

Channel              :,CH1
Frequency            :,1.200kHz
Period               :,0.833ms
PK-PK                :,226.6mV
Probe attenuation    :,1X
Voltage per ADC value:,0.244141mV
Time interval        :,2.00000us

index,CH1_Voltage(mV)
1,-54.687500
2,-54.687500
3,-50.781250
4,-50.781250
5,-50.781250
6,-46.875000
7,-46.875000
8,-42.968750
9,-42.968750
10,-42.968750
11,-39.062500
12,-35.156250
13,-35.156250
14,-35.156250
15,-31.250000
16,-31.250000
17,-27.343750
18,-27.343750
19,-27.343750
20,-23.437500
21,-23.437500
22,-19.531250
23,-19.531250
24,-15.625000
25,-15.625000
26,-11.718750
27,-11.718750
28,-7.812500
29,-7.812500
30,-7.812500
31,-3.906250
32,-3.906250
33,0.000000
34,0.000000
35,0.000000
36,3.906250
37,3.906250
38,3.906250
39,7.812500
40,7.812500
41,7.812500
42,11.718750
43,11.718750
44,15.625000
45,15.625000
46,15.625000
47,19.531250
48,19.531250
49,19.531250
50,23.437500
51,23.437500
52,23.437500
53,27.343750
54,27.343750
55,27.343750
56,31.250000
57,31.250000
58,35.156250
59,35.156250
60,35.156250
61,35.156250
62,39.062500
63,39.062500
64,42.968750
65,39.062500
66,42.968750
67,42.968750
68,42.968750
69,46.875000
70,46.875000
71,46.875000
72,50.781250
73,50.781250
74,54.687500
75,50.781250
76,50.781250
77,54.687500
78,54.687500
79,54.687500
80,54.687500
81,58.593750
82,58.593750
83,58.593750
84,58.593750
85,58.593750
86,62.500000
87,62.500000
88,62.500000
89,62.500000
90,62.500000
91,66.406250
92,66.406250
93,66.406250
94,66.406250
95,66.406250
96,66.406250
97,66.406250
98,66.406250
99,70.312500
100,70.312500
101,70.312500
102,70.312500
103,70.312500
104,70.312500
105,70.312500
106,70.312500
107,70.312500
108,70.312500
109,74.218750
110,74.218750
111,74.218750
112,74.218750
113,74.218750
114,74.218750
115,74.218750
116,74.218750
117,74.218750
118,74.218750
119,74.218750
120,74.218750
121,74.218750
122,74.218750
123,74.218750
124,74.218750
125,74.218750
126,74.218750
127,74.218750
128,74.218750
129,74.218750
130,74.218750
131,74.218750
132,74.218750
133,74.218750
134,74.218750
135,74.218750
136,74.218750
137,70.312500
138,74.218750
139,70.312500
140,70.312500
141,70.312500
142,70.312500
143,70.312500
144,70.312500
145,70.312500
146,70.312500
147,70.312500
148,70.312500
149,66.406250
150,66.406250
151,66.406250
152,66.406250
153,66.406250
154,66.406250
155,62.500000
156,62.500000
157,62.500000
158,62.500000
159,62.500000
160,58.593750
161,58.593750
162,58.593750
163,58.593750
164,58.593750
165,58.593750
166,54.687500
167,54.687500
168,54.687500
169,54.687500
170,54.687500
171,50.781250
172,50.781250
173,46.875000
174,46.875000
175,46.875000
176,46.875000
177,46.875000
178,42.968750
179,42.968750
180,42.968750
181,39.062500
182,39.062500
183,39.062500
184,35.156250
185,35.156250
186,35.156250
187,31.250000
188,31.250000
189,27.343750
190,31.250000
191,27.343750
192,27.343750
193,23.437500
194,23.437500
195,23.437500
196,19.531250
197,19.531250
198,19.531250
199,15.625000
200,15.625000
201,15.625000
202,11.718750
203,11.718750
204,7.812500
205,7.812500
206,7.812500
207,3.906250
208,3.906250
209,3.906250
210,0.000000
211,0.000000
212,-3.906250
213,-3.906250
214,-7.812500
215,-7.812500
216,-7.812500
217,-11.718750
218,-11.718750
219,-15.625000
220,-15.625000
221,-19.531250
222,-19.531250
223,-23.437500
224,-23.437500
225,-23.437500
226,-27.343750
227,-27.343750
228,-31.250000
229,-31.250000
230,-31.250000
231,-35.156250
232,-35.156250
233,-39.062500
234,-39.062500
235,-42.968750
236,-42.968750
237,-46.875000
238,-46.875000
239,-50.781250
240,-50.781250
241,-50.781250
242,-54.687500
243,-54.687500
244,-58.593750
245,-58.593750
246,-62.500000
247,-62.500000
248,-62.500000
249,-66.406250
250,-66.406250
251,-70.312500
252,-70.312500
253,-74.218750
254,-74.218750
255,-74.218750
256,-78.125000
257,-78.125000
258,-82.031250
259,-82.031250
260,-85.937500
261,-85.937500
262,-85.937500
263,-89.843750
264,-89.843750
265,-89.843750
266,-93.750000
267,-93.750000
268,-97.656250
269,-97.656250
270,-97.656250
271,-101.562500
272,-101.562500
273,-101.562500
274,-105.468750
275,-105.468750
276,-109.375000
277,-109.375000
278,-109.375000
279,-109.375000
280,-113.281250
281,-113.281250
282,-117.187500
283,-117.187500
284,-117.187500
285,-117.187500
286,-121.093750
287,-121.093750
288,-125.000000
289,-125.000000
290,-125.000000
291,-125.000000
292,-125.000000
293,-128.906250
294,-128.906250
295,-128.906250
296,-132.812500
297,-132.812500
298,-132.812500
299,-132.812500
300,-132.812500
301,-136.718750
302,-132.812500
303,-136.718750
304,-136.718750
305,-136.718750
306,-140.625000
307,-140.625000
308,-140.625000
309,-140.625000
310,-140.625000
311,-140.625000
312,-140.625000
313,-140.625000
314,-144.531250
315,-144.531250
316,-144.531250
317,-144.531250
318,-144.531250
319,-148.437500
320,-144.531250
321,-148.437500
322,-148.437500
323,-148.437500
324,-148.437500
325,-148.437500
326,-148.437500
327,-148.437500
328,-148.437500
329,-148.437500
330,-148.437500
331,-148.437500
332,-148.437500
333,-148.437500
334,-148.437500
335,-148.437500
336,-148.437500
337,-148.437500
338,-144.531250
339,-144.531250
340,-144.531250
341,-144.531250
342,-144.531250
343,-144.531250
344,-144.531250
345,-144.531250
346,-144.531250
347,-144.531250
348,-144.531250
349,-140.625000
350,-140.625000
351,-140.625000
352,-140.625000
353,-140.625000
354,-140.625000
355,-136.718750
356,-136.718750
357,-136.718750
358,-136.718750
359,-136.718750
360,-132.812500
361,-132.812500
362,-132.812500
363,-132.812500
364,-132.812500
365,-128.906250
366,-128.906250
367,-128.906250
368,-128.906250
369,-125.000000
370,-125.000000
371,-125.000000
372,-125.000000
373,-121.093750
374,-121.093750
375,-121.093750
376,-117.187500
377,-117.187500
378,-117.187500
379,-117.187500
380,-113.281250
381,-113.281250
382,-109.375000
383,-109.375000
384,-109.375000
385,-105.468750
386,-105.468750
387,-105.468750
388,-101.562500
389,-101.562500
390,-97.656250
391,-97.656250
392,-97.656250
393,-93.750000
394,-93.750000
395,-93.750000
396,-89.843750
397,-89.843750
398,-89.843750
399,-85.937500
400,-85.937500
401,-82.031250
402,-82.031250
403,-82.031250
404,-78.125000
405,-78.125000
406,-74.218750
407,-74.218750
408,-70.312500
409,-70.312500
410,-70.312500
411,-66.406250
412,-66.406250
413,-66.406250
414,-62.500000
415,-58.593750
416,-58.593750
417,-54.687500
418,-54.687500
419,-54.687500
420,-50.781250
421,-50.781250
422,-50.781250
423,-46.875000
424,-46.875000
425,-42.968750
426,-42.968750
427,-39.062500
428,-39.062500
429,-35.156250
430,-35.156250
431,-35.156250
432,-31.250000
433,-31.250000
434,-27.343750
435,-27.343750
436,-27.343750
437,-23.437500
438,-23.437500
439,-19.531250
440,-19.531250
441,-19.531250
442,-15.625000
443,-15.625000
444,-11.718750
445,-11.718750
446,-7.812500
447,-7.812500
448,-7.812500
449,-3.906250
450,-3.906250
451,0.000000
452,0.000000
453,0.000000
454,3.906250
455,3.906250
456,7.812500
457,7.812500
458,7.812500
459,11.718750
460,11.718750
461,15.625000
462,15.625000
463,15.625000
464,19.531250
465,19.531250
466,19.531250
467,23.437500
468,23.437500
469,23.437500
470,27.343750
471,27.343750
472,27.343750
473,31.250000
474,31.250000
475,31.250000
476,35.156250
477,35.156250
478,35.156250
479,39.062500
480,39.062500
481,39.062500
482,39.062500
483,42.968750
484,42.968750
485,42.968750
486,46.875000
487,46.875000
488,46.875000
489,46.875000
490,50.781250
491,50.781250
492,54.687500
493,50.781250
494,50.781250
495,54.687500
496,54.687500
497,54.687500
498,54.687500
499,58.593750
500,58.593750
501,58.593750
502,58.593750
503,58.593750
504,58.593750
505,62.500000
506,62.500000
507,62.500000
508,62.500000
509,66.406250
510,66.406250
511,66.406250
512,66.406250
513,66.406250
514,66.406250
515,66.406250
516,70.312500
517,70.312500
518,70.312500
519,70.312500
520,70.312500
521,70.312500
522,70.312500
523,70.312500
524,70.312500
525,70.312500
526,74.218750
527,70.312500
528,74.218750
529,74.218750
530,74.218750
531,74.218750
532,74.218750
533,74.218750
534,74.218750
535,74.218750
536,74.218750
537,74.218750
538,74.218750
539,74.218750
540,74.218750
541,74.218750
542,74.218750
543,74.218750
544,74.218750
545,74.218750
546,74.218750
547,74.218750
548,74.218750
549,74.218750
550,74.218750
551,74.218750
552,74.218750
553,74.218750
554,74.218750
555,74.218750
556,70.312500
557,70.312500
558,70.312500
559,70.312500
560,70.312500
561,70.312500
562,70.312500
563,70.312500
564,66.406250
565,66.406250
566,66.406250
567,66.406250
568,66.406250
569,66.406250
570,66.406250
571,66.406250
572,62.500000
573,62.500000
574,62.500000
575,62.500000
576,62.500000
577,58.593750
578,58.593750
579,58.593750
580,58.593750
581,58.593750
582,54.687500
583,54.687500
584,54.687500
585,54.687500
586,50.781250
587,50.781250
588,50.781250
589,50.781250
590,46.875000
591,46.875000
592,46.875000
593,46.875000
594,42.968750
595,42.968750
596,42.968750
597,42.968750
598,39.062500
599,39.062500
600,39.062500
601,35.156250
602,35.156250
603,35.156250
604,31.250000
605,31.250000
606,31.250000
607,27.343750
608,27.343750
609,27.343750
610,23.437500
611,23.437500
612,23.437500
613,19.531250
614,19.531250
615,19.531250
616,15.625000
617,15.625000
618,11.718750
619,11.718750
620,11.718750
621,7.812500
622,7.812500
623,3.906250
624,3.906250
625,3.906250
626,0.000000
627,0.000000
628,-3.906250
629,-3.906250
630,-3.906250
631,-7.812500
632,-7.812500
633,-7.812500
634,-11.718750
635,-11.718750
636,-15.625000
637,-15.625000
638,-19.531250
639,-19.531250
640,-23.437500
641,-23.437500
642,-23.437500
643,-27.343750
644,-27.343750
645,-31.250000
646,-31.250000
647,-31.250000
648,-35.156250
649,-39.062500
650,-39.062500
651,-39.062500
652,-42.968750
653,-42.968750
654,-46.875000
655,-46.875000
656,-50.781250
657,-50.781250
658,-50.781250
659,-54.687500
660,-54.687500
661,-58.593750
662,-58.593750
663,-62.500000
664,-62.500000
665,-62.500000
666,-66.406250
667,-66.406250
668,-70.312500
669,-70.312500
670,-70.312500
671,-74.218750
672,-78.125000
673,-78.125000
674,-78.125000
675,-82.031250
676,-82.031250
677,-85.937500
678,-85.937500
679,-85.937500
680,-89.843750
681,-89.843750
682,-93.750000
683,-93.750000
684,-93.750000
685,-97.656250
686,-97.656250
687,-101.562500
688,-101.562500
689,-101.562500
690,-101.562500
691,-105.468750
692,-105.468750
693,-109.375000
694,-109.375000
695,-109.375000
696,-113.281250
697,-113.281250
698,-117.187500
699,-117.187500
700,-117.187500
701,-117.187500
702,-121.093750
703,-121.093750
704,-121.093750
705,-121.093750
706,-125.000000
707,-125.000000
708,-125.000000
709,-128.906250
710,-128.906250
711,-128.906250
712,-128.906250
713,-132.812500
714,-132.812500
715,-132.812500
716,-132.812500
717,-136.718750
718,-136.718750
719,-136.718750
720,-136.718750
721,-136.718750
722,-136.718750
723,-140.625000
724,-140.625000
725,-140.625000
726,-140.625000
727,-144.531250
728,-144.531250
729,-144.531250
730,-144.531250
731,-144.531250
732,-144.531250
733,-144.531250
734,-144.531250
735,-144.531250
736,-144.531250
737,-144.531250
738,-148.437500
739,-148.437500
740,-148.437500
741,-148.437500
742,-148.437500
743,-148.437500
744,-148.437500
745,-148.437500
746,-148.437500
747,-148.437500
748,-148.437500
749,-148.437500
750,-148.437500
751,-148.437500
752,-148.437500
753,-148.437500
754,-148.437500
755,-148.437500
756,-148.437500
757,-148.437500
758,-144.531250
759,-144.531250
760,-144.531250
761,-144.531250
762,-144.531250
763,-144.531250
764,-144.531250
765,-144.531250
766,-144.531250
767,-140.625000
768,-140.625000
769,-140.625000
770,-140.625000
771,-140.625000
772,-140.625000
773,-136.718750
774,-136.718750
775,-136.718750
776,-136.718750
777,-132.812500
778,-132.812500
779,-132.812500
780,-132.812500
781,-132.812500
782,-128.906250
783,-128.906250
784,-128.906250
785,-128.906250
786,-125.000000
787,-125.000000
788,-125.000000
789,-121.093750
790,-121.093750
791,-121.093750
792,-121.093750
793,-117.187500
794,-117.187500
795,-117.187500
796,-113.281250
797,-113.281250
798,-113.281250
799,-109.375000
800,-109.375000
801,-109.375000
802,-105.468750
803,-105.468750
804,-105.468750
805,-101.562500
806,-101.562500
807,-101.562500
808,-97.656250
809,-97.656250
810,-93.750000
811,-93.750000
812,-89.843750
813,-89.843750
814,-89.843750
815,-85.937500
816,-85.937500
817,-85.937500
818,-82.031250
819,-82.031250
820,-78.125000
821,-78.125000
822,-78.125000
823,-74.218750
824,-74.218750
825,-70.312500
826,-70.312500
827,-66.406250
828,-66.406250
829,-66.406250
830,-62.500000
831,-62.500000
832,-58.593750
833,-58.593750
834,-54.687500
835,-54.687500
836,-54.687500
837,-50.781250
838,-50.781250
839,-46.875000
840,-46.875000
841,-42.968750
842,-42.968750
843,-42.968750
844,-39.062500
845,-39.062500
846,-39.062500
847,-35.156250
848,-31.250000
849,-31.250000
850,-31.250000
851,-27.343750
852,-27.343750
853,-23.437500
854,-23.437500
855,-23.437500
856,-19.531250
857,-19.531250
858,-15.625000
859,-15.625000
860,-11.718750
861,-11.718750
862,-7.812500
863,-7.812500
864,-7.812500
865,-3.906250
866,-3.906250
867,-3.906250
868,0.000000
869,0.000000
870,3.906250
871,3.906250
872,7.812500
873,7.812500
874,7.812500
875,11.718750
876,11.718750
877,11.718750
878,15.625000
879,15.625000
880,15.625000
881,19.531250
882,19.531250
883,19.531250
884,23.437500
885,23.437500
886,27.343750
887,27.343750
888,27.343750
889,31.250000
890,31.250000
891,31.250000
892,31.250000
893,35.156250
894,35.156250
895,35.156250
896,39.062500
897,39.062500
898,39.062500
899,42.968750
900,42.968750
901,42.968750
902,42.968750
903,46.875000
904,46.875000
905,46.875000
906,46.875000
907,50.781250
908,50.781250
909,50.781250
910,54.687500
911,54.687500
912,54.687500
913,54.687500
914,54.687500
915,58.593750
916,58.593750
917,58.593750
918,58.593750
919,58.593750
920,62.500000
921,62.500000
922,62.500000
923,62.500000
924,62.500000
925,66.406250
926,66.406250
927,66.406250
928,66.406250
929,66.406250
930,66.406250
931,70.312500
932,70.312500
933,70.312500
934,70.312500
935,70.312500
936,70.312500
937,70.312500
938,70.312500
939,70.312500
940,74.218750
941,74.218750
942,70.312500
943,74.218750
944,74.218750
945,74.218750
946,74.218750
947,74.218750
948,74.218750
949,74.218750
950,74.218750
951,74.218750
952,74.218750
953,74.218750
954,74.218750
955,74.218750
956,74.218750
957,74.218750
958,74.218750
959,74.218750
960,74.218750
961,74.218750
962,74.218750
963,74.218750
964,74.218750
965,74.218750
966,74.218750
967,74.218750
968,74.218750
969,74.218750
970,74.218750
971,74.218750
972,74.218750
973,70.312500
974,70.312500
975,70.312500
976,70.312500
977,70.312500
978,70.312500
979,70.312500
980,66.406250
981,70.312500
982,66.406250
983,70.312500
984,66.406250
985,66.406250
986,66.406250
987,66.406250
988,66.406250
989,62.500000
990,62.500000
991,62.500000
992,62.500000
993,62.500000
994,58.593750
995,58.593750
996,58.593750
997,58.593750
998,58.593750
999,54.687500
1000,54.687500
1001,54.687500
1002,54.687500
1003,50.781250
1004,50.781250
1005,50.781250
1006,50.781250
1007,46.875000
1008,46.875000
1009,46.875000
1010,46.875000
1011,42.968750
1012,42.968750
1013,42.968750
1014,39.062500
1015,39.062500
1016,39.062500
1017,39.062500
1018,35.156250
1019,35.156250
1020,35.156250
1021,31.250000
1022,31.250000
1023,27.343750
1024,27.343750
1025,27.343750
1026,23.437500
1027,23.437500
1028,23.437500
1029,19.531250
1030,19.531250
1031,19.531250
1032,15.625000
1033,15.625000
1034,15.625000
1035,11.718750
1036,11.718750
1037,7.812500
1038,7.812500
1039,7.812500
1040,3.906250
1041,3.906250
1042,0.000000
1043,0.000000
1044,0.000000
1045,0.000000
1046,-3.906250
1047,-3.906250
1048,-7.812500
1049,-7.812500
1050,-11.718750
1051,-11.718750
1052,-11.718750
1053,-15.625000
1054,-15.625000
1055,-19.531250
1056,-19.531250
1057,-23.437500
1058,-23.437500
1059,-23.437500
1060,-27.343750
1061,-27.343750
1062,-31.250000
1063,-31.250000
1064,-35.156250
1065,-35.156250
1066,-39.062500
1067,-39.062500
1068,-42.968750
1069,-42.968750
1070,-42.968750
1071,-46.875000
1072,-46.875000
1073,-50.781250
1074,-50.781250
1075,-54.687500
1076,-54.687500
1077,-58.593750
1078,-58.593750
1079,-62.500000
1080,-62.500000
1081,-62.500000
1082,-66.406250
1083,-66.406250
1084,-66.406250
1085,-70.312500
1086,-74.218750
1087,-74.218750
1088,-74.218750
1089,-78.125000
1090,-78.125000
1091,-82.031250
1092,-82.031250
1093,-82.031250
1094,-85.937500
1095,-85.937500
1096,-89.843750
1097,-89.843750
1098,-93.750000
1099,-93.750000
1100,-93.750000
1101,-97.656250
1102,-97.656250
1103,-97.656250
1104,-101.562500
1105,-101.562500
1106,-101.562500
1107,-105.468750
1108,-105.468750
1109,-105.468750
1110,-109.375000
1111,-109.375000
1112,-113.281250
1113,-117.187500
1114,-113.281250
1115,-117.187500
1116,-117.187500
1117,-117.187500
1118,-117.187500
1119,-121.093750
1120,-121.093750
1121,-121.093750
1122,-125.000000
1123,-125.000000
1124,-125.000000
1125,-125.000000
1126,-128.906250
1127,-128.906250
1128,-128.906250
1129,-128.906250
1130,-132.812500
1131,-132.812500
1132,-132.812500
1133,-132.812500
1134,-136.718750
1135,-136.718750
1136,-136.718750
1137,-136.718750
1138,-140.625000
1139,-136.718750
1140,-140.625000
1141,-140.625000
1142,-140.625000
1143,-140.625000
1144,-144.531250
1145,-144.531250
1146,-144.531250
1147,-144.531250
1148,-144.531250
1149,-144.531250
1150,-144.531250
1151,-144.531250
1152,-144.531250
1153,-144.531250
1154,-144.531250
1155,-148.437500
1156,-148.437500
1157,-148.437500
1158,-148.437500
1159,-148.437500
1160,-148.437500
1161,-148.437500
1162,-148.437500
1163,-148.437500
1164,-148.437500
1165,-148.437500
1166,-148.437500
1167,-148.437500
1168,-148.437500
1169,-148.437500
1170,-148.437500
1171,-148.437500
1172,-144.531250
1173,-148.437500
1174,-144.531250
1175,-144.531250
1176,-144.531250
1177,-144.531250
1178,-144.531250
1179,-144.531250
1180,-144.531250
1181,-140.625000
1182,-140.625000
1183,-140.625000
1184,-140.625000
1185,-140.625000
1186,-140.625000
1187,-140.625000
1188,-136.718750
1189,-136.718750
1190,-136.718750
1191,-136.718750
1192,-136.718750
1193,-136.718750
1194,-128.906250
1195,-132.812500
1196,-132.812500
1197,-132.812500
1198,-128.906250
1199,-128.906250
1200,-128.906250
1201,-128.906250
1202,-125.000000
1203,-125.000000
1204,-125.000000
1205,-125.000000
1206,-121.093750
1207,-121.093750
1208,-121.093750
1209,-121.093750
1210,-117.187500
1211,-117.187500
1212,-117.187500
1213,-113.281250
1214,-113.281250
1215,-113.281250
1216,-109.375000
1217,-109.375000
1218,-109.375000
1219,-105.468750
1220,-105.468750
1221,-101.562500
1222,-101.562500
1223,-101.562500
1224,-97.656250
1225,-97.656250
1226,-97.656250
1227,-93.750000
1228,-93.750000
1229,-93.750000
1230,-89.843750
1231,-89.843750
1232,-85.937500
1233,-85.937500
1234,-85.937500
1235,-82.031250
1236,-82.031250
1237,-78.125000
1238,-78.125000
1239,-74.218750
1240,-74.218750
1241,-74.218750
1242,-70.312500
1243,-70.312500
1244,-70.312500
1245,-66.406250
1246,-62.500000
1247,-62.500000
1248,-62.500000
1249,-58.593750
1250,-58.593750
1251,-54.687500
1252,-54.687500
1253,-54.687500
1254,-50.781250
1255,-50.781250
1256,-46.875000
1257,-46.875000
1258,-42.968750
1259,-42.968750
1260,-42.968750
1261,-39.062500
1262,-39.062500
1263,-35.156250
1264,-35.156250
1265,-31.250000
1266,-31.250000
1267,-31.250000
1268,-27.343750
1269,-27.343750
1270,-23.437500
1271,-23.437500
1272,-19.531250
1273,-19.531250
1274,-19.531250
1275,-15.625000
1276,-15.625000
1277,-11.718750
1278,-11.718750
1279,-11.718750
1280,-7.812500
1281,-7.812500
1282,-3.906250
1283,-3.906250
1284,-3.906250
1285,0.000000
1286,0.000000
1287,3.906250
1288,3.906250
1289,3.906250
1290,7.812500
1291,7.812500
1292,11.718750
1293,11.718750
1294,11.718750
1295,11.718750
1296,19.531250
1297,15.625000
1298,19.531250
1299,19.531250
1300,19.531250
1301,23.437500
1302,23.437500
1303,23.437500
1304,27.343750
1305,27.343750
1306,31.250000
1307,31.250000
1308,31.250000
1309,31.250000
1310,35.156250
1311,35.156250
1312,39.062500
1313,39.062500
1314,39.062500
1315,39.062500
1316,42.968750
1317,42.968750
1318,42.968750
1319,42.968750
1320,46.875000
1321,46.875000
1322,46.875000
1323,46.875000
