Practicum8/data/opgave5/f2/data_82_002.csv

Channel              :,CH1
Frequency            :,1.200kHz
Period               :,0.833ms
PK-PK                :,507.8mV
Probe attenuation    :,1X
Voltage per ADC value:,0.244141mV
Time interval        :,2.00000us

index,CH1_Voltage(mV)
1,-58.593750
2,-58.593750
3,-54.687500
4,-50.781250
5,-46.875000
6,-42.968750
7,-39.062500
8,-35.156250
9,-31.250000
10,-27.343750
11,-23.437500
12,-19.531250
13,-15.625000
14,-11.718750
15,-7.812500
16,-3.906250
17,0.000000
18,3.906250
19,7.812500
20,11.718750
21,15.625000
22,19.531250
23,23.437500
24,27.343750
25,31.250000
26,35.156250
27,39.062500
28,42.968750
29,46.875000
30,46.875000
31,50.781250
32,54.687500
33,58.593750
34,62.500000
35,66.406250
36,66.406250
37,70.312500
38,74.218750
39,78.125000
40,82.031250
41,85.937500
42,85.937500
43,89.843750
44,93.750000
45,97.656250
46,97.656250
47,101.562500
48,101.562500
49,105.468750
50,109.375000
51,113.281250
52,113.281250
53,117.187500
54,121.093750
55,121.093750
56,125.000000
57,125.000000
58,128.906250
59,132.812500
60,132.812500
61,136.718750
62,136.718750
63,140.625000
64,140.625000
65,144.531250
66,144.531250
67,148.437500
68,148.437500
69,152.343750
70,152.343750
71,152.343750
72,156.250000
73,156.250000
74,160.156250
75,160.156250
76,160.156250
77,160.156250
78,164.062500
79,164.062500
80,167.968750
81,167.968750
82,167.968750
83,171.875000
84,171.875000
85,171.875000
86,171.875000
87,171.875000
88,175.781250
89,175.781250
90,175.781250
91,175.781250
92,179.687500
93,179.687500
94,179.687500
95,179.687500
96,179.687500
97,183.593750
98,183.593750
99,183.593750
100,183.593750
101,183.593750
102,183.593750
103,183.593750
104,183.593750
105,183.593750
106,187.500000
107,187.500000
108,187.500000
109,183.593750
110,187.500000
111,187.500000
112,187.500000
113,187.500000
114,187.500000
115,187.500000
116,187.500000
117,187.500000
118,187.500000
119,183.593750
120,183.593750
121,183.593750
122,183.593750
123,183.593750
124,183.593750
125,183.593750
126,183.593750
127,183.593750
128,183.593750
129,179.687500
130,179.687500
131,179.687500
132,179.687500
133,179.687500
134,179.687500
135,175.781250
136,179.687500
137,175.781250
138,175.781250
139,175.781250
140,175.781250
141,171.875000
142,171.875000
143,171.875000
144,171.875000
145,167.968750
146,167.968750
147,164.062500
148,164.062500
149,164.062500
150,160.156250
151,160.156250
152,160.156250
153,160.156250
154,156.250000
155,156.250000
156,152.343750
157,152.343750
158,148.437500
159,148.437500
160,144.531250
161,144.531250
162,144.531250
163,140.625000
164,140.625000
165,136.718750
166,132.812500
167,132.812500
168,128.906250
169,128.906250
170,125.000000
171,125.000000
172,121.093750
173,117.187500
174,117.187500
175,113.281250
176,109.375000
177,109.375000
178,105.468750
179,101.562500
180,101.562500
181,97.656250
182,93.750000
183,93.750000
184,89.843750
185,85.937500
186,85.937500
187,82.031250
188,78.125000
189,74.218750
190,70.312500
191,70.312500
192,62.500000
193,62.500000
194,54.687500
195,54.687500
196,50.781250
197,46.875000
198,42.968750
199,42.968750
200,39.062500
201,35.156250
202,31.250000
203,35.156250
204,23.437500
205,19.531250
206,15.625000
207,11.718750
208,7.812500
209,3.906250
210,0.000000
211,-3.906250
212,-7.812500
213,-11.718750
214,-15.625000
215,-19.531250
216,-23.437500
217,-27.343750
218,-31.250000
219,-35.156250
220,-39.062500
221,-42.968750
222,-46.875000
223,-50.781250
224,-54.687500
225,-58.593750
226,-62.500000
227,-66.406250
228,-70.312500
229,-78.125000
230,-82.031250
231,-85.937500
232,-89.843750
233,-93.750000
234,-97.656250
235,-101.562500
236,-105.468750
237,-109.375000
238,-113.281250
239,-117.187500
240,-121.093750
241,-128.906250
242,-128.906250
243,-132.812500
244,-136.718750
245,-140.625000
246,-144.531250
247,-148.437500
248,-152.343750
249,-156.250000
250,-160.156250
251,-164.062500
252,-167.968750
253,-171.875000
254,-175.781250
255,-179.687500
256,-183.593750
257,-187.500000
258,-191.406250
259,-195.312500
260,-199.218750
261,-199.218750
262,-203.125000
263,-207.031250
264,-210.937500
265,-214.843750
266,-218.750000
267,-222.656250
268,-226.562500
269,-226.562500
270,-230.468750
271,-234.375000
272,-238.281250
273,-238.281250
274,-242.187500
275,-246.093750
276,-250.000000
277,-253.906250
278,-253.906250
279,-257.812500
280,-261.718750
281,-261.718750
282,-265.625000
283,-269.531250
284,-269.531250
285,-273.437500
286,-277.343750
287,-277.343750
288,-277.343750
289,-281.250000
290,-285.156250
291,-285.156250
292,-289.062500
293,-289.062500
294,-289.062500
295,-292.968750
296,-292.968750
297,-296.875000
298,-296.875000
299,-300.781250
300,-300.781250
301,-300.781250
302,-304.687500
303,-304.687500
304,-308.593750
305,-308.593750
306,-308.593750
307,-308.593750
308,-312.500000
309,-312.500000
310,-312.500000
311,-312.500000
312,-312.500000
313,-312.500000
314,-316.406250
315,-316.406250
316,-316.406250
317,-316.406250
318,-316.406250
319,-316.406250
320,-316.406250
321,-316.406250
322,-316.406250
323,-316.406250
324,-316.406250
325,-316.406250
326,-316.406250
327,-316.406250
328,-316.406250
329,-316.406250
330,-312.500000
331,-316.406250
332,-312.500000
333,-312.500000
334,-312.500000
335,-312.500000
336,-312.500000
337,-308.593750
338,-308.593750
339,-308.593750
340,-304.687500
341,-304.687500
342,-304.687500
343,-304.687500
344,-300.781250
345,-300.781250
346,-300.781250
347,-296.875000
348,-296.875000
349,-292.968750
350,-292.968750
351,-289.062500
352,-289.062500
353,-285.156250
354,-285.156250
355,-281.250000
356,-281.250000
357,-277.343750
358,-277.343750
359,-273.437500
360,-269.531250
361,-265.625000
362,-265.625000
363,-261.718750
364,-261.718750
365,-257.812500
366,-253.906250
367,-253.906250
368,-250.000000
369,-246.093750
370,-246.093750
371,-242.187500
372,-238.281250
373,-234.375000
374,-230.468750
375,-226.562500
376,-226.562500
377,-222.656250
378,-218.750000
379,-214.843750
380,-210.937500
381,-207.031250
382,-203.125000
383,-203.125000
384,-199.218750
385,-195.312500
386,-191.406250
387,-187.500000
388,-183.593750
389,-179.687500
390,-175.781250
391,-171.875000
392,-167.968750
393,-164.062500
394,-160.156250
395,-156.250000
396,-152.343750
397,-148.437500
398,-144.531250
399,-140.625000
400,-136.718750
401,-132.812500
402,-128.906250
403,-125.000000
404,-121.093750
405,-113.281250
406,-109.375000
407,-105.468750
408,-101.562500
409,-97.656250
410,-93.750000
411,-89.843750
412,-85.937500
413,-82.031250
414,-78.125000
415,-74.218750
416,-70.312500
417,-66.406250
418,-62.500000
419,-58.593750
420,-54.687500
421,-50.781250
422,-46.875000
423,-42.968750
424,-39.062500
425,-35.156250
426,-31.250000
427,-23.437500
428,-19.531250
429,-19.531250
430,-11.718750
431,-7.812500
432,-7.812500
433,0.000000
434,3.906250
435,7.812500
436,7.812500
437,11.718750
438,19.531250
439,23.437500
440,23.437500
441,27.343750
442,31.250000
443,35.156250
444,39.062500
445,42.968750
446,46.875000
447,50.781250
448,54.687500
449,54.687500
450,58.593750
451,62.500000
452,66.406250
453,70.312500
454,74.218750
455,74.218750
456,78.125000
457,82.031250
458,85.937500
459,85.937500
460,89.843750
461,93.750000
462,97.656250
463,101.562500
464,101.562500
465,105.468750
466,105.468750
467,109.375000
468,113.281250
469,113.281250
470,117.187500
471,121.093750
472,121.093750
473,125.000000
474,128.906250
475,128.906250
476,132.812500
477,132.812500
478,136.718750
479,136.718750
480,136.718750
481,140.625000
482,144.531250
483,144.531250
484,144.531250
485,148.437500
486,152.343750
487,152.343750
488,152.343750
489,156.250000
490,156.250000
491,156.250000
492,160.156250
493,160.156250
494,160.156250
495,164.062500
496,164.062500
497,167.968750
498,167.968750
499,167.968750
500,171.875000
501,171.875000
502,171.875000
503,171.875000
504,175.781250
505,171.875000
506,175.781250
507,175.781250
508,175.781250
509,179.687500
510,179.687500
511,179.687500
512,179.687500
513,179.687500
514,183.593750
515,183.593750
516,183.593750
517,183.593750
518,183.593750
519,183.593750
520,183.593750
521,183.593750
522,187.500000
523,187.500000
524,187.500000
525,187.500000
526,187.500000
527,187.500000
528,187.500000
529,183.593750
530,187.500000
531,187.500000
532,187.500000
533,183.593750
534,187.500000
535,183.593750
536,187.500000
537,187.500000
538,183.593750
539,183.593750
540,183.593750
541,183.593750
542,183.593750
543,183.593750
544,183.593750
545,183.593750
546,179.687500
547,179.687500
548,179.687500
549,179.687500
550,179.687500
551,179.687500
552,175.781250
553,175.781250
554,175.781250
555,175.781250
556,175.781250
557,171.875000
558,171.875000
559,171.875000
560,167.968750
561,167.968750
562,167.968750
563,167.968750
564,164.062500
565,164.062500
566,164.062500
567,160.156250
568,160.156250
569,160.156250
570,156.250000
571,156.250000
572,156.250000
573,152.343750
574,152.343750
575,148.437500
576,148.437500
577,144.531250
578,144.531250
579,140.625000
580,140.625000
581,136.718750
582,136.718750
583,132.812500
584,132.812500
585,128.906250
586,128.906250
587,125.000000
588,121.093750
589,121.093750
590,117.187500
591,117.187500
592,113.281250
593,113.281250
594,109.375000
595,105.468750
596,101.562500
597,101.562500
598,97.656250
599,93.750000
600,89.843750
601,89.843750
602,85.937500
603,82.031250
604,78.125000
605,78.125000
606,74.218750
607,70.312500
608,66.406250
609,62.500000
610,58.593750
611,58.593750
612,54.687500
613,50.781250
614,46.875000
615,42.968750
616,39.062500
617,35.156250
618,31.250000
619,27.343750
620,27.343750
621,19.531250
622,19.531250
623,15.625000
624,11.718750
625,7.812500
626,3.906250
627,0.000000
628,-3.906250
629,-7.812500
630,-11.718750
631,-15.625000
632,-19.531250
633,-27.343750
634,-27.343750
635,-31.250000
636,-35.156250
637,-39.062500
638,-42.968750
639,-46.875000
640,-50.781250
641,-54.687500
642,-58.593750
643,-66.406250
644,-70.312500
645,-74.218750
646,-78.125000
647,-82.031250
648,-85.937500
649,-89.843750
650,-93.750000
651,-97.656250
652,-101.562500
653,-105.468750
654,-109.375000
655,-113.281250
656,-117.187500
657,-121.093750
658,-125.000000
659,-128.906250
660,-132.812500
661,-140.625000
662,-140.625000
663,-144.531250
664,-148.437500
665,-152.343750
666,-156.250000
667,-160.156250
668,-164.062500
669,-167.968750
670,-175.781250
671,-175.781250
672,-179.687500
673,-183.593750
674,-187.500000
675,-191.406250
676,-195.312500
677,-199.218750
678,-203.125000
679,-207.031250
680,-210.937500
681,-210.937500
682,-214.843750
683,-218.750000
684,-222.656250
685,-226.562500
686,-230.468750
687,-234.375000
688,-234.375000
689,-238.281250
690,-242.187500
691,-242.187500
692,-246.093750
693,-250.000000
694,-253.906250
695,-253.906250
696,-257.812500
697,-261.718750
698,-261.718750
699,-265.625000
700,-269.531250
701,-269.531250
702,-273.437500
703,-273.437500
704,-277.343750
705,-281.250000
706,-281.250000
707,-285.156250
708,-285.156250
709,-289.062500
710,-289.062500
711,-292.968750
712,-292.968750
713,-296.875000
714,-296.875000
715,-296.875000
716,-300.781250
717,-300.781250
718,-300.781250
719,-304.687500
720,-304.687500
721,-308.593750
722,-308.593750
723,-308.593750
724,-308.593750
725,-312.500000
726,-312.500000
727,-312.500000
728,-312.500000
729,-312.500000
730,-312.500000
731,-316.406250
732,-316.406250
733,-316.406250
734,-316.406250
735,-316.406250
736,-316.406250
737,-316.406250
738,-316.406250
739,-316.406250
740,-316.406250
741,-316.406250
742,-316.406250
743,-316.406250
744,-316.406250
745,-316.406250
746,-316.406250
747,-316.406250
748,-312.500000
749,-312.500000
750,-312.500000
751,-312.500000
752,-312.500000
753,-308.593750
754,-308.593750
755,-308.593750
756,-308.593750
757,-304.687500
758,-304.687500
759,-304.687500
760,-300.781250
761,-300.781250
762,-300.781250
763,-300.781250
764,-296.875000
765,-292.968750
766,-292.968750
767,-289.062500
768,-289.062500
769,-285.156250
770,-285.156250
771,-281.250000
772,-281.250000
773,-277.343750
774,-277.343750
775,-273.437500
776,-273.437500
777,-269.531250
778,-269.531250
779,-265.625000
780,-261.718750
781,-257.812500
782,-257.812500
783,-253.906250
784,-250.000000
785,-250.000000
786,-246.093750
787,-242.187500
788,-238.281250
789,-238.281250
790,-234.375000
791,-230.468750
792,-226.562500
793,-222.656250
794,-222.656250
795,-214.843750
796,-214.843750
797,-210.937500
798,-207.031250
799,-203.125000
800,-199.218750
801,-195.312500
802,-191.406250
803,-191.406250
804,-187.500000
805,-183.593750
806,-179.687500
807,-175.781250
808,-171.875000
809,-167.968750
810,-164.062500
811,-160.156250
812,-156.250000
813,-152.343750
814,-148.437500
815,-144.531250
816,-140.625000
817,-136.718750
818,-128.906250
819,-125.000000
820,-125.000000
821,-117.187500
822,-113.281250
823,-109.375000
824,-105.468750
825,-101.562500
826,-97.656250
827,-93.750000
828,-89.843750
829,-85.937500
830,-82.031250
831,-78.125000
832,-74.218750
833,-70.312500
834,-66.406250
835,-62.500000
836,-58.593750
837,-50.781250
838,-46.875000
839,-42.968750
840,-39.062500
841,-35.156250
842,-31.250000
843,-27.343750
844,-23.437500
845,-19.531250
846,-15.625000
847,-11.718750
848,-7.812500
849,-3.906250
850,0.000000
851,3.906250
852,7.812500
853,11.718750
854,15.625000
855,19.531250
856,23.437500
857,27.343750
858,27.343750
859,31.250000
860,35.156250
861,39.062500
862,42.968750
863,46.875000
864,50.781250
865,54.687500
866,58.593750
867,62.500000
868,62.500000
869,66.406250
870,70.312500
871,74.218750
872,74.218750
873,78.125000
874,82.031250
875,85.937500
876,85.937500
877,89.843750
878,93.750000
879,97.656250
880,101.562500
881,101.562500
882,105.468750
883,109.375000
884,109.375000
885,113.281250
886,113.281250
887,117.187500
888,121.093750
889,121.093750
890,125.000000
891,128.906250
892,128.906250
893,132.812500
894,132.812500
895,136.718750
896,136.718750
897,140.625000
898,140.625000
899,140.625000
900,144.531250
901,148.437500
902,148.437500
903,152.343750
904,152.343750
905,152.343750
906,156.250000
907,156.250000
908,160.156250
909,160.156250
910,164.062500
911,164.062500
912,164.062500
913,164.062500
914,167.968750
915,167.968750
916,167.968750
917,171.875000
918,171.875000
919,171.875000
920,171.875000
921,175.781250
922,175.781250
923,175.781250
924,175.781250
925,175.781250
926,175.781250
927,179.687500
928,179.687500
929,183.593750
930,179.687500
931,179.687500
932,183.593750
933,183.593750
934,183.593750
935,183.593750
936,183.593750
937,183.593750
938,183.593750
939,183.593750
940,187.500000
941,183.593750
942,187.500000
943,187.500000
944,187.500000
945,187.500000
946,187.500000
947,187.500000
948,187.500000
949,187.500000
950,183.593750
951,187.500000
952,187.500000
953,187.500000
954,187.500000
955,183.593750
956,187.500000
957,183.593750
958,183.593750
959,183.593750
960,183.593750
961,183.593750
962,183.593750
963,179.687500
964,183.593750
965,179.687500
966,179.687500
967,179.687500
968,179.687500
969,175.781250
970,175.781250
971,175.781250
972,171.875000
973,175.781250
974,171.875000
975,171.875000
976,171.875000
977,171.875000
978,167.968750
979,167.968750
980,167.968750
981,164.062500
982,164.062500
983,164.062500
984,160.156250
985,160.156250
986,160.156250
987,156.250000
988,156.250000
989,152.343750
990,152.343750
991,152.343750
992,148.437500
993,148.437500
994,144.531250
995,144.531250
996,140.625000
997,140.625000
998,136.718750
999,136.718750
1000,132.812500
1001,132.812500
1002,128.906250
1003,125.000000
1004,125.000000
1005,125.000000
1006,121.093750
1007,117.187500
1008,117.187500
1009,113.281250
1010,109.375000
1011,109.375000
1012,105.468750
1013,101.562500
1014,97.656250
1015,97.656250
1016,93.750000
1017,93.750000
1018,85.937500
1019,85.937500
1020,82.031250
1021,78.125000
1022,78.125000
1023,74.218750
1024,70.312500
1025,66.406250
1026,62.500000
1027,62.500000
1028,58.593750
1029,54.687500
1030,50.781250
1031,46.875000
1032,42.968750
1033,39.062500
1034,35.156250
1035,31.250000
1036,31.250000
1037,23.437500
1038,23.437500
1039,19.531250
1040,15.625000
1041,11.718750
1042,7.812500
1043,3.906250
1044,0.000000
1045,-3.906250
1046,-7.812500
1047,-11.718750
1048,-15.625000
1049,-19.531250
1050,-23.437500
1051,-27.343750
1052,-35.156250
1053,-35.156250
1054,-39.062500
1055,-46.875000
1056,-50.781250
1057,-54.687500
1058,-54.687500
1059,-62.500000
1060,-66.406250
1061,-70.312500
1062,-74.218750
1063,-78.125000
1064,-82.031250
1065,-85.937500
1066,-89.843750
1067,-93.750000
1068,-97.656250
1069,-101.562500
1070,-105.468750
1071,-109.375000
1072,-113.281250
1073,-117.187500
1074,-121.093750
1075,-125.000000
1076,-132.812500
1077,-136.718750
1078,-140.625000
1079,-140.625000
1080,-148.437500
1081,-152.343750
1082,-156.250000
1083,-156.250000
1084,-160.156250
1085,-167.968750
1086,-171.875000
1087,-175.781250
1088,-175.781250
1089,-179.687500
1090,-183.593750
1091,-187.500000
1092,-191.406250
1093,-195.312500
1094,-199.218750
1095,-203.125000
1096,-207.031250
1097,-210.937500
1098,-214.843750
1099,-218.750000
1100,-218.750000
1101,-222.656250
1102,-226.562500
1103,-230.468750
1104,-234.375000
1105,-234.375000
1106,-238.281250
1107,-242.187500
1108,-246.093750
1109,-246.093750
1110,-250.000000
1111,-253.906250
1112,-253.906250
1113,-257.812500
1114,-261.718750
1115,-265.625000
1116,-265.625000
1117,-269.531250
1118,-273.437500
1119,-273.437500
1120,-277.343750
1121,-277.343750
1122,-281.250000
1123,-281.250000
1124,-285.156250
1125,-285.156250
1126,-289.062500
1127,-289.062500
1128,-292.968750
1129,-292.968750
1130,-296.875000
1131,-296.875000
1132,-300.781250
1133,-300.781250
1134,-300.781250
1135,-304.687500
1136,-304.687500
1137,-308.593750
1138,-304.687500
1139,-308.593750
1140,-308.593750
1141,-312.500000
1142,-312.500000
1143,-312.500000
1144,-312.500000
1145,-312.500000
1146,-312.500000
1147,-316.406250
1148,-316.406250
1149,-316.406250
1150,-316.406250
1151,-316.406250
1152,-316.406250
1153,-316.406250
1154,-316.406250
1155,-316.406250
1156,-316.406250
1157,-316.406250
1158,-316.406250
1159,-316.406250
1160,-316.406250
1161,-316.406250
1162,-316.406250
1163,-316.406250
1164,-316.406250
1165,-312.500000
1166,-312.500000
1167,-312.500000
1168,-312.500000
1169,-312.500000
1170,-312.500000
1171,-308.593750
1172,-308.593750
1173,-308.593750
1174,-304.687500
1175,-304.687500
1176,-304.687500
1177,-300.781250
1178,-300.781250
1179,-300.781250
1180,-296.875000
1181,-296.875000
1182,-296.875000
1183,-292.968750
1184,-289.062500
1185,-289.062500
1186,-289.062500
1187,-285.156250
1188,-281.250000
1189,-281.250000
1190,-277.343750
1191,-277.343750
1192,-273.437500
1193,-269.531250
1194,-269.531250
1195,-265.625000
1196,-265.625000
1197,-261.718750
1198,-257.812500
1199,-253.906250
1200,-253.906250
1201,-250.000000
1202,-250.000000
1203,-246.093750
1204,-242.187500
1205,-238.281250
1206,-238.281250
1207,-234.375000
1208,-230.468750
1209,-226.562500
1210,-222.656250
1211,-218.750000
1212,-214.843750
1213,-214.843750
1214,-210.937500
1215,-207.031250
1216,-203.125000
1217,-199.218750
1218,-195.312500
1219,-191.406250
1220,-187.500000
1221,-183.593750
1222,-179.687500
1223,-179.687500
1224,-171.875000
1225,-167.968750
1226,-164.062500
1227,-164.062500
1228,-156.250000
1229,-152.343750
1230,-148.437500
1231,-148.437500
1232,-144.531250
1233,-136.718750
1234,-132.812500
1235,-128.906250
1236,-125.000000
1237,-121.093750
1238,-121.093750
1239,-113.281250
1240,-109.375000
1241,-105.468750
1242,-101.562500
1243,-93.750000
1244,-93.750000
1245,-89.843750
1246,-85.937500
1247,-82.031250
1248,-78.125000
1249,-74.218750
1250,-70.312500
1251,-62.500000
1252,-58.593750
1253,-54.687500
1254,-50.781250
1255,-46.875000
1256,-42.968750
1257,-39.062500
1258,-35.156250
1259,-35.156250
1260,-27.343750
1261,-23.437500
1262,-19.531250
1263,-15.625000
1264,-11.718750
1265,-7.812500
1266,-3.906250
1267,0.000000
1268,3.906250
1269,7.812500
1270,11.718750
1271,15.625000
1272,19.531250
1273,23.437500
1274,27.343750
1275,31.250000
1276,35.156250
1277,35.156250
1278,39.062500
1279,42.968750
1280,46.875000
1281,50.781250
1282,54.687500
1283,58.593750
1284,62.500000
1285,62.500000
1286,66.406250
