Practicum8/data/opgave5/f2/data_82_014.csv

Channel              :,CH1
Frequency            :,1.200kHz
Period               :,0.833ms
PK-PK                :,234.4mV
Probe attenuation    :,1X
Voltage per ADC value:,0.244141mV
Time interval        :,2.00000us

index,CH1_Voltage(mV)
1,-54.687500
2,-54.687500
3,-50.781250
4,-50.781250
5,-46.875000
6,-46.875000
7,-46.875000
8,-42.968750
9,-39.062500
10,-39.062500
11,-39.062500
12,-35.156250
13,-35.156250
14,-31.250000
15,-31.250000
16,-27.343750
17,-27.343750
18,-23.437500
19,-23.437500
20,-23.437500
21,-19.531250
22,-19.531250
23,-15.625000
24,-15.625000
25,-11.718750
26,-11.718750
27,-7.812500
28,-7.812500
29,-7.812500
30,-3.906250
31,-3.906250
32,0.000000
33,0.000000
34,0.000000
35,3.906250
36,3.906250
37,7.812500
38,7.812500
39,11.718750
40,11.718750
41,15.625000
42,15.625000
43,15.625000
44,19.531250
45,23.437500
46,23.437500
47,23.437500
48,23.437500
49,27.343750
50,27.343750
51,31.250000
52,31.250000
53,31.250000
54,35.156250
55,35.156250
56,35.156250
57,35.156250
58,39.062500
59,42.968750
60,42.968750
61,42.968750
62,46.875000
63,46.875000
64,46.875000
65,46.875000
66,50.781250
67,50.781250
68,54.687500
69,54.687500
70,54.687500
71,54.687500
72,58.593750
73,58.593750
74,58.593750
75,62.500000
76,62.500000
77,62.500000
78,66.406250
79,66.406250
80,66.406250
81,70.312500
82,70.312500
83,70.312500
84,70.312500
85,74.218750
86,74.218750
87,74.218750
88,74.218750
89,74.218750
90,78.125000
91,78.125000
92,78.125000
93,78.125000
94,82.031250
95,82.031250
96,82.031250
97,82.031250
98,82.031250
99,85.937500
100,85.937500
101,85.937500
102,85.937500
103,85.937500
104,85.937500
105,85.937500
106,89.843750
107,89.843750
108,89.843750
109,89.843750
110,89.843750
111,89.843750
112,89.843750
113,89.843750
114,93.750000
115,93.750000
116,93.750000
117,93.750000
118,93.750000
119,93.750000
120,93.750000
121,93.750000
122,93.750000
123,93.750000
124,93.750000
125,97.656250
126,93.750000
127,93.750000
128,97.656250
129,97.656250
130,97.656250
131,93.750000
132,93.750000
133,97.656250
134,97.656250
135,93.750000
136,97.656250
137,97.656250
138,93.750000
139,93.750000
140,93.750000
141,93.750000
142,93.750000
143,97.656250
144,93.750000
145,93.750000
146,93.750000
147,93.750000
148,93.750000
149,93.750000
150,93.750000
151,93.750000
152,93.750000
153,89.843750
154,89.843750
155,89.843750
156,89.843750
157,89.843750
158,89.843750
159,89.843750
160,85.937500
161,85.937500
162,85.937500
163,85.937500
164,85.937500
165,85.937500
166,82.031250
167,82.031250
168,82.031250
169,82.031250
170,82.031250
171,78.125000
172,78.125000
173,78.125000
174,78.125000
175,74.218750
176,74.218750
177,74.218750
178,74.218750
179,74.218750
180,70.312500
181,70.312500
182,70.312500
183,66.406250
184,66.406250
185,66.406250
186,66.406250
187,66.406250
188,62.500000
189,62.500000
190,58.593750
191,58.593750
192,58.593750
193,58.593750
194,54.687500
195,54.687500
196,54.687500
197,50.781250
198,50.781250
199,50.781250
200,46.875000
201,46.875000
202,46.875000
203,42.968750
204,42.968750
205,39.062500
206,39.062500
207,39.062500
208,35.156250
209,35.156250
210,35.156250
211,31.250000
212,31.250000
213,27.343750
214,27.343750
215,27.343750
216,23.437500
217,23.437500
218,19.531250
219,19.531250
220,19.531250
221,15.625000
222,15.625000
223,11.718750
224,11.718750
225,11.718750
226,7.812500
227,7.812500
228,3.906250
229,3.906250
230,0.000000
231,0.000000
232,0.000000
233,-3.906250
234,-7.812500
235,-7.812500
236,-7.812500
237,-11.718750
238,-11.718750
239,-15.625000
240,-15.625000
241,-19.531250
242,-19.531250
243,-23.437500
244,-23.437500
245,-27.343750
246,-27.343750
247,-27.343750
248,-31.250000
249,-31.250000
250,-35.156250
251,-35.156250
252,-39.062500
253,-39.062500
254,-42.968750
255,-42.968750
256,-46.875000
257,-46.875000
258,-50.781250
259,-50.781250
260,-50.781250
261,-54.687500
262,-54.687500
263,-58.593750
264,-58.593750
265,-62.500000
266,-62.500000
267,-66.406250
268,-66.406250
269,-66.406250
270,-70.312500
271,-70.312500
272,-74.218750
273,-74.218750
274,-78.125000
275,-78.125000
276,-78.125000
277,-82.031250
278,-82.031250
279,-82.031250
280,-85.937500
281,-85.937500
282,-89.843750
283,-85.937500
284,-89.843750
285,-93.750000
286,-93.750000
287,-97.656250
288,-97.656250
289,-97.656250
290,-101.562500
291,-101.562500
292,-101.562500
293,-105.468750
294,-105.468750
295,-105.468750
296,-105.468750
297,-109.375000
298,-109.375000
299,-109.375000
300,-113.281250
301,-113.281250
302,-113.281250
303,-113.281250
304,-117.187500
305,-117.187500
306,-117.187500
307,-117.187500
308,-121.093750
309,-121.093750
310,-121.093750
311,-121.093750
312,-125.000000
313,-125.000000
314,-125.000000
315,-125.000000
316,-125.000000
317,-128.906250
318,-125.000000
319,-128.906250
320,-128.906250
321,-128.906250
322,-132.812500
323,-128.906250
324,-132.812500
325,-132.812500
326,-132.812500
327,-132.812500
328,-132.812500
329,-132.812500
330,-132.812500
331,-132.812500
332,-132.812500
333,-132.812500
334,-132.812500
335,-132.812500
336,-132.812500
337,-136.718750
338,-132.812500
339,-132.812500
340,-132.812500
341,-132.812500
342,-132.812500
343,-132.812500
344,-132.812500
345,-132.812500
346,-132.812500
347,-132.812500
348,-132.812500
349,-132.812500
350,-132.812500
351,-132.812500
352,-132.812500
353,-128.906250
354,-128.906250
355,-128.906250
356,-128.906250
357,-128.906250
358,-128.906250
359,-128.906250
360,-128.906250
361,-125.000000
362,-125.000000
363,-125.000000
364,-125.000000
365,-125.000000
366,-121.093750
367,-121.093750
368,-121.093750
369,-121.093750
370,-121.093750
371,-117.187500
372,-117.187500
373,-117.187500
374,-117.187500
375,-113.281250
376,-113.281250
377,-113.281250
378,-113.281250
379,-109.375000
380,-109.375000
381,-109.375000
382,-105.468750
383,-105.468750
384,-105.468750
385,-105.468750
386,-101.562500
387,-101.562500
388,-97.656250
389,-101.562500
390,-97.656250
391,-97.656250
392,-93.750000
393,-93.750000
394,-93.750000
395,-89.843750
396,-89.843750
397,-89.843750
398,-85.937500
399,-85.937500
400,-82.031250
401,-82.031250
402,-82.031250
403,-78.125000
404,-78.125000
405,-74.218750
406,-74.218750
407,-74.218750
408,-70.312500
409,-70.312500
410,-66.406250
411,-66.406250
412,-62.500000
413,-62.500000
414,-58.593750
415,-58.593750
416,-58.593750
417,-54.687500
418,-54.687500
419,-50.781250
420,-50.781250
421,-46.875000
422,-46.875000
423,-46.875000
424,-42.968750
425,-42.968750
426,-39.062500
427,-39.062500
428,-35.156250
429,-35.156250
430,-31.250000
431,-31.250000
432,-31.250000
433,-27.343750
434,-27.343750
435,-23.437500
436,-23.437500
437,-23.437500
438,-19.531250
439,-15.625000
440,-15.625000
441,-15.625000
442,-11.718750
443,-11.718750
444,-7.812500
445,-7.812500
446,-7.812500
447,-3.906250
448,0.000000
449,0.000000
450,3.906250
451,3.906250
452,3.906250
453,7.812500
454,7.812500
455,7.812500
456,11.718750
457,11.718750
458,15.625000
459,15.625000
460,15.625000
461,19.531250
462,19.531250
463,23.437500
464,23.437500
465,23.437500
466,27.343750
467,27.343750
468,31.250000
469,31.250000
470,31.250000
471,35.156250
472,35.156250
473,35.156250
474,39.062500
475,39.062500
476,42.968750
477,42.968750
478,42.968750
479,46.875000
480,46.875000
481,46.875000
482,50.781250
483,50.781250
484,50.781250
485,54.687500
486,54.687500
487,54.687500
488,58.593750
489,58.593750
490,58.593750
491,62.500000
492,62.500000
493,62.500000
494,62.500000
495,66.406250
496,66.406250
497,66.406250
498,70.312500
499,70.312500
500,70.312500
501,70.312500
502,70.312500
503,74.218750
504,74.218750
505,74.218750
506,74.218750
507,78.125000
508,78.125000
509,78.125000
510,78.125000
511,82.031250
512,82.031250
513,82.031250
514,85.937500
515,82.031250
516,82.031250
517,85.937500
518,85.937500
519,85.937500
520,85.937500
521,85.937500
522,85.937500
523,89.843750
524,89.843750
525,89.843750
526,89.843750
527,89.843750
528,89.843750
529,89.843750
530,93.750000
531,89.843750
532,93.750000
533,93.750000
534,93.750000
535,93.750000
536,93.750000
537,93.750000
538,93.750000
539,93.750000
540,93.750000
541,93.750000
542,93.750000
543,93.750000
544,97.656250
545,93.750000
546,93.750000
547,93.750000
548,93.750000
549,97.656250
550,93.750000
551,97.656250
552,93.750000
553,97.656250
554,93.750000
555,93.750000
556,93.750000
557,93.750000
558,93.750000
559,93.750000
560,93.750000
561,93.750000
562,93.750000
563,89.843750
564,93.750000
565,93.750000
566,93.750000
567,93.750000
568,93.750000
569,89.843750
570,89.843750
571,89.843750
572,89.843750
573,89.843750
574,89.843750
575,89.843750
576,85.937500
577,89.843750
578,85.937500
579,85.937500
580,85.937500
581,85.937500
582,85.937500
583,82.031250
584,82.031250
585,82.031250
586,82.031250
587,82.031250
588,78.125000
589,78.125000
590,78.125000
591,78.125000
592,78.125000
593,74.218750
594,74.218750
595,74.218750
596,70.312500
597,70.312500
598,70.312500
599,70.312500
600,70.312500
601,66.406250
602,66.406250
603,66.406250
604,62.500000
605,62.500000
606,62.500000
607,62.500000
608,58.593750
609,58.593750
610,58.593750
611,54.687500
612,54.687500
613,54.687500
614,50.781250
615,50.781250
616,50.781250
617,46.875000
618,46.875000
619,42.968750
620,42.968750
621,42.968750
622,39.062500
623,42.968750
624,39.062500
625,35.156250
626,35.156250
627,35.156250
628,31.250000
629,31.250000
630,27.343750
631,27.343750
632,27.343750
633,23.437500
634,19.531250
635,19.531250
636,19.531250
637,15.625000
638,15.625000
639,15.625000
640,11.718750
641,11.718750
642,7.812500
643,7.812500
644,3.906250
645,3.906250
646,3.906250
647,0.000000
648,-3.906250
649,-3.906250
650,-3.906250
651,-7.812500
652,-7.812500
653,-11.718750
654,-11.718750
655,-15.625000
656,-15.625000
657,-15.625000
658,-19.531250
659,-23.437500
660,-23.437500
661,-23.437500
662,-27.343750
663,-27.343750
664,-31.250000
665,-31.250000
666,-35.156250
667,-35.156250
668,-39.062500
669,-39.062500
670,-39.062500
671,-42.968750
672,-42.968750
673,-46.875000
674,-46.875000
675,-50.781250
676,-50.781250
677,-54.687500
678,-54.687500
679,-54.687500
680,-58.593750
681,-58.593750
682,-62.500000
683,-62.500000
684,-66.406250
685,-66.406250
686,-66.406250
687,-70.312500
688,-70.312500
689,-74.218750
690,-74.218750
691,-74.218750
692,-78.125000
693,-78.125000
694,-82.031250
695,-82.031250
696,-82.031250
697,-85.937500
698,-85.937500
699,-89.843750
700,-89.843750
701,-89.843750
702,-93.750000
703,-93.750000
704,-97.656250
705,-97.656250
706,-97.656250
707,-101.562500
708,-101.562500
709,-101.562500
710,-105.468750
711,-105.468750
712,-105.468750
713,-109.375000
714,-109.375000
715,-109.375000
716,-109.375000
717,-113.281250
718,-113.281250
719,-113.281250
720,-113.281250
721,-117.187500
722,-117.187500
723,-117.187500
724,-117.187500
725,-121.093750
726,-121.093750
727,-121.093750
728,-121.093750
729,-121.093750
730,-125.000000
731,-125.000000
732,-125.000000
733,-125.000000
734,-125.000000
735,-128.906250
736,-128.906250
737,-128.906250
738,-128.906250
739,-128.906250
740,-128.906250
741,-128.906250
742,-132.812500
743,-132.812500
744,-132.812500
745,-132.812500
746,-132.812500
747,-132.812500
748,-132.812500
749,-132.812500
750,-132.812500
751,-132.812500
752,-132.812500
753,-132.812500
754,-132.812500
755,-132.812500
756,-132.812500
757,-132.812500
758,-132.812500
759,-132.812500
760,-132.812500
761,-132.812500
762,-132.812500
763,-132.812500
764,-132.812500
765,-132.812500
766,-132.812500
767,-132.812500
768,-132.812500
769,-132.812500
770,-128.906250
771,-128.906250
772,-128.906250
773,-128.906250
774,-128.906250
775,-128.906250
776,-125.000000
777,-125.000000
778,-128.906250
779,-125.000000
780,-125.000000
781,-125.000000
782,-125.000000
783,-121.093750
784,-121.093750
785,-121.093750
786,-121.093750
787,-121.093750
788,-117.187500
789,-117.187500
790,-117.187500
791,-117.187500
792,-113.281250
793,-113.281250
794,-113.281250
795,-109.375000
796,-109.375000
797,-109.375000
798,-109.375000
799,-105.468750
800,-105.468750
801,-105.468750
802,-101.562500
803,-101.562500
804,-101.562500
805,-97.656250
806,-97.656250
807,-97.656250
808,-93.750000
809,-93.750000
810,-93.750000
811,-89.843750
812,-89.843750
813,-89.843750
814,-85.937500
815,-85.937500
816,-82.031250
817,-78.125000
818,-82.031250
819,-78.125000
820,-78.125000
821,-74.218750
822,-74.218750
823,-74.218750
824,-70.312500
825,-70.312500
826,-66.406250
827,-66.406250
828,-62.500000
829,-62.500000
830,-62.500000
831,-58.593750
832,-58.593750
833,-58.593750
834,-54.687500
835,-54.687500
836,-50.781250
837,-50.781250
838,-50.781250
839,-46.875000
840,-46.875000
841,-42.968750
842,-42.968750
843,-39.062500
844,-39.062500
845,-39.062500
846,-35.156250
847,-31.250000
848,-31.250000
849,-31.250000
850,-27.343750
851,-27.343750
852,-23.437500
853,-23.437500
854,-23.437500
855,-19.531250
856,-19.531250
857,-15.625000
858,-15.625000
859,-11.718750
860,-11.718750
861,-7.812500
862,-7.812500
863,-3.906250
864,-3.906250
865,-3.906250
866,0.000000
867,0.000000
868,3.906250
869,3.906250
870,7.812500
871,7.812500
872,11.718750
873,11.718750
874,11.718750
875,15.625000
876,15.625000
877,19.531250
878,19.531250
879,19.531250
880,23.437500
881,23.437500
882,27.343750
883,27.343750
884,27.343750
885,31.250000
886,31.250000
887,31.250000
888,35.156250
889,35.156250
890,35.156250
891,39.062500
892,39.062500
893,42.968750
894,42.968750
895,42.968750
896,46.875000
897,46.875000
898,46.875000
899,50.781250
900,50.781250
901,54.687500
902,54.687500
903,58.593750
904,54.687500
905,58.593750
906,58.593750
907,58.593750
908,62.500000
909,62.500000
910,62.500000
911,62.500000
912,66.406250
913,66.406250
914,66.406250
915,70.312500
916,70.312500
917,70.312500
918,70.312500
919,74.218750
920,74.218750
921,74.218750
922,78.125000
923,78.125000
924,78.125000
925,78.125000
926,78.125000
927,82.031250
928,82.031250
929,82.031250
930,82.031250
931,82.031250
932,82.031250
933,85.937500
934,85.937500
935,82.031250
936,85.937500
937,89.843750
938,85.937500
939,89.843750
940,89.843750
941,89.843750
942,89.843750
943,89.843750
944,89.843750
945,89.843750
946,93.750000
947,93.750000
948,93.750000
949,93.750000
950,93.750000
951,93.750000
952,93.750000
953,93.750000
954,93.750000
955,93.750000
956,93.750000
957,93.750000
958,93.750000
959,93.750000
960,93.750000
961,93.750000
962,97.656250
963,93.750000
964,93.750000
965,93.750000
966,97.656250
967,97.656250
968,93.750000
969,97.656250
970,93.750000
971,97.656250
972,93.750000
973,93.750000
974,93.750000
975,93.750000
976,93.750000
977,93.750000
978,93.750000
979,93.750000
980,93.750000
981,93.750000
982,93.750000
983,93.750000
984,93.750000
985,93.750000
986,89.843750
987,89.843750
988,89.843750
989,89.843750
990,89.843750
991,89.843750
992,89.843750
993,85.937500
994,85.937500
995,85.937500
996,85.937500
997,85.937500
998,85.937500
999,85.937500
1000,82.031250
1001,85.937500
1002,82.031250
1003,82.031250
1004,82.031250
1005,78.125000
1006,78.125000
1007,78.125000
1008,82.031250
1009,74.218750
1010,74.218750
1011,74.218750
1012,74.218750
1013,70.312500
1014,70.312500
1015,70.312500
1016,70.312500
1017,66.406250
1018,66.406250
1019,66.406250
1020,66.406250
1021,62.500000
1022,62.500000
1023,62.500000
1024,58.593750
1025,58.593750
1026,58.593750
1027,54.687500
1028,54.687500
1029,54.687500
1030,50.781250
1031,50.781250
1032,50.781250
1033,46.875000
1034,46.875000
1035,46.875000
1036,46.875000
1037,42.968750
1038,42.968750
1039,39.062500
1040,39.062500
1041,39.062500
1042,35.156250
1043,35.156250
1044,31.250000
1045,31.250000
1046,31.250000
1047,27.343750
1048,27.343750
1049,23.437500
1050,23.437500
1051,19.531250
1052,19.531250
1053,15.625000
1054,15.625000
1055,15.625000
1056,11.718750
1057,11.718750
1058,11.718750
1059,7.812500
1060,7.812500
1061,3.906250
1062,3.906250
1063,0.000000
1064,0.000000
1065,0.000000
1066,-3.906250
1067,-7.812500
1068,-7.812500
1069,-7.812500
1070,-11.718750
1071,-11.718750
1072,-15.625000
1073,-15.625000
1074,-19.531250
1075,-19.531250
1076,-23.437500
1077,-23.437500
1078,-23.437500
1079,-27.343750
1080,-27.343750
1081,-31.250000
1082,-35.156250
1083,-35.156250
1084,-35.156250
1085,-39.062500
1086,-39.062500
1087,-42.968750
1088,-42.968750
1089,-46.875000
1090,-46.875000
1091,-50.781250
1092,-50.781250
1093,-50.781250
1094,-54.687500
1095,-54.687500
1096,-58.593750
1097,-58.593750
1098,-62.500000
1099,-62.500000
1100,-66.406250
1101,-66.406250
1102,-66.406250
1103,-70.312500
1104,-70.312500
1105,-74.218750
1106,-74.218750
1107,-74.218750
1108,-78.125000
1109,-78.125000
1110,-82.031250
1111,-82.031250
1112,-82.031250
1113,-85.937500
1114,-85.937500
1115,-89.843750
1116,-89.843750
1117,-89.843750
1118,-93.750000
1119,-93.750000
1120,-97.656250
1121,-97.656250
1122,-97.656250
1123,-97.656250
1124,-101.562500
1125,-101.562500
1126,-101.562500
1127,-105.468750
1128,-105.468750
1129,-105.468750
1130,-109.375000
1131,-109.375000
1132,-109.375000
1133,-113.281250
1134,-113.281250
1135,-113.281250
1136,-113.281250
1137,-117.187500
1138,-117.187500
1139,-117.187500
1140,-117.187500
1141,-121.093750
1142,-121.093750
1143,-121.093750
1144,-121.093750
1145,-121.093750
1146,-125.000000
1147,-125.000000
1148,-125.000000
1149,-125.000000
1150,-125.000000
1151,-128.906250
1152,-128.906250
1153,-128.906250
1154,-128.906250
1155,-128.906250
1156,-128.906250
1157,-128.906250
1158,-132.812500
1159,-132.812500
1160,-132.812500
1161,-132.812500
1162,-132.812500
1163,-132.812500
1164,-132.812500
1165,-132.812500
1166,-132.812500
1167,-132.812500
1168,-132.812500
1169,-132.812500
1170,-132.812500
1171,-132.812500
1172,-132.812500
1173,-132.812500
1174,-132.812500
1175,-132.812500
1176,-136.718750
1177,-132.812500
1178,-132.812500
1179,-132.812500
1180,-132.812500
1181,-132.812500
1182,-132.812500
1183,-132.812500
1184,-132.812500
1185,-132.812500
1186,-132.812500
1187,-128.906250
1188,-128.906250
1189,-128.906250
1190,-128.906250
1191,-128.906250
1192,-128.906250
1193,-128.906250
1194,-125.000000
1195,-125.000000
1196,-125.000000
1197,-125.000000
1198,-125.000000
1199,-121.093750
1200,-121.093750
1201,-121.093750
1202,-121.093750
1203,-121.093750
1204,-117.187500
1205,-117.187500
1206,-117.187500
1207,-117.187500
1208,-113.281250
1209,-113.281250
1210,-113.281250
1211,-113.281250
1212,-109.375000
1213,-109.375000
1214,-109.375000
1215,-105.468750
1216,-105.468750
1217,-105.468750
1218,-101.562500
1219,-101.562500
1220,-101.562500
1221,-101.562500
1222,-97.656250
1223,-97.656250
1224,-97.656250
1225,-93.750000
1226,-93.750000
1227,-89.843750
1228,-89.843750
1229,-89.843750
1230,-85.937500
1231,-85.937500
1232,-85.937500
1233,-82.031250
1234,-82.031250
1235,-82.031250
1236,-78.125000
1237,-78.125000
1238,-74.218750
1239,-74.218750
1240,-74.218750
1241,-70.312500
1242,-70.312500
1243,-66.406250
1244,-66.406250
1245,-66.406250
1246,-62.500000
1247,-62.500000
1248,-58.593750
1249,-58.593750
1250,-54.687500
1251,-54.687500
1252,-50.781250
1253,-50.781250
1254,-50.781250
1255,-46.875000
1256,-46.875000
1257,-42.968750
1258,-42.968750
1259,-42.968750
1260,-39.062500
1261,-39.062500
1262,-35.156250
1263,-31.250000
1264,-31.250000
1265,-31.250000
1266,-27.343750
1267,-27.343750
1268,-23.437500
1269,-23.437500
1270,-19.531250
1271,-19.531250
1272,-19.531250
1273,-15.625000
1274,-15.625000
1275,-11.718750
1276,-11.718750
1277,-7.812500
1278,-7.812500
1279,-7.812500
1280,-3.906250
1281,-3.906250
1282,0.000000
1283,0.000000
1284,0.000000
1285,3.906250
1286,3.906250
1287,7.812500
1288,7.812500
1289,7.812500
1290,11.718750
1291,11.718750
1292,15.625000
1293,15.625000
1294,19.531250
1295,19.531250
1296,23.437500
1297,23.437500
1298,23.437500
1299,27.343750
1300,27.343750
1301,27.343750
1302,31.250000
1303,31.250000
1304,35.156250
1305,35.156250
1306,35.156250
1307,39.062500
1308,39.062500
1309,39.062500
1310,42.968750
1311,42.968750
1312,42.968750
1313,46.875000
1314,46.875000
1315,50.781250
1316,50.781250
1317,50.781250
1318,54.687500
1319,54.687500
1320,54.687500
1321,54.687500
1322,58.593750
1323,58.593750
1324,58.593750
1325,62.500000
1326,62.500000
1327,62.500000
1328,66.406250
1329,66.406250
1330,66.406250
1331,70.312500
