Practicum8/data/opgave5/opgave5_freq3/data_81_014.csv

Channel              :,CH1
Frequency            :,1.759kHz
Period               :,0.568ms
PK-PK                :,171.9mV
Probe attenuation    :,1X
Voltage per ADC value:,0.122070mV
Time interval        :,2.00000us

index,CH1_Voltage(mV)
1,54.687500
2,54.687500
3,52.734375
4,52.734375
5,50.781250
6,50.781250
7,48.828125
8,46.875000
9,44.921875
10,44.921875
11,42.968750
12,41.015625
13,41.015625
14,39.062500
15,37.109375
16,35.156250
17,35.156250
18,33.203125
19,31.250000
20,29.296875
21,27.343750
22,27.343750
23,25.390625
24,23.437500
25,21.484375
26,19.531250
27,19.531250
28,15.625000
29,13.671875
30,11.718750
31,11.718750
32,9.765625
33,7.812500
34,3.906250
35,3.906250
36,1.953125
37,0.000000
38,-1.953125
39,-3.906250
40,-5.859375
41,-7.812500
42,-7.812500
43,-9.765625
44,-11.718750
45,-11.718750
46,-15.625000
47,-17.578125
48,-19.531250
49,-21.484375
50,-23.437500
51,-25.390625
52,-27.343750
53,-29.296875
54,-31.250000
55,-33.203125
56,-35.156250
57,-35.156250
58,-37.109375
59,-39.062500
60,-41.015625
61,-42.968750
62,-44.921875
63,-46.875000
64,-48.828125
65,-48.828125
66,-50.781250
67,-52.734375
68,-54.687500
69,-54.687500
70,-58.593750
71,-58.593750
72,-60.546875
73,-60.546875
74,-62.500000
75,-64.453125
76,-66.406250
77,-66.406250
78,-68.359375
79,-70.312500
80,-72.265625
81,-72.265625
82,-72.265625
83,-74.218750
84,-76.171875
85,-76.171875
86,-78.125000
87,-78.125000
88,-80.078125
89,-80.078125
90,-82.031250
91,-82.031250
92,-82.031250
93,-83.984375
94,-83.984375
95,-85.937500
96,-85.937500
97,-85.937500
98,-85.937500
99,-85.937500
100,-87.890625
101,-87.890625
102,-87.890625
103,-89.843750
104,-89.843750
105,-89.843750
106,-89.843750
107,-89.843750
108,-89.843750
109,-89.843750
110,-89.843750
111,-89.843750
112,-89.843750
113,-89.843750
114,-89.843750
115,-89.843750
116,-89.843750
117,-89.843750
118,-89.843750
119,-87.890625
120,-87.890625
121,-87.890625
122,-87.890625
123,-85.937500
124,-85.937500
125,-85.937500
126,-83.984375
127,-83.984375
128,-83.984375
129,-82.031250
130,-82.031250
131,-82.031250
132,-80.078125
133,-78.125000
134,-78.125000
135,-76.171875
136,-76.171875
137,-76.171875
138,-72.265625
139,-72.265625
140,-70.312500
141,-70.312500
142,-68.359375
143,-68.359375
144,-66.406250
145,-64.453125
146,-62.500000
147,-60.546875
148,-60.546875
149,-60.546875
150,-58.593750
151,-56.640625
152,-54.687500
153,-52.734375
154,-50.781250
155,-48.828125
156,-48.828125
157,-46.875000
158,-44.921875
159,-42.968750
160,-41.015625
161,-39.062500
162,-39.062500
163,-37.109375
164,-35.156250
165,-33.203125
166,-31.250000
167,-29.296875
168,-27.343750
169,-27.343750
170,-23.437500
171,-23.437500
172,-21.484375
173,-19.531250
174,-17.578125
175,-15.625000
176,-13.671875
177,-11.718750
178,-9.765625
179,-7.812500
180,-5.859375
181,-3.906250
182,-1.953125
183,0.000000
184,0.000000
185,3.906250
186,3.906250
187,5.859375
188,7.812500
189,9.765625
190,11.718750
191,13.671875
192,15.625000
193,17.578125
194,19.531250
195,21.484375
196,21.484375
197,23.437500
198,25.390625
199,27.343750
200,29.296875
201,27.343750
202,33.203125
203,33.203125
204,35.156250
205,37.109375
206,39.062500
207,39.062500
208,41.015625
209,42.968750
210,42.968750
211,44.921875
212,46.875000
213,48.828125
214,48.828125
215,50.781250
216,50.781250
217,52.734375
218,54.687500
219,54.687500
220,56.640625
221,56.640625
222,58.593750
223,58.593750
224,60.546875
225,62.500000
226,62.500000
227,62.500000
228,62.500000
229,64.453125
230,66.406250
231,66.406250
232,66.406250
233,68.359375
234,68.359375
235,68.359375
236,68.359375
237,70.312500
238,70.312500
239,70.312500
240,70.312500
241,72.265625
242,72.265625
243,72.265625
244,72.265625
245,74.218750
246,74.218750
247,74.218750
248,74.218750
249,74.218750
250,74.218750
251,74.218750
252,74.218750
253,74.218750
254,74.218750
255,74.218750
256,74.218750
257,74.218750
258,74.218750
259,66.406250
260,72.265625
261,72.265625
262,72.265625
263,72.265625
264,72.265625
265,72.265625
266,70.312500
267,70.312500
268,70.312500
269,68.359375
270,70.312500
271,68.359375
272,68.359375
273,66.406250
274,66.406250
275,64.453125
276,64.453125
277,64.453125
278,62.500000
279,62.500000
280,60.546875
281,60.546875
282,58.593750
283,58.593750
284,58.593750
285,54.687500
286,54.687500
287,52.734375
288,52.734375
289,50.781250
290,50.781250
291,48.828125
292,46.875000
293,46.875000
294,44.921875
295,42.968750
296,41.015625
297,39.062500
298,39.062500
299,37.109375
300,35.156250
301,33.203125
302,33.203125
303,33.203125
304,29.296875
305,27.343750
306,27.343750
307,25.390625
308,23.437500
309,21.484375
310,19.531250
311,17.578125
312,15.625000
313,13.671875
314,13.671875
315,11.718750
316,7.812500
317,7.812500
318,5.859375
319,3.906250
320,1.953125
321,0.000000
322,-1.953125
323,-3.906250
324,-5.859375
325,-7.812500
326,-9.765625
327,-9.765625
328,-11.718750
329,-13.671875
330,-15.625000
331,-17.578125
332,-19.531250
333,-21.484375
334,-23.437500
335,-25.390625
336,-27.343750
337,-29.296875
338,-29.296875
339,-33.203125
340,-33.203125
341,-35.156250
342,-37.109375
343,-39.062500
344,-41.015625
345,-42.968750
346,-44.921875
347,-46.875000
348,-48.828125
349,-48.828125
350,-50.781250
351,-52.734375
352,-54.687500
353,-56.640625
354,-56.640625
355,-58.593750
356,-60.546875
357,-62.500000
358,-64.453125
359,-62.500000
360,-66.406250
361,-66.406250
362,-68.359375
363,-70.312500
364,-70.312500
365,-72.265625
366,-72.265625
367,-74.218750
368,-76.171875
369,-76.171875
370,-76.171875
371,-78.125000
372,-80.078125
373,-80.078125
374,-82.031250
375,-82.031250
376,-82.031250
377,-83.984375
378,-83.984375
379,-85.937500
380,-85.937500
381,-85.937500
382,-87.890625
383,-87.890625
384,-87.890625
385,-87.890625
386,-87.890625
387,-89.843750
388,-87.890625
389,-89.843750
390,-89.843750
391,-89.843750
392,-89.843750
393,-89.843750
394,-89.843750
395,-89.843750
396,-89.843750
397,-89.843750
398,-89.843750
399,-89.843750
400,-87.890625
401,-89.843750
402,-89.843750
403,-87.890625
404,-87.890625
405,-87.890625
406,-85.937500
407,-85.937500
408,-85.937500
409,-83.984375
410,-83.984375
411,-83.984375
412,-82.031250
413,-82.031250
414,-82.031250
415,-80.078125
416,-78.125000
417,-78.125000
418,-78.125000
419,-76.171875
420,-76.171875
421,-74.218750
422,-74.218750
423,-74.218750
424,-70.312500
425,-70.312500
426,-68.359375
427,-66.406250
428,-66.406250
429,-64.453125
430,-64.453125
431,-62.500000
432,-60.546875
433,-58.593750
434,-58.593750
435,-56.640625
436,-54.687500
437,-52.734375
438,-50.781250
439,-50.781250
440,-48.828125
441,-46.875000
442,-42.968750
443,-42.968750
444,-41.015625
445,-41.015625
446,-39.062500
447,-37.109375
448,-35.156250
449,-33.203125
450,-31.250000
451,-29.296875
452,-27.343750
453,-25.390625
454,-23.437500
455,-23.437500
456,-21.484375
457,-19.531250
458,-17.578125
459,-15.625000
460,-13.671875
461,-11.718750
462,-9.765625
463,-7.812500
464,-5.859375
465,-3.906250
466,-1.953125
467,-1.953125
468,0.000000
469,3.906250
470,3.906250
471,7.812500
472,7.812500
473,9.765625
474,11.718750
475,13.671875
476,15.625000
477,17.578125
478,19.531250
479,19.531250
480,23.437500
481,23.437500
482,25.390625
483,27.343750
484,27.343750
485,31.250000
486,31.250000
487,33.203125
488,35.156250
489,37.109375
490,39.062500
491,39.062500
492,41.015625
493,41.015625
494,42.968750
495,44.921875
496,46.875000
497,46.875000
498,48.828125
499,50.781250
500,50.781250
501,52.734375
502,52.734375
503,54.687500
504,56.640625
505,56.640625
506,58.593750
507,58.593750
508,60.546875
509,60.546875
510,62.500000
511,62.500000
512,62.500000
513,64.453125
514,64.453125
515,66.406250
516,66.406250
517,68.359375
518,68.359375
519,68.359375
520,70.312500
521,70.312500
522,70.312500
523,70.312500
524,72.265625
525,72.265625
526,72.265625
527,72.265625
528,72.265625
529,74.218750
530,74.218750
531,74.218750
532,74.218750
533,74.218750
534,74.218750
535,74.218750
536,74.218750
537,74.218750
538,74.218750
539,74.218750
540,74.218750
541,74.218750
542,74.218750
543,74.218750
544,72.265625
545,72.265625
546,72.265625
547,72.265625
548,72.265625
549,70.312500
550,70.312500
551,70.312500
552,70.312500
553,70.312500
554,68.359375
555,68.359375
556,68.359375
557,66.406250
558,66.406250
559,64.453125
560,64.453125
561,64.453125
562,62.500000
563,60.546875
564,60.546875
565,60.546875
566,58.593750
567,58.593750
568,56.640625
569,54.687500
570,54.687500
571,52.734375
572,52.734375
573,50.781250
574,50.781250
575,48.828125
576,46.875000
577,44.921875
578,44.921875
579,42.968750
580,41.015625
581,41.015625
582,39.062500
583,35.156250
584,37.109375
585,35.156250
586,33.203125
587,31.250000
588,29.296875
589,29.296875
590,27.343750
591,25.390625
592,23.437500
593,21.484375
594,19.531250
595,17.578125
596,17.578125
597,15.625000
598,13.671875
599,11.718750
600,9.765625
601,7.812500
602,5.859375
603,5.859375
604,3.906250
605,1.953125
606,-1.953125
607,-1.953125
608,-3.906250
609,-5.859375
610,-7.812500
611,-9.765625
612,-11.718750
613,-13.671875
614,-15.625000
615,-17.578125
616,-19.531250
617,-21.484375
618,-23.437500
619,-25.390625
620,-27.343750
621,-29.296875
622,-31.250000
623,-33.203125
624,-33.203125
625,-35.156250
626,-37.109375
627,-39.062500
628,-41.015625
629,-42.968750
630,-44.921875
631,-44.921875
632,-46.875000
633,-48.828125
634,-50.781250
635,-52.734375
636,-54.687500
637,-54.687500
638,-56.640625
639,-58.593750
640,-60.546875
641,-60.546875
642,-62.500000
643,-64.453125
644,-64.453125
645,-66.406250
646,-68.359375
647,-70.312500
648,-70.312500
649,-74.218750
650,-72.265625
651,-74.218750
652,-76.171875
653,-76.171875
654,-78.125000
655,-78.125000
656,-78.125000
657,-80.078125
658,-82.031250
659,-82.031250
660,-82.031250
661,-82.031250
662,-83.984375
663,-83.984375
664,-85.937500
665,-85.937500
666,-85.937500
667,-85.937500
668,-87.890625
669,-87.890625
670,-87.890625
671,-87.890625
672,-87.890625
673,-89.843750
674,-89.843750
675,-89.843750
676,-89.843750
677,-89.843750
678,-89.843750
679,-89.843750
680,-89.843750
681,-89.843750
682,-89.843750
683,-89.843750
684,-89.843750
685,-89.843750
686,-89.843750
687,-87.890625
688,-87.890625
689,-87.890625
690,-87.890625
691,-85.937500
692,-83.984375
693,-85.937500
694,-85.937500
695,-83.984375
696,-83.984375
697,-82.031250
698,-82.031250
699,-82.031250
700,-80.078125
701,-78.125000
702,-78.125000
703,-76.171875
704,-76.171875
705,-76.171875
706,-74.218750
707,-72.265625
708,-74.218750
709,-70.312500
710,-70.312500
711,-68.359375
712,-66.406250
713,-66.406250
714,-64.453125
715,-62.500000
716,-60.546875
717,-58.593750
718,-58.593750
719,-60.546875
720,-54.687500
721,-54.687500
722,-52.734375
723,-50.781250
724,-48.828125
725,-46.875000
726,-44.921875
727,-42.968750
728,-41.015625
729,-39.062500
730,-39.062500
731,-37.109375
732,-35.156250
733,-33.203125
734,-31.250000
735,-29.296875
736,-27.343750
737,-27.343750
738,-25.390625
739,-21.484375
740,-21.484375
741,-19.531250
742,-17.578125
743,-15.625000
744,-13.671875
745,-11.718750
746,-9.765625
747,-7.812500
748,-5.859375
749,-5.859375
750,-1.953125
751,0.000000
752,0.000000
753,1.953125
754,3.906250
755,7.812500
756,7.812500
757,9.765625
758,11.718750
759,13.671875
760,15.625000
761,15.625000
762,19.531250
763,19.531250
764,21.484375
765,23.437500
766,25.390625
767,27.343750
768,27.343750
769,29.296875
770,31.250000
771,33.203125
772,33.203125
773,37.109375
774,39.062500
775,39.062500
776,41.015625
777,41.015625
778,42.968750
779,44.921875
780,44.921875
781,46.875000
782,48.828125
783,48.828125
784,50.781250
785,52.734375
786,52.734375
787,54.687500
788,54.687500
789,56.640625
790,58.593750
791,60.546875
792,60.546875
793,60.546875
794,62.500000
795,62.500000
796,64.453125
797,64.453125
798,66.406250
799,66.406250
800,66.406250
801,68.359375
802,68.359375
803,68.359375
804,68.359375
805,70.312500
806,70.312500
807,72.265625
808,70.312500
809,72.265625
810,72.265625
811,72.265625
812,72.265625
813,72.265625
814,74.218750
815,74.218750
816,74.218750
817,74.218750
818,74.218750
819,74.218750
820,74.218750
821,74.218750
822,74.218750
823,74.218750
824,74.218750
825,72.265625
826,74.218750
827,74.218750
828,72.265625
829,72.265625
830,72.265625
831,72.265625
832,72.265625
833,70.312500
834,70.312500
835,70.312500
836,70.312500
837,68.359375
838,68.359375
839,68.359375
840,66.406250
841,66.406250
842,66.406250
843,64.453125
844,64.453125
845,64.453125
846,64.453125
847,62.500000
848,60.546875
849,60.546875
850,58.593750
851,58.593750
852,56.640625
853,56.640625
854,54.687500
855,52.734375
856,52.734375
857,50.781250
858,50.781250
859,48.828125
860,46.875000
861,46.875000
862,44.921875
863,42.968750
864,42.968750
865,41.015625
866,39.062500
867,37.109375
868,37.109375
869,35.156250
870,33.203125
871,31.250000
872,29.296875
873,27.343750
874,27.343750
875,25.390625
876,23.437500
877,21.484375
878,19.531250
879,19.531250
880,15.625000
881,15.625000
882,13.671875
883,11.718750
884,9.765625
885,7.812500
886,5.859375
887,3.906250
888,1.953125
889,0.000000
890,-1.953125
891,-3.906250
892,-5.859375
893,-5.859375
894,-7.812500
895,-9.765625
896,-11.718750
897,-13.671875
898,-15.625000
899,-17.578125
900,-19.531250
901,-21.484375
902,-23.437500
903,-25.390625
904,-27.343750
905,-29.296875
906,-31.250000
907,-33.203125
908,-35.156250
909,-37.109375
910,-37.109375
911,-39.062500
912,-41.015625
913,-42.968750
914,-44.921875
915,-44.921875
916,-46.875000
917,-48.828125
918,-50.781250
919,-52.734375
920,-52.734375
921,-56.640625
922,-56.640625
923,-58.593750
924,-60.546875
925,-60.546875
926,-62.500000
927,-64.453125
928,-66.406250
929,-68.359375
930,-68.359375
931,-68.359375
932,-70.312500
933,-72.265625
934,-72.265625
935,-74.218750
936,-74.218750
937,-74.218750
938,-78.125000
939,-78.125000
940,-78.125000
941,-80.078125
942,-82.031250
943,-82.031250
944,-83.984375
945,-83.984375
946,-83.984375
947,-85.937500
948,-85.937500
949,-85.937500
950,-87.890625
951,-87.890625
952,-89.843750
953,-87.890625
954,-87.890625
955,-89.843750
956,-89.843750
957,-89.843750
958,-89.843750
959,-89.843750
960,-89.843750
961,-89.843750
962,-91.796875
963,-89.843750
964,-89.843750
965,-89.843750
966,-89.843750
967,-89.843750
968,-89.843750
969,-87.890625
970,-89.843750
971,-87.890625
972,-87.890625
973,-87.890625
974,-87.890625
975,-87.890625
976,-85.937500
977,-85.937500
978,-83.984375
979,-83.984375
980,-83.984375
981,-82.031250
982,-82.031250
983,-82.031250
984,-80.078125
985,-80.078125
986,-78.125000
987,-76.171875
988,-76.171875
989,-76.171875
990,-74.218750
991,-72.265625
992,-72.265625
993,-70.312500
994,-68.359375
995,-68.359375
996,-66.406250
997,-64.453125
998,-64.453125
999,-62.500000
1000,-60.546875
1001,-60.546875
1002,-56.640625
1003,-56.640625
1004,-56.640625
1005,-52.734375
1006,-50.781250
1007,-50.781250
1008,-48.828125
1009,-48.828125
1010,-44.921875
1011,-44.921875
1012,-42.968750
1013,-41.015625
1014,-39.062500
1015,-37.109375
1016,-35.156250
1017,-33.203125
1018,-31.250000
1019,-31.250000
1020,-29.296875
1021,-27.343750
1022,-25.390625
1023,-23.437500
1024,-21.484375
1025,-19.531250
1026,-17.578125
1027,-15.625000
1028,-13.671875
1029,-13.671875
1030,-9.765625
1031,-7.812500
1032,-5.859375
1033,-3.906250
1034,-1.953125
1035,0.000000
1036,0.000000
1037,1.953125
1038,3.906250
1039,5.859375
1040,7.812500
1041,9.765625
1042,11.718750
1043,13.671875
1044,15.625000
1045,17.578125
1046,19.531250
1047,19.531250
1048,21.484375
1049,23.437500
1050,25.390625
1051,27.343750
1052,29.296875
1053,29.296875
1054,31.250000
1055,33.203125
1056,35.156250
1057,35.156250
1058,37.109375
1059,39.062500
1060,41.015625
1061,42.968750
1062,42.968750
1063,44.921875
1064,46.875000
1065,46.875000
1066,48.828125
1067,50.781250
1068,50.781250
1069,52.734375
1070,54.687500
1071,54.687500
1072,54.687500
1073,56.640625
1074,58.593750
1075,58.593750
1076,60.546875
1077,60.546875
1078,62.500000
1079,62.500000
1080,62.500000
1081,64.453125
1082,64.453125
1083,66.406250
1084,66.406250
1085,66.406250
1086,68.359375
1087,68.359375
1088,68.359375
1089,68.359375
1090,70.312500
1091,70.312500
1092,72.265625
1093,72.265625
1094,72.265625
1095,72.265625
1096,72.265625
1097,72.265625
1098,74.218750
1099,72.265625
1100,74.218750
1101,74.218750
1102,74.218750
1103,74.218750
1104,74.218750
1105,74.218750
1106,74.218750
1107,74.218750
1108,74.218750
1109,74.218750
1110,74.218750
1111,74.218750
1112,74.218750
1113,72.265625
1114,72.265625
1115,72.265625
1116,72.265625
1117,72.265625
1118,70.312500
1119,70.312500
1120,70.312500
1121,70.312500
1122,68.359375
1123,68.359375
1124,68.359375
1125,66.406250
1126,66.406250
1127,64.453125
1128,64.453125
1129,64.453125
1130,62.500000
1131,62.500000
1132,60.546875
1133,60.546875
1134,58.593750
1135,58.593750
1136,56.640625
1137,56.640625
1138,54.687500
1139,52.734375
1140,52.734375
1141,52.734375
1142,50.781250
1143,48.828125
1144,46.875000
1145,46.875000
1146,44.921875
1147,42.968750
1148,42.968750
1149,41.015625
1150,39.062500
1151,37.109375
1152,41.015625
1153,35.156250
1154,33.203125
1155,31.250000
1156,31.250000
1157,27.343750
1158,27.343750
1159,25.390625
1160,23.437500
1161,21.484375
1162,19.531250
1163,19.531250
1164,17.578125
1165,15.625000
1166,13.671875
1167,11.718750
1168,9.765625
1169,7.812500
1170,5.859375
1171,3.906250
1172,1.953125
1173,1.953125
1174,-1.953125
1175,-1.953125
1176,-3.906250
1177,-5.859375
1178,-7.812500
1179,-9.765625
1180,-11.718750
1181,-13.671875
1182,-15.625000
1183,-17.578125
1184,-19.531250
1185,-21.484375
1186,-21.484375
1187,-25.390625
1188,-25.390625
1189,-27.343750
1190,-29.296875
1191,-31.250000
1192,-33.203125
1193,-35.156250
1194,-37.109375
1195,-39.062500
1196,-41.015625
1197,-41.015625
1198,-44.921875
1199,-44.921875
1200,-46.875000
1201,-50.781250
1202,-50.781250
1203,-52.734375
1204,-54.687500
1205,-54.687500
1206,-56.640625
1207,-58.593750
1208,-60.546875
1209,-60.546875
1210,-62.500000
1211,-64.453125
1212,-64.453125
1213,-66.406250
1214,-68.359375
1215,-68.359375
1216,-70.312500
1217,-72.265625
1218,-74.218750
1219,-74.218750
1220,-76.171875
1221,-76.171875
1222,-76.171875
1223,-80.078125
1224,-80.078125
1225,-80.078125
1226,-80.078125
1227,-82.031250
1228,-82.031250
1229,-83.984375
1230,-83.984375
1231,-82.031250
1232,-87.890625
1233,-85.937500
1234,-85.937500
1235,-87.890625
1236,-87.890625
1237,-87.890625
1238,-87.890625
1239,-87.890625
1240,-87.890625
1241,-89.843750
1242,-89.843750
1243,-89.843750
1244,-89.843750
1245,-89.843750
1246,-89.843750
1247,-89.843750
1248,-89.843750
1249,-89.843750
1250,-89.843750
1251,-89.843750
1252,-89.843750
1253,-89.843750
1254,-87.890625
1255,-87.890625
1256,-87.890625
1257,-87.890625
1258,-87.890625
1259,-87.890625
1260,-85.937500
1261,-85.937500
1262,-83.984375
1263,-83.984375
1264,-83.984375
1265,-82.031250
1266,-82.031250
1267,-80.078125
1268,-80.078125
1269,-80.078125
1270,-78.125000
1271,-78.125000
1272,-76.171875
1273,-76.171875
1274,-74.218750
1275,-72.265625
1276,-72.265625
1277,-70.312500
1278,-70.312500
1279,-68.359375
1280,-68.359375
1281,-66.406250
1282,-64.453125
1283,-62.500000
1284,-62.500000
1285,-60.546875
1286,-58.593750
1287,-56.640625
1288,-54.687500
1289,-54.687500
1290,-52.734375
1291,-50.781250
1292,-48.828125
1293,-46.875000
1294,-46.875000
1295,-44.921875
1296,-42.968750
1297,-41.015625
1298,-39.062500
1299,-37.109375
1300,-35.156250
1301,-33.203125
1302,-31.250000
1303,-31.250000
1304,-29.296875
1305,-27.343750
1306,-25.390625
1307,-23.437500
1308,-21.484375
1309,-19.531250
1310,-17.578125
1311,-15.625000
1312,-13.671875
1313,-11.718750
1314,-11.718750
1315,-7.812500
1316,-5.859375
1317,-5.859375
1318,-3.906250
1319,-1.953125
1320,0.000000
1321,1.953125
1322,3.906250
1323,5.859375
1324,7.812500
1325,9.765625
1326,11.718750
1327,13.671875
1328,15.625000
1329,17.578125
1330,17.578125
1331,19.531250
1332,21.484375
1333,23.437500
1334,25.390625
1335,27.343750
1336,29.296875
1337,29.296875
1338,31.250000
1339,33.203125
1340,35.156250
1341,35.156250
1342,37.109375
1343,39.062500
1344,41.015625
1345,41.015625
1346,42.968750
1347,42.968750
1348,44.921875
1349,46.875000
1350,48.828125
