Practicum8/data/opgave5/opgave5_freq3/data_81_004.csv

Channel              :,CH1
Frequency            :,924.2Hz
Period               :,1.082ms
PK-PK                :,21.48mV
Probe attenuation    :,1X
Voltage per ADC value:,0.122070mV
Time interval        :,2.00000us

index,CH1_Voltage(mV)
1,-1.953125
2,-1.953125
3,-1.953125
4,-1.953125
5,-1.953125
6,-1.953125
7,-3.906250
8,-3.906250
9,-3.906250
10,-3.906250
11,-3.906250
12,-3.906250
13,-3.906250
14,-3.906250
15,-3.906250
16,-3.906250
17,-3.906250
18,-3.906250
19,-3.906250
20,-3.906250
21,-5.859375
22,-5.859375
23,-5.859375
24,-5.859375
25,-5.859375
26,-5.859375
27,-5.859375
28,-5.859375
29,-5.859375
30,-5.859375
31,-7.812500
32,-7.812500
33,-7.812500
34,-7.812500
35,-7.812500
36,-7.812500
37,-7.812500
38,-7.812500
39,-7.812500
40,-7.812500
41,-7.812500
42,-9.765625
43,-9.765625
44,-9.765625
45,-7.812500
46,-9.765625
47,-9.765625
48,-9.765625
49,-9.765625
50,-9.765625
51,-9.765625
52,-9.765625
53,-9.765625
54,-9.765625
55,-9.765625
56,-9.765625
57,-9.765625
58,-11.718750
59,-11.718750
60,-11.718750
61,-11.718750
62,-11.718750
63,-11.718750
64,-11.718750
65,-11.718750
66,-11.718750
67,-11.718750
68,-11.718750
69,-11.718750
70,-11.718750
71,-13.671875
72,-11.718750
73,-13.671875
74,-13.671875
75,-11.718750
76,-11.718750
77,-13.671875
78,-11.718750
79,-13.671875
80,-13.671875
81,-13.671875
82,-13.671875
83,-13.671875
84,-11.718750
85,-13.671875
86,-11.718750
87,-11.718750
88,-13.671875
89,-13.671875
90,-11.718750
91,-13.671875
92,-13.671875
93,-13.671875
94,-13.671875
95,-13.671875
96,-13.671875
97,-13.671875
98,-13.671875
99,-13.671875
100,-13.671875
101,-13.671875
102,-13.671875
103,-11.718750
104,-11.718750
105,-13.671875
106,-11.718750
107,-11.718750
108,-11.718750
109,-11.718750
110,-11.718750
111,-11.718750
112,-11.718750
113,-11.718750
114,-11.718750
115,-11.718750
116,-11.718750
117,-11.718750
118,-11.718750
119,-11.718750
120,-11.718750
121,-11.718750
122,-11.718750
123,-9.765625
124,-11.718750
125,-11.718750
126,-11.718750
127,-11.718750
128,-11.718750
129,-9.765625
130,-9.765625
131,-9.765625
132,-9.765625
133,-9.765625
134,-9.765625
135,-9.765625
136,-9.765625
137,-9.765625
138,-9.765625
139,-9.765625
140,-7.812500
141,-7.812500
142,-7.812500
143,-7.812500
144,-7.812500
145,-7.812500
146,-7.812500
147,-7.812500
148,-7.812500
149,-5.859375
150,-7.812500
151,-7.812500
152,-7.812500
153,-5.859375
154,-5.859375
155,-5.859375
156,-5.859375
157,-5.859375
158,-5.859375
159,-5.859375
160,-3.906250
161,-3.906250
162,-3.906250
163,-3.906250
164,-5.859375
165,-3.906250
166,-3.906250
167,-3.906250
168,-3.906250
169,-3.906250
170,-3.906250
171,-1.953125
172,-1.953125
173,-1.953125
174,-1.953125
175,-1.953125
176,-1.953125
177,-1.953125
178,-1.953125
179,-1.953125
180,-1.953125
181,-1.953125
182,-1.953125
183,-1.953125
184,0.000000
185,0.000000
186,0.000000
187,0.000000
188,0.000000
189,0.000000
190,0.000000
191,0.000000
192,0.000000
193,0.000000
194,0.000000
195,0.000000
196,0.000000
197,1.953125
198,1.953125
199,1.953125
200,1.953125
201,1.953125
202,1.953125
203,1.953125
204,1.953125
205,1.953125
206,1.953125
207,1.953125
208,1.953125
209,1.953125
210,1.953125
211,1.953125
212,3.906250
213,1.953125
214,3.906250
215,1.953125
216,3.906250
217,3.906250
218,3.906250
219,3.906250
220,3.906250
221,3.906250
222,3.906250
223,3.906250
224,3.906250
225,3.906250
226,3.906250
227,3.906250
228,3.906250
229,3.906250
230,3.906250
231,3.906250
232,3.906250
233,3.906250
234,3.906250
235,3.906250
236,3.906250
237,3.906250
238,3.906250
239,3.906250
240,3.906250
241,3.906250
242,3.906250
243,3.906250
244,3.906250
245,3.906250
246,3.906250
247,1.953125
248,3.906250
249,3.906250
250,1.953125
251,1.953125
252,1.953125
253,3.906250
254,1.953125
255,1.953125
256,1.953125
257,1.953125
258,1.953125
259,1.953125
260,1.953125
261,1.953125
262,1.953125
263,1.953125
264,1.953125
265,1.953125
266,1.953125
267,1.953125
268,0.000000
269,0.000000
270,0.000000
271,0.000000
272,0.000000
273,0.000000
274,0.000000
275,0.000000
276,0.000000
277,0.000000
278,0.000000
279,0.000000
280,0.000000
281,0.000000
282,0.000000
283,-1.953125
284,0.000000
285,-3.906250
286,-1.953125
287,-1.953125
288,-1.953125
289,-1.953125
290,-1.953125
291,-1.953125
292,-1.953125
293,-1.953125
294,-3.906250
295,-3.906250
296,-3.906250
297,-3.906250
298,-3.906250
299,-3.906250
300,-3.906250
301,-3.906250
302,-3.906250
303,-3.906250
304,-3.906250
305,-5.859375
306,-3.906250
307,-5.859375
308,-3.906250
309,-5.859375
310,-5.859375
311,-5.859375
312,-5.859375
313,-5.859375
314,-5.859375
315,-5.859375
316,-7.812500
317,-7.812500
318,-7.812500
319,-7.812500
320,-7.812500
321,-7.812500
322,-7.812500
323,-7.812500
324,-7.812500
325,-9.765625
326,-7.812500
327,-9.765625
328,-9.765625
329,-9.765625
330,-9.765625
331,-9.765625
332,-9.765625
333,-9.765625
334,-9.765625
335,-9.765625
336,-9.765625
337,-9.765625
338,-9.765625
339,-9.765625
340,-11.718750
341,-9.765625
342,-9.765625
343,-11.718750
344,-11.718750
345,-11.718750
346,-11.718750
347,-11.718750
348,-11.718750
349,-11.718750
350,-11.718750
351,-11.718750
352,-11.718750
353,-11.718750
354,-11.718750
355,-11.718750
356,-11.718750
357,-11.718750
358,-11.718750
359,-11.718750
360,-11.718750
361,-11.718750
362,-11.718750
363,-13.671875
364,-13.671875
365,-11.718750
366,-11.718750
367,-13.671875
368,-13.671875
369,-11.718750
370,-13.671875
371,-11.718750
372,-11.718750
373,-13.671875
374,-13.671875
375,-13.671875
376,-13.671875
377,-13.671875
378,-13.671875
379,-11.718750
380,-13.671875
381,-13.671875
382,-11.718750
383,-13.671875
384,-13.671875
385,-13.671875
386,-11.718750
387,-11.718750
388,-13.671875
389,-11.718750
390,-11.718750
391,-11.718750
392,-11.718750
393,-11.718750
394,-11.718750
395,-11.718750
396,-11.718750
397,-11.718750
398,-11.718750
399,-11.718750
400,-11.718750
401,-11.718750
402,-11.718750
403,-11.718750
404,-11.718750
405,-11.718750
406,-9.765625
407,-11.718750
408,-11.718750
409,-9.765625
410,-9.765625
411,-9.765625
412,-9.765625
413,-9.765625
414,-9.765625
415,-9.765625
416,-9.765625
417,-9.765625
418,-9.765625
419,-9.765625
420,-9.765625
421,-9.765625
422,-7.812500
423,-7.812500
424,-7.812500
425,-7.812500
426,-7.812500
427,-7.812500
428,-7.812500
429,-7.812500
430,-7.812500
431,-5.859375
432,-7.812500
433,-5.859375
434,-5.859375
435,-7.812500
436,-5.859375
437,-5.859375
438,-5.859375
439,-5.859375
440,-5.859375
441,-5.859375
442,-5.859375
443,-5.859375
444,-5.859375
445,-3.906250
446,-3.906250
447,-3.906250
448,-3.906250
449,-3.906250
450,-3.906250
451,-3.906250
452,-3.906250
453,-3.906250
454,-3.906250
455,-3.906250
456,-1.953125
457,-3.906250
458,-1.953125
459,-3.906250
460,-1.953125
461,-1.953125
462,-1.953125
463,-1.953125
464,-1.953125
465,0.000000
466,-1.953125
467,0.000000
468,-1.953125
469,0.000000
470,0.000000
471,0.000000
472,0.000000
473,0.000000
474,0.000000
475,0.000000
476,1.953125
477,0.000000
478,1.953125
479,0.000000
480,0.000000
481,1.953125
482,1.953125
483,1.953125
484,1.953125
485,1.953125
486,1.953125
487,1.953125
488,1.953125
489,1.953125
490,1.953125
491,1.953125
492,1.953125
493,1.953125
494,1.953125
495,1.953125
496,1.953125
497,3.906250
498,3.906250
499,1.953125
500,1.953125
501,1.953125
502,1.953125
503,3.906250
504,3.906250
505,1.953125
506,3.906250
507,1.953125
508,3.906250
509,3.906250
510,3.906250
511,1.953125
512,1.953125
513,1.953125
514,3.906250
515,3.906250
516,3.906250
517,3.906250
518,1.953125
519,1.953125
520,1.953125
521,3.906250
522,1.953125
523,3.906250
524,3.906250
525,1.953125
526,1.953125
527,3.906250
528,1.953125
529,1.953125
530,1.953125
531,1.953125
532,1.953125
533,1.953125
534,1.953125
535,1.953125
536,1.953125
537,1.953125
538,1.953125
539,1.953125
540,1.953125
541,1.953125
542,1.953125
543,1.953125
544,1.953125
545,1.953125
546,1.953125
547,1.953125
548,1.953125
549,1.953125
550,1.953125
551,0.000000
552,0.000000
553,0.000000
554,1.953125
555,0.000000
556,0.000000
557,0.000000
558,0.000000
559,0.000000
560,0.000000
561,0.000000
562,0.000000
563,0.000000
564,0.000000
565,-1.953125
566,-1.953125
567,-1.953125
568,-1.953125
569,-1.953125
570,-1.953125
571,-1.953125
572,-1.953125
573,-3.906250
574,-1.953125
575,-3.906250
576,-1.953125
577,-3.906250
578,-3.906250
579,-3.906250
580,-3.906250
581,-3.906250
582,-3.906250
583,-3.906250
584,-3.906250
585,-5.859375
586,-3.906250
587,-3.906250
588,-5.859375
589,-5.859375
590,-5.859375
591,-5.859375
592,-5.859375
593,-5.859375
594,-5.859375
595,-7.812500
596,-5.859375
597,-7.812500
598,-7.812500
599,-5.859375
600,-7.812500
601,-7.812500
602,-7.812500
603,-7.812500
604,-7.812500
605,-7.812500
606,-7.812500
607,-7.812500
608,-7.812500
609,-7.812500
610,-9.765625
611,-7.812500
612,-7.812500
613,-9.765625
614,-9.765625
615,-9.765625
616,-9.765625
617,-9.765625
618,-9.765625
619,-9.765625
620,-9.765625
621,-9.765625
622,-11.718750
623,-9.765625
624,-9.765625
625,-11.718750
626,-11.718750
627,-11.718750
628,-9.765625
629,-11.718750
630,-11.718750
631,-11.718750
632,-11.718750
633,-11.718750
634,-11.718750
635,-11.718750
636,-11.718750
637,-11.718750
638,-13.671875
639,-11.718750
640,-11.718750
641,-13.671875
642,-13.671875
643,-13.671875
644,-11.718750
645,-11.718750
646,-11.718750
647,-13.671875
648,-11.718750
649,-13.671875
650,-13.671875
651,-13.671875
652,-13.671875
653,-13.671875
654,-13.671875
655,-13.671875
656,-13.671875
657,-13.671875
658,-13.671875
659,-13.671875
660,-13.671875
661,-13.671875
662,-13.671875
663,-13.671875
664,-13.671875
665,-13.671875
666,-13.671875
667,-13.671875
668,-13.671875
669,-13.671875
670,-13.671875
671,-11.718750
672,-13.671875
673,-11.718750
674,-11.718750
675,-11.718750
676,-13.671875
677,-11.718750
678,-9.765625
679,-13.671875
680,-11.718750
681,-13.671875
682,-11.718750
683,-11.718750
684,-11.718750
685,-11.718750
686,-11.718750
687,-11.718750
688,-11.718750
689,-11.718750
690,-11.718750
691,-11.718750
692,-11.718750
693,-11.718750
694,-9.765625
695,-9.765625
696,-11.718750
697,-9.765625
698,-9.765625
699,-9.765625
700,-9.765625
701,-9.765625
702,-9.765625
703,-9.765625
704,-9.765625
705,-9.765625
706,-7.812500
707,-9.765625
708,-7.812500
709,-7.812500
710,-7.812500
711,-7.812500
712,-9.765625
713,-7.812500
714,-7.812500
715,-5.859375
716,-7.812500
717,-7.812500
718,-7.812500
719,-7.812500
720,-5.859375
721,-5.859375
722,-5.859375
723,-5.859375
724,-5.859375
725,-5.859375
726,-5.859375
727,-5.859375
728,-5.859375
729,-3.906250
730,-3.906250
731,-3.906250
732,-3.906250
733,-3.906250
734,-3.906250
735,-3.906250
736,-3.906250
737,-3.906250
738,-3.906250
739,-1.953125
740,-1.953125
741,-1.953125
742,-1.953125
743,-1.953125
744,-1.953125
745,-1.953125
746,-1.953125
747,-1.953125
748,-1.953125
749,0.000000
750,0.000000
751,0.000000
752,0.000000
753,0.000000
754,0.000000
755,0.000000
756,0.000000
757,0.000000
758,0.000000
759,0.000000
760,0.000000
761,1.953125
762,0.000000
763,0.000000
764,1.953125
765,1.953125
766,1.953125
767,1.953125
768,1.953125
769,1.953125
770,1.953125
771,1.953125
772,1.953125
773,1.953125
774,1.953125
775,1.953125
776,1.953125
777,1.953125
778,1.953125
779,1.953125
780,1.953125
781,1.953125
782,1.953125
783,1.953125
784,3.906250
785,3.906250
786,1.953125
787,1.953125
788,3.906250
789,3.906250
790,3.906250
791,3.906250
792,3.906250
793,3.906250
794,3.906250
795,3.906250
796,3.906250
797,3.906250
798,3.906250
799,3.906250
800,3.906250
801,3.906250
802,3.906250
803,3.906250
804,3.906250
805,3.906250
806,3.906250
807,3.906250
808,3.906250
809,3.906250
810,3.906250
811,1.953125
812,3.906250
813,3.906250
814,1.953125
815,3.906250
816,3.906250
817,3.906250
818,3.906250
819,3.906250
820,1.953125
821,1.953125
822,1.953125
823,1.953125
824,1.953125
825,1.953125
826,1.953125
827,1.953125
828,1.953125
829,1.953125
830,1.953125
831,1.953125
832,1.953125
833,1.953125
834,0.000000
835,0.000000
836,0.000000
837,0.000000
838,0.000000
839,0.000000
840,0.000000
841,0.000000
842,0.000000
843,-1.953125
844,0.000000
845,0.000000
846,-1.953125
847,0.000000
848,0.000000
849,-1.953125
850,-1.953125
851,-1.953125
852,0.000000
853,-1.953125
854,-1.953125
855,-1.953125
856,-1.953125
857,-1.953125
858,-1.953125
859,-1.953125
860,-1.953125
861,-1.953125
862,-1.953125
863,-3.906250
864,-3.906250
865,-3.906250
866,-3.906250
867,-3.906250
868,-3.906250
869,-3.906250
870,-3.906250
871,-5.859375
872,-3.906250
873,-3.906250
874,-3.906250
875,-5.859375
876,-5.859375
877,-5.859375
878,-5.859375
879,-5.859375
880,-5.859375
881,-5.859375
882,-5.859375
883,-5.859375
884,-7.812500
885,-7.812500
886,-7.812500
887,-7.812500
888,-7.812500
889,-7.812500
890,-7.812500
891,-7.812500
892,-7.812500
893,-7.812500
894,-9.765625
895,-7.812500
896,-9.765625
897,-9.765625
898,-9.765625
899,-9.765625
900,-9.765625
901,-9.765625
902,-9.765625
903,-9.765625
904,-9.765625
905,-9.765625
906,-9.765625
907,-9.765625
908,-11.718750
909,-11.718750
910,-11.718750
911,-11.718750
912,-11.718750
913,-11.718750
914,-11.718750
915,-11.718750
916,-11.718750
917,-11.718750
918,-11.718750
919,-11.718750
920,-11.718750
921,-11.718750
922,-11.718750
923,-11.718750
924,-11.718750
925,-11.718750
926,-13.671875
927,-11.718750
928,-13.671875
929,-11.718750
930,-13.671875
931,-13.671875
932,-11.718750
933,-13.671875
934,-11.718750
935,-13.671875
936,-13.671875
937,-13.671875
938,-11.718750
939,-13.671875
940,-13.671875
941,-13.671875
942,-13.671875
943,-13.671875
944,-13.671875
945,-13.671875
946,-13.671875
947,-13.671875
948,-13.671875
949,-13.671875
950,-13.671875
951,-13.671875
952,-13.671875
953,-13.671875
954,-13.671875
955,-13.671875
956,-13.671875
957,-13.671875
958,-11.718750
959,-13.671875
960,-13.671875
961,-13.671875
962,-13.671875
963,-11.718750
964,-11.718750
965,-11.718750
966,-11.718750
967,-11.718750
968,-11.718750
969,-11.718750
970,-11.718750
971,-11.718750
972,-11.718750
973,-11.718750
974,-11.718750
975,-11.718750
976,-11.718750
977,-11.718750
978,-11.718750
979,-11.718750
980,-9.765625
981,-9.765625
982,-9.765625
983,-9.765625
984,-9.765625
985,-9.765625
986,-9.765625
987,-9.765625
988,-9.765625
989,-7.812500
990,-9.765625
991,-7.812500
992,-7.812500
993,-7.812500
994,-7.812500
995,-7.812500
996,-7.812500
997,-7.812500
998,-7.812500
999,-7.812500
1000,-7.812500
1001,-5.859375
1002,-7.812500
1003,-7.812500
1004,-5.859375
1005,-5.859375
1006,-5.859375
1007,-5.859375
1008,-5.859375
1009,-5.859375
1010,-5.859375
1011,-5.859375
1012,-5.859375
1013,-3.906250
1014,-3.906250
1015,-3.906250
1016,-3.906250
1017,-3.906250
1018,-3.906250
1019,-3.906250
1020,-3.906250
1021,-3.906250
1022,-3.906250
1023,-3.906250
1024,-3.906250
1025,-1.953125
1026,-1.953125
1027,-1.953125
1028,-1.953125
1029,-1.953125
1030,-1.953125
1031,-1.953125
1032,-1.953125
1033,-1.953125
1034,-1.953125
1035,0.000000
1036,-1.953125
1037,0.000000
1038,0.000000
1039,0.000000
1040,0.000000
1041,0.000000
1042,0.000000
1043,0.000000
1044,0.000000
1045,0.000000
1046,0.000000
1047,0.000000
1048,0.000000
1049,0.000000
1050,0.000000
1051,1.953125
1052,1.953125
1053,0.000000
1054,1.953125
1055,1.953125
1056,1.953125
1057,1.953125
1058,1.953125
1059,1.953125
1060,1.953125
1061,1.953125
1062,1.953125
1063,1.953125
1064,3.906250
1065,1.953125
1066,1.953125
1067,3.906250
1068,1.953125
1069,1.953125
1070,1.953125
1071,1.953125
1072,3.906250
1073,1.953125
1074,3.906250
1075,3.906250
1076,3.906250
1077,3.906250
1078,3.906250
1079,3.906250
1080,1.953125
1081,3.906250
1082,3.906250
1083,1.953125
1084,3.906250
1085,1.953125
1086,3.906250
1087,3.906250
1088,1.953125
1089,3.906250
1090,3.906250
1091,1.953125
1092,3.906250
1093,1.953125
1094,1.953125
1095,1.953125
1096,3.906250
1097,1.953125
1098,1.953125
1099,1.953125
1100,1.953125
1101,1.953125
1102,1.953125
1103,1.953125
1104,1.953125
1105,1.953125
1106,1.953125
1107,1.953125
1108,1.953125
1109,1.953125
1110,1.953125
1111,1.953125
1112,1.953125
1113,1.953125
1114,1.953125
1115,1.953125
1116,1.953125
1117,0.000000
1118,0.000000
1119,1.953125
1120,1.953125
1121,0.000000
1122,0.000000
1123,0.000000
1124,0.000000
1125,0.000000
1126,0.000000
1127,0.000000
1128,0.000000
1129,0.000000
1130,0.000000
1131,0.000000
1132,0.000000
1133,-1.953125
1134,-1.953125
1135,0.000000
1136,-1.953125
1137,-1.953125
1138,-1.953125
1139,-1.953125
1140,-1.953125
1141,-1.953125
1142,-1.953125
1143,-1.953125
1144,-1.953125
1145,-1.953125
1146,-3.906250
1147,-1.953125
1148,-3.906250
1149,-3.906250
1150,-3.906250
1151,-3.906250
1152,-3.906250
1153,-3.906250
1154,-5.859375
1155,-5.859375
1156,-3.906250
1157,-3.906250
1158,-5.859375
1159,-5.859375
1160,-5.859375
1161,-5.859375
1162,-5.859375
1163,-5.859375
1164,-5.859375
1165,-7.812500
1166,-7.812500
1167,-5.859375
1168,-7.812500
1169,-7.812500
1170,-7.812500
1171,-7.812500
1172,-7.812500
1173,-7.812500
1174,-7.812500
1175,-7.812500
1176,-9.765625
1177,-9.765625
1178,-9.765625
1179,-9.765625
1180,-9.765625
1181,-9.765625
1182,-9.765625
1183,-9.765625
1184,-9.765625
1185,-9.765625
1186,-9.765625
1187,-9.765625
1188,-9.765625
1189,-9.765625
1190,-9.765625
1191,-9.765625
1192,-9.765625
1193,-9.765625
1194,-11.718750
1195,-11.718750
1196,-9.765625
1197,-11.718750
1198,-11.718750
1199,-11.718750
1200,-11.718750
1201,-11.718750
1202,-11.718750
1203,-11.718750
1204,-11.718750
1205,-11.718750
1206,-11.718750
1207,-11.718750
1208,-11.718750
1209,-11.718750
1210,-11.718750
1211,-13.671875
1212,-13.671875
1213,-11.718750
1214,-13.671875
1215,-13.671875
1216,-13.671875
1217,-13.671875
1218,-11.718750
1219,-13.671875
1220,-13.671875
1221,-13.671875
1222,-13.671875
1223,-13.671875
1224,-13.671875
1225,-13.671875
1226,-13.671875
1227,-13.671875
1228,-13.671875
1229,-13.671875
1230,-13.671875
1231,-13.671875
1232,-13.671875
1233,-13.671875
1234,-13.671875
1235,-13.671875
1236,-13.671875
1237,-13.671875
1238,-11.718750
1239,-13.671875
1240,-11.718750
1241,-13.671875
1242,-11.718750
1243,-13.671875
1244,-11.718750
1245,-11.718750
1246,-11.718750
1247,-11.718750
1248,-11.718750
1249,-11.718750
1250,-11.718750
1251,-11.718750
1252,-11.718750
1253,-11.718750
1254,-11.718750
1255,-11.718750
1256,-11.718750
1257,-11.718750
1258,-11.718750
1259,-11.718750
1260,-11.718750
1261,-11.718750
1262,-9.765625
1263,-9.765625
1264,-9.765625
1265,-9.765625
1266,-9.765625
1267,-9.765625
1268,-9.765625
1269,-9.765625
1270,-9.765625
1271,-9.765625
1272,-9.765625
1273,-9.765625
1274,-7.812500
1275,-9.765625
1276,-9.765625
1277,-7.812500
1278,-7.812500
1279,-7.812500
1280,-7.812500
1281,-7.812500
1282,-7.812500
1283,-7.812500
1284,-7.812500
1285,-7.812500
1286,-7.812500
1287,-7.812500
1288,-5.859375
1289,-5.859375
1290,-5.859375
1291,-5.859375
1292,-5.859375
1293,-5.859375
1294,-5.859375
1295,-5.859375
1296,-5.859375
1297,-5.859375
1298,-5.859375
1299,-3.906250
1300,-3.906250
1301,-3.906250
1302,-3.906250
1303,-3.906250
1304,-3.906250
1305,-3.906250
1306,-3.906250
1307,-1.953125
1308,-3.906250
1309,-3.906250
1310,-1.953125
1311,-1.953125
1312,-1.953125
1313,-1.953125
1314,-1.953125
1315,-1.953125
1316,-1.953125
1317,-1.953125
1318,0.000000
1319,-1.953125
1320,-1.953125
1321,0.000000
1322,0.000000
1323,0.000000
1324,0.000000
1325,0.000000
1326,0.000000
1327,0.000000
1328,1.953125
1329,0.000000
1330,0.000000
1331,0.000000
1332,1.953125
1333,1.953125
1334,1.953125
1335,1.953125
1336,0.000000
1337,1.953125
1338,1.953125
1339,1.953125
1340,1.953125
1341,1.953125
1342,1.953125
1343,1.953125
1344,1.953125
1345,1.953125
1346,1.953125
1347,1.953125
1348,1.953125
1349,1.953125
1350,1.953125
1351,3.906250
1352,1.953125
1353,1.953125
1354,1.953125
1355,1.953125
1356,1.953125
1357,1.953125
1358,3.906250
1359,3.906250
1360,1.953125
1361,1.953125
1362,3.906250
1363,3.906250
1364,3.906250
1365,1.953125
1366,3.906250
1367,1.953125
1368,1.953125
1369,3.906250
1370,3.906250
1371,3.906250
1372,3.906250
1373,3.906250
1374,3.906250
1375,3.906250
1376,3.906250
1377,3.906250
1378,3.906250
1379,3.906250
1380,3.906250
1381,3.906250
1382,1.953125
1383,3.906250
1384,3.906250
1385,3.906250
1386,1.953125
1387,1.953125
1388,3.906250
1389,1.953125
1390,3.906250
1391,3.906250
1392,1.953125
1393,1.953125
1394,1.953125
1395,1.953125
1396,1.953125
1397,1.953125
1398,1.953125
1399,1.953125
1400,3.906250
