Practicum8/data/opgave5/opgave5_freq3/data_81_000.csv

Channel              :,CH1
Frequency            :,1.759kHz
Period               :,0.568ms
PK-PK                :,179.7mV
Probe attenuation    :,1X
Voltage per ADC value:,0.122070mV
Time interval        :,2.00000us

index,CH1_Voltage(mV)
1,58.593750
2,58.593750
3,56.640625
4,54.687500
5,54.687500
6,52.734375
7,50.781250
8,50.781250
9,48.828125
10,46.875000
11,46.875000
12,42.968750
13,42.968750
14,41.015625
15,39.062500
16,37.109375
17,37.109375
18,35.156250
19,33.203125
20,31.250000
21,29.296875
22,27.343750
23,25.390625
24,23.437500
25,21.484375
26,21.484375
27,19.531250
28,17.578125
29,15.625000
30,13.671875
31,11.718750
32,9.765625
33,7.812500
34,5.859375
35,3.906250
36,1.953125
37,-1.953125
38,-1.953125
39,-3.906250
40,-5.859375
41,-7.812500
42,-9.765625
43,-11.718750
44,-13.671875
45,-15.625000
46,-17.578125
47,-19.531250
48,-21.484375
49,-23.437500
50,-25.390625
51,-27.343750
52,-29.296875
53,-31.250000
54,-33.203125
55,-35.156250
56,-37.109375
57,-39.062500
58,-41.015625
59,-41.015625
60,-44.921875
61,-46.875000
62,-48.828125
63,-48.828125
64,-50.781250
65,-52.734375
66,-54.687500
67,-56.640625
68,-58.593750
69,-60.546875
70,-60.546875
71,-62.500000
72,-64.453125
73,-64.453125
74,-68.359375
75,-68.359375
76,-70.312500
77,-72.265625
78,-74.218750
79,-74.218750
80,-74.218750
81,-78.125000
82,-78.125000
83,-80.078125
84,-80.078125
85,-82.031250
86,-83.984375
87,-83.984375
88,-85.937500
89,-83.984375
90,-85.937500
91,-87.890625
92,-89.843750
93,-89.843750
94,-89.843750
95,-89.843750
96,-91.796875
97,-91.796875
98,-91.796875
99,-93.750000
100,-93.750000
101,-93.750000
102,-95.703125
103,-95.703125
104,-95.703125
105,-95.703125
106,-95.703125
107,-95.703125
108,-95.703125
109,-95.703125
110,-95.703125
111,-95.703125
112,-95.703125
113,-95.703125
114,-95.703125
115,-95.703125
116,-93.750000
117,-93.750000
118,-93.750000
119,-93.750000
120,-93.750000
121,-91.796875
122,-91.796875
123,-91.796875
124,-89.843750
125,-89.843750
126,-89.843750
127,-87.890625
128,-87.890625
129,-85.937500
130,-85.937500
131,-85.937500
132,-83.984375
133,-82.031250
134,-82.031250
135,-82.031250
136,-80.078125
137,-78.125000
138,-78.125000
139,-76.171875
140,-74.218750
141,-72.265625
142,-72.265625
143,-70.312500
144,-68.359375
145,-68.359375
146,-66.406250
147,-64.453125
148,-62.500000
149,-62.500000
150,-60.546875
151,-58.593750
152,-56.640625
153,-54.687500
154,-54.687500
155,-52.734375
156,-50.781250
157,-48.828125
158,-46.875000
159,-44.921875
160,-42.968750
161,-41.015625
162,-39.062500
163,-37.109375
164,-35.156250
165,-35.156250
166,-33.203125
167,-31.250000
168,-27.343750
169,-25.390625
170,-23.437500
171,-21.484375
172,-19.531250
173,-17.578125
174,-17.578125
175,-13.671875
176,-11.718750
177,-9.765625
178,-7.812500
179,-5.859375
180,-3.906250
181,-3.906250
182,0.000000
183,1.953125
184,3.906250
185,5.859375
186,5.859375
187,7.812500
188,11.718750
189,13.671875
190,15.625000
191,17.578125
192,19.531250
193,21.484375
194,21.484375
195,23.437500
196,25.390625
197,27.343750
198,29.296875
199,31.250000
200,33.203125
201,33.203125
202,35.156250
203,37.109375
204,39.062500
205,41.015625
206,41.015625
207,42.968750
208,44.921875
209,44.921875
210,48.828125
211,48.828125
212,50.781250
213,52.734375
214,54.687500
215,54.687500
216,56.640625
217,56.640625
218,58.593750
219,60.546875
220,60.546875
221,62.500000
222,62.500000
223,64.453125
224,64.453125
225,66.406250
226,68.359375
227,68.359375
228,68.359375
229,70.312500
230,70.312500
231,72.265625
232,72.265625
233,72.265625
234,74.218750
235,74.218750
236,76.171875
237,76.171875
238,76.171875
239,76.171875
240,76.171875
241,76.171875
242,78.125000
243,78.125000
244,78.125000
245,78.125000
246,78.125000
247,80.078125
248,80.078125
249,80.078125
250,80.078125
251,80.078125
252,80.078125
253,80.078125
254,80.078125
255,80.078125
256,80.078125
257,80.078125
258,78.125000
259,80.078125
260,80.078125
261,78.125000
262,78.125000
263,78.125000
264,78.125000
265,76.171875
266,76.171875
267,76.171875
268,76.171875
269,74.218750
270,74.218750
271,72.265625
272,72.265625
273,72.265625
274,70.312500
275,70.312500
276,70.312500
277,68.359375
278,66.406250
279,66.406250
280,66.406250
281,64.453125
282,62.500000
283,64.453125
284,60.546875
285,58.593750
286,58.593750
287,56.640625
288,56.640625
289,54.687500
290,52.734375
291,50.781250
292,50.781250
293,48.828125
294,48.828125
295,46.875000
296,44.921875
297,42.968750
298,41.015625
299,39.062500
300,39.062500
301,37.109375
302,35.156250
303,33.203125
304,33.203125
305,29.296875
306,29.296875
307,27.343750
308,25.390625
309,23.437500
310,21.484375
311,19.531250
312,17.578125
313,15.625000
314,13.671875
315,11.718750
316,9.765625
317,7.812500
318,5.859375
319,3.906250
320,3.906250
321,0.000000
322,-1.953125
323,-1.953125
324,-5.859375
325,-5.859375
326,-9.765625
327,-11.718750
328,-13.671875
329,-15.625000
330,-17.578125
331,-19.531250
332,-21.484375
333,-23.437500
334,-23.437500
335,-27.343750
336,-29.296875
337,-31.250000
338,-33.203125
339,-35.156250
340,-35.156250
341,-39.062500
342,-41.015625
343,-41.015625
344,-42.968750
345,-46.875000
346,-46.875000
347,-48.828125
348,-50.781250
349,-52.734375
350,-54.687500
351,-56.640625
352,-58.593750
353,-58.593750
354,-60.546875
355,-62.500000
356,-64.453125
357,-66.406250
358,-66.406250
359,-68.359375
360,-70.312500
361,-70.312500
362,-72.265625
363,-74.218750
364,-74.218750
365,-76.171875
366,-78.125000
367,-78.125000
368,-80.078125
369,-82.031250
370,-82.031250
371,-83.984375
372,-83.984375
373,-85.937500
374,-85.937500
375,-85.937500
376,-87.890625
377,-87.890625
378,-89.843750
379,-89.843750
380,-89.843750
381,-91.796875
382,-91.796875
383,-91.796875
384,-93.750000
385,-93.750000
386,-93.750000
387,-93.750000
388,-93.750000
389,-93.750000
390,-95.703125
391,-95.703125
392,-95.703125
393,-95.703125
394,-95.703125
395,-93.750000
396,-95.703125
397,-95.703125
398,-93.750000
399,-95.703125
400,-93.750000
401,-93.750000
402,-93.750000
403,-93.750000
404,-93.750000
405,-91.796875
406,-91.796875
407,-91.796875
408,-89.843750
409,-89.843750
410,-89.843750
411,-87.890625
412,-87.890625
413,-87.890625
414,-85.937500
415,-85.937500
416,-83.984375
417,-83.984375
418,-82.031250
419,-82.031250
420,-80.078125
421,-80.078125
422,-78.125000
423,-76.171875
424,-76.171875
425,-74.218750
426,-74.218750
427,-70.312500
428,-70.312500
429,-68.359375
430,-66.406250
431,-66.406250
432,-64.453125
433,-62.500000
434,-60.546875
435,-58.593750
436,-56.640625
437,-56.640625
438,-54.687500
439,-52.734375
440,-50.781250
441,-48.828125
442,-46.875000
443,-44.921875
444,-42.968750
445,-41.015625
446,-39.062500
447,-37.109375
448,-35.156250
449,-35.156250
450,-33.203125
451,-29.296875
452,-27.343750
453,-25.390625
454,-25.390625
455,-23.437500
456,-21.484375
457,-19.531250
458,-17.578125
459,-15.625000
460,-13.671875
461,-11.718750
462,-9.765625
463,-7.812500
464,-5.859375
465,-3.906250
466,-1.953125
467,0.000000
468,1.953125
469,3.906250
470,5.859375
471,7.812500
472,9.765625
473,11.718750
474,13.671875
475,15.625000
476,17.578125
477,19.531250
478,23.437500
479,23.437500
480,23.437500
481,25.390625
482,29.296875
483,29.296875
484,31.250000
485,33.203125
486,35.156250
487,35.156250
488,39.062500
489,39.062500
490,41.015625
491,42.968750
492,44.921875
493,44.921875
494,46.875000
495,48.828125
496,50.781250
497,50.781250
498,52.734375
499,54.687500
500,54.687500
501,56.640625
502,58.593750
503,58.593750
504,60.546875
505,62.500000
506,62.500000
507,64.453125
508,64.453125
509,66.406250
510,66.406250
511,68.359375
512,68.359375
513,70.312500
514,70.312500
515,72.265625
516,72.265625
517,72.265625
518,72.265625
519,74.218750
520,74.218750
521,74.218750
522,76.171875
523,76.171875
524,76.171875
525,76.171875
526,78.125000
527,78.125000
528,78.125000
529,78.125000
530,78.125000
531,78.125000
532,78.125000
533,80.078125
534,78.125000
535,78.125000
536,80.078125
537,80.078125
538,78.125000
539,78.125000
540,78.125000
541,78.125000
542,78.125000
543,78.125000
544,78.125000
545,78.125000
546,78.125000
547,78.125000
548,76.171875
549,76.171875
550,76.171875
551,74.218750
552,74.218750
553,74.218750
554,72.265625
555,72.265625
556,72.265625
557,72.265625
558,70.312500
559,70.312500
560,68.359375
561,68.359375
562,66.406250
563,66.406250
564,64.453125
565,64.453125
566,62.500000
567,62.500000
568,60.546875
569,58.593750
570,58.593750
571,56.640625
572,54.687500
573,54.687500
574,52.734375
575,50.781250
576,50.781250
577,48.828125
578,46.875000
579,46.875000
580,44.921875
581,42.968750
582,41.015625
583,39.062500
584,37.109375
585,37.109375
586,35.156250
587,33.203125
588,31.250000
589,29.296875
590,29.296875
591,27.343750
592,25.390625
593,23.437500
594,21.484375
595,19.531250
596,17.578125
597,15.625000
598,13.671875
599,11.718750
600,9.765625
601,7.812500
602,5.859375
603,3.906250
604,1.953125
605,0.000000
606,-1.953125
607,-3.906250
608,-5.859375
609,-7.812500
610,-9.765625
611,-11.718750
612,-13.671875
613,-15.625000
614,-17.578125
615,-19.531250
616,-21.484375
617,-23.437500
618,-25.390625
619,-27.343750
620,-29.296875
621,-31.250000
622,-33.203125
623,-35.156250
624,-37.109375
625,-39.062500
626,-41.015625
627,-41.015625
628,-42.968750
629,-44.921875
630,-46.875000
631,-48.828125
632,-50.781250
633,-52.734375
634,-54.687500
635,-56.640625
636,-58.593750
637,-58.593750
638,-60.546875
639,-62.500000
640,-64.453125
641,-66.406250
642,-66.406250
643,-68.359375
644,-70.312500
645,-70.312500
646,-72.265625
647,-74.218750
648,-74.218750
649,-76.171875
650,-78.125000
651,-78.125000
652,-80.078125
653,-82.031250
654,-82.031250
655,-83.984375
656,-83.984375
657,-85.937500
658,-85.937500
659,-87.890625
660,-87.890625
661,-87.890625
662,-89.843750
663,-89.843750
664,-89.843750
665,-91.796875
666,-91.796875
667,-91.796875
668,-91.796875
669,-93.750000
670,-93.750000
671,-93.750000
672,-93.750000
673,-95.703125
674,-95.703125
675,-95.703125
676,-95.703125
677,-95.703125
678,-95.703125
679,-95.703125
680,-95.703125
681,-95.703125
682,-95.703125
683,-95.703125
684,-93.750000
685,-93.750000
686,-93.750000
687,-93.750000
688,-93.750000
689,-91.796875
690,-91.796875
691,-91.796875
692,-89.843750
693,-89.843750
694,-89.843750
695,-87.890625
696,-87.890625
697,-85.937500
698,-85.937500
699,-85.937500
700,-83.984375
701,-82.031250
702,-82.031250
703,-82.031250
704,-80.078125
705,-78.125000
706,-76.171875
707,-76.171875
708,-74.218750
709,-74.218750
710,-72.265625
711,-70.312500
712,-68.359375
713,-68.359375
714,-66.406250
715,-64.453125
716,-62.500000
717,-60.546875
718,-60.546875
719,-58.593750
720,-56.640625
721,-54.687500
722,-52.734375
723,-52.734375
724,-50.781250
725,-48.828125
726,-46.875000
727,-44.921875
728,-42.968750
729,-42.968750
730,-39.062500
731,-39.062500
732,-35.156250
733,-33.203125
734,-31.250000
735,-31.250000
736,-29.296875
737,-27.343750
738,-23.437500
739,-21.484375
740,-21.484375
741,-19.531250
742,-15.625000
743,-13.671875
744,-13.671875
745,-11.718750
746,-9.765625
747,-7.812500
748,-5.859375
749,-3.906250
750,-1.953125
751,0.000000
752,3.906250
753,3.906250
754,7.812500
755,7.812500
756,9.765625
757,11.718750
758,13.671875
759,15.625000
760,17.578125
761,19.531250
762,21.484375
763,23.437500
764,25.390625
765,27.343750
766,29.296875
767,29.296875
768,31.250000
769,33.203125
770,35.156250
771,37.109375
772,39.062500
773,41.015625
774,41.015625
775,42.968750
776,44.921875
777,46.875000
778,46.875000
779,50.781250
780,50.781250
781,52.734375
782,52.734375
783,54.687500
784,54.687500
785,56.640625
786,58.593750
787,60.546875
788,60.546875
789,62.500000
790,62.500000
791,64.453125
792,64.453125
793,66.406250
794,66.406250
795,68.359375
796,68.359375
797,70.312500
798,70.312500
799,72.265625
800,72.265625
801,72.265625
802,72.265625
803,74.218750
804,74.218750
805,76.171875
806,76.171875
807,76.171875
808,76.171875
809,76.171875
810,78.125000
811,78.125000
812,78.125000
813,80.078125
814,78.125000
815,78.125000
816,80.078125
817,80.078125
818,80.078125
819,80.078125
820,80.078125
821,80.078125
822,80.078125
823,80.078125
824,80.078125
825,80.078125
826,80.078125
827,78.125000
828,78.125000
829,78.125000
830,78.125000
831,78.125000
832,78.125000
833,76.171875
834,76.171875
835,76.171875
836,76.171875
837,74.218750
838,74.218750
839,74.218750
840,72.265625
841,72.265625
842,72.265625
843,70.312500
844,70.312500
845,68.359375
846,68.359375
847,66.406250
848,64.453125
849,64.453125
850,62.500000
851,62.500000
852,60.546875
853,60.546875
854,58.593750
855,56.640625
856,56.640625
857,54.687500
858,52.734375
859,52.734375
860,50.781250
861,48.828125
862,48.828125
863,46.875000
864,44.921875
865,42.968750
866,41.015625
867,42.968750
868,39.062500
869,37.109375
870,35.156250
871,33.203125
872,31.250000
873,29.296875
874,29.296875
875,27.343750
876,25.390625
877,23.437500
878,21.484375
879,19.531250
880,17.578125
881,15.625000
882,13.671875
883,11.718750
884,9.765625
885,7.812500
886,5.859375
887,3.906250
888,1.953125
889,1.953125
890,0.000000
891,-1.953125
892,-5.859375
893,-7.812500
894,-9.765625
895,-11.718750
896,-13.671875
897,-13.671875
898,-15.625000
899,-19.531250
900,-21.484375
901,-23.437500
902,-25.390625
903,-25.390625
904,-27.343750
905,-29.296875
906,-33.203125
907,-35.156250
908,-35.156250
909,-37.109375
910,-39.062500
911,-41.015625
912,-42.968750
913,-44.921875
914,-46.875000
915,-48.828125
916,-50.781250
917,-52.734375
918,-54.687500
919,-56.640625
920,-56.640625
921,-58.593750
922,-60.546875
923,-62.500000
924,-64.453125
925,-64.453125
926,-66.406250
927,-68.359375
928,-70.312500
929,-72.265625
930,-72.265625
931,-74.218750
932,-76.171875
933,-76.171875
934,-78.125000
935,-78.125000
936,-80.078125
937,-82.031250
938,-83.984375
939,-83.984375
940,-83.984375
941,-85.937500
942,-85.937500
943,-85.937500
944,-87.890625
945,-87.890625
946,-89.843750
947,-89.843750
948,-91.796875
949,-91.796875
950,-91.796875
951,-93.750000
952,-93.750000
953,-93.750000
954,-93.750000
955,-93.750000
956,-95.703125
957,-95.703125
958,-95.703125
959,-95.703125
960,-95.703125
961,-95.703125
962,-95.703125
963,-95.703125
964,-95.703125
965,-95.703125
966,-93.750000
967,-93.750000
968,-93.750000
969,-93.750000
970,-93.750000
971,-91.796875
972,-93.750000
973,-91.796875
974,-91.796875
975,-91.796875
976,-91.796875
977,-89.843750
978,-89.843750
979,-87.890625
980,-87.890625
981,-87.890625
982,-85.937500
983,-85.937500
984,-83.984375
985,-83.984375
986,-82.031250
987,-82.031250
988,-80.078125
989,-78.125000
990,-78.125000
991,-76.171875
992,-76.171875
993,-74.218750
994,-72.265625
995,-72.265625
996,-70.312500
997,-68.359375
998,-66.406250
999,-66.406250
1000,-64.453125
1001,-62.500000
1002,-60.546875
1003,-60.546875
1004,-58.593750
1005,-56.640625
1006,-54.687500
1007,-52.734375
1008,-50.781250
1009,-48.828125
1010,-46.875000
1011,-44.921875
1012,-44.921875
1013,-42.968750
1014,-41.015625
1015,-39.062500
1016,-35.156250
1017,-35.156250
1018,-33.203125
1019,-31.250000
1020,-29.296875
1021,-27.343750
1022,-25.390625
1023,-23.437500
1024,-21.484375
1025,-19.531250
1026,-17.578125
1027,-15.625000
1028,-13.671875
1029,-11.718750
1030,-9.765625
1031,-7.812500
1032,-5.859375
1033,-3.906250
1034,-1.953125
1035,0.000000
1036,1.953125
1037,3.906250
1038,5.859375
1039,7.812500
1040,9.765625
1041,11.718750
1042,13.671875
1043,15.625000
1044,17.578125
1045,17.578125
1046,21.484375
1047,21.484375
1048,25.390625
1049,25.390625
1050,27.343750
1051,29.296875
1052,31.250000
1053,33.203125
1054,33.203125
1055,37.109375
1056,37.109375
1057,39.062500
1058,41.015625
1059,42.968750
1060,44.921875
1061,44.921875
1062,46.875000
1063,48.828125
1064,48.828125
1065,50.781250
1066,52.734375
1067,52.734375
1068,54.687500
1069,56.640625
1070,56.640625
1071,58.593750
1072,60.546875
1073,60.546875
1074,62.500000
1075,62.500000
1076,64.453125
1077,66.406250
1078,66.406250
1079,66.406250
1080,68.359375
1081,70.312500
1082,70.312500
1083,70.312500
1084,72.265625
1085,72.265625
1086,72.265625
1087,74.218750
1088,74.218750
1089,76.171875
1090,74.218750
1091,76.171875
1092,76.171875
1093,76.171875
1094,78.125000
1095,78.125000
1096,78.125000
1097,78.125000
1098,78.125000
1099,78.125000
1100,80.078125
1101,80.078125
1102,80.078125
1103,80.078125
1104,80.078125
1105,80.078125
1106,80.078125
1107,80.078125
1108,80.078125
1109,78.125000
1110,80.078125
1111,78.125000
1112,78.125000
1113,78.125000
1114,78.125000
1115,78.125000
1116,76.171875
1117,76.171875
1118,76.171875
1119,74.218750
1120,74.218750
1121,74.218750
1122,74.218750
1123,72.265625
1124,72.265625
1125,70.312500
1126,70.312500
1127,70.312500
1128,68.359375
1129,68.359375
1130,66.406250
1131,66.406250
1132,66.406250
1133,64.453125
1134,62.500000
1135,60.546875
1136,60.546875
1137,60.546875
1138,58.593750
1139,56.640625
1140,56.640625
1141,54.687500
1142,52.734375
1143,52.734375
1144,50.781250
1145,48.828125
1146,48.828125
1147,46.875000
1148,44.921875
1149,42.968750
1150,42.968750
1151,41.015625
1152,39.062500
1153,37.109375
1154,35.156250
1155,33.203125
1156,33.203125
1157,31.250000
1158,29.296875
1159,27.343750
1160,25.390625
1161,23.437500
1162,21.484375
1163,19.531250
1164,19.531250
1165,15.625000
1166,13.671875
1167,11.718750
1168,11.718750
1169,7.812500
1170,5.859375
1171,3.906250
1172,3.906250
1173,0.000000
1174,0.000000
1175,-1.953125
1176,-5.859375
1177,-5.859375
1178,-9.765625
1179,-11.718750
1180,-13.671875
1181,-15.625000
1182,-15.625000
1183,-17.578125
1184,-21.484375
1185,-23.437500
1186,-23.437500
1187,-27.343750
1188,-29.296875
1189,-31.250000
1190,-33.203125
1191,-33.203125
1192,-35.156250
1193,-37.109375
1194,-39.062500
1195,-41.015625
1196,-42.968750
1197,-44.921875
1198,-46.875000
1199,-48.828125
1200,-50.781250
1201,-52.734375
1202,-52.734375
1203,-56.640625
1204,-56.640625
1205,-58.593750
1206,-60.546875
1207,-62.500000
1208,-62.500000
1209,-66.406250
1210,-66.406250
1211,-68.359375
1212,-70.312500
1213,-72.265625
1214,-72.265625
1215,-74.218750
1216,-74.218750
1217,-76.171875
1218,-78.125000
1219,-78.125000
1220,-80.078125
1221,-80.078125
1222,-82.031250
1223,-82.031250
1224,-83.984375
1225,-83.984375
1226,-85.937500
1227,-85.937500
1228,-87.890625
1229,-87.890625
1230,-87.890625
1231,-89.843750
1232,-91.796875
1233,-91.796875
1234,-91.796875
1235,-91.796875
1236,-91.796875
1237,-91.796875
1238,-93.750000
1239,-93.750000
1240,-93.750000
1241,-93.750000
1242,-93.750000
1243,-93.750000
1244,-95.703125
1245,-95.703125
1246,-95.703125
1247,-95.703125
1248,-95.703125
1249,-95.703125
1250,-95.703125
1251,-93.750000
1252,-93.750000
1253,-93.750000
1254,-93.750000
1255,-93.750000
1256,-91.796875
1257,-93.750000
1258,-91.796875
1259,-91.796875
1260,-89.843750
1261,-89.843750
1262,-89.843750
1263,-87.890625
1264,-87.890625
1265,-87.890625
1266,-85.937500
1267,-85.937500
1268,-83.984375
1269,-83.984375
1270,-82.031250
1271,-82.031250
1272,-80.078125
1273,-78.125000
1274,-78.125000
1275,-76.171875
1276,-74.218750
1277,-74.218750
1278,-72.265625
1279,-70.312500
1280,-70.312500
1281,-68.359375
1282,-66.406250
1283,-64.453125
1284,-62.500000
1285,-62.500000
1286,-60.546875
1287,-58.593750
1288,-56.640625
1289,-54.687500
1290,-52.734375
1291,-52.734375
1292,-50.781250
1293,-48.828125
1294,-46.875000
1295,-44.921875
1296,-42.968750
1297,-41.015625
1298,-39.062500
1299,-37.109375
1300,-35.156250
1301,-33.203125
1302,-31.250000
1303,-31.250000
1304,-29.296875
1305,-25.390625
1306,-25.390625
1307,-23.437500
1308,-21.484375
1309,-19.531250
1310,-17.578125
1311,-15.625000
1312,-13.671875
1313,-11.718750
1314,-9.765625
1315,-7.812500
1316,-5.859375
1317,-3.906250
1318,-1.953125
1319,0.000000
1320,1.953125
1321,5.859375
1322,5.859375
1323,7.812500
1324,9.765625
1325,11.718750
1326,13.671875
1327,15.625000
1328,17.578125
1329,19.531250
1330,21.484375
1331,23.437500
1332,25.390625
1333,27.343750
1334,27.343750
1335,29.296875
1336,31.250000
1337,33.203125
1338,35.156250
1339,37.109375
1340,39.062500
1341,39.062500
1342,41.015625
1343,42.968750
1344,44.921875
1345,46.875000
1346,46.875000
1347,48.828125
1348,50.781250
1349,50.781250
1350,52.734375
