Practicum8/data/opgave5/opgave5_freq3/data_81_017.csv

Channel              :,CH1
Frequency            :,  ?
Period               :,  ?
PK-PK                :,23.44mV
Probe attenuation    :,1X
Voltage per ADC value:,0.122070mV
Time interval        :,2.00000us

index,CH1_Voltage(mV)
1,-9.765625
2,-9.765625
3,-9.765625
4,-9.765625
5,-9.765625
6,-9.765625
7,-9.765625
8,-9.765625
9,-9.765625
10,-9.765625
11,-9.765625
12,-9.765625
13,-9.765625
14,-9.765625
15,-9.765625
16,-9.765625
17,-9.765625
18,-7.812500
19,-7.812500
20,-9.765625
21,-7.812500
22,-7.812500
23,-9.765625
24,-7.812500
25,-7.812500
26,-7.812500
27,-7.812500
28,-7.812500
29,-7.812500
30,-7.812500
31,-7.812500
32,-7.812500
33,-7.812500
34,-7.812500
35,-7.812500
36,-5.859375
37,-5.859375
38,-5.859375
39,-7.812500
40,-7.812500
41,-5.859375
42,-5.859375
43,-5.859375
44,-5.859375
45,-5.859375
46,-3.906250
47,-5.859375
48,-5.859375
49,-5.859375
50,-5.859375
51,-5.859375
52,-5.859375
53,-5.859375
54,-3.906250
55,-3.906250
56,-3.906250
57,-3.906250
58,-3.906250
59,-3.906250
60,-3.906250
61,-3.906250
62,-3.906250
63,-1.953125
64,-3.906250
65,-3.906250
66,-3.906250
67,-1.953125
68,-1.953125
69,-1.953125
70,-1.953125
71,-1.953125
72,-1.953125
73,-1.953125
74,-1.953125
75,-1.953125
76,-1.953125
77,-1.953125
78,-1.953125
79,-1.953125
80,-1.953125
81,0.000000
82,0.000000
83,0.000000
84,0.000000
85,0.000000
86,0.000000
87,0.000000
88,0.000000
89,0.000000
90,0.000000
91,0.000000
92,0.000000
93,0.000000
94,0.000000
95,1.953125
96,0.000000
97,0.000000
98,0.000000
99,0.000000
100,0.000000
101,0.000000
102,0.000000
103,0.000000
104,0.000000
105,1.953125
106,1.953125
107,0.000000
108,1.953125
109,0.000000
110,0.000000
111,1.953125
112,1.953125
113,1.953125
114,1.953125
115,1.953125
116,1.953125
117,1.953125
118,1.953125
119,1.953125
120,1.953125
121,1.953125
122,1.953125
123,1.953125
124,1.953125
125,0.000000
126,1.953125
127,1.953125
128,1.953125
129,0.000000
130,1.953125
131,1.953125
132,1.953125
133,1.953125
134,0.000000
135,1.953125
136,1.953125
137,1.953125
138,1.953125
139,1.953125
140,0.000000
141,1.953125
142,0.000000
143,1.953125
144,1.953125
145,1.953125
146,0.000000
147,1.953125
148,0.000000
149,0.000000
150,0.000000
151,1.953125
152,0.000000
153,0.000000
154,0.000000
155,0.000000
156,0.000000
157,0.000000
158,0.000000
159,-1.953125
160,0.000000
161,0.000000
162,0.000000
163,0.000000
164,0.000000
165,0.000000
166,-1.953125
167,-1.953125
168,-1.953125
169,-1.953125
170,-1.953125
171,-1.953125
172,-1.953125
173,-1.953125
174,-1.953125
175,-1.953125
176,-1.953125
177,-1.953125
178,-1.953125
179,-1.953125
180,-1.953125
181,-3.906250
182,-3.906250
183,-3.906250
184,-1.953125
185,-3.906250
186,-3.906250
187,-3.906250
188,-3.906250
189,-3.906250
190,-3.906250
191,-3.906250
192,-3.906250
193,-5.859375
194,-3.906250
195,-3.906250
196,-7.812500
197,-5.859375
198,-5.859375
199,-5.859375
200,-5.859375
201,-5.859375
202,-5.859375
203,-5.859375
204,-5.859375
205,-5.859375
206,-5.859375
207,-5.859375
208,-5.859375
209,-5.859375
210,-5.859375
211,-5.859375
212,-7.812500
213,-7.812500
214,-7.812500
215,-7.812500
216,-7.812500
217,-7.812500
218,-7.812500
219,-7.812500
220,-7.812500
221,-7.812500
222,-7.812500
223,-7.812500
224,-7.812500
225,-9.765625
226,-7.812500
227,-9.765625
228,-7.812500
229,-9.765625
230,-7.812500
231,-9.765625
232,-9.765625
233,-9.765625
234,-9.765625
235,-9.765625
236,-9.765625
237,-9.765625
238,-9.765625
239,-9.765625
240,-9.765625
241,-9.765625
242,-9.765625
243,-9.765625
244,-9.765625
245,-11.718750
246,-9.765625
247,-11.718750
248,-9.765625
249,-9.765625
250,-9.765625
251,-9.765625
252,-11.718750
253,-11.718750
254,-11.718750
255,-9.765625
256,-11.718750
257,-9.765625
258,-9.765625
259,-9.765625
260,-9.765625
261,-11.718750
262,-11.718750
263,-11.718750
264,-11.718750
265,-11.718750
266,-11.718750
267,-9.765625
268,-11.718750
269,-11.718750
270,-11.718750
271,-9.765625
272,-11.718750
273,-11.718750
274,-11.718750
275,-11.718750
276,-11.718750
277,-11.718750
278,-9.765625
279,-9.765625
280,-9.765625
281,-9.765625
282,-11.718750
283,-9.765625
284,-9.765625
285,-9.765625
286,-9.765625
287,-9.765625
288,-9.765625
289,-9.765625
290,-9.765625
291,-9.765625
292,-9.765625
293,-9.765625
294,-9.765625
295,-9.765625
296,-9.765625
297,-9.765625
298,-9.765625
299,-9.765625
300,-9.765625
301,-9.765625
302,-9.765625
303,-9.765625
304,-9.765625
305,-7.812500
306,-9.765625
307,-7.812500
308,-9.765625
309,-7.812500
310,-5.859375
311,-7.812500
312,-7.812500
313,-7.812500
314,-7.812500
315,-7.812500
316,-7.812500
317,-7.812500
318,-5.859375
319,-7.812500
320,-7.812500
321,-7.812500
322,-5.859375
323,-5.859375
324,-5.859375
325,-5.859375
326,-5.859375
327,-5.859375
328,-5.859375
329,-3.906250
330,-3.906250
331,-3.906250
332,-5.859375
333,-3.906250
334,-3.906250
335,-3.906250
336,-3.906250
337,-3.906250
338,-3.906250
339,-3.906250
340,-3.906250
341,-3.906250
342,-3.906250
343,-3.906250
344,-3.906250
345,-1.953125
346,-3.906250
347,-1.953125
348,-1.953125
349,-1.953125
350,-1.953125
351,-1.953125
352,-1.953125
353,-1.953125
354,-1.953125
355,-1.953125
356,-1.953125
357,-1.953125
358,0.000000
359,-1.953125
360,-1.953125
361,0.000000
362,-1.953125
363,0.000000
364,0.000000
365,-1.953125
366,-1.953125
367,-1.953125
368,-1.953125
369,0.000000
370,0.000000
371,0.000000
372,0.000000
373,0.000000
374,0.000000
375,0.000000
376,0.000000
377,0.000000
378,0.000000
379,0.000000
380,1.953125
381,0.000000
382,0.000000
383,0.000000
384,0.000000
385,0.000000
386,1.953125
387,0.000000
388,0.000000
389,1.953125
390,0.000000
391,1.953125
392,0.000000
393,1.953125
394,1.953125
395,0.000000
396,1.953125
397,1.953125
398,1.953125
399,1.953125
400,1.953125
401,1.953125
402,1.953125
403,1.953125
404,1.953125
405,1.953125
406,1.953125
407,1.953125
408,1.953125
409,1.953125
410,1.953125
411,1.953125
412,1.953125
413,1.953125
414,3.906250
415,0.000000
416,1.953125
417,0.000000
418,1.953125
419,1.953125
420,0.000000
421,0.000000
422,1.953125
423,1.953125
424,1.953125
425,1.953125
426,0.000000
427,0.000000
428,0.000000
429,3.906250
430,0.000000
431,1.953125
432,0.000000
433,0.000000
434,0.000000
435,0.000000
436,0.000000
437,0.000000
438,0.000000
439,0.000000
440,0.000000
441,0.000000
442,0.000000
443,0.000000
444,0.000000
445,-1.953125
446,0.000000
447,-1.953125
448,-1.953125
449,-1.953125
450,-1.953125
451,-1.953125
452,0.000000
453,-1.953125
454,-1.953125
455,-1.953125
456,-1.953125
457,-1.953125
458,-1.953125
459,-1.953125
460,-1.953125
461,-1.953125
462,-1.953125
463,-1.953125
464,-1.953125
465,-1.953125
466,-1.953125
467,-1.953125
468,-3.906250
469,-3.906250
470,-3.906250
471,-3.906250
472,-3.906250
473,-3.906250
474,-3.906250
475,-3.906250
476,-3.906250
477,-3.906250
478,-5.859375
479,-5.859375
480,-3.906250
481,-3.906250
482,-5.859375
483,-5.859375
484,-3.906250
485,-5.859375
486,-5.859375
487,-5.859375
488,-5.859375
489,-5.859375
490,-5.859375
491,-7.812500
492,-5.859375
493,-5.859375
494,-5.859375
495,-5.859375
496,-5.859375
497,-5.859375
498,-7.812500
499,-7.812500
500,-7.812500
501,-7.812500
502,-7.812500
503,-7.812500
504,-7.812500
505,-7.812500
506,-7.812500
507,-7.812500
508,-9.765625
509,-9.765625
510,-7.812500
511,-7.812500
512,-7.812500
513,-7.812500
514,-9.765625
515,-9.765625
516,-7.812500
517,-9.765625
518,-7.812500
519,-9.765625
520,-9.765625
521,-9.765625
522,-9.765625
523,-9.765625
524,-9.765625
525,-9.765625
526,-9.765625
527,-7.812500
528,-9.765625
529,-9.765625
530,-9.765625
531,-9.765625
532,-9.765625
533,-9.765625
534,-9.765625
535,-9.765625
536,-9.765625
537,-9.765625
538,-11.718750
539,-9.765625
540,-9.765625
541,-9.765625
542,-9.765625
543,-11.718750
544,-11.718750
545,-9.765625
546,-11.718750
547,-11.718750
548,-9.765625
549,-11.718750
550,-9.765625
551,-9.765625
552,-11.718750
553,-9.765625
554,-9.765625
555,-11.718750
556,-11.718750
557,-11.718750
558,-11.718750
559,-11.718750
560,-9.765625
561,-9.765625
562,-11.718750
563,-11.718750
564,-9.765625
565,-11.718750
566,-11.718750
567,-9.765625
568,-11.718750
569,-9.765625
570,-9.765625
571,-9.765625
572,-9.765625
573,-9.765625
574,-9.765625
575,-9.765625
576,-9.765625
577,-9.765625
578,-9.765625
579,-11.718750
580,-11.718750
581,-9.765625
582,-9.765625
583,-9.765625
584,-9.765625
585,-13.671875
586,-7.812500
587,-7.812500
588,-9.765625
589,-9.765625
590,-7.812500
591,-9.765625
592,-7.812500
593,-7.812500
594,-7.812500
595,-7.812500
596,-7.812500
597,-7.812500
598,-7.812500
599,-7.812500
600,-7.812500
601,-7.812500
602,-7.812500
603,-5.859375
604,-5.859375
605,-5.859375
606,-5.859375
607,-5.859375
608,-5.859375
609,-5.859375
610,-5.859375
611,-5.859375
612,-5.859375
613,-5.859375
614,-5.859375
615,-5.859375
616,-3.906250
617,-5.859375
618,-3.906250
619,-5.859375
620,-3.906250
621,-5.859375
622,-3.906250
623,-3.906250
624,-3.906250
625,-3.906250
626,-3.906250
627,-3.906250
628,-3.906250
629,-3.906250
630,-3.906250
631,-3.906250
632,-3.906250
633,-3.906250
634,-1.953125
635,-1.953125
636,-1.953125
637,-1.953125
638,-3.906250
639,-1.953125
640,-1.953125
641,-1.953125
642,-1.953125
643,-1.953125
644,-1.953125
645,-1.953125
646,-1.953125
647,0.000000
648,-1.953125
649,-1.953125
650,-1.953125
651,0.000000
652,0.000000
653,0.000000
654,0.000000
655,0.000000
656,0.000000
657,0.000000
658,0.000000
659,0.000000
660,0.000000
661,0.000000
662,0.000000
663,0.000000
664,1.953125
665,0.000000
666,0.000000
667,0.000000
668,0.000000
669,0.000000
670,1.953125
671,1.953125
672,0.000000
673,1.953125
674,1.953125
675,0.000000
676,1.953125
677,1.953125
678,1.953125
679,1.953125
680,1.953125
681,1.953125
682,1.953125
683,1.953125
684,1.953125
685,1.953125
686,0.000000
687,1.953125
688,1.953125
689,1.953125
690,1.953125
691,1.953125
692,1.953125
693,1.953125
694,1.953125
695,1.953125
696,1.953125
697,1.953125
698,0.000000
699,1.953125
700,1.953125
701,1.953125
702,1.953125
703,0.000000
704,1.953125
705,0.000000
706,0.000000
707,0.000000
708,1.953125
709,1.953125
710,0.000000
711,0.000000
712,1.953125
713,0.000000
714,0.000000
715,0.000000
716,0.000000
717,0.000000
718,0.000000
719,0.000000
720,0.000000
721,0.000000
722,0.000000
723,0.000000
724,0.000000
725,0.000000
726,0.000000
727,0.000000
728,0.000000
729,0.000000
730,0.000000
731,0.000000
732,0.000000
733,0.000000
734,0.000000
735,-1.953125
736,0.000000
737,-1.953125
738,-1.953125
739,-1.953125
740,-1.953125
741,-1.953125
742,-1.953125
743,-1.953125
744,-1.953125
745,-1.953125
746,-1.953125
747,-3.906250
748,-1.953125
749,-3.906250
750,-3.906250
751,-3.906250
752,-3.906250
753,-3.906250
754,-3.906250
755,-3.906250
756,-3.906250
757,-3.906250
758,-3.906250
759,-3.906250
760,-3.906250
761,-5.859375
762,-5.859375
763,-3.906250
764,-5.859375
765,-3.906250
766,-5.859375
767,-3.906250
768,-5.859375
769,-5.859375
770,-5.859375
771,-5.859375
772,-5.859375
773,-5.859375
774,-5.859375
775,-5.859375
776,-5.859375
777,-5.859375
778,-5.859375
779,-7.812500
780,-7.812500
781,-7.812500
782,-7.812500
783,-5.859375
784,-7.812500
785,-7.812500
786,-7.812500
787,-7.812500
788,-7.812500
789,-7.812500
790,-7.812500
791,-7.812500
792,-7.812500
793,-7.812500
794,-7.812500
795,-7.812500
796,-7.812500
797,-7.812500
798,-7.812500
799,-9.765625
800,-9.765625
801,-9.765625
802,-9.765625
803,-9.765625
804,-9.765625
805,-9.765625
806,-9.765625
807,-9.765625
808,-11.718750
809,-9.765625
810,-9.765625
811,-9.765625
812,-11.718750
813,-9.765625
814,-7.812500
815,-9.765625
816,-9.765625
817,-9.765625
818,-11.718750
819,-11.718750
820,-11.718750
821,-11.718750
822,-11.718750
823,-9.765625
824,-11.718750
825,-11.718750
826,-11.718750
827,-11.718750
828,-9.765625
829,-11.718750
830,-11.718750
831,-11.718750
832,-11.718750
833,-11.718750
834,-11.718750
835,-11.718750
836,-9.765625
837,-11.718750
838,-11.718750
839,-11.718750
840,-11.718750
841,-11.718750
842,-11.718750
843,-11.718750
844,-9.765625
845,-9.765625
846,-11.718750
847,-11.718750
848,-11.718750
849,-9.765625
850,-9.765625
851,-9.765625
852,-9.765625
853,-9.765625
854,-9.765625
855,-9.765625
856,-9.765625
857,-9.765625
858,-9.765625
859,-9.765625
860,-9.765625
861,-9.765625
862,-9.765625
863,-9.765625
864,-9.765625
865,-9.765625
866,-9.765625
867,-11.718750
868,-7.812500
869,-9.765625
870,-9.765625
871,-9.765625
872,-9.765625
873,-7.812500
874,-7.812500
875,-9.765625
876,-7.812500
877,-9.765625
878,-7.812500
879,-7.812500
880,-7.812500
881,-7.812500
882,-7.812500
883,-7.812500
884,-7.812500
885,-7.812500
886,-7.812500
887,-7.812500
888,-7.812500
889,-7.812500
890,-7.812500
891,-5.859375
892,-7.812500
893,-5.859375
894,-5.859375
895,-5.859375
896,-5.859375
897,-5.859375
898,-5.859375
899,-5.859375
900,-5.859375
901,-5.859375
902,-3.906250
903,-5.859375
904,-3.906250
905,-3.906250
906,-3.906250
907,-3.906250
908,-3.906250
909,-3.906250
910,-3.906250
911,-3.906250
912,-3.906250
913,-3.906250
914,-1.953125
915,-3.906250
916,-1.953125
917,-3.906250
918,-1.953125
919,-1.953125
920,-1.953125
921,-1.953125
922,-1.953125
923,-1.953125
924,-1.953125
925,-1.953125
926,-1.953125
927,-1.953125
928,0.000000
929,0.000000
930,0.000000
931,-1.953125
932,-1.953125
933,0.000000
934,0.000000
935,0.000000
936,0.000000
937,0.000000
938,0.000000
939,-1.953125
940,0.000000
941,0.000000
942,0.000000
943,0.000000
944,0.000000
945,0.000000
946,0.000000
947,0.000000
948,0.000000
949,0.000000
950,0.000000
951,0.000000
952,0.000000
953,0.000000
954,1.953125
955,1.953125
956,0.000000
957,1.953125
958,0.000000
959,1.953125
960,1.953125
961,0.000000
962,1.953125
963,0.000000
964,1.953125
965,1.953125
966,1.953125
967,1.953125
968,0.000000
969,1.953125
970,1.953125
971,3.906250
972,1.953125
973,1.953125
974,1.953125
975,1.953125
976,1.953125
977,1.953125
978,1.953125
979,3.906250
980,1.953125
981,1.953125
982,1.953125
983,1.953125
984,0.000000
985,1.953125
986,1.953125
987,1.953125
988,0.000000
989,1.953125
990,1.953125
991,1.953125
992,1.953125
993,1.953125
994,1.953125
995,1.953125
996,1.953125
997,0.000000
998,0.000000
999,0.000000
1000,1.953125
1001,0.000000
1002,0.000000
1003,0.000000
1004,0.000000
1005,-1.953125
1006,0.000000
1007,0.000000
1008,0.000000
1009,0.000000
1010,1.953125
1011,-1.953125
1012,0.000000
1013,0.000000
1014,0.000000
1015,0.000000
1016,0.000000
1017,-1.953125
1018,0.000000
1019,0.000000
1020,-1.953125
1021,-1.953125
1022,-1.953125
1023,-1.953125
1024,-1.953125
1025,-1.953125
1026,-1.953125
1027,-1.953125
1028,-1.953125
1029,-1.953125
1030,-1.953125
1031,-1.953125
1032,-1.953125
1033,-1.953125
1034,-1.953125
1035,-1.953125
1036,-1.953125
1037,-1.953125
1038,-3.906250
1039,-3.906250
1040,-3.906250
1041,-3.906250
1042,-3.906250
1043,-3.906250
1044,-1.953125
1045,-3.906250
1046,-3.906250
1047,-3.906250
1048,-3.906250
1049,-5.859375
1050,-3.906250
1051,-3.906250
1052,-3.906250
1053,-5.859375
1054,-5.859375
1055,-5.859375
1056,-5.859375
1057,-5.859375
1058,-5.859375
1059,-5.859375
1060,-5.859375
1061,-5.859375
1062,-5.859375
1063,-7.812500
1064,-5.859375
1065,-5.859375
1066,-7.812500
1067,-5.859375
1068,-7.812500
1069,-7.812500
1070,-7.812500
1071,-7.812500
1072,-7.812500
1073,-7.812500
1074,-7.812500
1075,-7.812500
1076,-7.812500
1077,-7.812500
1078,-7.812500
1079,-7.812500
1080,-7.812500
1081,-7.812500
1082,-9.765625
1083,-9.765625
1084,-9.765625
1085,-7.812500
1086,-9.765625
1087,-9.765625
1088,-9.765625
1089,-9.765625
1090,-9.765625
1091,-9.765625
1092,-9.765625
1093,-9.765625
1094,-9.765625
1095,-9.765625
1096,-9.765625
1097,-9.765625
1098,-9.765625
1099,-9.765625
1100,-9.765625
1101,-9.765625
1102,-9.765625
1103,-9.765625
1104,-9.765625
1105,-9.765625
1106,-9.765625
1107,-9.765625
1108,-9.765625
1109,-9.765625
1110,-9.765625
1111,-9.765625
1112,-9.765625
1113,-11.718750
1114,-9.765625
1115,-9.765625
1116,-9.765625
1117,-11.718750
1118,-11.718750
1119,-9.765625
1120,-9.765625
1121,-9.765625
1122,-9.765625
1123,-11.718750
1124,-11.718750
1125,-11.718750
1126,-9.765625
1127,-11.718750
1128,-9.765625
1129,-9.765625
1130,-9.765625
1131,-11.718750
1132,-11.718750
1133,-9.765625
1134,-9.765625
1135,-9.765625
1136,-9.765625
1137,-9.765625
1138,-9.765625
1139,-9.765625
1140,-9.765625
1141,-9.765625
1142,-9.765625
1143,-9.765625
1144,-9.765625
1145,-9.765625
1146,-9.765625
1147,-9.765625
1148,-9.765625
1149,-9.765625
1150,-9.765625
1151,-9.765625
1152,-9.765625
1153,-11.718750
1154,-7.812500
1155,-9.765625
1156,-9.765625
1157,-9.765625
1158,-7.812500
1159,-7.812500
1160,-7.812500
1161,-7.812500
1162,-7.812500
1163,-7.812500
1164,-7.812500
1165,-7.812500
1166,-7.812500
1167,-7.812500
1168,-5.859375
1169,-5.859375
1170,-7.812500
1171,-7.812500
1172,-5.859375
1173,-7.812500
1174,-5.859375
1175,-5.859375
1176,-5.859375
1177,-5.859375
1178,-5.859375
1179,-5.859375
1180,-5.859375
1181,-5.859375
1182,-5.859375
1183,-5.859375
1184,-5.859375
1185,-3.906250
1186,-3.906250
1187,-3.906250
1188,-5.859375
1189,-3.906250
1190,-3.906250
1191,-3.906250
1192,-5.859375
1193,-3.906250
1194,-3.906250
1195,-3.906250
1196,-3.906250
1197,-3.906250
1198,-3.906250
1199,-1.953125
1200,-3.906250
1201,-1.953125
1202,-3.906250
1203,-3.906250
1204,0.000000
1205,-1.953125
1206,-1.953125
1207,-1.953125
1208,-1.953125
1209,-1.953125
1210,-1.953125
1211,-1.953125
1212,-1.953125
1213,-1.953125
1214,0.000000
1215,0.000000
1216,-1.953125
1217,-1.953125
1218,0.000000
1219,0.000000
1220,-1.953125
1221,0.000000
1222,0.000000
1223,0.000000
1224,0.000000
1225,0.000000
1226,0.000000
1227,0.000000
1228,0.000000
1229,0.000000
1230,0.000000
1231,0.000000
1232,0.000000
1233,0.000000
1234,0.000000
1235,0.000000
1236,0.000000
1237,1.953125
1238,1.953125
1239,1.953125
1240,1.953125
1241,0.000000
1242,1.953125
1243,1.953125
1244,1.953125
1245,1.953125
1246,1.953125
1247,1.953125
1248,1.953125
1249,1.953125
1250,1.953125
1251,1.953125
1252,1.953125
1253,1.953125
1254,1.953125
1255,1.953125
1256,1.953125
1257,1.953125
1258,1.953125
1259,1.953125
1260,1.953125
1261,1.953125
1262,1.953125
1263,1.953125
1264,1.953125
1265,1.953125
1266,1.953125
1267,0.000000
1268,1.953125
1269,1.953125
1270,1.953125
1271,0.000000
1272,0.000000
1273,0.000000
1274,0.000000
1275,0.000000
1276,0.000000
1277,0.000000
1278,1.953125
1279,0.000000
1280,0.000000
1281,0.000000
1282,1.953125
1283,0.000000
1284,0.000000
1285,1.953125
1286,0.000000
1287,0.000000
1288,0.000000
1289,0.000000
1290,0.000000
1291,0.000000
1292,0.000000
1293,0.000000
1294,0.000000
1295,0.000000
1296,0.000000
1297,0.000000
1298,-1.953125
1299,0.000000
1300,0.000000
1301,0.000000
1302,-1.953125
1303,-1.953125
1304,0.000000
1305,0.000000
1306,0.000000
1307,-1.953125
1308,-1.953125
1309,-1.953125
1310,-1.953125
1311,-1.953125
1312,-1.953125
1313,0.000000
1314,0.000000
1315,-1.953125
1316,-1.953125
1317,-1.953125
1318,-1.953125
1319,-1.953125
1320,-1.953125
1321,-3.906250
1322,-3.906250
1323,-3.906250
1324,-3.906250
1325,-3.906250
1326,-3.906250
1327,-1.953125
1328,-3.906250
1329,-3.906250
1330,-3.906250
1331,-3.906250
1332,-5.859375
1333,-7.812500
1334,-3.906250
1335,-5.859375
1336,-5.859375
1337,-5.859375
1338,-5.859375
1339,-5.859375
1340,-5.859375
1341,-5.859375
1342,-5.859375
1343,-5.859375
1344,-5.859375
1345,-5.859375
1346,-5.859375
1347,-7.812500
1348,-7.812500
1349,-7.812500
1350,-7.812500
1351,-7.812500
1352,-5.859375
1353,-7.812500
1354,-7.812500
1355,-7.812500
1356,-7.812500
1357,-7.812500
1358,-7.812500
1359,-7.812500
1360,-7.812500
1361,-7.812500
1362,-7.812500
1363,-7.812500
1364,-7.812500
1365,-7.812500
1366,-9.765625
1367,-9.765625
1368,-9.765625
1369,-9.765625
1370,-9.765625
1371,-9.765625
1372,-9.765625
1373,-9.765625
1374,-9.765625
1375,-9.765625
1376,-9.765625
1377,-9.765625
1378,-9.765625
1379,-9.765625
1380,-9.765625
1381,-9.765625
1382,-11.718750
1383,-9.765625
1384,-11.718750
1385,-9.765625
1386,-9.765625
1387,-9.765625
1388,-9.765625
1389,-11.718750
1390,-11.718750
1391,-9.765625
1392,-9.765625
1393,-11.718750
1394,-9.765625
1395,-11.718750
1396,-9.765625
1397,-11.718750
1398,-11.718750
1399,-11.718750
1400,-11.718750
1401,-11.718750
1402,-11.718750
1403,-11.718750
1404,-11.718750
1405,-11.718750
1406,-11.718750
1407,-11.718750
1408,-11.718750
1409,-11.718750
1410,-11.718750
1411,-11.718750
1412,-9.765625
1413,-11.718750
