Practicum8/data/cas_sam/2000Hz_35_0cm/data_81_159.csv

Channel              :		CH1
Frequency            :		1.975kHz
Period               :		0.506ms
PK-PK                :		54.69mV
Probe attenuation    :		1X
Voltage per ADC value:		0.122070mV
Time interval        :		2.00000us
""
index		CH1_Voltage(mV)
1.0,31.25
2.0,31.25
3.0,29.296875
4.0,31.25
5.0,29.296875
6.0,31.25
7.0,27.34375
8.0,31.25
9.0,27.34375
10.0,31.25
11.0,27.34375
12.0,31.25
13.0,25.390625
14.0,29.296875
15.0,25.390625
16.0,29.296875
17.0,25.390625
18.0,29.296875
19.0,23.4375
20.0,27.34375
21.0,23.4375
22.0,27.34375
23.0,23.4375
24.0,27.34375
25.0,21.484375
26.0,25.390625
27.0,21.484375
28.0,25.390625
29.0,21.484375
30.0,25.390625
31.0,19.53125
32.0,23.4375
33.0,19.53125
34.0,21.484375
35.0,17.578125
36.0,21.484375
37.0,17.578125
38.0,19.53125
39.0,15.625
40.0,19.53125
41.0,15.625
42.0,17.578125
43.0,13.671875
44.0,17.578125
45.0,13.671875
46.0,15.625
47.0,11.71875
48.0,15.625
49.0,11.71875
50.0,13.671875
51.0,9.765625
52.0,13.671875
53.0,9.765625
54.0,11.71875
55.0,7.8125
56.0,11.71875
57.0,5.859375
58.0,9.765625
59.0,5.859375
60.0,7.8125
61.0,3.90625
62.0,7.8125
63.0,3.90625
64.0,7.8125
65.0,1.953125
66.0,5.859375
67.0,1.953125
68.0,5.859375
69.0,0.0
70.0,3.90625
71.0,0.0
72.0,1.953125
73.0,-1.953125
74.0,1.953125
75.0,-1.953125
76.0,1.953125
77.0,-3.90625
78.0,0.0
79.0,-3.90625
80.0,-1.953125
81.0,-5.859375
82.0,-1.953125
83.0,-5.859375
84.0,-1.953125
85.0,-7.8125
86.0,-3.90625
87.0,-7.8125
88.0,-3.90625
89.0,-7.8125
90.0,-5.859375
91.0,-9.765625
92.0,-5.859375
93.0,-9.765625
94.0,-5.859375
95.0,-9.765625
96.0,-7.8125
97.0,-11.71875
98.0,-7.8125
99.0,-11.71875
100.0,-7.8125
101.0,-11.71875
102.0,-7.8125
103.0,-13.671875
104.0,-7.8125
105.0,-11.71875
106.0,-9.765625
107.0,-11.71875
108.0,-9.765625
109.0,-13.671875
110.0,-9.765625
111.0,-13.671875
112.0,-9.765625
113.0,-13.671875
114.0,-9.765625
115.0,-13.671875
116.0,-9.765625
117.0,-13.671875
118.0,-9.765625
119.0,-13.671875
120.0,-9.765625
121.0,-13.671875
122.0,-9.765625
123.0,-13.671875
124.0,-9.765625
125.0,-13.671875
126.0,-9.765625
127.0,-13.671875
128.0,-9.765625
129.0,-11.71875
130.0,-9.765625
131.0,-11.71875
132.0,-9.765625
133.0,-11.71875
134.0,-7.8125
135.0,-11.71875
136.0,-7.8125
137.0,-9.765625
138.0,-7.8125
139.0,-9.765625
140.0,-7.8125
141.0,-9.765625
142.0,-5.859375
143.0,-7.8125
144.0,-5.859375
145.0,-7.8125
146.0,-3.90625
147.0,-5.859375
148.0,-3.90625
149.0,-5.859375
150.0,-1.953125
151.0,-5.859375
152.0,-1.953125
153.0,-3.90625
154.0,-1.953125
155.0,-3.90625
156.0,0.0
157.0,-1.953125
158.0,0.0
159.0,-1.953125
160.0,1.953125
161.0,-1.953125
162.0,3.90625
163.0,0.0
164.0,3.90625
165.0,1.953125
166.0,3.90625
167.0,1.953125
168.0,5.859375
169.0,3.90625
170.0,7.8125
171.0,3.90625
172.0,7.8125
173.0,5.859375
174.0,7.8125
175.0,7.8125
176.0,9.765625
177.0,7.8125
178.0,11.71875
179.0,9.765625
180.0,11.71875
181.0,9.765625
182.0,13.671875
183.0,11.71875
184.0,13.671875
185.0,11.71875
186.0,15.625
187.0,11.71875
188.0,17.578125
189.0,13.671875
190.0,17.578125
191.0,15.625
192.0,19.53125
193.0,15.625
194.0,19.53125
195.0,17.578125
196.0,19.53125
197.0,17.578125
198.0,21.484375
199.0,19.53125
200.0,21.484375
201.0,19.53125
202.0,23.4375
203.0,19.53125
204.0,25.390625
205.0,21.484375
206.0,23.4375
207.0,23.4375
208.0,25.390625
209.0,23.4375
210.0,27.34375
211.0,23.4375
212.0,27.34375
213.0,23.4375
214.0,27.34375
215.0,25.390625
216.0,29.296875
217.0,25.390625
218.0,29.296875
219.0,27.34375
220.0,29.296875
221.0,25.390625
222.0,31.25
223.0,27.34375
224.0,31.25
225.0,27.34375
226.0,31.25
227.0,27.34375
228.0,31.25
229.0,29.296875
230.0,31.25
231.0,29.296875
232.0,33.203125
233.0,29.296875
234.0,33.203125
235.0,29.296875
236.0,33.203125
237.0,29.296875
238.0,33.203125
239.0,29.296875
240.0,33.203125
241.0,31.25
242.0,33.203125
243.0,29.296875
244.0,33.203125
245.0,29.296875
246.0,33.203125
247.0,29.296875
248.0,33.203125
249.0,29.296875
250.0,33.203125
251.0,29.296875
252.0,33.203125
253.0,29.296875
254.0,33.203125
255.0,27.34375
256.0,33.203125
257.0,29.296875
258.0,31.25
259.0,27.34375
260.0,31.25
261.0,27.34375
262.0,31.25
263.0,27.34375
264.0,31.25
265.0,27.34375
266.0,29.296875
267.0,25.390625
268.0,29.296875
269.0,25.390625
270.0,29.296875
271.0,25.390625
272.0,29.296875
273.0,25.390625
274.0,27.34375
275.0,23.4375
276.0,27.34375
277.0,23.4375
278.0,25.390625
279.0,21.484375
280.0,25.390625
281.0,21.484375
282.0,25.390625
283.0,19.53125
284.0,23.4375
285.0,19.53125
286.0,23.4375
287.0,17.578125
288.0,21.484375
289.0,17.578125
290.0,21.484375
291.0,17.578125
292.0,19.53125
293.0,15.625
294.0,19.53125
295.0,15.625
296.0,17.578125
297.0,13.671875
298.0,17.578125
299.0,11.71875
300.0,15.625
301.0,11.71875
302.0,15.625
303.0,11.71875
304.0,13.671875
305.0,9.765625
306.0,13.671875
307.0,7.8125
308.0,11.71875
309.0,7.8125
310.0,11.71875
311.0,5.859375
312.0,9.765625
313.0,5.859375
314.0,7.8125
315.0,3.90625
316.0,7.8125
317.0,3.90625
318.0,5.859375
319.0,1.953125
320.0,5.859375
321.0,0.0
322.0,3.90625
323.0,0.0
324.0,3.90625
325.0,0.0
326.0,1.953125
327.0,-1.953125
328.0,1.953125
329.0,-1.953125
330.0,0.0
331.0,-3.90625
332.0,0.0
333.0,-5.859375
334.0,-1.953125
335.0,-5.859375
336.0,-1.953125
337.0,-5.859375
338.0,-1.953125
339.0,-5.859375
340.0,-3.90625
341.0,-7.8125
342.0,-5.859375
343.0,-9.765625
344.0,-5.859375
345.0,-9.765625
346.0,-5.859375
347.0,-9.765625
348.0,-5.859375
349.0,-9.765625
350.0,-7.8125
351.0,-11.71875
352.0,-7.8125
353.0,-11.71875
354.0,-7.8125
355.0,-11.71875
356.0,-7.8125
357.0,-11.71875
358.0,-9.765625
359.0,-11.71875
360.0,-9.765625
361.0,-13.671875
362.0,-9.765625
363.0,-13.671875
364.0,-9.765625
365.0,-13.671875
366.0,-9.765625
367.0,-13.671875
368.0,-9.765625
369.0,-13.671875
370.0,-9.765625
371.0,-13.671875
372.0,-9.765625
373.0,-13.671875
374.0,-11.71875
375.0,-13.671875
376.0,-9.765625
377.0,-13.671875
378.0,-9.765625
379.0,-13.671875
380.0,-9.765625
381.0,-11.71875
382.0,-9.765625
383.0,-11.71875
384.0,-7.8125
385.0,-11.71875
386.0,-7.8125
387.0,-11.71875
388.0,-7.8125
389.0,-11.71875
390.0,-7.8125
391.0,-9.765625
392.0,-7.8125
393.0,-9.765625
394.0,-5.859375
395.0,-9.765625
396.0,-5.859375
397.0,-7.8125
398.0,-5.859375
399.0,-7.8125
400.0,-3.90625
401.0,-5.859375
402.0,-3.90625
403.0,-5.859375
404.0,-1.953125
405.0,-5.859375
406.0,-1.953125
407.0,-3.90625
408.0,-1.953125
409.0,-1.953125
410.0,0.0
411.0,-3.90625
412.0,1.953125
413.0,-1.953125
414.0,1.953125
415.0,0.0
416.0,3.90625
417.0,1.953125
418.0,3.90625
419.0,1.953125
420.0,5.859375
421.0,1.953125
422.0,5.859375
423.0,3.90625
424.0,7.8125
425.0,5.859375
426.0,7.8125
427.0,5.859375
428.0,9.765625
429.0,7.8125
430.0,9.765625
431.0,7.8125
432.0,11.71875
433.0,9.765625
434.0,11.71875
435.0,9.765625
436.0,13.671875
437.0,11.71875
438.0,15.625
439.0,11.71875
440.0,15.625
441.0,13.671875
442.0,17.578125
443.0,15.625
444.0,17.578125
445.0,15.625
446.0,19.53125
447.0,15.625
448.0,19.53125
449.0,17.578125
450.0,21.484375
451.0,17.578125
452.0,21.484375
453.0,19.53125
454.0,23.4375
455.0,19.53125
456.0,23.4375
457.0,21.484375
458.0,25.390625
459.0,21.484375
460.0,25.390625
461.0,23.4375
462.0,27.34375
463.0,23.4375
464.0,27.34375
465.0,23.4375
466.0,27.34375
467.0,25.390625
468.0,29.296875
469.0,25.390625
470.0,29.296875
471.0,25.390625
472.0,29.296875
473.0,27.34375
474.0,31.25
475.0,27.34375
476.0,31.25
477.0,27.34375
478.0,31.25
479.0,27.34375
480.0,31.25
481.0,29.296875
482.0,31.25
483.0,29.296875
484.0,33.203125
485.0,29.296875
486.0,33.203125
487.0,29.296875
488.0,33.203125
489.0,29.296875
490.0,33.203125
491.0,29.296875
492.0,33.203125
493.0,31.25
494.0,33.203125
495.0,29.296875
496.0,33.203125
497.0,29.296875
498.0,33.203125
499.0,31.25
500.0,33.203125
501.0,29.296875
502.0,33.203125
503.0,29.296875
504.0,33.203125
505.0,29.296875
506.0,33.203125
507.0,29.296875
508.0,33.203125
509.0,29.296875
510.0,31.25
511.0,29.296875
512.0,31.25
513.0,27.34375
514.0,31.25
515.0,27.34375
516.0,31.25
517.0,27.34375
518.0,29.296875
519.0,27.34375
520.0,29.296875
521.0,25.390625
522.0,29.296875
523.0,25.390625
524.0,29.296875
525.0,25.390625
526.0,27.34375
527.0,25.390625
528.0,27.34375
529.0,23.4375
530.0,27.34375
531.0,23.4375
532.0,25.390625
533.0,21.484375
534.0,25.390625
535.0,21.484375
536.0,23.4375
537.0,19.53125
538.0,23.4375
539.0,19.53125
540.0,23.4375
541.0,19.53125
542.0,23.4375
543.0,17.578125
544.0,19.53125
545.0,15.625
546.0,19.53125
547.0,15.625
548.0,19.53125
549.0,15.625
550.0,17.578125
551.0,13.671875
552.0,17.578125
553.0,11.71875
554.0,15.625
555.0,9.765625
556.0,15.625
557.0,9.765625
558.0,13.671875
559.0,9.765625
560.0,11.71875
561.0,7.8125
562.0,11.71875
563.0,5.859375
564.0,9.765625
565.0,5.859375
566.0,9.765625
567.0,3.90625
568.0,7.8125
569.0,3.90625
570.0,7.8125
571.0,3.90625
572.0,5.859375
573.0,1.953125
574.0,5.859375
575.0,1.953125
576.0,3.90625
577.0,0.0
578.0,1.953125
579.0,-1.953125
580.0,1.953125
581.0,-1.953125
582.0,1.953125
583.0,-1.953125
584.0,0.0
585.0,-3.90625
586.0,0.0
587.0,-3.90625
588.0,-1.953125
589.0,-5.859375
590.0,-1.953125
591.0,-7.8125
592.0,-1.953125
593.0,-5.859375
594.0,-3.90625
595.0,-7.8125
596.0,-3.90625
597.0,-7.8125
598.0,-5.859375
599.0,-9.765625
600.0,-5.859375
601.0,-9.765625
602.0,-5.859375
603.0,-9.765625
604.0,-5.859375
605.0,-11.71875
606.0,-7.8125
607.0,-11.71875
608.0,-7.8125
609.0,-11.71875
610.0,-9.765625
611.0,-11.71875
612.0,-9.765625
613.0,-13.671875
614.0,-7.8125
615.0,-11.71875
616.0,-9.765625
617.0,-11.71875
618.0,-9.765625
619.0,-13.671875
620.0,-9.765625
621.0,-13.671875
622.0,-9.765625
623.0,-13.671875
624.0,-9.765625
625.0,-13.671875
626.0,-9.765625
627.0,-11.71875
628.0,-9.765625
629.0,-13.671875
630.0,-9.765625
631.0,-13.671875
632.0,-9.765625
633.0,-11.71875
634.0,-7.8125
635.0,-11.71875
636.0,-9.765625
637.0,-11.71875
638.0,-7.8125
639.0,-11.71875
640.0,-7.8125
641.0,-11.71875
642.0,-7.8125
643.0,-9.765625
644.0,-7.8125
645.0,-9.765625
646.0,-5.859375
647.0,-9.765625
648.0,-5.859375
649.0,-7.8125
650.0,-3.90625
651.0,-7.8125
652.0,-3.90625
653.0,-5.859375
654.0,-3.90625
655.0,-5.859375
656.0,-1.953125
657.0,-5.859375
658.0,0.0
659.0,-3.90625
660.0,-1.953125
661.0,-1.953125
662.0,0.0
663.0,-1.953125
664.0,1.953125
665.0,-1.953125
666.0,1.953125
667.0,0.0
668.0,3.90625
669.0,1.953125
670.0,3.90625
671.0,1.953125
672.0,5.859375
673.0,3.90625
674.0,7.8125
675.0,3.90625
676.0,7.8125
677.0,5.859375
678.0,7.8125
679.0,5.859375
680.0,9.765625
681.0,7.8125
682.0,11.71875
683.0,7.8125
684.0,11.71875
685.0,9.765625
686.0,11.71875
687.0,9.765625
688.0,13.671875
689.0,11.71875
690.0,15.625
691.0,11.71875
692.0,15.625
693.0,13.671875
694.0,15.625
695.0,13.671875
696.0,17.578125
697.0,15.625
698.0,19.53125
699.0,17.578125
700.0,21.484375
701.0,17.578125
702.0,21.484375
703.0,19.53125
704.0,21.484375
705.0,19.53125
706.0,23.4375
707.0,21.484375
708.0,23.4375
709.0,21.484375
710.0,25.390625
711.0,23.4375
712.0,25.390625
713.0,23.4375
714.0,27.34375
715.0,23.4375
716.0,27.34375
717.0,25.390625
718.0,27.34375
719.0,25.390625
720.0,29.296875
721.0,25.390625
722.0,29.296875
723.0,25.390625
724.0,29.296875
725.0,27.34375
726.0,29.296875
727.0,27.34375
728.0,31.25
729.0,29.296875
730.0,31.25
731.0,29.296875
732.0,31.25
733.0,29.296875
734.0,31.25
735.0,29.296875
736.0,33.203125
737.0,29.296875
738.0,33.203125
739.0,29.296875
740.0,33.203125
741.0,29.296875
742.0,33.203125
743.0,31.25
744.0,33.203125
745.0,31.25
746.0,33.203125
747.0,29.296875
748.0,33.203125
749.0,31.25
750.0,33.203125
751.0,29.296875
752.0,33.203125
753.0,31.25
754.0,33.203125
755.0,29.296875
756.0,33.203125
757.0,29.296875
758.0,33.203125
759.0,29.296875
760.0,33.203125
761.0,29.296875
762.0,33.203125
763.0,27.34375
764.0,31.25
765.0,29.296875
766.0,31.25
767.0,27.34375
768.0,31.25
769.0,27.34375
770.0,31.25
771.0,27.34375
772.0,31.25
773.0,27.34375
774.0,29.296875
775.0,25.390625
776.0,29.296875
777.0,25.390625
778.0,27.34375
779.0,25.390625
780.0,27.34375
781.0,23.4375
782.0,27.34375
783.0,23.4375
784.0,27.34375
785.0,23.4375
786.0,25.390625
787.0,21.484375
788.0,25.390625
789.0,21.484375
790.0,23.4375
791.0,19.53125
792.0,23.4375
793.0,19.53125
794.0,23.4375
795.0,17.578125
796.0,21.484375
797.0,17.578125
798.0,21.484375
799.0,15.625
800.0,19.53125
801.0,15.625
802.0,17.578125
803.0,13.671875
804.0,17.578125
805.0,13.671875
806.0,15.625
807.0,11.71875
808.0,15.625
809.0,9.765625
810.0,15.625
811.0,9.765625
812.0,13.671875
813.0,7.8125
814.0,11.71875
815.0,7.8125
816.0,11.71875
817.0,5.859375
818.0,9.765625
819.0,5.859375
820.0,9.765625
821.0,3.90625
822.0,7.8125
823.0,3.90625
824.0,7.8125
825.0,1.953125
826.0,5.859375
827.0,1.953125
828.0,3.90625
829.0,0.0
830.0,3.90625
831.0,-1.953125
832.0,3.90625
833.0,-1.953125
834.0,1.953125
835.0,-1.953125
836.0,1.953125
837.0,-3.90625
838.0,0.0
839.0,-5.859375
840.0,-1.953125
841.0,-5.859375
842.0,-1.953125
843.0,-7.8125
844.0,-1.953125
845.0,-5.859375
846.0,-3.90625
847.0,-7.8125
848.0,-3.90625
849.0,-7.8125
850.0,-3.90625
851.0,-9.765625
852.0,-5.859375
853.0,-9.765625
854.0,-5.859375
855.0,-9.765625
856.0,-7.8125
857.0,-11.71875
858.0,-7.8125
859.0,-11.71875
860.0,-7.8125
861.0,-11.71875
862.0,-9.765625
863.0,-11.71875
864.0,-7.8125
865.0,-13.671875
866.0,-9.765625
867.0,-13.671875
868.0,-9.765625
869.0,-13.671875
870.0,-9.765625
871.0,-13.671875
872.0,-9.765625
873.0,-13.671875
874.0,-9.765625
875.0,-13.671875
876.0,-9.765625
877.0,-13.671875
878.0,-9.765625
879.0,-11.71875
880.0,-9.765625
881.0,-13.671875
882.0,-9.765625
883.0,-11.71875
884.0,-9.765625
885.0,-13.671875
886.0,-9.765625
887.0,-11.71875
888.0,-9.765625
889.0,-11.71875
890.0,-9.765625
891.0,-11.71875
892.0,-7.8125
893.0,-9.765625
894.0,-7.8125
895.0,-9.765625
896.0,-7.8125
897.0,-9.765625
898.0,-5.859375
899.0,-9.765625
900.0,-5.859375
901.0,-7.8125
902.0,-5.859375
903.0,-7.8125
904.0,-3.90625
905.0,-5.859375
906.0,-3.90625
907.0,-5.859375
908.0,-1.953125
909.0,-5.859375
910.0,-1.953125
911.0,-3.90625
912.0,-1.953125
913.0,-3.90625
914.0,0.0
915.0,-3.90625
916.0,0.0
917.0,-1.953125
918.0,1.953125
919.0,0.0
920.0,1.953125
921.0,0.0
922.0,3.90625
923.0,1.953125
924.0,3.90625
925.0,1.953125
926.0,5.859375
927.0,1.953125
928.0,5.859375
929.0,3.90625
930.0,7.8125
931.0,5.859375
932.0,9.765625
933.0,7.8125
934.0,9.765625
935.0,7.8125
936.0,11.71875
937.0,7.8125
938.0,11.71875
939.0,9.765625
940.0,13.671875
941.0,9.765625
942.0,13.671875
943.0,11.71875
944.0,15.625
945.0,13.671875
946.0,15.625
947.0,13.671875
948.0,17.578125
949.0,13.671875
950.0,19.53125
951.0,15.625
952.0,19.53125
953.0,17.578125
954.0,21.484375
955.0,17.578125
956.0,21.484375
957.0,19.53125
958.0,21.484375
959.0,19.53125
960.0,23.4375
961.0,21.484375
962.0,23.4375
963.0,21.484375
964.0,25.390625
965.0,21.484375
966.0,25.390625
967.0,23.4375
968.0,27.34375
969.0,23.4375
970.0,27.34375
971.0,23.4375
972.0,29.296875
973.0,25.390625
974.0,31.25
975.0,25.390625
976.0,29.296875
977.0,27.34375
978.0,31.25
979.0,27.34375
980.0,31.25
981.0,27.34375
982.0,31.25
983.0,27.34375
984.0,31.25
985.0,27.34375
986.0,31.25
987.0,29.296875
988.0,31.25
989.0,29.296875
990.0,33.203125
991.0,29.296875
992.0,33.203125
993.0,29.296875
994.0,33.203125
995.0,29.296875
996.0,33.203125
997.0,31.25
998.0,33.203125
999.0,31.25
1000.0,33.203125
1001.0,31.25
1002.0,33.203125
1003.0,31.25
1004.0,33.203125
1005.0,29.296875
1006.0,33.203125
1007.0,29.296875
1008.0,33.203125
1009.0,29.296875
1010.0,33.203125
1011.0,29.296875
1012.0,33.203125
1013.0,29.296875
1014.0,31.25
1015.0,27.34375
1016.0,33.203125
1017.0,29.296875
1018.0,33.203125
1019.0,29.296875
1020.0,31.25
1021.0,29.296875
1022.0,31.25
1023.0,27.34375
1024.0,31.25
1025.0,27.34375
1026.0,31.25
1027.0,27.34375
1028.0,31.25
1029.0,25.390625
1030.0,29.296875
1031.0,25.390625
1032.0,27.34375
1033.0,25.390625
1034.0,27.34375
1035.0,23.4375
1036.0,27.34375
1037.0,23.4375
1038.0,27.34375
1039.0,21.484375
1040.0,25.390625
1041.0,21.484375
1042.0,25.390625
1043.0,19.53125
1044.0,23.4375
1045.0,19.53125
1046.0,23.4375
1047.0,19.53125
1048.0,21.484375
1049.0,17.578125
1050.0,21.484375
1051.0,15.625
1052.0,19.53125
1053.0,15.625
1054.0,19.53125
1055.0,13.671875
1056.0,17.578125
1057.0,13.671875
1058.0,17.578125
1059.0,13.671875
1060.0,15.625
1061.0,11.71875
1062.0,15.625
1063.0,11.71875
1064.0,13.671875
1065.0,9.765625
1066.0,11.71875
1067.0,7.8125
1068.0,13.671875
1069.0,7.8125
1070.0,11.71875
1071.0,5.859375
1072.0,9.765625
1073.0,3.90625
1074.0,7.8125
1075.0,3.90625
1076.0,7.8125
1077.0,1.953125
1078.0,7.8125
1079.0,1.953125
1080.0,5.859375
1081.0,1.953125
1082.0,3.90625
1083.0,0.0
1084.0,3.90625
1085.0,-1.953125
1086.0,3.90625
1087.0,-1.953125
1088.0,1.953125
1089.0,-1.953125
1090.0,1.953125
1091.0,-3.90625
1092.0,0.0
1093.0,-3.90625
1094.0,-1.953125
1095.0,-5.859375
1096.0,-1.953125
1097.0,-5.859375
1098.0,-3.90625
1099.0,-7.8125
1100.0,-3.90625
1101.0,-7.8125
1102.0,-3.90625
1103.0,-7.8125
1104.0,-3.90625
1105.0,-9.765625
1106.0,-5.859375
1107.0,-9.765625
1108.0,-5.859375
1109.0,-9.765625
1110.0,-7.8125
1111.0,-9.765625
1112.0,-7.8125
1113.0,-9.765625
1114.0,-7.8125
1115.0,-9.765625
1116.0,-7.8125
1117.0,-11.71875
1118.0,-7.8125
1119.0,-11.71875
1120.0,-9.765625
1121.0,-11.71875
1122.0,-9.765625
1123.0,-13.671875
1124.0,-9.765625
1125.0,-11.71875
1126.0,-9.765625
1127.0,-11.71875
1128.0,-9.765625
1129.0,-13.671875
1130.0,-9.765625
1131.0,-11.71875
1132.0,-9.765625
1133.0,-11.71875
1134.0,-7.8125
1135.0,-11.71875
1136.0,-9.765625
1137.0,-11.71875
1138.0,-9.765625
1139.0,-11.71875
1140.0,-7.8125
1141.0,-11.71875
1142.0,-7.8125
1143.0,-9.765625
1144.0,-7.8125
1145.0,-11.71875
1146.0,-7.8125
1147.0,-9.765625
1148.0,-7.8125
1149.0,-9.765625
1150.0,-5.859375
1151.0,-9.765625
1152.0,-5.859375
1153.0,-7.8125
1154.0,-5.859375
1155.0,-7.8125
1156.0,-3.90625
1157.0,-7.8125
1158.0,-3.90625
1159.0,-5.859375
1160.0,-1.953125
1161.0,-5.859375
1162.0,-1.953125
1163.0,-3.90625
1164.0,-1.953125
1165.0,-3.90625
1166.0,0.0
1167.0,-3.90625
1168.0,0.0
1169.0,-1.953125
1170.0,1.953125
1171.0,0.0
1172.0,1.953125
1173.0,0.0
1174.0,3.90625
1175.0,0.0
1176.0,3.90625
1177.0,1.953125
1178.0,5.859375
1179.0,3.90625
1180.0,5.859375
1181.0,5.859375
1182.0,7.8125
1183.0,5.859375
1184.0,9.765625
1185.0,7.8125
1186.0,9.765625
1187.0,7.8125
1188.0,11.71875
1189.0,7.8125
1190.0,11.71875
1191.0,9.765625
1192.0,13.671875
1193.0,11.71875
1194.0,13.671875
1195.0,11.71875
1196.0,15.625
1197.0,13.671875
1198.0,15.625
1199.0,13.671875
1200.0,17.578125
1201.0,15.625
1202.0,19.53125
1203.0,15.625
1204.0,19.53125
1205.0,17.578125
1206.0,21.484375
1207.0,17.578125
1208.0,21.484375
1209.0,19.53125
1210.0,23.4375
1211.0,19.53125
1212.0,23.4375
1213.0,19.53125
1214.0,25.390625
1215.0,21.484375
1216.0,25.390625
1217.0,23.4375
1218.0,25.390625
1219.0,23.4375
1220.0,27.34375
1221.0,25.390625
1222.0,27.34375
1223.0,25.390625
1224.0,29.296875
1225.0,25.390625
1226.0,29.296875
1227.0,27.34375
1228.0,29.296875
1229.0,27.34375
1230.0,29.296875
1231.0,27.34375
1232.0,31.25
1233.0,27.34375
1234.0,31.25
1235.0,27.34375
1236.0,31.25
1237.0,29.296875
1238.0,33.203125
1239.0,29.296875
1240.0,33.203125
1241.0,29.296875
1242.0,33.203125
1243.0,29.296875
1244.0,33.203125
1245.0,31.25
1246.0,33.203125
1247.0,31.25
1248.0,33.203125
1249.0,31.25
1250.0,33.203125
1251.0,29.296875
1252.0,33.203125
1253.0,31.25
1254.0,33.203125
1255.0,31.25
1256.0,33.203125
1257.0,31.25
1258.0,35.15625
1259.0,31.25
1260.0,33.203125
1261.0,31.25
1262.0,33.203125
1263.0,29.296875
1264.0,33.203125
1265.0,31.25
1266.0,33.203125
1267.0,29.296875
1268.0,33.203125
1269.0,29.296875
1270.0,33.203125
1271.0,29.296875
1272.0,33.203125
1273.0,29.296875
1274.0,31.25
1275.0,29.296875
1276.0,31.25
1277.0,27.34375
1278.0,31.25
1279.0,27.34375
1280.0,31.25
1281.0,27.34375
1282.0,29.296875
1283.0,25.390625
1284.0,29.296875
1285.0,25.390625
1286.0,29.296875
1287.0,25.390625
1288.0,27.34375
1289.0,23.4375
1290.0,27.34375
1291.0,23.4375
1292.0,25.390625
1293.0,21.484375
1294.0,25.390625
1295.0,21.484375
1296.0,25.390625
1297.0,21.484375
1298.0,25.390625
1299.0,19.53125
1300.0,21.484375
1301.0,17.578125
1302.0,21.484375
1303.0,17.578125
1304.0,21.484375
1305.0,17.578125
