Practicum8/data/cas_sam/2000Hz_35_0cm/data_81_167.csv

Channel              :		CH1
Frequency            :		1.975kHz
Period               :		0.506ms
PK-PK                :		48.83mV
Probe attenuation    :		1X
Voltage per ADC value:		0.122070mV
Time interval        :		2.00000us
""
index		CH1_Voltage(mV)
1.0,27.34375
2.0,27.34375
3.0,23.4375
4.0,27.34375
5.0,21.484375
6.0,25.390625
7.0,21.484375
8.0,25.390625
9.0,21.484375
10.0,25.390625
11.0,19.53125
12.0,25.390625
13.0,21.484375
14.0,23.4375
15.0,19.53125
16.0,21.484375
17.0,19.53125
18.0,21.484375
19.0,17.578125
20.0,21.484375
21.0,17.578125
22.0,21.484375
23.0,15.625
24.0,19.53125
25.0,15.625
26.0,19.53125
27.0,13.671875
28.0,17.578125
29.0,13.671875
30.0,15.625
31.0,13.671875
32.0,15.625
33.0,11.71875
34.0,15.625
35.0,9.765625
36.0,13.671875
37.0,9.765625
38.0,13.671875
39.0,9.765625
40.0,11.71875
41.0,7.8125
42.0,11.71875
43.0,7.8125
44.0,9.765625
45.0,7.8125
46.0,11.71875
47.0,5.859375
48.0,7.8125
49.0,3.90625
50.0,7.8125
51.0,3.90625
52.0,7.8125
53.0,1.953125
54.0,5.859375
55.0,1.953125
56.0,5.859375
57.0,0.0
58.0,3.90625
59.0,0.0
60.0,3.90625
61.0,-1.953125
62.0,1.953125
63.0,-1.953125
64.0,1.953125
65.0,-1.953125
66.0,0.0
67.0,-3.90625
68.0,0.0
69.0,-3.90625
70.0,-1.953125
71.0,-3.90625
72.0,-1.953125
73.0,-5.859375
74.0,-1.953125
75.0,-5.859375
76.0,-3.90625
77.0,-7.8125
78.0,-3.90625
79.0,-7.8125
80.0,-3.90625
81.0,-7.8125
82.0,-5.859375
83.0,-7.8125
84.0,-5.859375
85.0,-7.8125
86.0,-5.859375
87.0,-9.765625
88.0,-7.8125
89.0,-9.765625
90.0,-7.8125
91.0,-9.765625
92.0,-7.8125
93.0,-9.765625
94.0,-7.8125
95.0,-9.765625
96.0,-7.8125
97.0,-9.765625
98.0,-7.8125
99.0,-11.71875
100.0,-7.8125
101.0,-11.71875
102.0,-7.8125
103.0,-11.71875
104.0,-7.8125
105.0,-11.71875
106.0,-7.8125
107.0,-11.71875
108.0,-7.8125
109.0,-11.71875
110.0,-7.8125
111.0,-11.71875
112.0,-7.8125
113.0,-9.765625
114.0,-7.8125
115.0,-9.765625
116.0,-7.8125
117.0,-11.71875
118.0,-5.859375
119.0,-9.765625
120.0,-7.8125
121.0,-9.765625
122.0,-5.859375
123.0,-7.8125
124.0,-5.859375
125.0,-9.765625
126.0,-3.90625
127.0,-7.8125
128.0,-3.90625
129.0,-7.8125
130.0,-3.90625
131.0,-5.859375
132.0,-3.90625
133.0,-5.859375
134.0,-1.953125
135.0,-5.859375
136.0,-1.953125
137.0,-5.859375
138.0,0.0
139.0,-3.90625
140.0,0.0
141.0,-3.90625
142.0,0.0
143.0,-1.953125
144.0,0.0
145.0,-1.953125
146.0,1.953125
147.0,0.0
148.0,1.953125
149.0,0.0
150.0,3.90625
151.0,0.0
152.0,3.90625
153.0,1.953125
154.0,5.859375
155.0,3.90625
156.0,5.859375
157.0,3.90625
158.0,7.8125
159.0,5.859375
160.0,7.8125
161.0,5.859375
162.0,9.765625
163.0,5.859375
164.0,9.765625
165.0,7.8125
166.0,11.71875
167.0,7.8125
168.0,11.71875
169.0,9.765625
170.0,13.671875
171.0,9.765625
172.0,13.671875
173.0,11.71875
174.0,13.671875
175.0,11.71875
176.0,15.625
177.0,13.671875
178.0,17.578125
179.0,13.671875
180.0,17.578125
181.0,15.625
182.0,17.578125
183.0,15.625
184.0,19.53125
185.0,15.625
186.0,19.53125
187.0,17.578125
188.0,21.484375
189.0,19.53125
190.0,21.484375
191.0,19.53125
192.0,21.484375
193.0,19.53125
194.0,23.4375
195.0,19.53125
196.0,23.4375
197.0,21.484375
198.0,23.4375
199.0,21.484375
200.0,25.390625
201.0,23.4375
202.0,25.390625
203.0,23.4375
204.0,25.390625
205.0,23.4375
206.0,27.34375
207.0,23.4375
208.0,27.34375
209.0,23.4375
210.0,27.34375
211.0,25.390625
212.0,27.34375
213.0,25.390625
214.0,29.296875
215.0,25.390625
216.0,27.34375
217.0,25.390625
218.0,29.296875
219.0,25.390625
220.0,29.296875
221.0,27.34375
222.0,29.296875
223.0,27.34375
224.0,29.296875
225.0,27.34375
226.0,29.296875
227.0,27.34375
228.0,29.296875
229.0,27.34375
230.0,31.25
231.0,27.34375
232.0,29.296875
233.0,27.34375
234.0,29.296875
235.0,25.390625
236.0,31.25
237.0,25.390625
238.0,29.296875
239.0,27.34375
240.0,29.296875
241.0,25.390625
242.0,29.296875
243.0,25.390625
244.0,29.296875
245.0,25.390625
246.0,29.296875
247.0,25.390625
248.0,29.296875
249.0,25.390625
250.0,27.34375
251.0,23.4375
252.0,29.296875
253.0,23.4375
254.0,27.34375
255.0,23.4375
256.0,27.34375
257.0,23.4375
258.0,27.34375
259.0,21.484375
260.0,25.390625
261.0,21.484375
262.0,25.390625
263.0,21.484375
264.0,25.390625
265.0,21.484375
266.0,23.4375
267.0,19.53125
268.0,23.4375
269.0,19.53125
270.0,23.4375
271.0,17.578125
272.0,21.484375
273.0,17.578125
274.0,21.484375
275.0,17.578125
276.0,19.53125
277.0,15.625
278.0,19.53125
279.0,13.671875
280.0,19.53125
281.0,13.671875
282.0,17.578125
283.0,13.671875
284.0,17.578125
285.0,11.71875
286.0,15.625
287.0,11.71875
288.0,15.625
289.0,9.765625
290.0,13.671875
291.0,9.765625
292.0,13.671875
293.0,7.8125
294.0,11.71875
295.0,7.8125
296.0,11.71875
297.0,7.8125
298.0,11.71875
299.0,5.859375
300.0,9.765625
301.0,3.90625
302.0,7.8125
303.0,3.90625
304.0,7.8125
305.0,3.90625
306.0,7.8125
307.0,1.953125
308.0,5.859375
309.0,0.0
310.0,5.859375
311.0,0.0
312.0,3.90625
313.0,0.0
314.0,3.90625
315.0,0.0
316.0,1.953125
317.0,-1.953125
318.0,1.953125
319.0,-3.90625
320.0,1.953125
321.0,-3.90625
322.0,0.0
323.0,-3.90625
324.0,0.0
325.0,-5.859375
326.0,-1.953125
327.0,-5.859375
328.0,-1.953125
329.0,-5.859375
330.0,-1.953125
331.0,-7.8125
332.0,-3.90625
333.0,-7.8125
334.0,-3.90625
335.0,-7.8125
336.0,-3.90625
337.0,-7.8125
338.0,-5.859375
339.0,-9.765625
340.0,-5.859375
341.0,-9.765625
342.0,-5.859375
343.0,-9.765625
344.0,-5.859375
345.0,-9.765625
346.0,-5.859375
347.0,-11.71875
348.0,-5.859375
349.0,-9.765625
350.0,-7.8125
351.0,-9.765625
352.0,-7.8125
353.0,-11.71875
354.0,-7.8125
355.0,-9.765625
356.0,-7.8125
357.0,-9.765625
358.0,-7.8125
359.0,-9.765625
360.0,-7.8125
361.0,-9.765625
362.0,-7.8125
363.0,-11.71875
364.0,-7.8125
365.0,-9.765625
366.0,-7.8125
367.0,-9.765625
368.0,-7.8125
369.0,-9.765625
370.0,-5.859375
371.0,-9.765625
372.0,-5.859375
373.0,-9.765625
374.0,-5.859375
375.0,-7.8125
376.0,-5.859375
377.0,-7.8125
378.0,-5.859375
379.0,-7.8125
380.0,-3.90625
381.0,-7.8125
382.0,-3.90625
383.0,-5.859375
384.0,-3.90625
385.0,-7.8125
386.0,-1.953125
387.0,-5.859375
388.0,-1.953125
389.0,-5.859375
390.0,-1.953125
391.0,-3.90625
392.0,-1.953125
393.0,-3.90625
394.0,0.0
395.0,-1.953125
396.0,0.0
397.0,-1.953125
398.0,1.953125
399.0,0.0
400.0,1.953125
401.0,0.0
402.0,3.90625
403.0,0.0
404.0,3.90625
405.0,1.953125
406.0,5.859375
407.0,1.953125
408.0,5.859375
409.0,3.90625
410.0,7.8125
411.0,3.90625
412.0,7.8125
413.0,5.859375
414.0,9.765625
415.0,5.859375
416.0,9.765625
417.0,7.8125
418.0,9.765625
419.0,7.8125
420.0,11.71875
421.0,9.765625
422.0,13.671875
423.0,9.765625
424.0,13.671875
425.0,11.71875
426.0,15.625
427.0,11.71875
428.0,15.625
429.0,13.671875
430.0,17.578125
431.0,13.671875
432.0,17.578125
433.0,15.625
434.0,17.578125
435.0,15.625
436.0,19.53125
437.0,17.578125
438.0,19.53125
439.0,17.578125
440.0,21.484375
441.0,17.578125
442.0,21.484375
443.0,19.53125
444.0,23.4375
445.0,19.53125
446.0,23.4375
447.0,21.484375
448.0,25.390625
449.0,21.484375
450.0,23.4375
451.0,21.484375
452.0,25.390625
453.0,21.484375
454.0,25.390625
455.0,23.4375
456.0,27.34375
457.0,23.4375
458.0,27.34375
459.0,25.390625
460.0,27.34375
461.0,23.4375
462.0,29.296875
463.0,25.390625
464.0,29.296875
465.0,25.390625
466.0,29.296875
467.0,25.390625
468.0,29.296875
469.0,25.390625
470.0,31.25
471.0,27.34375
472.0,29.296875
473.0,27.34375
474.0,29.296875
475.0,27.34375
476.0,29.296875
477.0,27.34375
478.0,31.25
479.0,27.34375
480.0,31.25
481.0,27.34375
482.0,31.25
483.0,27.34375
484.0,29.296875
485.0,27.34375
486.0,29.296875
487.0,27.34375
488.0,31.25
489.0,27.34375
490.0,31.25
491.0,27.34375
492.0,31.25
493.0,27.34375
494.0,29.296875
495.0,25.390625
496.0,29.296875
497.0,25.390625
498.0,29.296875
499.0,25.390625
500.0,29.296875
501.0,25.390625
502.0,29.296875
503.0,25.390625
504.0,29.296875
505.0,25.390625
506.0,27.34375
507.0,23.4375
508.0,27.34375
509.0,23.4375
510.0,27.34375
511.0,23.4375
512.0,27.34375
513.0,23.4375
514.0,25.390625
515.0,21.484375
516.0,25.390625
517.0,21.484375
518.0,23.4375
519.0,21.484375
520.0,23.4375
521.0,19.53125
522.0,23.4375
523.0,19.53125
524.0,23.4375
525.0,17.578125
526.0,21.484375
527.0,17.578125
528.0,21.484375
529.0,17.578125
530.0,21.484375
531.0,15.625
532.0,19.53125
533.0,15.625
534.0,17.578125
535.0,15.625
536.0,17.578125
537.0,13.671875
538.0,17.578125
539.0,11.71875
540.0,15.625
541.0,11.71875
542.0,15.625
543.0,11.71875
544.0,13.671875
545.0,9.765625
546.0,13.671875
547.0,9.765625
548.0,11.71875
549.0,5.859375
550.0,11.71875
551.0,7.8125
552.0,9.765625
553.0,5.859375
554.0,9.765625
555.0,5.859375
556.0,9.765625
557.0,3.90625
558.0,7.8125
559.0,3.90625
560.0,7.8125
561.0,1.953125
562.0,5.859375
563.0,1.953125
564.0,3.90625
565.0,0.0
566.0,3.90625
567.0,0.0
568.0,1.953125
569.0,0.0
570.0,1.953125
571.0,-1.953125
572.0,1.953125
573.0,-1.953125
574.0,0.0
575.0,-3.90625
576.0,0.0
577.0,-3.90625
578.0,0.0
579.0,-5.859375
580.0,-1.953125
581.0,-5.859375
582.0,-1.953125
583.0,-5.859375
584.0,-1.953125
585.0,-5.859375
586.0,-3.90625
587.0,-7.8125
588.0,-3.90625
589.0,-7.8125
590.0,-3.90625
591.0,-7.8125
592.0,-3.90625
593.0,-9.765625
594.0,-5.859375
595.0,-9.765625
596.0,-5.859375
597.0,-9.765625
598.0,-5.859375
599.0,-9.765625
600.0,-5.859375
601.0,-9.765625
602.0,-7.8125
603.0,-9.765625
604.0,-7.8125
605.0,-11.71875
606.0,-5.859375
607.0,-9.765625
608.0,-7.8125
609.0,-9.765625
610.0,-7.8125
611.0,-9.765625
612.0,-7.8125
613.0,-9.765625
614.0,-7.8125
615.0,-9.765625
616.0,-7.8125
617.0,-11.71875
618.0,-7.8125
619.0,-9.765625
620.0,-7.8125
621.0,-9.765625
622.0,-5.859375
623.0,-9.765625
624.0,-5.859375
625.0,-9.765625
626.0,-5.859375
627.0,-9.765625
628.0,-5.859375
629.0,-7.8125
630.0,-3.90625
631.0,-7.8125
632.0,-5.859375
633.0,-7.8125
634.0,-3.90625
635.0,-5.859375
636.0,-3.90625
637.0,-5.859375
638.0,-1.953125
639.0,-5.859375
640.0,-1.953125
641.0,-3.90625
642.0,-1.953125
643.0,-3.90625
644.0,-1.953125
645.0,-3.90625
646.0,0.0
647.0,-3.90625
648.0,0.0
649.0,-1.953125
650.0,1.953125
651.0,0.0
652.0,1.953125
653.0,0.0
654.0,1.953125
655.0,0.0
656.0,3.90625
657.0,1.953125
658.0,3.90625
659.0,1.953125
660.0,5.859375
661.0,3.90625
662.0,5.859375
663.0,3.90625
664.0,7.8125
665.0,5.859375
666.0,9.765625
667.0,5.859375
668.0,7.8125
669.0,7.8125
670.0,9.765625
671.0,7.8125
672.0,11.71875
673.0,9.765625
674.0,11.71875
675.0,9.765625
676.0,13.671875
677.0,11.71875
678.0,13.671875
679.0,11.71875
680.0,15.625
681.0,11.71875
682.0,15.625
683.0,11.71875
684.0,17.578125
685.0,13.671875
686.0,17.578125
687.0,15.625
688.0,17.578125
689.0,15.625
690.0,19.53125
691.0,17.578125
692.0,21.484375
693.0,17.578125
694.0,21.484375
695.0,19.53125
696.0,21.484375
697.0,19.53125
698.0,23.4375
699.0,19.53125
700.0,23.4375
701.0,19.53125
702.0,23.4375
703.0,21.484375
704.0,23.4375
705.0,21.484375
706.0,25.390625
707.0,21.484375
708.0,27.34375
709.0,23.4375
710.0,27.34375
711.0,23.4375
712.0,27.34375
713.0,23.4375
714.0,27.34375
715.0,25.390625
716.0,27.34375
717.0,25.390625
718.0,29.296875
719.0,25.390625
720.0,29.296875
721.0,25.390625
722.0,29.296875
723.0,25.390625
724.0,29.296875
725.0,27.34375
726.0,29.296875
727.0,27.34375
728.0,29.296875
729.0,27.34375
730.0,31.25
731.0,27.34375
732.0,31.25
733.0,27.34375
734.0,31.25
735.0,27.34375
736.0,29.296875
737.0,27.34375
738.0,29.296875
739.0,27.34375
740.0,31.25
741.0,27.34375
742.0,31.25
743.0,27.34375
744.0,31.25
745.0,27.34375
746.0,29.296875
747.0,27.34375
748.0,31.25
749.0,27.34375
750.0,29.296875
751.0,25.390625
752.0,29.296875
753.0,25.390625
754.0,29.296875
755.0,25.390625
756.0,29.296875
757.0,25.390625
758.0,29.296875
759.0,23.4375
760.0,27.34375
761.0,23.4375
762.0,27.34375
763.0,23.4375
764.0,27.34375
765.0,23.4375
766.0,27.34375
767.0,21.484375
768.0,27.34375
769.0,23.4375
770.0,25.390625
771.0,21.484375
772.0,23.4375
773.0,19.53125
774.0,25.390625
775.0,19.53125
776.0,23.4375
777.0,19.53125
778.0,23.4375
779.0,17.578125
780.0,21.484375
781.0,17.578125
782.0,21.484375
783.0,17.578125
784.0,21.484375
785.0,15.625
786.0,19.53125
787.0,15.625
788.0,17.578125
789.0,13.671875
790.0,17.578125
791.0,13.671875
792.0,17.578125
793.0,11.71875
794.0,15.625
795.0,11.71875
796.0,15.625
797.0,11.71875
798.0,13.671875
799.0,9.765625
800.0,13.671875
801.0,9.765625
802.0,11.71875
803.0,7.8125
804.0,11.71875
805.0,5.859375
806.0,9.765625
807.0,5.859375
808.0,9.765625
809.0,3.90625
810.0,9.765625
811.0,3.90625
812.0,7.8125
813.0,3.90625
814.0,5.859375
815.0,1.953125
816.0,5.859375
817.0,0.0
818.0,5.859375
819.0,0.0
820.0,3.90625
821.0,0.0
822.0,3.90625
823.0,-1.953125
824.0,1.953125
825.0,-1.953125
826.0,1.953125
827.0,-1.953125
828.0,1.953125
829.0,-3.90625
830.0,0.0
831.0,-3.90625
832.0,0.0
833.0,-5.859375
834.0,-1.953125
835.0,-5.859375
836.0,-1.953125
837.0,-5.859375
838.0,-3.90625
839.0,-7.8125
840.0,-3.90625
841.0,-7.8125
842.0,-3.90625
843.0,-7.8125
844.0,-3.90625
845.0,-7.8125
846.0,-5.859375
847.0,-9.765625
848.0,-5.859375
849.0,-9.765625
850.0,-5.859375
851.0,-9.765625
852.0,-5.859375
853.0,-9.765625
854.0,-7.8125
855.0,-9.765625
856.0,-7.8125
857.0,-11.71875
858.0,-7.8125
859.0,-9.765625
860.0,-7.8125
861.0,-9.765625
862.0,-7.8125
863.0,-9.765625
864.0,-7.8125
865.0,-9.765625
866.0,-7.8125
867.0,-11.71875
868.0,-7.8125
869.0,-9.765625
870.0,-7.8125
871.0,-9.765625
872.0,-7.8125
873.0,-9.765625
874.0,-5.859375
875.0,-9.765625
876.0,-5.859375
877.0,-9.765625
878.0,-5.859375
879.0,-9.765625
880.0,-5.859375
881.0,-9.765625
882.0,-5.859375
883.0,-7.8125
884.0,-3.90625
885.0,-7.8125
886.0,-3.90625
887.0,-5.859375
888.0,-3.90625
889.0,-5.859375
890.0,-1.953125
891.0,-5.859375
892.0,-1.953125
893.0,-5.859375
894.0,-1.953125
895.0,-3.90625
896.0,-1.953125
897.0,-3.90625
898.0,0.0
899.0,-3.90625
900.0,0.0
901.0,-1.953125
902.0,1.953125
903.0,-1.953125
904.0,1.953125
905.0,0.0
906.0,1.953125
907.0,0.0
908.0,3.90625
909.0,0.0
910.0,3.90625
911.0,1.953125
912.0,5.859375
913.0,3.90625
914.0,5.859375
915.0,3.90625
916.0,7.8125
917.0,3.90625
918.0,7.8125
919.0,5.859375
920.0,9.765625
921.0,5.859375
922.0,9.765625
923.0,7.8125
924.0,11.71875
925.0,7.8125
926.0,11.71875
927.0,9.765625
928.0,11.71875
929.0,9.765625
930.0,13.671875
931.0,11.71875
932.0,13.671875
933.0,11.71875
934.0,15.625
935.0,13.671875
936.0,15.625
937.0,13.671875
938.0,17.578125
939.0,15.625
940.0,17.578125
941.0,15.625
942.0,19.53125
943.0,15.625
944.0,19.53125
945.0,17.578125
946.0,21.484375
947.0,19.53125
948.0,21.484375
949.0,19.53125
950.0,23.4375
951.0,19.53125
952.0,23.4375
953.0,19.53125
954.0,23.4375
955.0,21.484375
956.0,25.390625
957.0,21.484375
958.0,25.390625
959.0,21.484375
960.0,25.390625
961.0,23.4375
962.0,27.34375
963.0,23.4375
964.0,27.34375
965.0,23.4375
966.0,27.34375
967.0,25.390625
968.0,27.34375
969.0,25.390625
970.0,29.296875
971.0,25.390625
972.0,27.34375
973.0,27.34375
974.0,29.296875
975.0,27.34375
976.0,29.296875
977.0,27.34375
978.0,29.296875
979.0,27.34375
980.0,29.296875
981.0,27.34375
982.0,31.25
983.0,27.34375
984.0,31.25
985.0,27.34375
986.0,31.25
987.0,27.34375
988.0,31.25
989.0,27.34375
990.0,31.25
991.0,27.34375
992.0,31.25
993.0,27.34375
994.0,31.25
995.0,27.34375
996.0,31.25
997.0,27.34375
998.0,29.296875
999.0,27.34375
1000.0,31.25
1001.0,27.34375
1002.0,31.25
1003.0,27.34375
1004.0,31.25
1005.0,27.34375
1006.0,29.296875
1007.0,25.390625
1008.0,29.296875
1009.0,25.390625
1010.0,29.296875
1011.0,25.390625
1012.0,29.296875
1013.0,25.390625
1014.0,27.34375
1015.0,23.4375
1016.0,27.34375
1017.0,23.4375
1018.0,27.34375
1019.0,23.4375
1020.0,27.34375
1021.0,23.4375
1022.0,25.390625
1023.0,21.484375
1024.0,25.390625
1025.0,21.484375
1026.0,25.390625
1027.0,19.53125
1028.0,23.4375
1029.0,19.53125
1030.0,23.4375
1031.0,19.53125
1032.0,23.4375
1033.0,17.578125
1034.0,21.484375
1035.0,17.578125
1036.0,21.484375
1037.0,15.625
1038.0,21.484375
1039.0,15.625
1040.0,19.53125
1041.0,15.625
1042.0,17.578125
1043.0,13.671875
1044.0,17.578125
1045.0,13.671875
1046.0,17.578125
1047.0,11.71875
1048.0,15.625
1049.0,11.71875
1050.0,13.671875
1051.0,9.765625
1052.0,13.671875
1053.0,9.765625
1054.0,13.671875
1055.0,9.765625
1056.0,11.71875
1057.0,7.8125
1058.0,9.765625
1059.0,7.8125
1060.0,9.765625
1061.0,5.859375
1062.0,9.765625
1063.0,5.859375
1064.0,7.8125
1065.0,3.90625
1066.0,7.8125
1067.0,1.953125
1068.0,5.859375
1069.0,1.953125
1070.0,5.859375
1071.0,1.953125
1072.0,3.90625
1073.0,0.0
1074.0,3.90625
1075.0,-1.953125
1076.0,3.90625
1077.0,-1.953125
1078.0,1.953125
1079.0,-1.953125
1080.0,0.0
1081.0,-1.953125
1082.0,0.0
1083.0,-3.90625
1084.0,0.0
1085.0,-3.90625
1086.0,-1.953125
1087.0,-5.859375
1088.0,-1.953125
1089.0,-5.859375
1090.0,-1.953125
1091.0,-5.859375
1092.0,-3.90625
1093.0,-7.8125
1094.0,-3.90625
1095.0,-7.8125
1096.0,-3.90625
1097.0,-7.8125
1098.0,-3.90625
1099.0,-7.8125
1100.0,-5.859375
1101.0,-7.8125
1102.0,-5.859375
1103.0,-9.765625
1104.0,-5.859375
1105.0,-9.765625
1106.0,-7.8125
1107.0,-9.765625
1108.0,-7.8125
1109.0,-9.765625
1110.0,-5.859375
1111.0,-9.765625
1112.0,-7.8125
1113.0,-9.765625
1114.0,-7.8125
1115.0,-9.765625
1116.0,-7.8125
1117.0,-11.71875
1118.0,-7.8125
1119.0,-9.765625
1120.0,-7.8125
1121.0,-11.71875
1122.0,-7.8125
1123.0,-9.765625
1124.0,-7.8125
1125.0,-9.765625
1126.0,-7.8125
1127.0,-9.765625
1128.0,-5.859375
1129.0,-9.765625
1130.0,-5.859375
1131.0,-9.765625
1132.0,-5.859375
1133.0,-7.8125
1134.0,-5.859375
1135.0,-7.8125
1136.0,-3.90625
1137.0,-7.8125
1138.0,-3.90625
1139.0,-7.8125
1140.0,-3.90625
1141.0,-7.8125
1142.0,-3.90625
1143.0,-7.8125
1144.0,-1.953125
1145.0,-5.859375
1146.0,-1.953125
1147.0,-5.859375
1148.0,-1.953125
1149.0,-3.90625
1150.0,0.0
1151.0,-3.90625
1152.0,0.0
1153.0,-1.953125
1154.0,0.0
1155.0,-1.953125
1156.0,0.0
1157.0,0.0
1158.0,1.953125
1159.0,0.0
1160.0,3.90625
1161.0,0.0
1162.0,3.90625
1163.0,0.0
1164.0,3.90625
1165.0,1.953125
1166.0,5.859375
1167.0,1.953125
1168.0,5.859375
1169.0,3.90625
1170.0,7.8125
1171.0,3.90625
1172.0,7.8125
1173.0,5.859375
1174.0,9.765625
1175.0,7.8125
1176.0,9.765625
1177.0,7.8125
1178.0,11.71875
1179.0,9.765625
1180.0,11.71875
1181.0,9.765625
1182.0,13.671875
1183.0,9.765625
1184.0,13.671875
1185.0,11.71875
1186.0,15.625
1187.0,11.71875
1188.0,15.625
1189.0,13.671875
1190.0,15.625
1191.0,15.625
1192.0,17.578125
1193.0,15.625
1194.0,17.578125
1195.0,15.625
1196.0,19.53125
1197.0,17.578125
1198.0,19.53125
1199.0,17.578125
1200.0,21.484375
1201.0,17.578125
1202.0,21.484375
1203.0,19.53125
1204.0,23.4375
1205.0,19.53125
1206.0,23.4375
1207.0,19.53125
1208.0,23.4375
1209.0,19.53125
1210.0,25.390625
1211.0,21.484375
1212.0,25.390625
1213.0,21.484375
1214.0,25.390625
1215.0,23.4375
1216.0,25.390625
1217.0,23.4375
1218.0,27.34375
1219.0,25.390625
1220.0,27.34375
1221.0,25.390625
1222.0,29.296875
1223.0,25.390625
1224.0,27.34375
1225.0,25.390625
1226.0,29.296875
1227.0,25.390625
1228.0,29.296875
1229.0,27.34375
1230.0,29.296875
1231.0,27.34375
1232.0,31.25
1233.0,27.34375
1234.0,29.296875
1235.0,27.34375
1236.0,29.296875
1237.0,27.34375
1238.0,31.25
1239.0,27.34375
1240.0,31.25
1241.0,27.34375
1242.0,31.25
1243.0,27.34375
1244.0,31.25
1245.0,27.34375
1246.0,31.25
1247.0,27.34375
1248.0,31.25
1249.0,27.34375
1250.0,31.25
1251.0,27.34375
1252.0,31.25
1253.0,27.34375
1254.0,31.25
1255.0,27.34375
1256.0,31.25
1257.0,27.34375
1258.0,29.296875
1259.0,25.390625
1260.0,29.296875
1261.0,25.390625
1262.0,29.296875
1263.0,25.390625
1264.0,29.296875
1265.0,25.390625
1266.0,29.296875
1267.0,25.390625
1268.0,27.34375
1269.0,23.4375
1270.0,27.34375
1271.0,23.4375
1272.0,27.34375
1273.0,23.4375
1274.0,25.390625
1275.0,23.4375
1276.0,25.390625
1277.0,21.484375
1278.0,25.390625
1279.0,21.484375
1280.0,25.390625
1281.0,19.53125
1282.0,23.4375
1283.0,19.53125
1284.0,23.4375
1285.0,19.53125
1286.0,21.484375
1287.0,17.578125
1288.0,21.484375
1289.0,17.578125
1290.0,21.484375
1291.0,17.578125
1292.0,19.53125
1293.0,15.625
1294.0,19.53125
1295.0,15.625
1296.0,19.53125
1297.0,13.671875
1298.0,17.578125
1299.0,13.671875
1300.0,15.625
1301.0,11.71875
1302.0,15.625
1303.0,11.71875
1304.0,15.625
1305.0,9.765625
1306.0,13.671875
1307.0,9.765625
1308.0,11.71875
1309.0,9.765625
1310.0,11.71875
1311.0,7.8125
1312.0,11.71875
1313.0,5.859375
1314.0,9.765625
1315.0,5.859375
1316.0,9.765625
1317.0,5.859375
1318.0,7.8125
1319.0,3.90625
1320.0,7.8125
