Practicum8/data/cas_sam/2000Hz_44_1cm/data_81_181.csv

Channel              :		CH1
Frequency            :		1.973kHz
Period               :		0.507ms
PK-PK                :		66.41mV
Probe attenuation    :		1X
Voltage per ADC value:		0.122070mV
Time interval        :		2.00000us
""
index		CH1_Voltage(mV)
1.0,35.15625
2.0,35.15625
3.0,37.109375
4.0,35.15625
5.0,39.0625
6.0,33.203125
7.0,37.109375
8.0,33.203125
9.0,37.109375
10.0,31.25
11.0,35.15625
12.0,31.25
13.0,35.15625
14.0,31.25
15.0,33.203125
16.0,29.296875
17.0,33.203125
18.0,29.296875
19.0,31.25
20.0,27.34375
21.0,31.25
22.0,25.390625
23.0,29.296875
24.0,25.390625
25.0,29.296875
26.0,23.4375
27.0,27.34375
28.0,21.484375
29.0,27.34375
30.0,21.484375
31.0,25.390625
32.0,19.53125
33.0,23.4375
34.0,19.53125
35.0,21.484375
36.0,17.578125
37.0,21.484375
38.0,15.625
39.0,19.53125
40.0,13.671875
41.0,17.578125
42.0,13.671875
43.0,15.625
44.0,11.71875
45.0,15.625
46.0,11.71875
47.0,13.671875
48.0,9.765625
49.0,11.71875
50.0,7.8125
51.0,11.71875
52.0,5.859375
53.0,9.765625
54.0,3.90625
55.0,7.8125
56.0,3.90625
57.0,5.859375
58.0,1.953125
59.0,5.859375
60.0,0.0
61.0,3.90625
62.0,0.0
63.0,3.90625
64.0,-1.953125
65.0,1.953125
66.0,-3.90625
67.0,0.0
68.0,-3.90625
69.0,-1.953125
70.0,-5.859375
71.0,-1.953125
72.0,-7.8125
73.0,-1.953125
74.0,-9.765625
75.0,-5.859375
76.0,-9.765625
77.0,-5.859375
78.0,-9.765625
79.0,-7.8125
80.0,-11.71875
81.0,-7.8125
82.0,-13.671875
83.0,-9.765625
84.0,-13.671875
85.0,-9.765625
86.0,-13.671875
87.0,-11.71875
88.0,-15.625
89.0,-11.71875
90.0,-15.625
91.0,-11.71875
92.0,-17.578125
93.0,-13.671875
94.0,-17.578125
95.0,-13.671875
96.0,-17.578125
97.0,-13.671875
98.0,-19.53125
99.0,-15.625
100.0,-19.53125
101.0,-15.625
102.0,-19.53125
103.0,-15.625
104.0,-19.53125
105.0,-17.578125
106.0,-19.53125
107.0,-15.625
108.0,-19.53125
109.0,-17.578125
110.0,-19.53125
111.0,-15.625
112.0,-19.53125
113.0,-15.625
114.0,-19.53125
115.0,-15.625
116.0,-19.53125
117.0,-15.625
118.0,-19.53125
119.0,-15.625
120.0,-19.53125
121.0,-15.625
122.0,-19.53125
123.0,-15.625
124.0,-17.578125
125.0,-15.625
126.0,-17.578125
127.0,-13.671875
128.0,-17.578125
129.0,-13.671875
130.0,-15.625
131.0,-13.671875
132.0,-15.625
133.0,-11.71875
134.0,-13.671875
135.0,-11.71875
136.0,-13.671875
137.0,-9.765625
138.0,-13.671875
139.0,-9.765625
140.0,-11.71875
141.0,-9.765625
142.0,-11.71875
143.0,-7.8125
144.0,-9.765625
145.0,-7.8125
146.0,-9.765625
147.0,-5.859375
148.0,-7.8125
149.0,-3.90625
150.0,-7.8125
151.0,-1.953125
152.0,-5.859375
153.0,-1.953125
154.0,-3.90625
155.0,0.0
156.0,-1.953125
157.0,0.0
158.0,-1.953125
159.0,1.953125
160.0,0.0
161.0,3.90625
162.0,1.953125
163.0,3.90625
164.0,1.953125
165.0,5.859375
166.0,3.90625
167.0,7.8125
168.0,3.90625
169.0,7.8125
170.0,7.8125
171.0,9.765625
172.0,7.8125
173.0,11.71875
174.0,9.765625
175.0,13.671875
176.0,11.71875
177.0,15.625
178.0,11.71875
179.0,15.625
180.0,13.671875
181.0,17.578125
182.0,15.625
183.0,19.53125
184.0,17.578125
185.0,21.484375
186.0,17.578125
187.0,21.484375
188.0,19.53125
189.0,23.4375
190.0,19.53125
191.0,25.390625
192.0,21.484375
193.0,25.390625
194.0,23.4375
195.0,25.390625
196.0,25.390625
197.0,27.34375
198.0,25.390625
199.0,29.296875
200.0,27.34375
201.0,31.25
202.0,27.34375
203.0,31.25
204.0,29.296875
205.0,31.25
206.0,29.296875
207.0,33.203125
208.0,31.25
209.0,33.203125
210.0,31.25
211.0,35.15625
212.0,31.25
213.0,37.109375
214.0,33.203125
215.0,37.109375
216.0,33.203125
217.0,37.109375
218.0,33.203125
219.0,37.109375
220.0,35.15625
221.0,39.0625
222.0,35.15625
223.0,39.0625
224.0,37.109375
225.0,39.0625
226.0,37.109375
227.0,41.015625
228.0,37.109375
229.0,41.015625
230.0,37.109375
231.0,41.015625
232.0,37.109375
233.0,41.015625
234.0,37.109375
235.0,41.015625
236.0,37.109375
237.0,41.015625
238.0,39.0625
239.0,41.015625
240.0,37.109375
241.0,41.015625
242.0,37.109375
243.0,41.015625
244.0,37.109375
245.0,41.015625
246.0,37.109375
247.0,41.015625
248.0,37.109375
249.0,41.015625
250.0,37.109375
251.0,39.0625
252.0,37.109375
253.0,39.0625
254.0,35.15625
255.0,39.0625
256.0,35.15625
257.0,37.109375
258.0,33.203125
259.0,39.0625
260.0,33.203125
261.0,37.109375
262.0,33.203125
263.0,37.109375
264.0,31.25
265.0,35.15625
266.0,31.25
267.0,35.15625
268.0,31.25
269.0,33.203125
270.0,29.296875
271.0,33.203125
272.0,27.34375
273.0,31.25
274.0,27.34375
275.0,31.25
276.0,25.390625
277.0,29.296875
278.0,25.390625
279.0,27.34375
280.0,23.4375
281.0,27.34375
282.0,23.4375
283.0,25.390625
284.0,19.53125
285.0,25.390625
286.0,19.53125
287.0,23.4375
288.0,19.53125
289.0,21.484375
290.0,17.578125
291.0,21.484375
292.0,15.625
293.0,19.53125
294.0,13.671875
295.0,17.578125
296.0,13.671875
297.0,15.625
298.0,11.71875
299.0,15.625
300.0,9.765625
301.0,13.671875
302.0,9.765625
303.0,13.671875
304.0,7.8125
305.0,9.765625
306.0,5.859375
307.0,9.765625
308.0,3.90625
309.0,7.8125
310.0,1.953125
311.0,7.8125
312.0,1.953125
313.0,3.90625
314.0,0.0
315.0,3.90625
316.0,-1.953125
317.0,1.953125
318.0,-1.953125
319.0,1.953125
320.0,-3.90625
321.0,0.0
322.0,-3.90625
323.0,-1.953125
324.0,-5.859375
325.0,-1.953125
326.0,-7.8125
327.0,-3.90625
328.0,-7.8125
329.0,-5.859375
330.0,-9.765625
331.0,-5.859375
332.0,-11.71875
333.0,-7.8125
334.0,-11.71875
335.0,-9.765625
336.0,-13.671875
337.0,-7.8125
338.0,-13.671875
339.0,-9.765625
340.0,-15.625
341.0,-11.71875
342.0,-15.625
343.0,-11.71875
344.0,-15.625
345.0,-13.671875
346.0,-17.578125
347.0,-13.671875
348.0,-17.578125
349.0,-13.671875
350.0,-17.578125
351.0,-15.625
352.0,-19.53125
353.0,-15.625
354.0,-19.53125
355.0,-15.625
356.0,-19.53125
357.0,-15.625
358.0,-19.53125
359.0,-17.578125
360.0,-19.53125
361.0,-17.578125
362.0,-19.53125
363.0,-17.578125
364.0,-19.53125
365.0,-17.578125
366.0,-19.53125
367.0,-15.625
368.0,-21.484375
369.0,-15.625
370.0,-19.53125
371.0,-17.578125
372.0,-19.53125
373.0,-15.625
374.0,-19.53125
375.0,-15.625
376.0,-19.53125
377.0,-15.625
378.0,-17.578125
379.0,-15.625
380.0,-17.578125
381.0,-13.671875
382.0,-17.578125
383.0,-13.671875
384.0,-15.625
385.0,-13.671875
386.0,-15.625
387.0,-11.71875
388.0,-13.671875
389.0,-11.71875
390.0,-13.671875
391.0,-9.765625
392.0,-11.71875
393.0,-9.765625
394.0,-11.71875
395.0,-7.8125
396.0,-11.71875
397.0,-7.8125
398.0,-9.765625
399.0,-5.859375
400.0,-7.8125
401.0,-5.859375
402.0,-7.8125
403.0,-3.90625
404.0,-5.859375
405.0,-3.90625
406.0,-3.90625
407.0,-1.953125
408.0,-3.90625
409.0,0.0
410.0,-1.953125
411.0,1.953125
412.0,-1.953125
413.0,1.953125
414.0,0.0
415.0,3.90625
416.0,1.953125
417.0,5.859375
418.0,1.953125
419.0,5.859375
420.0,3.90625
421.0,7.8125
422.0,5.859375
423.0,9.765625
424.0,7.8125
425.0,11.71875
426.0,7.8125
427.0,13.671875
428.0,9.765625
429.0,13.671875
430.0,11.71875
431.0,15.625
432.0,13.671875
433.0,15.625
434.0,13.671875
435.0,17.578125
436.0,15.625
437.0,19.53125
438.0,17.578125
439.0,19.53125
440.0,17.578125
441.0,21.484375
442.0,19.53125
443.0,23.4375
444.0,21.484375
445.0,23.4375
446.0,21.484375
447.0,25.390625
448.0,23.4375
449.0,27.34375
450.0,23.4375
451.0,29.296875
452.0,25.390625
453.0,29.296875
454.0,27.34375
455.0,29.296875
456.0,27.34375
457.0,31.25
458.0,29.296875
459.0,31.25
460.0,29.296875
461.0,33.203125
462.0,31.25
463.0,35.15625
464.0,31.25
465.0,35.15625
466.0,31.25
467.0,35.15625
468.0,33.203125
469.0,37.109375
470.0,33.203125
471.0,37.109375
472.0,35.15625
473.0,39.0625
474.0,35.15625
475.0,39.0625
476.0,35.15625
477.0,39.0625
478.0,35.15625
479.0,39.0625
480.0,37.109375
481.0,39.0625
482.0,37.109375
483.0,41.015625
484.0,37.109375
485.0,41.015625
486.0,37.109375
487.0,41.015625
488.0,37.109375
489.0,41.015625
490.0,37.109375
491.0,41.015625
492.0,37.109375
493.0,41.015625
494.0,37.109375
495.0,41.015625
496.0,37.109375
497.0,41.015625
498.0,37.109375
499.0,41.015625
500.0,37.109375
501.0,41.015625
502.0,37.109375
503.0,39.0625
504.0,35.15625
505.0,39.0625
506.0,35.15625
507.0,39.0625
508.0,35.15625
509.0,39.0625
510.0,35.15625
511.0,37.109375
512.0,33.203125
513.0,37.109375
514.0,33.203125
515.0,37.109375
516.0,33.203125
517.0,37.109375
518.0,31.25
519.0,35.15625
520.0,29.296875
521.0,35.15625
522.0,29.296875
523.0,33.203125
524.0,27.34375
525.0,31.25
526.0,27.34375
527.0,31.25
528.0,27.34375
529.0,29.296875
530.0,25.390625
531.0,29.296875
532.0,23.4375
533.0,27.34375
534.0,23.4375
535.0,27.34375
536.0,21.484375
537.0,25.390625
538.0,21.484375
539.0,23.4375
540.0,19.53125
541.0,23.4375
542.0,17.578125
543.0,21.484375
544.0,15.625
545.0,19.53125
546.0,15.625
547.0,19.53125
548.0,13.671875
549.0,17.578125
550.0,11.71875
551.0,17.578125
552.0,11.71875
553.0,13.671875
554.0,9.765625
555.0,13.671875
556.0,7.8125
557.0,11.71875
558.0,5.859375
559.0,9.765625
560.0,5.859375
561.0,9.765625
562.0,3.90625
563.0,7.8125
564.0,1.953125
565.0,5.859375
566.0,0.0
567.0,5.859375
568.0,0.0
569.0,3.90625
570.0,-1.953125
571.0,1.953125
572.0,-1.953125
573.0,0.0
574.0,-3.90625
575.0,0.0
576.0,-5.859375
577.0,-1.953125
578.0,-5.859375
579.0,-3.90625
580.0,-7.8125
581.0,-3.90625
582.0,-9.765625
583.0,-5.859375
584.0,-9.765625
585.0,-7.8125
586.0,-11.71875
587.0,-7.8125
588.0,-13.671875
589.0,-9.765625
590.0,-13.671875
591.0,-9.765625
592.0,-15.625
593.0,-11.71875
594.0,-15.625
595.0,-11.71875
596.0,-15.625
597.0,-11.71875
598.0,-17.578125
599.0,-13.671875
600.0,-17.578125
601.0,-13.671875
602.0,-17.578125
603.0,-15.625
604.0,-17.578125
605.0,-15.625
606.0,-19.53125
607.0,-15.625
608.0,-19.53125
609.0,-15.625
610.0,-19.53125
611.0,-15.625
612.0,-19.53125
613.0,-17.578125
614.0,-19.53125
615.0,-17.578125
616.0,-19.53125
617.0,-17.578125
618.0,-19.53125
619.0,-17.578125
620.0,-19.53125
621.0,-15.625
622.0,-19.53125
623.0,-17.578125
624.0,-19.53125
625.0,-17.578125
626.0,-19.53125
627.0,-15.625
628.0,-19.53125
629.0,-15.625
630.0,-17.578125
631.0,-15.625
632.0,-17.578125
633.0,-15.625
634.0,-17.578125
635.0,-13.671875
636.0,-17.578125
637.0,-13.671875
638.0,-15.625
639.0,-11.71875
640.0,-15.625
641.0,-11.71875
642.0,-13.671875
643.0,-11.71875
644.0,-13.671875
645.0,-9.765625
646.0,-11.71875
647.0,-9.765625
648.0,-11.71875
649.0,-7.8125
650.0,-11.71875
651.0,-7.8125
652.0,-9.765625
653.0,-5.859375
654.0,-7.8125
655.0,-3.90625
656.0,-7.8125
657.0,-3.90625
658.0,-5.859375
659.0,-1.953125
660.0,-3.90625
661.0,0.0
662.0,-3.90625
663.0,0.0
664.0,-1.953125
665.0,1.953125
666.0,0.0
667.0,1.953125
668.0,0.0
669.0,3.90625
670.0,1.953125
671.0,5.859375
672.0,3.90625
673.0,7.8125
674.0,3.90625
675.0,7.8125
676.0,5.859375
677.0,9.765625
678.0,7.8125
679.0,11.71875
680.0,7.8125
681.0,11.71875
682.0,9.765625
683.0,13.671875
684.0,11.71875
685.0,15.625
686.0,13.671875
687.0,17.578125
688.0,13.671875
689.0,19.53125
690.0,15.625
691.0,19.53125
692.0,17.578125
693.0,19.53125
694.0,17.578125
695.0,21.484375
696.0,19.53125
697.0,23.4375
698.0,21.484375
699.0,25.390625
700.0,23.4375
701.0,25.390625
702.0,23.4375
703.0,27.34375
704.0,25.390625
705.0,29.296875
706.0,23.4375
707.0,29.296875
708.0,27.34375
709.0,31.25
710.0,27.34375
711.0,31.25
712.0,29.296875
713.0,33.203125
714.0,29.296875
715.0,33.203125
716.0,31.25
717.0,35.15625
718.0,31.25
719.0,35.15625
720.0,33.203125
721.0,35.15625
722.0,33.203125
723.0,37.109375
724.0,35.15625
725.0,37.109375
726.0,35.15625
727.0,37.109375
728.0,35.15625
729.0,39.0625
730.0,35.15625
731.0,39.0625
732.0,35.15625
733.0,39.0625
734.0,37.109375
735.0,41.015625
736.0,37.109375
737.0,41.015625
738.0,37.109375
739.0,41.015625
740.0,37.109375
741.0,41.015625
742.0,37.109375
743.0,41.015625
744.0,37.109375
745.0,41.015625
746.0,37.109375
747.0,41.015625
748.0,37.109375
749.0,41.015625
750.0,37.109375
751.0,39.0625
752.0,37.109375
753.0,41.015625
754.0,37.109375
755.0,41.015625
756.0,37.109375
757.0,39.0625
758.0,37.109375
759.0,39.0625
760.0,35.15625
761.0,39.0625
762.0,35.15625
763.0,37.109375
764.0,35.15625
765.0,37.109375
766.0,33.203125
767.0,37.109375
768.0,33.203125
769.0,35.15625
770.0,31.25
771.0,35.15625
772.0,31.25
773.0,35.15625
774.0,31.25
775.0,33.203125
776.0,29.296875
777.0,33.203125
778.0,27.34375
779.0,33.203125
780.0,27.34375
781.0,31.25
782.0,25.390625
783.0,29.296875
784.0,25.390625
785.0,29.296875
786.0,23.4375
787.0,27.34375
788.0,23.4375
789.0,27.34375
790.0,21.484375
791.0,25.390625
792.0,19.53125
793.0,23.4375
794.0,19.53125
795.0,23.4375
796.0,17.578125
797.0,21.484375
798.0,15.625
799.0,19.53125
800.0,13.671875
801.0,19.53125
802.0,13.671875
803.0,17.578125
804.0,11.71875
805.0,15.625
806.0,9.765625
807.0,15.625
808.0,9.765625
809.0,11.71875
810.0,5.859375
811.0,11.71875
812.0,5.859375
813.0,9.765625
814.0,3.90625
815.0,7.8125
816.0,3.90625
817.0,7.8125
818.0,1.953125
819.0,5.859375
820.0,0.0
821.0,3.90625
822.0,-1.953125
823.0,1.953125
824.0,-1.953125
825.0,1.953125
826.0,-3.90625
827.0,0.0
828.0,-5.859375
829.0,0.0
830.0,-5.859375
831.0,-1.953125
832.0,-7.8125
833.0,-3.90625
834.0,-7.8125
835.0,-5.859375
836.0,-9.765625
837.0,-5.859375
838.0,-9.765625
839.0,-7.8125
840.0,-11.71875
841.0,-7.8125
842.0,-11.71875
843.0,-9.765625
844.0,-13.671875
845.0,-9.765625
846.0,-13.671875
847.0,-11.71875
848.0,-15.625
849.0,-11.71875
850.0,-15.625
851.0,-13.671875
852.0,-17.578125
853.0,-13.671875
854.0,-17.578125
855.0,-13.671875
856.0,-19.53125
857.0,-15.625
858.0,-17.578125
859.0,-15.625
860.0,-19.53125
861.0,-15.625
862.0,-19.53125
863.0,-15.625
864.0,-19.53125
865.0,-17.578125
866.0,-19.53125
867.0,-17.578125
868.0,-19.53125
869.0,-17.578125
870.0,-19.53125
871.0,-17.578125
872.0,-19.53125
873.0,-15.625
874.0,-21.484375
875.0,-17.578125
876.0,-19.53125
877.0,-17.578125
878.0,-21.484375
879.0,-15.625
880.0,-19.53125
881.0,-17.578125
882.0,-19.53125
883.0,-15.625
884.0,-17.578125
885.0,-15.625
886.0,-17.578125
887.0,-15.625
888.0,-17.578125
889.0,-13.671875
890.0,-17.578125
891.0,-13.671875
892.0,-15.625
893.0,-13.671875
894.0,-15.625
895.0,-11.71875
896.0,-13.671875
897.0,-11.71875
898.0,-13.671875
899.0,-9.765625
900.0,-13.671875
901.0,-9.765625
902.0,-11.71875
903.0,-7.8125
904.0,-11.71875
905.0,-7.8125
906.0,-9.765625
907.0,-5.859375
908.0,-7.8125
909.0,-5.859375
910.0,-7.8125
911.0,-3.90625
912.0,-5.859375
913.0,-1.953125
914.0,-5.859375
915.0,-1.953125
916.0,-3.90625
917.0,0.0
918.0,-1.953125
919.0,1.953125
920.0,0.0
921.0,3.90625
922.0,0.0
923.0,3.90625
924.0,0.0
925.0,5.859375
926.0,3.90625
927.0,5.859375
928.0,3.90625
929.0,9.765625
930.0,5.859375
931.0,9.765625
932.0,7.8125
933.0,11.71875
934.0,9.765625
935.0,11.71875
936.0,9.765625
937.0,13.671875
938.0,11.71875
939.0,15.625
940.0,13.671875
941.0,17.578125
942.0,15.625
943.0,17.578125
944.0,15.625
945.0,19.53125
946.0,15.625
947.0,21.484375
948.0,17.578125
949.0,21.484375
950.0,19.53125
951.0,23.4375
952.0,21.484375
953.0,25.390625
954.0,23.4375
955.0,25.390625
956.0,23.4375
957.0,27.34375
958.0,25.390625
959.0,27.34375
960.0,25.390625
961.0,29.296875
962.0,27.34375
963.0,31.25
964.0,27.34375
965.0,31.25
966.0,27.34375
967.0,33.203125
968.0,29.296875
969.0,33.203125
970.0,31.25
971.0,35.15625
972.0,31.25
973.0,35.15625
974.0,31.25
975.0,37.109375
976.0,33.203125
977.0,37.109375
978.0,33.203125
979.0,39.0625
980.0,35.15625
981.0,37.109375
982.0,35.15625
983.0,37.109375
984.0,35.15625
985.0,39.0625
986.0,35.15625
987.0,39.0625
988.0,37.109375
989.0,39.0625
990.0,37.109375
991.0,41.015625
992.0,37.109375
993.0,39.0625
994.0,37.109375
995.0,39.0625
996.0,37.109375
997.0,41.015625
998.0,37.109375
999.0,39.0625
1000.0,37.109375
1001.0,41.015625
1002.0,37.109375
1003.0,41.015625
1004.0,37.109375
1005.0,39.0625
1006.0,37.109375
1007.0,41.015625
1008.0,35.15625
1009.0,39.0625
1010.0,37.109375
1011.0,39.0625
1012.0,35.15625
1013.0,39.0625
1014.0,35.15625
1015.0,39.0625
1016.0,35.15625
1017.0,37.109375
1018.0,33.203125
1019.0,37.109375
1020.0,33.203125
1021.0,37.109375
1022.0,33.203125
1023.0,35.15625
1024.0,31.25
1025.0,35.15625
1026.0,31.25
1027.0,33.203125
1028.0,29.296875
1029.0,33.203125
1030.0,29.296875
1031.0,33.203125
1032.0,27.34375
1033.0,31.25
1034.0,27.34375
1035.0,29.296875
1036.0,25.390625
1037.0,29.296875
1038.0,25.390625
1039.0,27.34375
1040.0,23.4375
1041.0,27.34375
1042.0,21.484375
1043.0,25.390625
1044.0,21.484375
1045.0,23.4375
1046.0,19.53125
1047.0,23.4375
1048.0,19.53125
1049.0,21.484375
1050.0,17.578125
1051.0,21.484375
1052.0,15.625
1053.0,19.53125
1054.0,13.671875
1055.0,17.578125
1056.0,11.71875
1057.0,17.578125
1058.0,11.71875
1059.0,15.625
1060.0,9.765625
1061.0,13.671875
1062.0,7.8125
1063.0,11.71875
1064.0,5.859375
1065.0,9.765625
1066.0,5.859375
1067.0,9.765625
1068.0,3.90625
1069.0,7.8125
1070.0,1.953125
1071.0,5.859375
1072.0,1.953125
1073.0,3.90625
1074.0,-1.953125
1075.0,3.90625
1076.0,-1.953125
1077.0,1.953125
1078.0,-1.953125
1079.0,0.0
1080.0,-3.90625
1081.0,0.0
1082.0,-5.859375
1083.0,-1.953125
1084.0,-7.8125
1085.0,-3.90625
1086.0,-7.8125
1087.0,-3.90625
1088.0,-7.8125
1089.0,-5.859375
1090.0,-9.765625
1091.0,-5.859375
1092.0,-11.71875
1093.0,-7.8125
1094.0,-11.71875
1095.0,-9.765625
1096.0,-13.671875
1097.0,-9.765625
1098.0,-15.625
1099.0,-9.765625
1100.0,-15.625
1101.0,-11.71875
1102.0,-15.625
1103.0,-13.671875
1104.0,-17.578125
1105.0,-13.671875
1106.0,-17.578125
1107.0,-13.671875
1108.0,-19.53125
1109.0,-13.671875
1110.0,-19.53125
1111.0,-15.625
1112.0,-17.578125
1113.0,-15.625
1114.0,-19.53125
1115.0,-15.625
1116.0,-19.53125
1117.0,-17.578125
1118.0,-19.53125
1119.0,-15.625
1120.0,-19.53125
1121.0,-17.578125
1122.0,-19.53125
1123.0,-17.578125
1124.0,-19.53125
1125.0,-17.578125
1126.0,-21.484375
1127.0,-17.578125
1128.0,-19.53125
1129.0,-17.578125
1130.0,-19.53125
1131.0,-15.625
1132.0,-19.53125
1133.0,-15.625
1134.0,-19.53125
1135.0,-15.625
1136.0,-19.53125
1137.0,-15.625
1138.0,-17.578125
1139.0,-15.625
1140.0,-17.578125
1141.0,-15.625
1142.0,-17.578125
1143.0,-13.671875
1144.0,-15.625
1145.0,-13.671875
1146.0,-15.625
1147.0,-13.671875
1148.0,-15.625
1149.0,-11.71875
1150.0,-15.625
1151.0,-11.71875
1152.0,-13.671875
1153.0,-9.765625
1154.0,-11.71875
1155.0,-9.765625
1156.0,-11.71875
1157.0,-7.8125
1158.0,-9.765625
1159.0,-5.859375
1160.0,-9.765625
1161.0,-5.859375
1162.0,-7.8125
1163.0,-3.90625
1164.0,-7.8125
1165.0,-3.90625
1166.0,-5.859375
1167.0,-1.953125
1168.0,-3.90625
1169.0,-1.953125
1170.0,-1.953125
1171.0,0.0
1172.0,-1.953125
1173.0,1.953125
1174.0,0.0
1175.0,1.953125
1176.0,0.0
1177.0,3.90625
1178.0,1.953125
1179.0,5.859375
1180.0,3.90625
1181.0,7.8125
1182.0,5.859375
1183.0,7.8125
1184.0,7.8125
1185.0,9.765625
1186.0,7.8125
1187.0,11.71875
1188.0,9.765625
1189.0,13.671875
1190.0,9.765625
1191.0,13.671875
1192.0,11.71875
1193.0,15.625
1194.0,13.671875
1195.0,17.578125
1196.0,15.625
1197.0,17.578125
1198.0,15.625
1199.0,19.53125
1200.0,17.578125
1201.0,21.484375
1202.0,17.578125
1203.0,23.4375
1204.0,21.484375
1205.0,25.390625
1206.0,21.484375
1207.0,25.390625
1208.0,23.4375
1209.0,25.390625
1210.0,23.4375
1211.0,27.34375
1212.0,25.390625
1213.0,29.296875
1214.0,25.390625
1215.0,29.296875
1216.0,27.34375
1217.0,31.25
1218.0,27.34375
1219.0,31.25
1220.0,29.296875
1221.0,33.203125
1222.0,31.25
1223.0,33.203125
1224.0,31.25
1225.0,35.15625
1226.0,31.25
1227.0,35.15625
1228.0,33.203125
1229.0,35.15625
1230.0,33.203125
1231.0,37.109375
1232.0,33.203125
1233.0,37.109375
1234.0,35.15625
1235.0,39.0625
1236.0,35.15625
1237.0,39.0625
1238.0,35.15625
1239.0,39.0625
1240.0,37.109375
1241.0,39.0625
1242.0,37.109375
1243.0,41.015625
1244.0,37.109375
1245.0,39.0625
1246.0,37.109375
1247.0,39.0625
1248.0,37.109375
1249.0,41.015625
1250.0,37.109375
1251.0,39.0625
1252.0,37.109375
1253.0,41.015625
1254.0,37.109375
1255.0,41.015625
1256.0,37.109375
1257.0,41.015625
1258.0,37.109375
1259.0,41.015625
1260.0,35.15625
1261.0,41.015625
1262.0,37.109375
1263.0,39.0625
1264.0,37.109375
1265.0,39.0625
1266.0,35.15625
1267.0,39.0625
1268.0,35.15625
1269.0,39.0625
1270.0,35.15625
1271.0,37.109375
1272.0,33.203125
1273.0,37.109375
1274.0,33.203125
1275.0,35.15625
1276.0,31.25
1277.0,35.15625
1278.0,31.25
1279.0,35.15625
1280.0,31.25
1281.0,33.203125
1282.0,29.296875
1283.0,33.203125
1284.0,29.296875
1285.0,31.25
1286.0,27.34375
1287.0,31.25
1288.0,25.390625
1289.0,29.296875
1290.0,25.390625
1291.0,29.296875
1292.0,23.4375
1293.0,27.34375
1294.0,23.4375
