Practicum8/data/cas_sam/2000Hz_44_1cm/data_81_189.csv

Channel              :		CH1
Frequency            :		1.973kHz
Period               :		0.507ms
PK-PK                :		93.75mV
Probe attenuation    :		1X
Voltage per ADC value:		0.122070mV
Time interval        :		2.00000us
""
index		CH1_Voltage(mV)
1.0,48.828125
2.0,48.828125
3.0,50.78125
4.0,46.875
5.0,50.78125
6.0,46.875
7.0,50.78125
8.0,46.875
9.0,48.828125
10.0,44.921875
11.0,48.828125
12.0,44.921875
13.0,48.828125
14.0,42.96875
15.0,46.875
16.0,41.015625
17.0,46.875
18.0,41.015625
19.0,44.921875
20.0,39.0625
21.0,42.96875
22.0,37.109375
23.0,42.96875
24.0,37.109375
25.0,41.015625
26.0,35.15625
27.0,39.0625
28.0,33.203125
29.0,37.109375
30.0,31.25
31.0,37.109375
32.0,31.25
33.0,33.203125
34.0,29.296875
35.0,33.203125
36.0,27.34375
37.0,31.25
38.0,25.390625
39.0,29.296875
40.0,23.4375
41.0,27.34375
42.0,19.53125
43.0,25.390625
44.0,19.53125
45.0,23.4375
46.0,15.625
47.0,21.484375
48.0,15.625
49.0,17.578125
50.0,11.71875
51.0,17.578125
52.0,9.765625
53.0,13.671875
54.0,7.8125
55.0,11.71875
56.0,3.90625
57.0,11.71875
58.0,3.90625
59.0,9.765625
60.0,0.0
61.0,7.8125
62.0,-1.953125
63.0,5.859375
64.0,-3.90625
65.0,3.90625
66.0,-3.90625
67.0,1.953125
68.0,-5.859375
69.0,-1.953125
70.0,-7.8125
71.0,-3.90625
72.0,-9.765625
73.0,-5.859375
74.0,-13.671875
75.0,-5.859375
76.0,-15.625
77.0,-7.8125
78.0,-17.578125
79.0,-9.765625
80.0,-19.53125
81.0,-11.71875
82.0,-19.53125
83.0,-15.625
84.0,-21.484375
85.0,-17.578125
86.0,-21.484375
87.0,-19.53125
88.0,-25.390625
89.0,-19.53125
90.0,-27.34375
91.0,-19.53125
92.0,-29.296875
93.0,-21.484375
94.0,-29.296875
95.0,-21.484375
96.0,-31.25
97.0,-23.4375
98.0,-31.25
99.0,-25.390625
100.0,-33.203125
101.0,-25.390625
102.0,-31.25
103.0,-29.296875
104.0,-31.25
105.0,-29.296875
106.0,-35.15625
107.0,-29.296875
108.0,-35.15625
109.0,-29.296875
110.0,-37.109375
111.0,-29.296875
112.0,-37.109375
113.0,-29.296875
114.0,-37.109375
115.0,-29.296875
116.0,-37.109375
117.0,-29.296875
118.0,-35.15625
119.0,-31.25
120.0,-33.203125
121.0,-31.25
122.0,-35.15625
123.0,-29.296875
124.0,-35.15625
125.0,-29.296875
126.0,-35.15625
127.0,-29.296875
128.0,-35.15625
129.0,-27.34375
130.0,-35.15625
131.0,-27.34375
132.0,-33.203125
133.0,-27.34375
134.0,-33.203125
135.0,-25.390625
136.0,-29.296875
137.0,-27.34375
138.0,-29.296875
139.0,-25.390625
140.0,-29.296875
141.0,-23.4375
142.0,-27.34375
143.0,-21.484375
144.0,-27.34375
145.0,-21.484375
146.0,-25.390625
147.0,-17.578125
148.0,-23.4375
149.0,-17.578125
150.0,-21.484375
151.0,-15.625
152.0,-19.53125
153.0,-15.625
154.0,-17.578125
155.0,-13.671875
156.0,-17.578125
157.0,-9.765625
158.0,-15.625
159.0,-9.765625
160.0,-13.671875
161.0,-5.859375
162.0,-11.71875
163.0,-3.90625
164.0,-9.765625
165.0,-1.953125
166.0,-7.8125
167.0,0.0
168.0,-5.859375
169.0,0.0
170.0,-1.953125
171.0,1.953125
172.0,0.0
173.0,5.859375
174.0,0.0
175.0,7.8125
176.0,1.953125
177.0,9.765625
178.0,3.90625
179.0,11.71875
180.0,5.859375
181.0,15.625
182.0,7.8125
183.0,15.625
184.0,9.765625
185.0,17.578125
186.0,15.625
187.0,17.578125
188.0,17.578125
189.0,21.484375
190.0,17.578125
191.0,23.4375
192.0,19.53125
193.0,25.390625
194.0,21.484375
195.0,29.296875
196.0,21.484375
197.0,31.25
198.0,23.4375
199.0,31.25
200.0,25.390625
201.0,33.203125
202.0,27.34375
203.0,35.15625
204.0,31.25
205.0,35.15625
206.0,33.203125
207.0,39.0625
208.0,31.25
209.0,41.015625
210.0,35.15625
211.0,42.96875
212.0,35.15625
213.0,42.96875
214.0,37.109375
215.0,44.921875
216.0,39.0625
217.0,46.875
218.0,41.015625
219.0,46.875
220.0,42.96875
221.0,46.875
222.0,44.921875
223.0,46.875
224.0,42.96875
225.0,50.78125
226.0,44.921875
227.0,50.78125
228.0,44.921875
229.0,50.78125
230.0,44.921875
231.0,52.734375
232.0,44.921875
233.0,52.734375
234.0,46.875
235.0,52.734375
236.0,46.875
237.0,54.6875
238.0,50.78125
239.0,52.734375
240.0,48.828125
241.0,54.6875
242.0,48.828125
243.0,54.6875
244.0,48.828125
245.0,54.6875
246.0,46.875
247.0,54.6875
248.0,46.875
249.0,54.6875
250.0,46.875
251.0,54.6875
252.0,46.875
253.0,54.6875
254.0,48.828125
255.0,50.78125
256.0,48.828125
257.0,50.78125
258.0,44.921875
259.0,52.734375
260.0,44.921875
261.0,50.78125
262.0,42.96875
263.0,50.78125
264.0,42.96875
265.0,50.78125
266.0,41.015625
267.0,48.828125
268.0,41.015625
269.0,48.828125
270.0,41.015625
271.0,44.921875
272.0,41.015625
273.0,42.96875
274.0,37.109375
275.0,44.921875
276.0,35.15625
277.0,42.96875
278.0,33.203125
279.0,41.015625
280.0,33.203125
281.0,41.015625
282.0,31.25
283.0,39.0625
284.0,29.296875
285.0,37.109375
286.0,29.296875
287.0,35.15625
288.0,27.34375
289.0,31.25
290.0,23.4375
291.0,31.25
292.0,21.484375
293.0,29.296875
294.0,19.53125
295.0,27.34375
296.0,17.578125
297.0,25.390625
298.0,15.625
299.0,23.4375
300.0,13.671875
301.0,21.484375
302.0,11.71875
303.0,19.53125
304.0,11.71875
305.0,15.625
306.0,9.765625
307.0,13.671875
308.0,5.859375
309.0,13.671875
310.0,3.90625
311.0,11.71875
312.0,1.953125
313.0,9.765625
314.0,0.0
315.0,7.8125
316.0,-3.90625
317.0,5.859375
318.0,-5.859375
319.0,3.90625
320.0,-3.90625
321.0,0.0
322.0,-5.859375
323.0,-3.90625
324.0,-9.765625
325.0,-3.90625
326.0,-13.671875
327.0,-5.859375
328.0,-15.625
329.0,-7.8125
330.0,-17.578125
331.0,-9.765625
332.0,-19.53125
333.0,-11.71875
334.0,-19.53125
335.0,-11.71875
336.0,-21.484375
337.0,-13.671875
338.0,-21.484375
339.0,-17.578125
340.0,-23.4375
341.0,-19.53125
342.0,-27.34375
343.0,-19.53125
344.0,-29.296875
345.0,-19.53125
346.0,-29.296875
347.0,-21.484375
348.0,-29.296875
349.0,-23.4375
350.0,-31.25
351.0,-23.4375
352.0,-33.203125
353.0,-25.390625
354.0,-31.25
355.0,-29.296875
356.0,-31.25
357.0,-29.296875
358.0,-35.15625
359.0,-27.34375
360.0,-35.15625
361.0,-29.296875
362.0,-35.15625
363.0,-29.296875
364.0,-37.109375
365.0,-29.296875
366.0,-37.109375
367.0,-29.296875
368.0,-37.109375
369.0,-31.25
370.0,-37.109375
371.0,-31.25
372.0,-35.15625
373.0,-33.203125
374.0,-35.15625
375.0,-31.25
376.0,-37.109375
377.0,-29.296875
378.0,-37.109375
379.0,-29.296875
380.0,-35.15625
381.0,-29.296875
382.0,-35.15625
383.0,-29.296875
384.0,-35.15625
385.0,-27.34375
386.0,-33.203125
387.0,-27.34375
388.0,-31.25
389.0,-27.34375
390.0,-29.296875
391.0,-27.34375
392.0,-31.25
393.0,-23.4375
394.0,-29.296875
395.0,-23.4375
396.0,-27.34375
397.0,-21.484375
398.0,-27.34375
399.0,-19.53125
400.0,-25.390625
401.0,-19.53125
402.0,-25.390625
403.0,-17.578125
404.0,-23.4375
405.0,-15.625
406.0,-19.53125
407.0,-15.625
408.0,-17.578125
409.0,-11.71875
410.0,-17.578125
411.0,-9.765625
412.0,-15.625
413.0,-7.8125
414.0,-13.671875
415.0,-5.859375
416.0,-11.71875
417.0,-3.90625
418.0,-9.765625
419.0,-1.953125
420.0,-7.8125
421.0,0.0
422.0,-3.90625
423.0,0.0
424.0,-1.953125
425.0,1.953125
426.0,-1.953125
427.0,5.859375
428.0,0.0
429.0,7.8125
430.0,1.953125
431.0,9.765625
432.0,3.90625
433.0,11.71875
434.0,5.859375
435.0,15.625
436.0,7.8125
437.0,17.578125
438.0,11.71875
439.0,15.625
440.0,13.671875
441.0,17.578125
442.0,15.625
443.0,23.4375
444.0,17.578125
445.0,25.390625
446.0,19.53125
447.0,27.34375
448.0,21.484375
449.0,29.296875
450.0,23.4375
451.0,31.25
452.0,25.390625
453.0,33.203125
454.0,27.34375
455.0,33.203125
456.0,31.25
457.0,33.203125
458.0,31.25
459.0,37.109375
460.0,31.25
461.0,39.0625
462.0,33.203125
463.0,41.015625
464.0,35.15625
465.0,42.96875
466.0,35.15625
467.0,42.96875
468.0,37.109375
469.0,44.921875
470.0,39.0625
471.0,46.875
472.0,42.96875
473.0,44.921875
474.0,42.96875
475.0,46.875
476.0,42.96875
477.0,48.828125
478.0,42.96875
479.0,50.78125
480.0,44.921875
481.0,50.78125
482.0,44.921875
483.0,50.78125
484.0,44.921875
485.0,52.734375
486.0,44.921875
487.0,52.734375
488.0,46.875
489.0,52.734375
490.0,48.828125
491.0,50.78125
492.0,46.875
493.0,54.6875
494.0,46.875
495.0,54.6875
496.0,46.875
497.0,54.6875
498.0,46.875
499.0,54.6875
500.0,46.875
501.0,54.6875
502.0,46.875
503.0,54.6875
504.0,46.875
505.0,54.6875
506.0,48.828125
507.0,50.78125
508.0,46.875
509.0,50.78125
510.0,44.921875
511.0,52.734375
512.0,44.921875
513.0,52.734375
514.0,44.921875
515.0,50.78125
516.0,42.96875
517.0,50.78125
518.0,42.96875
519.0,48.828125
520.0,41.015625
521.0,48.828125
522.0,41.015625
523.0,46.875
524.0,41.015625
525.0,44.921875
526.0,37.109375
527.0,44.921875
528.0,37.109375
529.0,42.96875
530.0,35.15625
531.0,42.96875
532.0,33.203125
533.0,41.015625
534.0,31.25
535.0,39.0625
536.0,31.25
537.0,37.109375
538.0,29.296875
539.0,35.15625
540.0,29.296875
541.0,31.25
542.0,25.390625
543.0,31.25
544.0,23.4375
545.0,31.25
546.0,21.484375
547.0,29.296875
548.0,19.53125
549.0,27.34375
550.0,17.578125
551.0,25.390625
552.0,15.625
553.0,23.4375
554.0,13.671875
555.0,19.53125
556.0,13.671875
557.0,17.578125
558.0,11.71875
559.0,13.671875
560.0,5.859375
561.0,13.671875
562.0,3.90625
563.0,11.71875
564.0,1.953125
565.0,9.765625
566.0,0.0
567.0,7.8125
568.0,-1.953125
569.0,5.859375
570.0,-3.90625
571.0,3.90625
572.0,-3.90625
573.0,1.953125
574.0,-5.859375
575.0,-1.953125
576.0,-9.765625
577.0,-3.90625
578.0,-11.71875
579.0,-3.90625
580.0,-13.671875
581.0,-5.859375
582.0,-15.625
583.0,-7.8125
584.0,-17.578125
585.0,-9.765625
586.0,-19.53125
587.0,-11.71875
588.0,-19.53125
589.0,-13.671875
590.0,-19.53125
591.0,-17.578125
592.0,-21.484375
593.0,-19.53125
594.0,-25.390625
595.0,-19.53125
596.0,-27.34375
597.0,-19.53125
598.0,-29.296875
599.0,-21.484375
600.0,-31.25
601.0,-21.484375
602.0,-31.25
603.0,-23.4375
604.0,-33.203125
605.0,-25.390625
606.0,-31.25
607.0,-27.34375
608.0,-31.25
609.0,-29.296875
610.0,-35.15625
611.0,-27.34375
612.0,-35.15625
613.0,-29.296875
614.0,-35.15625
615.0,-29.296875
616.0,-37.109375
617.0,-29.296875
618.0,-37.109375
619.0,-29.296875
620.0,-37.109375
621.0,-31.25
622.0,-37.109375
623.0,-31.25
624.0,-35.15625
625.0,-33.203125
626.0,-37.109375
627.0,-31.25
628.0,-37.109375
629.0,-29.296875
630.0,-37.109375
631.0,-29.296875
632.0,-37.109375
633.0,-29.296875
634.0,-35.15625
635.0,-29.296875
636.0,-35.15625
637.0,-29.296875
638.0,-35.15625
639.0,-27.34375
640.0,-33.203125
641.0,-29.296875
642.0,-31.25
643.0,-27.34375
644.0,-31.25
645.0,-25.390625
646.0,-31.25
647.0,-23.4375
648.0,-29.296875
649.0,-21.484375
650.0,-29.296875
651.0,-19.53125
652.0,-27.34375
653.0,-19.53125
654.0,-25.390625
655.0,-17.578125
656.0,-23.4375
657.0,-17.578125
658.0,-19.53125
659.0,-17.578125
660.0,-19.53125
661.0,-13.671875
662.0,-19.53125
663.0,-11.71875
664.0,-17.578125
665.0,-9.765625
666.0,-15.625
667.0,-7.8125
668.0,-13.671875
669.0,-5.859375
670.0,-11.71875
671.0,-3.90625
672.0,-9.765625
673.0,-1.953125
674.0,-5.859375
675.0,-1.953125
676.0,-3.90625
677.0,1.953125
678.0,-3.90625
679.0,5.859375
680.0,-1.953125
681.0,5.859375
682.0,1.953125
683.0,7.8125
684.0,1.953125
685.0,11.71875
686.0,5.859375
687.0,13.671875
688.0,7.8125
689.0,15.625
690.0,9.765625
691.0,15.625
692.0,13.671875
693.0,17.578125
694.0,13.671875
695.0,21.484375
696.0,15.625
697.0,23.4375
698.0,17.578125
699.0,25.390625
700.0,19.53125
701.0,27.34375
702.0,21.484375
703.0,29.296875
704.0,23.4375
705.0,31.25
706.0,25.390625
707.0,33.203125
708.0,29.296875
709.0,33.203125
710.0,31.25
711.0,35.15625
712.0,31.25
713.0,37.109375
714.0,31.25
715.0,39.0625
716.0,33.203125
717.0,41.015625
718.0,35.15625
719.0,42.96875
720.0,35.15625
721.0,42.96875
722.0,37.109375
723.0,44.921875
724.0,41.015625
725.0,44.921875
726.0,42.96875
727.0,44.921875
728.0,41.015625
729.0,48.828125
730.0,42.96875
731.0,48.828125
732.0,42.96875
733.0,50.78125
734.0,44.921875
735.0,50.78125
736.0,44.921875
737.0,50.78125
738.0,44.921875
739.0,52.734375
740.0,46.875
741.0,52.734375
742.0,48.828125
743.0,50.78125
744.0,46.875
745.0,52.734375
746.0,46.875
747.0,54.6875
748.0,46.875
749.0,54.6875
750.0,46.875
751.0,54.6875
752.0,46.875
753.0,54.6875
754.0,46.875
755.0,54.6875
756.0,46.875
757.0,54.6875
758.0,48.828125
759.0,50.78125
760.0,48.828125
761.0,50.78125
762.0,46.875
763.0,52.734375
764.0,44.921875
765.0,52.734375
766.0,44.921875
767.0,50.78125
768.0,42.96875
769.0,50.78125
770.0,42.96875
771.0,50.78125
772.0,42.96875
773.0,48.828125
774.0,42.96875
775.0,48.828125
776.0,41.015625
777.0,44.921875
778.0,39.0625
779.0,44.921875
780.0,37.109375
781.0,44.921875
782.0,35.15625
783.0,42.96875
784.0,35.15625
785.0,41.015625
786.0,33.203125
787.0,41.015625
788.0,31.25
789.0,39.0625
790.0,31.25
791.0,37.109375
792.0,29.296875
793.0,33.203125
794.0,27.34375
795.0,31.25
796.0,23.4375
797.0,31.25
798.0,21.484375
799.0,29.296875
800.0,19.53125
801.0,27.34375
802.0,17.578125
803.0,27.34375
804.0,15.625
805.0,25.390625
806.0,13.671875
807.0,23.4375
808.0,15.625
809.0,17.578125
810.0,11.71875
811.0,15.625
812.0,7.8125
813.0,15.625
814.0,5.859375
815.0,13.671875
816.0,3.90625
817.0,11.71875
818.0,1.953125
819.0,9.765625
820.0,0.0
821.0,7.8125
822.0,-1.953125
823.0,5.859375
824.0,-3.90625
825.0,3.90625
826.0,-3.90625
827.0,0.0
828.0,-9.765625
829.0,-1.953125
830.0,-9.765625
831.0,-3.90625
832.0,-11.71875
833.0,-5.859375
834.0,-15.625
835.0,-5.859375
836.0,-17.578125
837.0,-9.765625
838.0,-17.578125
839.0,-9.765625
840.0,-19.53125
841.0,-11.71875
842.0,-19.53125
843.0,-15.625
844.0,-21.484375
845.0,-17.578125
846.0,-25.390625
847.0,-17.578125
848.0,-25.390625
849.0,-19.53125
850.0,-27.34375
851.0,-21.484375
852.0,-29.296875
853.0,-21.484375
854.0,-29.296875
855.0,-23.4375
856.0,-31.25
857.0,-23.4375
858.0,-31.25
859.0,-25.390625
860.0,-31.25
861.0,-29.296875
862.0,-33.203125
863.0,-27.34375
864.0,-35.15625
865.0,-27.34375
866.0,-35.15625
867.0,-29.296875
868.0,-37.109375
869.0,-29.296875
870.0,-37.109375
871.0,-29.296875
872.0,-37.109375
873.0,-31.25
874.0,-37.109375
875.0,-31.25
876.0,-35.15625
877.0,-33.203125
878.0,-35.15625
879.0,-33.203125
880.0,-37.109375
881.0,-31.25
882.0,-37.109375
883.0,-31.25
884.0,-37.109375
885.0,-29.296875
886.0,-37.109375
887.0,-29.296875
888.0,-35.15625
889.0,-29.296875
890.0,-35.15625
891.0,-27.34375
892.0,-31.25
893.0,-29.296875
894.0,-31.25
895.0,-29.296875
896.0,-33.203125
897.0,-25.390625
898.0,-31.25
899.0,-25.390625
900.0,-31.25
901.0,-23.4375
902.0,-29.296875
903.0,-21.484375
904.0,-27.34375
905.0,-21.484375
906.0,-27.34375
907.0,-19.53125
908.0,-25.390625
909.0,-19.53125
910.0,-21.484375
911.0,-17.578125
912.0,-19.53125
913.0,-15.625
914.0,-21.484375
915.0,-13.671875
916.0,-17.578125
917.0,-11.71875
918.0,-17.578125
919.0,-9.765625
920.0,-15.625
921.0,-7.8125
922.0,-13.671875
923.0,-5.859375
924.0,-11.71875
925.0,-3.90625
926.0,-7.8125
927.0,-3.90625
928.0,-5.859375
929.0,-1.953125
930.0,-3.90625
931.0,1.953125
932.0,-3.90625
933.0,5.859375
934.0,-1.953125
935.0,7.8125
936.0,0.0
937.0,7.8125
938.0,3.90625
939.0,11.71875
940.0,5.859375
941.0,13.671875
942.0,7.8125
943.0,13.671875
944.0,11.71875
945.0,15.625
946.0,13.671875
947.0,19.53125
948.0,13.671875
949.0,21.484375
950.0,15.625
951.0,23.4375
952.0,17.578125
953.0,25.390625
954.0,19.53125
955.0,27.34375
956.0,21.484375
957.0,29.296875
958.0,23.4375
959.0,31.25
960.0,27.34375
961.0,31.25
962.0,29.296875
963.0,33.203125
964.0,29.296875
965.0,37.109375
966.0,31.25
967.0,39.0625
968.0,33.203125
969.0,39.0625
970.0,33.203125
971.0,41.015625
972.0,35.15625
973.0,42.96875
974.0,37.109375
975.0,42.96875
976.0,39.0625
977.0,42.96875
978.0,41.015625
979.0,44.921875
980.0,41.015625
981.0,48.828125
982.0,41.015625
983.0,48.828125
984.0,42.96875
985.0,48.828125
986.0,42.96875
987.0,50.78125
988.0,42.96875
989.0,50.78125
990.0,44.921875
991.0,50.78125
992.0,44.921875
993.0,52.734375
994.0,48.828125
995.0,50.78125
996.0,48.828125
997.0,52.734375
998.0,46.875
999.0,54.6875
1000.0,46.875
1001.0,52.734375
1002.0,46.875
1003.0,54.6875
1004.0,46.875
1005.0,54.6875
1006.0,46.875
1007.0,54.6875
1008.0,46.875
1009.0,52.734375
1010.0,48.828125
1011.0,50.78125
1012.0,48.828125
1013.0,50.78125
1014.0,46.875
1015.0,52.734375
1016.0,44.921875
1017.0,52.734375
1018.0,44.921875
1019.0,50.78125
1020.0,44.921875
1021.0,50.78125
1022.0,42.96875
1023.0,50.78125
1024.0,41.015625
1025.0,48.828125
1026.0,42.96875
1027.0,48.828125
1028.0,42.96875
1029.0,44.921875
1030.0,39.0625
1031.0,44.921875
1032.0,37.109375
1033.0,44.921875
1034.0,35.15625
1035.0,42.96875
1036.0,35.15625
1037.0,42.96875
1038.0,33.203125
1039.0,41.015625
1040.0,31.25
1041.0,39.0625
1042.0,31.25
1043.0,37.109375
1044.0,31.25
1045.0,33.203125
1046.0,29.296875
1047.0,33.203125
1048.0,25.390625
1049.0,33.203125
1050.0,23.4375
1051.0,31.25
1052.0,21.484375
1053.0,29.296875
1054.0,19.53125
1055.0,27.34375
1056.0,17.578125
1057.0,25.390625
1058.0,13.671875
1059.0,23.4375
1060.0,15.625
1061.0,19.53125
1062.0,13.671875
1063.0,17.578125
1064.0,9.765625
1065.0,15.625
1066.0,5.859375
1067.0,15.625
1068.0,5.859375
1069.0,13.671875
1070.0,1.953125
1071.0,11.71875
1072.0,0.0
1073.0,7.8125
1074.0,-1.953125
1075.0,5.859375
1076.0,-1.953125
1077.0,3.90625
1078.0,-3.90625
1079.0,0.0
1080.0,-7.8125
1081.0,-1.953125
1082.0,-9.765625
1083.0,-1.953125
1084.0,-11.71875
1085.0,-3.90625
1086.0,-13.671875
1087.0,-5.859375
1088.0,-15.625
1089.0,-7.8125
1090.0,-17.578125
1091.0,-9.765625
1092.0,-19.53125
1093.0,-11.71875
1094.0,-19.53125
1095.0,-15.625
1096.0,-19.53125
1097.0,-17.578125
1098.0,-23.4375
1099.0,-17.578125
1100.0,-25.390625
1101.0,-17.578125
1102.0,-27.34375
1103.0,-19.53125
1104.0,-29.296875
1105.0,-21.484375
1106.0,-29.296875
1107.0,-23.4375
1108.0,-31.25
1109.0,-23.4375
1110.0,-31.25
1111.0,-25.390625
1112.0,-31.25
1113.0,-29.296875
1114.0,-33.203125
1115.0,-27.34375
1116.0,-35.15625
1117.0,-27.34375
1118.0,-35.15625
1119.0,-29.296875
1120.0,-37.109375
1121.0,-29.296875
1122.0,-37.109375
1123.0,-29.296875
1124.0,-37.109375
1125.0,-31.25
1126.0,-37.109375
1127.0,-31.25
1128.0,-35.15625
1129.0,-33.203125
1130.0,-35.15625
1131.0,-33.203125
1132.0,-37.109375
1133.0,-31.25
1134.0,-37.109375
1135.0,-31.25
1136.0,-37.109375
1137.0,-31.25
1138.0,-37.109375
1139.0,-29.296875
1140.0,-37.109375
1141.0,-29.296875
1142.0,-35.15625
1143.0,-29.296875
1144.0,-35.15625
1145.0,-29.296875
1146.0,-33.203125
1147.0,-29.296875
1148.0,-33.203125
1149.0,-27.34375
1150.0,-33.203125
1151.0,-25.390625
1152.0,-31.25
1153.0,-25.390625
1154.0,-31.25
1155.0,-23.4375
1156.0,-29.296875
1157.0,-21.484375
1158.0,-27.34375
1159.0,-21.484375
1160.0,-27.34375
1161.0,-19.53125
1162.0,-23.4375
1163.0,-19.53125
1164.0,-21.484375
1165.0,-17.578125
1166.0,-21.484375
1167.0,-13.671875
1168.0,-19.53125
1169.0,-11.71875
1170.0,-17.578125
1171.0,-9.765625
1172.0,-17.578125
1173.0,-9.765625
1174.0,-15.625
1175.0,-5.859375
1176.0,-13.671875
1177.0,-5.859375
1178.0,-7.8125
1179.0,-5.859375
1180.0,-5.859375
1181.0,-3.90625
1182.0,-5.859375
1183.0,0.0
1184.0,-3.90625
1185.0,3.90625
1186.0,-1.953125
1187.0,5.859375
1188.0,0.0
1189.0,7.8125
1190.0,1.953125
1191.0,9.765625
1192.0,3.90625
1193.0,11.71875
1194.0,5.859375
1195.0,11.71875
1196.0,9.765625
1197.0,13.671875
1198.0,11.71875
1199.0,17.578125
1200.0,11.71875
1201.0,19.53125
1202.0,13.671875
1203.0,21.484375
1204.0,15.625
1205.0,23.4375
1206.0,17.578125
1207.0,25.390625
1208.0,19.53125
1209.0,27.34375
1210.0,21.484375
1211.0,29.296875
1212.0,25.390625
1213.0,29.296875
1214.0,27.34375
1215.0,31.25
1216.0,27.34375
1217.0,35.15625
1218.0,29.296875
1219.0,37.109375
1220.0,31.25
1221.0,39.0625
1222.0,33.203125
1223.0,39.0625
1224.0,33.203125
1225.0,41.015625
1226.0,35.15625
1227.0,42.96875
1228.0,37.109375
1229.0,42.96875
1230.0,41.015625
1231.0,42.96875
1232.0,41.015625
1233.0,46.875
1234.0,41.015625
1235.0,46.875
1236.0,41.015625
1237.0,48.828125
1238.0,42.96875
1239.0,48.828125
1240.0,42.96875
1241.0,50.78125
1242.0,44.921875
1243.0,50.78125
1244.0,44.921875
1245.0,50.78125
1246.0,46.875
1247.0,50.78125
1248.0,46.875
1249.0,50.78125
1250.0,46.875
1251.0,52.734375
1252.0,46.875
1253.0,52.734375
1254.0,46.875
1255.0,54.6875
1256.0,46.875
1257.0,54.6875
1258.0,46.875
1259.0,52.734375
1260.0,46.875
1261.0,52.734375
1262.0,48.828125
1263.0,50.78125
1264.0,48.828125
1265.0,50.78125
1266.0,46.875
1267.0,52.734375
1268.0,44.921875
1269.0,52.734375
1270.0,44.921875
1271.0,52.734375
1272.0,44.921875
1273.0,50.78125
1274.0,42.96875
1275.0,50.78125
1276.0,42.96875
1277.0,50.78125
1278.0,42.96875
1279.0,48.828125
1280.0,42.96875
1281.0,44.921875
1282.0,39.0625
