Practicum8/data/cas_sam/2000Hz_44_1cm/data_81_207.csv

Channel              :		CH1
Frequency            :		1.975kHz
Period               :		0.506ms
PK-PK                :		48.83mV
Probe attenuation    :		1X
Voltage per ADC value:		0.122070mV
Time interval        :		2.00000us
""
index		CH1_Voltage(mV)
1.0,29.296875
2.0,29.296875
3.0,33.203125
4.0,29.296875
5.0,33.203125
6.0,29.296875
7.0,31.25
8.0,29.296875
9.0,33.203125
10.0,29.296875
11.0,31.25
12.0,27.34375
13.0,31.25
14.0,27.34375
15.0,31.25
16.0,27.34375
17.0,31.25
18.0,25.390625
19.0,29.296875
20.0,23.4375
21.0,29.296875
22.0,25.390625
23.0,27.34375
24.0,25.390625
25.0,27.34375
26.0,23.4375
27.0,27.34375
28.0,21.484375
29.0,25.390625
30.0,21.484375
31.0,25.390625
32.0,19.53125
33.0,23.4375
34.0,19.53125
35.0,23.4375
36.0,19.53125
37.0,23.4375
38.0,17.578125
39.0,21.484375
40.0,17.578125
41.0,21.484375
42.0,15.625
43.0,19.53125
44.0,15.625
45.0,17.578125
46.0,15.625
47.0,17.578125
48.0,13.671875
49.0,17.578125
50.0,11.71875
51.0,15.625
52.0,11.71875
53.0,15.625
54.0,9.765625
55.0,13.671875
56.0,9.765625
57.0,11.71875
58.0,7.8125
59.0,11.71875
60.0,7.8125
61.0,11.71875
62.0,5.859375
63.0,9.765625
64.0,3.90625
65.0,7.8125
66.0,3.90625
67.0,7.8125
68.0,3.90625
69.0,7.8125
70.0,1.953125
71.0,5.859375
72.0,1.953125
73.0,3.90625
74.0,0.0
75.0,3.90625
76.0,0.0
77.0,3.90625
78.0,0.0
79.0,1.953125
80.0,-1.953125
81.0,1.953125
82.0,-1.953125
83.0,0.0
84.0,-3.90625
85.0,0.0
86.0,-3.90625
87.0,0.0
88.0,-5.859375
89.0,-1.953125
90.0,-5.859375
91.0,-1.953125
92.0,-5.859375
93.0,-1.953125
94.0,-5.859375
95.0,-3.90625
96.0,-7.8125
97.0,-3.90625
98.0,-7.8125
99.0,-3.90625
100.0,-7.8125
101.0,-3.90625
102.0,-7.8125
103.0,-5.859375
104.0,-9.765625
105.0,-5.859375
106.0,-7.8125
107.0,-5.859375
108.0,-9.765625
109.0,-5.859375
110.0,-9.765625
111.0,-5.859375
112.0,-9.765625
113.0,-5.859375
114.0,-9.765625
115.0,-5.859375
116.0,-9.765625
117.0,-5.859375
118.0,-9.765625
119.0,-5.859375
120.0,-9.765625
121.0,-5.859375
122.0,-9.765625
123.0,-5.859375
124.0,-7.8125
125.0,-5.859375
126.0,-9.765625
127.0,-5.859375
128.0,-7.8125
129.0,-5.859375
130.0,-7.8125
131.0,-5.859375
132.0,-7.8125
133.0,-3.90625
134.0,-7.8125
135.0,-3.90625
136.0,-5.859375
137.0,-3.90625
138.0,-5.859375
139.0,-3.90625
140.0,-5.859375
141.0,-1.953125
142.0,-3.90625
143.0,0.0
144.0,-5.859375
145.0,-1.953125
146.0,-3.90625
147.0,0.0
148.0,-3.90625
149.0,0.0
150.0,-1.953125
151.0,1.953125
152.0,-1.953125
153.0,1.953125
154.0,-1.953125
155.0,3.90625
156.0,0.0
157.0,3.90625
158.0,1.953125
159.0,3.90625
160.0,1.953125
161.0,5.859375
162.0,1.953125
163.0,5.859375
164.0,3.90625
165.0,7.8125
166.0,5.859375
167.0,7.8125
168.0,5.859375
169.0,9.765625
170.0,5.859375
171.0,9.765625
172.0,7.8125
173.0,11.71875
174.0,7.8125
175.0,11.71875
176.0,9.765625
177.0,13.671875
178.0,9.765625
179.0,13.671875
180.0,9.765625
181.0,15.625
182.0,11.71875
183.0,15.625
184.0,13.671875
185.0,17.578125
186.0,13.671875
187.0,17.578125
188.0,15.625
189.0,19.53125
190.0,17.578125
191.0,19.53125
192.0,17.578125
193.0,19.53125
194.0,17.578125
195.0,21.484375
196.0,19.53125
197.0,21.484375
198.0,19.53125
199.0,23.4375
200.0,21.484375
201.0,23.4375
202.0,21.484375
203.0,25.390625
204.0,21.484375
205.0,25.390625
206.0,23.4375
207.0,27.34375
208.0,25.390625
209.0,27.34375
210.0,23.4375
211.0,29.296875
212.0,25.390625
213.0,29.296875
214.0,25.390625
215.0,29.296875
216.0,27.34375
217.0,29.296875
218.0,27.34375
219.0,31.25
220.0,27.34375
221.0,31.25
222.0,27.34375
223.0,31.25
224.0,29.296875
225.0,31.25
226.0,29.296875
227.0,31.25
228.0,29.296875
229.0,33.203125
230.0,31.25
231.0,33.203125
232.0,31.25
233.0,33.203125
234.0,31.25
235.0,33.203125
236.0,31.25
237.0,33.203125
238.0,31.25
239.0,33.203125
240.0,31.25
241.0,33.203125
242.0,31.25
243.0,33.203125
244.0,31.25
245.0,35.15625
246.0,31.25
247.0,33.203125
248.0,31.25
249.0,35.15625
250.0,31.25
251.0,33.203125
252.0,29.296875
253.0,33.203125
254.0,29.296875
255.0,33.203125
256.0,29.296875
257.0,33.203125
258.0,29.296875
259.0,33.203125
260.0,29.296875
261.0,33.203125
262.0,29.296875
263.0,31.25
264.0,27.34375
265.0,31.25
266.0,27.34375
267.0,31.25
268.0,27.34375
269.0,31.25
270.0,25.390625
271.0,29.296875
272.0,25.390625
273.0,29.296875
274.0,25.390625
275.0,27.34375
276.0,25.390625
277.0,27.34375
278.0,23.4375
279.0,27.34375
280.0,23.4375
281.0,25.390625
282.0,21.484375
283.0,25.390625
284.0,21.484375
285.0,25.390625
286.0,19.53125
287.0,23.4375
288.0,19.53125
289.0,23.4375
290.0,19.53125
291.0,23.4375
292.0,17.578125
293.0,21.484375
294.0,17.578125
295.0,21.484375
296.0,15.625
297.0,19.53125
298.0,13.671875
299.0,19.53125
300.0,13.671875
301.0,17.578125
302.0,13.671875
303.0,17.578125
304.0,11.71875
305.0,15.625
306.0,9.765625
307.0,15.625
308.0,9.765625
309.0,13.671875
310.0,9.765625
311.0,11.71875
312.0,7.8125
313.0,11.71875
314.0,7.8125
315.0,11.71875
316.0,5.859375
317.0,9.765625
318.0,3.90625
319.0,9.765625
320.0,3.90625
321.0,7.8125
322.0,3.90625
323.0,7.8125
324.0,1.953125
325.0,5.859375
326.0,1.953125
327.0,3.90625
328.0,0.0
329.0,3.90625
330.0,0.0
331.0,3.90625
332.0,-1.953125
333.0,1.953125
334.0,-1.953125
335.0,1.953125
336.0,-1.953125
337.0,0.0
338.0,-3.90625
339.0,0.0
340.0,-3.90625
341.0,0.0
342.0,-3.90625
343.0,-1.953125
344.0,-5.859375
345.0,-1.953125
346.0,-5.859375
347.0,-1.953125
348.0,-5.859375
349.0,-3.90625
350.0,-5.859375
351.0,-3.90625
352.0,-7.8125
353.0,-3.90625
354.0,-7.8125
355.0,-3.90625
356.0,-9.765625
357.0,-3.90625
358.0,-7.8125
359.0,-5.859375
360.0,-7.8125
361.0,-5.859375
362.0,-9.765625
363.0,-5.859375
364.0,-7.8125
365.0,-5.859375
366.0,-9.765625
367.0,-5.859375
368.0,-9.765625
369.0,-5.859375
370.0,-9.765625
371.0,-5.859375
372.0,-9.765625
373.0,-5.859375
374.0,-9.765625
375.0,-5.859375
376.0,-7.8125
377.0,-5.859375
378.0,-7.8125
379.0,-3.90625
380.0,-7.8125
381.0,-3.90625
382.0,-7.8125
383.0,-3.90625
384.0,-7.8125
385.0,-3.90625
386.0,-7.8125
387.0,-3.90625
388.0,-5.859375
389.0,-3.90625
390.0,-5.859375
391.0,-1.953125
392.0,-5.859375
393.0,-3.90625
394.0,-5.859375
395.0,-1.953125
396.0,-5.859375
397.0,-1.953125
398.0,-3.90625
399.0,0.0
400.0,-3.90625
401.0,0.0
402.0,-1.953125
403.0,0.0
404.0,-1.953125
405.0,1.953125
406.0,-1.953125
407.0,1.953125
408.0,-1.953125
409.0,3.90625
410.0,0.0
411.0,3.90625
412.0,0.0
413.0,5.859375
414.0,1.953125
415.0,5.859375
416.0,3.90625
417.0,5.859375
418.0,3.90625
419.0,7.8125
420.0,5.859375
421.0,7.8125
422.0,5.859375
423.0,9.765625
424.0,5.859375
425.0,11.71875
426.0,7.8125
427.0,11.71875
428.0,9.765625
429.0,13.671875
430.0,7.8125
431.0,15.625
432.0,11.71875
433.0,13.671875
434.0,11.71875
435.0,15.625
436.0,11.71875
437.0,17.578125
438.0,13.671875
439.0,17.578125
440.0,13.671875
441.0,19.53125
442.0,15.625
443.0,19.53125
444.0,17.578125
445.0,19.53125
446.0,15.625
447.0,23.4375
448.0,19.53125
449.0,21.484375
450.0,19.53125
451.0,23.4375
452.0,21.484375
453.0,23.4375
454.0,19.53125
455.0,25.390625
456.0,21.484375
457.0,27.34375
458.0,21.484375
459.0,27.34375
460.0,23.4375
461.0,27.34375
462.0,23.4375
463.0,29.296875
464.0,23.4375
465.0,29.296875
466.0,25.390625
467.0,29.296875
468.0,25.390625
469.0,29.296875
470.0,27.34375
471.0,33.203125
472.0,25.390625
473.0,33.203125
474.0,25.390625
475.0,33.203125
476.0,29.296875
477.0,31.25
478.0,29.296875
479.0,33.203125
480.0,27.34375
481.0,35.15625
482.0,29.296875
483.0,35.15625
484.0,31.25
485.0,33.203125
486.0,29.296875
487.0,35.15625
488.0,29.296875
489.0,35.15625
490.0,29.296875
491.0,35.15625
492.0,29.296875
493.0,33.203125
494.0,31.25
495.0,33.203125
496.0,29.296875
497.0,37.109375
498.0,29.296875
499.0,37.109375
500.0,29.296875
501.0,35.15625
502.0,29.296875
503.0,35.15625
504.0,29.296875
505.0,35.15625
506.0,27.34375
507.0,35.15625
508.0,29.296875
509.0,35.15625
510.0,31.25
511.0,33.203125
512.0,27.34375
513.0,33.203125
514.0,27.34375
515.0,35.15625
516.0,27.34375
517.0,33.203125
518.0,27.34375
519.0,33.203125
520.0,25.390625
521.0,33.203125
522.0,25.390625
523.0,33.203125
524.0,25.390625
525.0,31.25
526.0,25.390625
527.0,29.296875
528.0,25.390625
529.0,27.34375
530.0,21.484375
531.0,29.296875
532.0,21.484375
533.0,29.296875
534.0,21.484375
535.0,27.34375
536.0,19.53125
537.0,27.34375
538.0,19.53125
539.0,25.390625
540.0,19.53125
541.0,25.390625
542.0,17.578125
543.0,23.4375
544.0,19.53125
545.0,21.484375
546.0,15.625
547.0,23.4375
548.0,15.625
549.0,21.484375
550.0,13.671875
551.0,21.484375
552.0,13.671875
553.0,19.53125
554.0,11.71875
555.0,19.53125
556.0,11.71875
557.0,17.578125
558.0,9.765625
559.0,17.578125
560.0,11.71875
561.0,13.671875
562.0,7.8125
563.0,13.671875
564.0,7.8125
565.0,13.671875
566.0,5.859375
567.0,13.671875
568.0,5.859375
569.0,11.71875
570.0,3.90625
571.0,11.71875
572.0,3.90625
573.0,9.765625
574.0,1.953125
575.0,9.765625
576.0,1.953125
577.0,7.8125
578.0,1.953125
579.0,5.859375
580.0,0.0
581.0,5.859375
582.0,-1.953125
583.0,5.859375
584.0,-3.90625
585.0,5.859375
586.0,-3.90625
587.0,3.90625
588.0,-3.90625
589.0,3.90625
590.0,-3.90625
591.0,1.953125
592.0,-3.90625
593.0,1.953125
594.0,-3.90625
595.0,-1.953125
596.0,-5.859375
597.0,-1.953125
598.0,-7.8125
599.0,0.0
600.0,-7.8125
601.0,-1.953125
602.0,-7.8125
603.0,-1.953125
604.0,-9.765625
605.0,-1.953125
606.0,-9.765625
607.0,-1.953125
608.0,-9.765625
609.0,-1.953125
610.0,-7.8125
611.0,-3.90625
612.0,-7.8125
613.0,-5.859375
614.0,-9.765625
615.0,-3.90625
616.0,-9.765625
617.0,-3.90625
618.0,-11.71875
619.0,-3.90625
620.0,-11.71875
621.0,-3.90625
622.0,-11.71875
623.0,-3.90625
624.0,-11.71875
625.0,-3.90625
626.0,-9.765625
627.0,-3.90625
628.0,-7.8125
629.0,-5.859375
630.0,-9.765625
631.0,-3.90625
632.0,-9.765625
633.0,-3.90625
634.0,-9.765625
635.0,-3.90625
636.0,-9.765625
637.0,-1.953125
638.0,-9.765625
639.0,-1.953125
640.0,-9.765625
641.0,-1.953125
642.0,-7.8125
643.0,-1.953125
644.0,-5.859375
645.0,-3.90625
646.0,-5.859375
647.0,-1.953125
648.0,-5.859375
649.0,0.0
650.0,-5.859375
651.0,1.953125
652.0,-5.859375
653.0,1.953125
654.0,-5.859375
655.0,3.90625
656.0,-3.90625
657.0,3.90625
658.0,-3.90625
659.0,3.90625
660.0,-1.953125
661.0,3.90625
662.0,0.0
663.0,3.90625
664.0,0.0
665.0,5.859375
666.0,0.0
667.0,7.8125
668.0,1.953125
669.0,7.8125
670.0,1.953125
671.0,9.765625
672.0,1.953125
673.0,9.765625
674.0,3.90625
675.0,11.71875
676.0,3.90625
677.0,11.71875
678.0,7.8125
679.0,11.71875
680.0,9.765625
681.0,13.671875
682.0,7.8125
683.0,15.625
684.0,9.765625
685.0,15.625
686.0,9.765625
687.0,17.578125
688.0,11.71875
689.0,17.578125
690.0,11.71875
691.0,19.53125
692.0,11.71875
693.0,21.484375
694.0,15.625
695.0,19.53125
696.0,17.578125
697.0,19.53125
698.0,15.625
699.0,23.4375
700.0,17.578125
701.0,23.4375
702.0,17.578125
703.0,23.4375
704.0,17.578125
705.0,25.390625
706.0,19.53125
707.0,25.390625
708.0,19.53125
709.0,27.34375
710.0,21.484375
711.0,27.34375
712.0,23.4375
713.0,27.34375
714.0,23.4375
715.0,29.296875
716.0,23.4375
717.0,29.296875
718.0,23.4375
719.0,31.25
720.0,23.4375
721.0,31.25
722.0,25.390625
723.0,31.25
724.0,25.390625
725.0,33.203125
726.0,25.390625
727.0,33.203125
728.0,29.296875
729.0,31.25
730.0,29.296875
731.0,31.25
732.0,27.34375
733.0,35.15625
734.0,27.34375
735.0,35.15625
736.0,29.296875
737.0,35.15625
738.0,27.34375
739.0,35.15625
740.0,29.296875
741.0,35.15625
742.0,29.296875
743.0,35.15625
744.0,29.296875
745.0,35.15625
746.0,31.25
747.0,33.203125
748.0,29.296875
749.0,35.15625
750.0,29.296875
751.0,37.109375
752.0,29.296875
753.0,37.109375
754.0,29.296875
755.0,37.109375
756.0,29.296875
757.0,35.15625
758.0,29.296875
759.0,35.15625
760.0,29.296875
761.0,35.15625
762.0,31.25
763.0,33.203125
764.0,27.34375
765.0,33.203125
766.0,27.34375
767.0,35.15625
768.0,27.34375
769.0,33.203125
770.0,25.390625
771.0,33.203125
772.0,27.34375
773.0,33.203125
774.0,25.390625
775.0,33.203125
776.0,25.390625
777.0,31.25
778.0,27.34375
779.0,29.296875
780.0,25.390625
781.0,29.296875
782.0,23.4375
783.0,29.296875
784.0,21.484375
785.0,29.296875
786.0,21.484375
787.0,29.296875
788.0,21.484375
789.0,27.34375
790.0,19.53125
791.0,27.34375
792.0,19.53125
793.0,25.390625
794.0,17.578125
795.0,25.390625
796.0,19.53125
797.0,21.484375
798.0,15.625
799.0,21.484375
800.0,15.625
801.0,23.4375
802.0,13.671875
803.0,21.484375
804.0,13.671875
805.0,21.484375
806.0,11.71875
807.0,19.53125
808.0,11.71875
809.0,19.53125
810.0,9.765625
811.0,17.578125
812.0,11.71875
813.0,13.671875
814.0,11.71875
815.0,13.671875
816.0,7.8125
817.0,15.625
818.0,5.859375
819.0,13.671875
820.0,5.859375
821.0,13.671875
822.0,3.90625
823.0,11.71875
824.0,3.90625
825.0,11.71875
826.0,1.953125
827.0,9.765625
828.0,1.953125
829.0,9.765625
830.0,1.953125
831.0,5.859375
832.0,0.0
833.0,5.859375
834.0,0.0
835.0,5.859375
836.0,-1.953125
837.0,5.859375
838.0,-1.953125
839.0,3.90625
840.0,-3.90625
841.0,3.90625
842.0,-3.90625
843.0,1.953125
844.0,-3.90625
845.0,1.953125
846.0,-3.90625
847.0,0.0
848.0,-3.90625
849.0,-1.953125
850.0,-5.859375
851.0,0.0
852.0,-7.8125
853.0,0.0
854.0,-7.8125
855.0,0.0
856.0,-7.8125
857.0,-1.953125
858.0,-9.765625
859.0,-1.953125
860.0,-9.765625
861.0,-1.953125
862.0,-7.8125
863.0,-3.90625
864.0,-7.8125
865.0,-5.859375
866.0,-9.765625
867.0,-3.90625
868.0,-9.765625
869.0,-3.90625
870.0,-11.71875
871.0,-3.90625
872.0,-11.71875
873.0,-3.90625
874.0,-11.71875
875.0,-3.90625
876.0,-11.71875
877.0,-3.90625
878.0,-9.765625
879.0,-3.90625
880.0,-7.8125
881.0,-5.859375
882.0,-9.765625
883.0,-3.90625
884.0,-9.765625
885.0,-3.90625
886.0,-9.765625
887.0,-3.90625
888.0,-9.765625
889.0,-1.953125
890.0,-9.765625
891.0,-1.953125
892.0,-9.765625
893.0,-1.953125
894.0,-7.8125
895.0,-1.953125
896.0,-5.859375
897.0,-3.90625
898.0,-5.859375
899.0,-1.953125
900.0,-5.859375
901.0,0.0
902.0,-5.859375
903.0,0.0
904.0,-5.859375
905.0,1.953125
906.0,-5.859375
907.0,1.953125
908.0,-3.90625
909.0,1.953125
910.0,-3.90625
911.0,3.90625
912.0,-1.953125
913.0,3.90625
914.0,0.0
915.0,3.90625
916.0,0.0
917.0,5.859375
918.0,0.0
919.0,7.8125
920.0,1.953125
921.0,7.8125
922.0,1.953125
923.0,7.8125
924.0,1.953125
925.0,9.765625
926.0,3.90625
927.0,9.765625
928.0,3.90625
929.0,11.71875
930.0,7.8125
931.0,9.765625
932.0,9.765625
933.0,11.71875
934.0,7.8125
935.0,15.625
936.0,7.8125
937.0,15.625
938.0,9.765625
939.0,15.625
940.0,9.765625
941.0,17.578125
942.0,11.71875
943.0,17.578125
944.0,11.71875
945.0,19.53125
946.0,15.625
947.0,19.53125
948.0,15.625
949.0,19.53125
950.0,15.625
951.0,23.4375
952.0,15.625
953.0,23.4375
954.0,17.578125
955.0,23.4375
956.0,17.578125
957.0,25.390625
958.0,19.53125
959.0,25.390625
960.0,19.53125
961.0,27.34375
962.0,19.53125
963.0,27.34375
964.0,23.4375
965.0,27.34375
966.0,23.4375
967.0,29.296875
968.0,23.4375
969.0,29.296875
970.0,23.4375
971.0,31.25
972.0,23.4375
973.0,31.25
974.0,25.390625
975.0,31.25
976.0,25.390625
977.0,33.203125
978.0,25.390625
979.0,33.203125
980.0,29.296875
981.0,31.25
982.0,29.296875
983.0,31.25
984.0,27.34375
985.0,35.15625
986.0,27.34375
987.0,35.15625
988.0,29.296875
989.0,35.15625
990.0,29.296875
991.0,35.15625
992.0,29.296875
993.0,35.15625
994.0,29.296875
995.0,37.109375
996.0,29.296875
997.0,35.15625
998.0,31.25
999.0,35.15625
1000.0,29.296875
1001.0,35.15625
1002.0,29.296875
1003.0,37.109375
1004.0,29.296875
1005.0,37.109375
1006.0,29.296875
1007.0,37.109375
1008.0,29.296875
1009.0,37.109375
1010.0,29.296875
1011.0,37.109375
1012.0,29.296875
1013.0,35.15625
1014.0,31.25
1015.0,33.203125
1016.0,31.25
1017.0,33.203125
1018.0,27.34375
1019.0,35.15625
1020.0,27.34375
1021.0,35.15625
1022.0,27.34375
1023.0,33.203125
1024.0,27.34375
1025.0,33.203125
1026.0,27.34375
1027.0,33.203125
1028.0,25.390625
1029.0,33.203125
1030.0,25.390625
1031.0,31.25
1032.0,27.34375
1033.0,29.296875
1034.0,23.4375
1035.0,31.25
1036.0,23.4375
1037.0,29.296875
1038.0,21.484375
1039.0,29.296875
1040.0,21.484375
1041.0,29.296875
1042.0,21.484375
1043.0,27.34375
1044.0,19.53125
1045.0,27.34375
1046.0,19.53125
1047.0,25.390625
1048.0,19.53125
1049.0,23.4375
1050.0,17.578125
1051.0,23.4375
1052.0,15.625
1053.0,23.4375
1054.0,15.625
1055.0,23.4375
1056.0,13.671875
1057.0,21.484375
1058.0,13.671875
1059.0,21.484375
1060.0,11.71875
1061.0,19.53125
1062.0,11.71875
1063.0,19.53125
1064.0,11.71875
1065.0,15.625
1066.0,11.71875
1067.0,13.671875
1068.0,7.8125
1069.0,15.625
1070.0,5.859375
1071.0,15.625
1072.0,5.859375
1073.0,13.671875
1074.0,5.859375
1075.0,13.671875
1076.0,3.90625
1077.0,11.71875
1078.0,3.90625
1079.0,11.71875
1080.0,3.90625
1081.0,9.765625
1082.0,3.90625
1083.0,5.859375
1084.0,0.0
1085.0,7.8125
1086.0,0.0
1087.0,7.8125
1088.0,-1.953125
1089.0,5.859375
1090.0,-1.953125
1091.0,5.859375
1092.0,-3.90625
1093.0,3.90625
1094.0,-3.90625
1095.0,3.90625
1096.0,-5.859375
1097.0,1.953125
1098.0,-1.953125
1099.0,0.0
1100.0,-3.90625
1101.0,0.0
1102.0,-5.859375
1103.0,0.0
1104.0,-7.8125
1105.0,0.0
1106.0,-7.8125
1107.0,0.0
1108.0,-7.8125
1109.0,0.0
1110.0,-7.8125
1111.0,-1.953125
1112.0,-9.765625
1113.0,-1.953125
1114.0,-9.765625
1115.0,-3.90625
1116.0,-7.8125
1117.0,-5.859375
1118.0,-9.765625
1119.0,-3.90625
1120.0,-9.765625
1121.0,-3.90625
1122.0,-9.765625
1123.0,-3.90625
1124.0,-11.71875
1125.0,-3.90625
1126.0,-9.765625
1127.0,-3.90625
1128.0,-9.765625
1129.0,-3.90625
1130.0,-9.765625
1131.0,-3.90625
1132.0,-7.8125
1133.0,-5.859375
1134.0,-9.765625
1135.0,-5.859375
1136.0,-9.765625
1137.0,-3.90625
1138.0,-9.765625
1139.0,-3.90625
1140.0,-9.765625
1141.0,-3.90625
1142.0,-9.765625
1143.0,-1.953125
1144.0,-9.765625
1145.0,-1.953125
1146.0,-7.8125
1147.0,-1.953125
1148.0,-5.859375
1149.0,-3.90625
1150.0,-5.859375
1151.0,-1.953125
1152.0,-7.8125
1153.0,0.0
1154.0,-5.859375
1155.0,0.0
1156.0,-5.859375
1157.0,0.0
1158.0,-5.859375
1159.0,1.953125
1160.0,-3.90625
1161.0,1.953125
1162.0,-3.90625
1163.0,3.90625
1164.0,-1.953125
1165.0,3.90625
1166.0,0.0
1167.0,3.90625
1168.0,0.0
1169.0,5.859375
1170.0,0.0
1171.0,5.859375
1172.0,0.0
1173.0,7.8125
1174.0,1.953125
1175.0,9.765625
1176.0,1.953125
1177.0,9.765625
1178.0,1.953125
1179.0,9.765625
1180.0,3.90625
1181.0,11.71875
1182.0,7.8125
1183.0,9.765625
1184.0,7.8125
1185.0,11.71875
1186.0,5.859375
1187.0,13.671875
1188.0,7.8125
1189.0,15.625
1190.0,9.765625
1191.0,15.625
1192.0,9.765625
1193.0,17.578125
1194.0,11.71875
1195.0,17.578125
1196.0,11.71875
1197.0,19.53125
1198.0,11.71875
1199.0,19.53125
1200.0,15.625
1201.0,19.53125
1202.0,15.625
1203.0,21.484375
1204.0,15.625
1205.0,23.4375
1206.0,17.578125
1207.0,23.4375
1208.0,17.578125
1209.0,23.4375
1210.0,17.578125
1211.0,25.390625
1212.0,19.53125
1213.0,27.34375
1214.0,19.53125
1215.0,25.390625
1216.0,23.4375
1217.0,25.390625
1218.0,23.4375
1219.0,27.34375
1220.0,23.4375
1221.0,29.296875
1222.0,23.4375
1223.0,31.25
1224.0,23.4375
1225.0,31.25
1226.0,25.390625
1227.0,31.25
1228.0,25.390625
1229.0,31.25
1230.0,25.390625
1231.0,33.203125
1232.0,29.296875
1233.0,31.25
1234.0,29.296875
1235.0,31.25
1236.0,29.296875
1237.0,35.15625
1238.0,27.34375
1239.0,35.15625
1240.0,27.34375
1241.0,35.15625
1242.0,29.296875
1243.0,35.15625
1244.0,29.296875
1245.0,35.15625
1246.0,29.296875
1247.0,35.15625
1248.0,31.25
1249.0,35.15625
1250.0,31.25
1251.0,33.203125
1252.0,31.25
1253.0,35.15625
1254.0,29.296875
1255.0,37.109375
1256.0,29.296875
1257.0,37.109375
1258.0,29.296875
1259.0,37.109375
1260.0,29.296875
1261.0,35.15625
1262.0,29.296875
1263.0,35.15625
1264.0,29.296875
1265.0,35.15625
1266.0,31.25
1267.0,33.203125
1268.0,31.25
1269.0,33.203125
1270.0,29.296875
1271.0,33.203125
1272.0,29.296875
1273.0,33.203125
1274.0,29.296875
1275.0,33.203125
1276.0,27.34375
1277.0,33.203125
1278.0,27.34375
1279.0,31.25
1280.0,27.34375
1281.0,31.25
1282.0,27.34375
1283.0,31.25
1284.0,25.390625
1285.0,29.296875
1286.0,25.390625
1287.0,29.296875
1288.0,25.390625
1289.0,29.296875
1290.0,23.4375
1291.0,27.34375
1292.0,23.4375
1293.0,27.34375
1294.0,21.484375
1295.0,27.34375
1296.0,21.484375
1297.0,25.390625
1298.0,21.484375
1299.0,25.390625
1300.0,21.484375
1301.0,23.4375
1302.0,17.578125
1303.0,23.4375
1304.0,17.578125
1305.0,21.484375
1306.0,17.578125
1307.0,21.484375
1308.0,17.578125
1309.0,19.53125
1310.0,15.625
1311.0,19.53125
1312.0,15.625
1313.0,19.53125
1314.0,13.671875
1315.0,17.578125
1316.0,13.671875
1317.0,15.625
