Practicum8/data/cas_sam/2000Hz_44_1cm/data_81_182.csv

Channel              :		CH1
Frequency            :		  ?
Period               :		  ?
PK-PK                :		23.44mV
Probe attenuation    :		1X
Voltage per ADC value:		0.122070mV
Time interval        :		2.00000us
""
index		CH1_Voltage(mV)
1.0,9.765625
2.0,9.765625
3.0,13.671875
4.0,9.765625
5.0,13.671875
6.0,11.71875
7.0,13.671875
8.0,9.765625
9.0,13.671875
10.0,11.71875
11.0,13.671875
12.0,9.765625
13.0,15.625
14.0,11.71875
15.0,13.671875
16.0,11.71875
17.0,15.625
18.0,11.71875
19.0,15.625
20.0,13.671875
21.0,15.625
22.0,13.671875
23.0,15.625
24.0,13.671875
25.0,15.625
26.0,13.671875
27.0,15.625
28.0,11.71875
29.0,17.578125
30.0,13.671875
31.0,15.625
32.0,13.671875
33.0,15.625
34.0,13.671875
35.0,17.578125
36.0,13.671875
37.0,17.578125
38.0,13.671875
39.0,17.578125
40.0,13.671875
41.0,17.578125
42.0,13.671875
43.0,17.578125
44.0,13.671875
45.0,17.578125
46.0,13.671875
47.0,17.578125
48.0,15.625
49.0,17.578125
50.0,13.671875
51.0,17.578125
52.0,13.671875
53.0,17.578125
54.0,15.625
55.0,17.578125
56.0,13.671875
57.0,17.578125
58.0,13.671875
59.0,17.578125
60.0,13.671875
61.0,17.578125
62.0,13.671875
63.0,17.578125
64.0,13.671875
65.0,17.578125
66.0,13.671875
67.0,17.578125
68.0,13.671875
69.0,17.578125
70.0,13.671875
71.0,17.578125
72.0,13.671875
73.0,17.578125
74.0,13.671875
75.0,17.578125
76.0,13.671875
77.0,15.625
78.0,11.71875
79.0,17.578125
80.0,13.671875
81.0,15.625
82.0,13.671875
83.0,15.625
84.0,11.71875
85.0,15.625
86.0,11.71875
87.0,15.625
88.0,11.71875
89.0,15.625
90.0,11.71875
91.0,13.671875
92.0,11.71875
93.0,13.671875
94.0,11.71875
95.0,13.671875
96.0,9.765625
97.0,13.671875
98.0,9.765625
99.0,13.671875
100.0,9.765625
101.0,13.671875
102.0,9.765625
103.0,13.671875
104.0,9.765625
105.0,13.671875
106.0,9.765625
107.0,13.671875
108.0,9.765625
109.0,11.71875
110.0,7.8125
111.0,11.71875
112.0,7.8125
113.0,11.71875
114.0,7.8125
115.0,11.71875
116.0,7.8125
117.0,9.765625
118.0,7.8125
119.0,11.71875
120.0,7.8125
121.0,9.765625
122.0,5.859375
123.0,11.71875
124.0,5.859375
125.0,9.765625
126.0,5.859375
127.0,9.765625
128.0,5.859375
129.0,9.765625
130.0,5.859375
131.0,9.765625
132.0,5.859375
133.0,7.8125
134.0,3.90625
135.0,9.765625
136.0,5.859375
137.0,7.8125
138.0,3.90625
139.0,7.8125
140.0,3.90625
141.0,7.8125
142.0,3.90625
143.0,7.8125
144.0,3.90625
145.0,7.8125
146.0,1.953125
147.0,7.8125
148.0,3.90625
149.0,5.859375
150.0,3.90625
151.0,5.859375
152.0,3.90625
153.0,5.859375
154.0,3.90625
155.0,5.859375
156.0,3.90625
157.0,5.859375
158.0,1.953125
159.0,5.859375
160.0,1.953125
161.0,5.859375
162.0,1.953125
163.0,5.859375
164.0,1.953125
165.0,3.90625
166.0,1.953125
167.0,3.90625
168.0,1.953125
169.0,5.859375
170.0,1.953125
171.0,3.90625
172.0,1.953125
173.0,5.859375
174.0,1.953125
175.0,3.90625
176.0,1.953125
177.0,3.90625
178.0,1.953125
179.0,3.90625
180.0,1.953125
181.0,5.859375
182.0,1.953125
183.0,3.90625
184.0,0.0
185.0,3.90625
186.0,1.953125
187.0,3.90625
188.0,1.953125
189.0,3.90625
190.0,1.953125
191.0,3.90625
192.0,1.953125
193.0,3.90625
194.0,1.953125
195.0,5.859375
196.0,1.953125
197.0,3.90625
198.0,1.953125
199.0,3.90625
200.0,1.953125
201.0,3.90625
202.0,1.953125
203.0,5.859375
204.0,1.953125
205.0,5.859375
206.0,1.953125
207.0,5.859375
208.0,1.953125
209.0,5.859375
210.0,1.953125
211.0,5.859375
212.0,1.953125
213.0,5.859375
214.0,1.953125
215.0,5.859375
216.0,3.90625
217.0,5.859375
218.0,3.90625
219.0,7.8125
220.0,3.90625
221.0,7.8125
222.0,3.90625
223.0,7.8125
224.0,3.90625
225.0,7.8125
226.0,5.859375
227.0,7.8125
228.0,5.859375
229.0,7.8125
230.0,5.859375
231.0,9.765625
232.0,5.859375
233.0,7.8125
234.0,5.859375
235.0,9.765625
236.0,7.8125
237.0,9.765625
238.0,5.859375
239.0,9.765625
240.0,7.8125
241.0,11.71875
242.0,7.8125
243.0,9.765625
244.0,7.8125
245.0,11.71875
246.0,7.8125
247.0,11.71875
248.0,9.765625
249.0,11.71875
250.0,9.765625
251.0,11.71875
252.0,7.8125
253.0,11.71875
254.0,9.765625
255.0,11.71875
256.0,9.765625
257.0,13.671875
258.0,9.765625
259.0,13.671875
260.0,9.765625
261.0,13.671875
262.0,9.765625
263.0,13.671875
264.0,11.71875
265.0,13.671875
266.0,11.71875
267.0,13.671875
268.0,11.71875
269.0,15.625
270.0,11.71875
271.0,15.625
272.0,11.71875
273.0,15.625
274.0,11.71875
275.0,15.625
276.0,11.71875
277.0,15.625
278.0,13.671875
279.0,15.625
280.0,11.71875
281.0,17.578125
282.0,13.671875
283.0,15.625
284.0,13.671875
285.0,15.625
286.0,13.671875
287.0,17.578125
288.0,13.671875
289.0,15.625
290.0,13.671875
291.0,17.578125
292.0,13.671875
293.0,17.578125
294.0,13.671875
295.0,17.578125
296.0,13.671875
297.0,17.578125
298.0,13.671875
299.0,17.578125
300.0,15.625
301.0,17.578125
302.0,13.671875
303.0,17.578125
304.0,13.671875
305.0,17.578125
306.0,13.671875
307.0,17.578125
308.0,13.671875
309.0,17.578125
310.0,13.671875
311.0,17.578125
312.0,13.671875
313.0,17.578125
314.0,13.671875
315.0,17.578125
316.0,13.671875
317.0,17.578125
318.0,13.671875
319.0,17.578125
320.0,13.671875
321.0,17.578125
322.0,13.671875
323.0,17.578125
324.0,13.671875
325.0,17.578125
326.0,13.671875
327.0,15.625
328.0,13.671875
329.0,15.625
330.0,13.671875
331.0,15.625
332.0,13.671875
333.0,15.625
334.0,13.671875
335.0,15.625
336.0,11.71875
337.0,15.625
338.0,11.71875
339.0,15.625
340.0,11.71875
341.0,15.625
342.0,11.71875
343.0,15.625
344.0,11.71875
345.0,15.625
346.0,11.71875
347.0,13.671875
348.0,9.765625
349.0,13.671875
350.0,11.71875
351.0,13.671875
352.0,9.765625
353.0,13.671875
354.0,9.765625
355.0,13.671875
356.0,9.765625
357.0,13.671875
358.0,9.765625
359.0,11.71875
360.0,9.765625
361.0,11.71875
362.0,7.8125
363.0,11.71875
364.0,7.8125
365.0,11.71875
366.0,7.8125
367.0,11.71875
368.0,7.8125
369.0,11.71875
370.0,7.8125
371.0,11.71875
372.0,7.8125
373.0,11.71875
374.0,7.8125
375.0,11.71875
376.0,5.859375
377.0,9.765625
378.0,5.859375
379.0,9.765625
380.0,5.859375
381.0,9.765625
382.0,5.859375
383.0,9.765625
384.0,5.859375
385.0,7.8125
386.0,5.859375
387.0,7.8125
388.0,5.859375
389.0,7.8125
390.0,3.90625
391.0,7.8125
392.0,5.859375
393.0,7.8125
394.0,3.90625
395.0,7.8125
396.0,3.90625
397.0,7.8125
398.0,3.90625
399.0,7.8125
400.0,3.90625
401.0,7.8125
402.0,3.90625
403.0,5.859375
404.0,3.90625
405.0,7.8125
406.0,1.953125
407.0,5.859375
408.0,1.953125
409.0,5.859375
410.0,1.953125
411.0,5.859375
412.0,1.953125
413.0,5.859375
414.0,1.953125
415.0,5.859375
416.0,1.953125
417.0,3.90625
418.0,1.953125
419.0,3.90625
420.0,1.953125
421.0,5.859375
422.0,1.953125
423.0,3.90625
424.0,1.953125
425.0,3.90625
426.0,1.953125
427.0,5.859375
428.0,1.953125
429.0,3.90625
430.0,1.953125
431.0,3.90625
432.0,0.0
433.0,5.859375
434.0,1.953125
435.0,3.90625
436.0,0.0
437.0,3.90625
438.0,1.953125
439.0,3.90625
440.0,1.953125
441.0,3.90625
442.0,1.953125
443.0,3.90625
444.0,1.953125
445.0,3.90625
446.0,1.953125
447.0,5.859375
448.0,1.953125
449.0,3.90625
450.0,1.953125
451.0,3.90625
452.0,1.953125
453.0,3.90625
454.0,1.953125
455.0,5.859375
456.0,1.953125
457.0,5.859375
458.0,1.953125
459.0,5.859375
460.0,1.953125
461.0,5.859375
462.0,1.953125
463.0,5.859375
464.0,1.953125
465.0,5.859375
466.0,1.953125
467.0,5.859375
468.0,3.90625
469.0,5.859375
470.0,3.90625
471.0,7.8125
472.0,3.90625
473.0,5.859375
474.0,3.90625
475.0,7.8125
476.0,3.90625
477.0,7.8125
478.0,3.90625
479.0,7.8125
480.0,5.859375
481.0,7.8125
482.0,3.90625
483.0,7.8125
484.0,5.859375
485.0,7.8125
486.0,5.859375
487.0,7.8125
488.0,5.859375
489.0,9.765625
490.0,5.859375
491.0,9.765625
492.0,5.859375
493.0,9.765625
494.0,7.8125
495.0,11.71875
496.0,7.8125
497.0,11.71875
498.0,7.8125
499.0,11.71875
500.0,7.8125
501.0,11.71875
502.0,7.8125
503.0,11.71875
504.0,9.765625
505.0,13.671875
506.0,9.765625
507.0,11.71875
508.0,9.765625
509.0,11.71875
510.0,9.765625
511.0,13.671875
512.0,9.765625
513.0,13.671875
514.0,9.765625
515.0,13.671875
516.0,9.765625
517.0,13.671875
518.0,11.71875
519.0,13.671875
520.0,11.71875
521.0,15.625
522.0,11.71875
523.0,15.625
524.0,11.71875
525.0,15.625
526.0,11.71875
527.0,15.625
528.0,11.71875
529.0,15.625
530.0,11.71875
531.0,15.625
532.0,13.671875
533.0,15.625
534.0,13.671875
535.0,15.625
536.0,13.671875
537.0,17.578125
538.0,13.671875
539.0,17.578125
540.0,13.671875
541.0,17.578125
542.0,13.671875
543.0,15.625
544.0,13.671875
545.0,17.578125
546.0,13.671875
547.0,17.578125
548.0,13.671875
549.0,17.578125
550.0,13.671875
551.0,17.578125
552.0,15.625
553.0,17.578125
554.0,13.671875
555.0,17.578125
556.0,13.671875
557.0,17.578125
558.0,13.671875
559.0,17.578125
560.0,13.671875
561.0,17.578125
562.0,13.671875
563.0,17.578125
564.0,13.671875
565.0,17.578125
566.0,13.671875
567.0,17.578125
568.0,13.671875
569.0,17.578125
570.0,13.671875
571.0,17.578125
572.0,13.671875
573.0,17.578125
574.0,13.671875
575.0,17.578125
576.0,13.671875
577.0,17.578125
578.0,13.671875
579.0,17.578125
580.0,13.671875
581.0,15.625
582.0,13.671875
583.0,15.625
584.0,11.71875
585.0,17.578125
586.0,13.671875
587.0,15.625
588.0,11.71875
589.0,15.625
590.0,11.71875
591.0,15.625
592.0,11.71875
593.0,15.625
594.0,11.71875
595.0,15.625
596.0,11.71875
597.0,15.625
598.0,11.71875
599.0,13.671875
600.0,11.71875
601.0,13.671875
602.0,11.71875
603.0,13.671875
604.0,9.765625
605.0,13.671875
606.0,9.765625
607.0,13.671875
608.0,9.765625
609.0,13.671875
610.0,9.765625
611.0,13.671875
612.0,9.765625
613.0,11.71875
614.0,9.765625
615.0,11.71875
616.0,9.765625
617.0,11.71875
618.0,9.765625
619.0,11.71875
620.0,9.765625
621.0,11.71875
622.0,7.8125
623.0,11.71875
624.0,7.8125
625.0,11.71875
626.0,7.8125
627.0,11.71875
628.0,7.8125
629.0,11.71875
630.0,5.859375
631.0,9.765625
632.0,7.8125
633.0,9.765625
634.0,5.859375
635.0,9.765625
636.0,5.859375
637.0,9.765625
638.0,5.859375
639.0,9.765625
640.0,5.859375
641.0,7.8125
642.0,5.859375
643.0,7.8125
644.0,5.859375
645.0,7.8125
646.0,3.90625
647.0,7.8125
648.0,3.90625
649.0,7.8125
650.0,3.90625
651.0,7.8125
652.0,3.90625
653.0,5.859375
654.0,3.90625
655.0,5.859375
656.0,3.90625
657.0,7.8125
658.0,3.90625
659.0,5.859375
660.0,3.90625
661.0,5.859375
662.0,1.953125
663.0,5.859375
664.0,3.90625
665.0,5.859375
666.0,1.953125
667.0,5.859375
668.0,1.953125
669.0,5.859375
670.0,1.953125
671.0,5.859375
672.0,1.953125
673.0,5.859375
674.0,1.953125
675.0,5.859375
676.0,1.953125
677.0,5.859375
678.0,1.953125
679.0,3.90625
680.0,1.953125
681.0,3.90625
682.0,1.953125
683.0,5.859375
684.0,1.953125
685.0,3.90625
686.0,1.953125
687.0,3.90625
688.0,0.0
689.0,3.90625
690.0,1.953125
691.0,3.90625
692.0,1.953125
693.0,3.90625
694.0,1.953125
695.0,3.90625
696.0,1.953125
697.0,3.90625
698.0,1.953125
699.0,3.90625
700.0,0.0
701.0,5.859375
702.0,1.953125
703.0,3.90625
704.0,1.953125
705.0,5.859375
706.0,1.953125
707.0,5.859375
708.0,1.953125
709.0,5.859375
710.0,1.953125
711.0,5.859375
712.0,1.953125
713.0,5.859375
714.0,1.953125
715.0,5.859375
716.0,1.953125
717.0,5.859375
718.0,1.953125
719.0,5.859375
720.0,3.90625
721.0,5.859375
722.0,3.90625
723.0,5.859375
724.0,3.90625
725.0,7.8125
726.0,3.90625
727.0,7.8125
728.0,3.90625
729.0,7.8125
730.0,3.90625
731.0,7.8125
732.0,3.90625
733.0,7.8125
734.0,5.859375
735.0,9.765625
736.0,5.859375
737.0,7.8125
738.0,5.859375
739.0,7.8125
740.0,5.859375
741.0,9.765625
742.0,5.859375
743.0,9.765625
744.0,5.859375
745.0,9.765625
746.0,7.8125
747.0,9.765625
748.0,7.8125
749.0,11.71875
750.0,7.8125
751.0,11.71875
752.0,7.8125
753.0,11.71875
754.0,9.765625
755.0,11.71875
756.0,7.8125
757.0,11.71875
758.0,9.765625
759.0,11.71875
760.0,9.765625
761.0,13.671875
762.0,9.765625
763.0,13.671875
764.0,9.765625
765.0,13.671875
766.0,9.765625
767.0,13.671875
768.0,9.765625
769.0,13.671875
770.0,11.71875
771.0,13.671875
772.0,11.71875
773.0,15.625
774.0,11.71875
775.0,15.625
776.0,11.71875
777.0,15.625
778.0,11.71875
779.0,15.625
780.0,11.71875
781.0,15.625
782.0,13.671875
783.0,15.625
784.0,13.671875
785.0,17.578125
786.0,13.671875
787.0,15.625
788.0,13.671875
789.0,15.625
790.0,13.671875
791.0,17.578125
792.0,13.671875
793.0,17.578125
794.0,13.671875
795.0,17.578125
796.0,13.671875
797.0,17.578125
798.0,13.671875
799.0,17.578125
800.0,13.671875
801.0,17.578125
802.0,13.671875
803.0,17.578125
804.0,13.671875
805.0,17.578125
806.0,13.671875
807.0,17.578125
808.0,13.671875
809.0,17.578125
810.0,13.671875
811.0,17.578125
812.0,13.671875
813.0,17.578125
814.0,13.671875
815.0,17.578125
816.0,15.625
817.0,17.578125
818.0,13.671875
819.0,17.578125
820.0,15.625
821.0,17.578125
822.0,15.625
823.0,17.578125
824.0,13.671875
825.0,17.578125
826.0,13.671875
827.0,17.578125
828.0,13.671875
829.0,17.578125
830.0,13.671875
831.0,17.578125
832.0,13.671875
833.0,17.578125
834.0,13.671875
835.0,17.578125
836.0,13.671875
837.0,17.578125
838.0,13.671875
839.0,15.625
840.0,13.671875
841.0,17.578125
842.0,11.71875
843.0,15.625
844.0,13.671875
845.0,15.625
846.0,11.71875
847.0,15.625
848.0,11.71875
849.0,15.625
850.0,11.71875
851.0,15.625
852.0,11.71875
853.0,15.625
854.0,11.71875
855.0,13.671875
856.0,11.71875
857.0,13.671875
858.0,11.71875
859.0,13.671875
860.0,9.765625
861.0,13.671875
862.0,9.765625
863.0,13.671875
864.0,9.765625
865.0,13.671875
866.0,9.765625
867.0,13.671875
868.0,9.765625
869.0,13.671875
870.0,9.765625
871.0,11.71875
872.0,9.765625
873.0,11.71875
874.0,7.8125
875.0,11.71875
876.0,7.8125
877.0,11.71875
878.0,7.8125
879.0,11.71875
880.0,7.8125
881.0,11.71875
882.0,7.8125
883.0,11.71875
884.0,5.859375
885.0,9.765625
886.0,7.8125
887.0,9.765625
888.0,7.8125
889.0,9.765625
890.0,5.859375
891.0,9.765625
892.0,5.859375
893.0,9.765625
894.0,5.859375
895.0,9.765625
896.0,5.859375
897.0,7.8125
898.0,3.90625
899.0,7.8125
900.0,3.90625
901.0,7.8125
902.0,3.90625
903.0,7.8125
904.0,3.90625
905.0,7.8125
906.0,3.90625
907.0,7.8125
908.0,3.90625
909.0,7.8125
910.0,3.90625
911.0,5.859375
912.0,3.90625
913.0,5.859375
914.0,3.90625
915.0,5.859375
916.0,3.90625
917.0,5.859375
918.0,1.953125
919.0,5.859375
920.0,1.953125
921.0,5.859375
922.0,1.953125
923.0,5.859375
924.0,1.953125
925.0,5.859375
926.0,1.953125
927.0,5.859375
928.0,1.953125
929.0,5.859375
930.0,1.953125
931.0,5.859375
932.0,1.953125
933.0,5.859375
934.0,1.953125
935.0,3.90625
936.0,0.0
937.0,5.859375
938.0,1.953125
939.0,3.90625
940.0,1.953125
941.0,3.90625
942.0,1.953125
943.0,3.90625
944.0,1.953125
945.0,5.859375
946.0,1.953125
947.0,3.90625
948.0,1.953125
949.0,3.90625
950.0,1.953125
951.0,5.859375
952.0,1.953125
953.0,5.859375
954.0,1.953125
955.0,3.90625
956.0,1.953125
957.0,3.90625
958.0,1.953125
959.0,5.859375
960.0,1.953125
961.0,5.859375
962.0,1.953125
963.0,5.859375
964.0,1.953125
965.0,5.859375
966.0,1.953125
967.0,5.859375
968.0,1.953125
969.0,5.859375
970.0,1.953125
971.0,5.859375
972.0,3.90625
973.0,5.859375
974.0,1.953125
975.0,5.859375
976.0,3.90625
977.0,5.859375
978.0,3.90625
979.0,7.8125
980.0,3.90625
981.0,7.8125
982.0,3.90625
983.0,7.8125
984.0,3.90625
985.0,7.8125
986.0,3.90625
987.0,7.8125
988.0,5.859375
989.0,7.8125
990.0,5.859375
991.0,7.8125
992.0,5.859375
993.0,7.8125
994.0,5.859375
995.0,9.765625
996.0,5.859375
997.0,9.765625
998.0,7.8125
999.0,9.765625
1000.0,7.8125
1001.0,9.765625
1002.0,7.8125
1003.0,9.765625
1004.0,5.859375
1005.0,11.71875
1006.0,7.8125
1007.0,11.71875
1008.0,7.8125
1009.0,11.71875
1010.0,7.8125
1011.0,11.71875
1012.0,7.8125
1013.0,11.71875
1014.0,9.765625
1015.0,11.71875
1016.0,9.765625
1017.0,13.671875
1018.0,9.765625
1019.0,13.671875
1020.0,11.71875
1021.0,13.671875
1022.0,11.71875
1023.0,13.671875
1024.0,11.71875
1025.0,13.671875
1026.0,9.765625
1027.0,15.625
1028.0,11.71875
1029.0,13.671875
1030.0,11.71875
1031.0,15.625
1032.0,11.71875
1033.0,15.625
1034.0,11.71875
1035.0,15.625
1036.0,11.71875
1037.0,15.625
1038.0,11.71875
1039.0,15.625
1040.0,13.671875
1041.0,15.625
1042.0,13.671875
1043.0,15.625
1044.0,13.671875
1045.0,17.578125
1046.0,13.671875
1047.0,15.625
1048.0,13.671875
1049.0,17.578125
1050.0,13.671875
1051.0,17.578125
1052.0,13.671875
1053.0,15.625
1054.0,13.671875
1055.0,17.578125
1056.0,13.671875
1057.0,17.578125
1058.0,13.671875
1059.0,17.578125
1060.0,13.671875
1061.0,17.578125
1062.0,13.671875
1063.0,17.578125
1064.0,13.671875
1065.0,17.578125
1066.0,13.671875
1067.0,17.578125
1068.0,13.671875
1069.0,17.578125
1070.0,13.671875
1071.0,17.578125
1072.0,13.671875
1073.0,17.578125
1074.0,13.671875
1075.0,17.578125
1076.0,13.671875
1077.0,17.578125
1078.0,13.671875
1079.0,17.578125
1080.0,13.671875
1081.0,17.578125
1082.0,13.671875
1083.0,17.578125
1084.0,13.671875
1085.0,15.625
1086.0,13.671875
1087.0,15.625
1088.0,13.671875
1089.0,15.625
1090.0,13.671875
1091.0,15.625
1092.0,11.71875
1093.0,15.625
1094.0,13.671875
1095.0,15.625
1096.0,11.71875
1097.0,15.625
1098.0,11.71875
1099.0,15.625
1100.0,11.71875
1101.0,15.625
1102.0,11.71875
1103.0,13.671875
1104.0,11.71875
1105.0,13.671875
1106.0,11.71875
1107.0,13.671875
1108.0,11.71875
1109.0,13.671875
1110.0,9.765625
1111.0,13.671875
1112.0,9.765625
1113.0,13.671875
1114.0,9.765625
1115.0,13.671875
1116.0,9.765625
1117.0,13.671875
1118.0,9.765625
1119.0,11.71875
1120.0,9.765625
1121.0,11.71875
1122.0,7.8125
1123.0,11.71875
1124.0,9.765625
1125.0,11.71875
1126.0,7.8125
1127.0,11.71875
1128.0,7.8125
1129.0,11.71875
1130.0,7.8125
1131.0,9.765625
1132.0,7.8125
1133.0,9.765625
1134.0,7.8125
1135.0,9.765625
1136.0,5.859375
1137.0,9.765625
1138.0,5.859375
1139.0,9.765625
1140.0,5.859375
1141.0,9.765625
1142.0,3.90625
1143.0,9.765625
1144.0,5.859375
1145.0,7.8125
1146.0,5.859375
1147.0,7.8125
1148.0,5.859375
1149.0,7.8125
1150.0,3.90625
1151.0,7.8125
1152.0,3.90625
1153.0,7.8125
1154.0,3.90625
1155.0,7.8125
1156.0,3.90625
1157.0,5.859375
1158.0,3.90625
1159.0,5.859375
1160.0,1.953125
1161.0,7.8125
1162.0,1.953125
1163.0,5.859375
1164.0,3.90625
1165.0,5.859375
1166.0,1.953125
1167.0,5.859375
1168.0,1.953125
1169.0,5.859375
1170.0,1.953125
1171.0,5.859375
1172.0,1.953125
1173.0,5.859375
1174.0,1.953125
1175.0,5.859375
1176.0,1.953125
1177.0,5.859375
1178.0,1.953125
1179.0,3.90625
1180.0,1.953125
1181.0,3.90625
1182.0,1.953125
1183.0,3.90625
1184.0,0.0
1185.0,3.90625
1186.0,1.953125
1187.0,3.90625
1188.0,0.0
1189.0,3.90625
1190.0,1.953125
1191.0,3.90625
1192.0,1.953125
1193.0,3.90625
1194.0,0.0
1195.0,3.90625
1196.0,0.0
1197.0,3.90625
1198.0,0.0
1199.0,3.90625
1200.0,0.0
1201.0,3.90625
1202.0,0.0
1203.0,3.90625
1204.0,0.0
1205.0,3.90625
1206.0,0.0
1207.0,3.90625
1208.0,0.0
1209.0,3.90625
1210.0,0.0
1211.0,3.90625
1212.0,1.953125
1213.0,3.90625
1214.0,1.953125
1215.0,5.859375
1216.0,1.953125
1217.0,3.90625
1218.0,1.953125
1219.0,3.90625
1220.0,1.953125
1221.0,5.859375
1222.0,1.953125
1223.0,5.859375
1224.0,1.953125
1225.0,3.90625
1226.0,1.953125
1227.0,5.859375
1228.0,1.953125
1229.0,5.859375
1230.0,1.953125
1231.0,5.859375
1232.0,3.90625
1233.0,5.859375
1234.0,3.90625
1235.0,5.859375
1236.0,3.90625
1237.0,7.8125
1238.0,3.90625
1239.0,7.8125
1240.0,3.90625
1241.0,7.8125
1242.0,5.859375
1243.0,7.8125
1244.0,3.90625
1245.0,9.765625
1246.0,5.859375
1247.0,7.8125
1248.0,5.859375
1249.0,9.765625
1250.0,5.859375
1251.0,9.765625
1252.0,5.859375
1253.0,9.765625
1254.0,5.859375
1255.0,9.765625
1256.0,5.859375
1257.0,9.765625
1258.0,7.8125
1259.0,9.765625
1260.0,7.8125
1261.0,11.71875
1262.0,7.8125
1263.0,11.71875
1264.0,7.8125
1265.0,11.71875
1266.0,9.765625
1267.0,11.71875
1268.0,7.8125
1269.0,11.71875
1270.0,9.765625
1271.0,13.671875
1272.0,9.765625
1273.0,13.671875
1274.0,9.765625
1275.0,13.671875
1276.0,11.71875
1277.0,13.671875
1278.0,9.765625
1279.0,13.671875
1280.0,11.71875
1281.0,13.671875
1282.0,11.71875
1283.0,13.671875
1284.0,11.71875
1285.0,15.625
1286.0,11.71875
1287.0,15.625
1288.0,11.71875
1289.0,15.625
1290.0,11.71875
1291.0,15.625
1292.0,13.671875
1293.0,15.625
1294.0,11.71875
1295.0,15.625
1296.0,13.671875
1297.0,15.625
1298.0,13.671875
1299.0,15.625
1300.0,13.671875
1301.0,17.578125
1302.0,13.671875
1303.0,17.578125
1304.0,13.671875
1305.0,15.625
1306.0,13.671875
1307.0,17.578125
1308.0,13.671875
1309.0,15.625
1310.0,13.671875
1311.0,17.578125
1312.0,13.671875
1313.0,17.578125
1314.0,13.671875
1315.0,17.578125
1316.0,13.671875
1317.0,17.578125
1318.0,13.671875
1319.0,17.578125
1320.0,13.671875
1321.0,17.578125
1322.0,13.671875
1323.0,17.578125
1324.0,13.671875
1325.0,15.625
1326.0,13.671875
