Practicum8/data/opgave4/opgave4_freq2/data_79_003.csv

Channel              :,CH1
Frequency            :,1.771kHz
Period               :,0.565ms
PK-PK                :,136.7mV
Probe attenuation    :,1X
Voltage per ADC value:,0.122070mV
Time interval        :,2.00000us

index,CH1_Voltage(mV)
1,58.593750
2,58.593750
3,58.593750
4,58.593750
5,58.593750
6,58.593750
7,58.593750
8,58.593750
9,58.593750
10,58.593750
11,56.640625
12,56.640625
13,56.640625
14,56.640625
15,54.687500
16,54.687500
17,54.687500
18,54.687500
19,54.687500
20,54.687500
21,52.734375
22,52.734375
23,50.781250
24,50.781250
25,48.828125
26,48.828125
27,48.828125
28,46.875000
29,46.875000
30,46.875000
31,44.921875
32,44.921875
33,42.968750
34,42.968750
35,41.015625
36,41.015625
37,39.062500
38,37.109375
39,37.109375
40,35.156250
41,33.203125
42,33.203125
43,33.203125
44,31.250000
45,29.296875
46,29.296875
47,27.343750
48,25.390625
49,25.390625
50,23.437500
51,23.437500
52,21.484375
53,21.484375
54,19.531250
55,17.578125
56,15.625000
57,15.625000
58,13.671875
59,11.718750
60,11.718750
61,9.765625
62,7.812500
63,5.859375
64,3.906250
65,3.906250
66,1.953125
67,0.000000
68,0.000000
69,-1.953125
70,-3.906250
71,-5.859375
72,-7.812500
73,-7.812500
74,-9.765625
75,-11.718750
76,-11.718750
77,-13.671875
78,-15.625000
79,-17.578125
80,-19.531250
81,-19.531250
82,-21.484375
83,-23.437500
84,-25.390625
85,-27.343750
86,-27.343750
87,-29.296875
88,-31.250000
89,-31.250000
90,-35.156250
91,-35.156250
92,-37.109375
93,-37.109375
94,-39.062500
95,-41.015625
96,-41.015625
97,-42.968750
98,-44.921875
99,-46.875000
100,-46.875000
101,-48.828125
102,-46.875000
103,-50.781250
104,-52.734375
105,-52.734375
106,-54.687500
107,-54.687500
108,-56.640625
109,-58.593750
110,-58.593750
111,-58.593750
112,-60.546875
113,-60.546875
114,-62.500000
115,-62.500000
116,-64.453125
117,-64.453125
118,-64.453125
119,-66.406250
120,-68.359375
121,-68.359375
122,-68.359375
123,-68.359375
124,-70.312500
125,-70.312500
126,-70.312500
127,-70.312500
128,-72.265625
129,-72.265625
130,-72.265625
131,-72.265625
132,-74.218750
133,-72.265625
134,-74.218750
135,-74.218750
136,-74.218750
137,-74.218750
138,-74.218750
139,-74.218750
140,-74.218750
141,-74.218750
142,-74.218750
143,-74.218750
144,-74.218750
145,-74.218750
146,-74.218750
147,-74.218750
148,-74.218750
149,-74.218750
150,-74.218750
151,-74.218750
152,-72.265625
153,-72.265625
154,-72.265625
155,-72.265625
156,-70.312500
157,-70.312500
158,-70.312500
159,-68.359375
160,-68.359375
161,-68.359375
162,-66.406250
163,-66.406250
164,-66.406250
165,-64.453125
166,-64.453125
167,-62.500000
168,-62.500000
169,-62.500000
170,-60.546875
171,-58.593750
172,-58.593750
173,-56.640625
174,-56.640625
175,-54.687500
176,-54.687500
177,-52.734375
178,-52.734375
179,-50.781250
180,-48.828125
181,-48.828125
182,-46.875000
183,-44.921875
184,-44.921875
185,-42.968750
186,-41.015625
187,-41.015625
188,-39.062500
189,-39.062500
190,-37.109375
191,-35.156250
192,-33.203125
193,-33.203125
194,-29.296875
195,-29.296875
196,-29.296875
197,-27.343750
198,-25.390625
199,-23.437500
200,-23.437500
201,-21.484375
202,-19.531250
203,-17.578125
204,-15.625000
205,-15.625000
206,-13.671875
207,-11.718750
208,-9.765625
209,-7.812500
210,-7.812500
211,-5.859375
212,-3.906250
213,-1.953125
214,-1.953125
215,0.000000
216,0.000000
217,1.953125
218,3.906250
219,5.859375
220,7.812500
221,9.765625
222,9.765625
223,11.718750
224,13.671875
225,15.625000
226,15.625000
227,15.625000
228,17.578125
229,19.531250
230,21.484375
231,23.437500
232,23.437500
233,25.390625
234,25.390625
235,27.343750
236,29.296875
237,29.296875
238,31.250000
239,33.203125
240,33.203125
241,35.156250
242,35.156250
243,37.109375
244,39.062500
245,39.062500
246,39.062500
247,41.015625
248,41.015625
249,42.968750
250,42.968750
251,44.921875
252,44.921875
253,46.875000
254,46.875000
255,46.875000
256,48.828125
257,50.781250
258,50.781250
259,50.781250
260,52.734375
261,52.734375
262,52.734375
263,52.734375
264,54.687500
265,54.687500
266,54.687500
267,54.687500
268,56.640625
269,56.640625
270,56.640625
271,56.640625
272,56.640625
273,56.640625
274,56.640625
275,58.593750
276,58.593750
277,58.593750
278,58.593750
279,58.593750
280,58.593750
281,58.593750
282,58.593750
283,58.593750
284,58.593750
285,58.593750
286,58.593750
287,58.593750
288,58.593750
289,58.593750
290,58.593750
291,58.593750
292,58.593750
293,56.640625
294,56.640625
295,56.640625
296,58.593750
297,54.687500
298,54.687500
299,54.687500
300,54.687500
301,54.687500
302,52.734375
303,52.734375
304,52.734375
305,52.734375
306,50.781250
307,48.828125
308,48.828125
309,48.828125
310,46.875000
311,46.875000
312,44.921875
313,44.921875
314,44.921875
315,44.921875
316,42.968750
317,41.015625
318,41.015625
319,41.015625
320,39.062500
321,37.109375
322,37.109375
323,35.156250
324,35.156250
325,33.203125
326,33.203125
327,31.250000
328,31.250000
329,29.296875
330,27.343750
331,25.390625
332,25.390625
333,23.437500
334,21.484375
335,21.484375
336,19.531250
337,17.578125
338,15.625000
339,15.625000
340,13.671875
341,11.718750
342,11.718750
343,9.765625
344,7.812500
345,5.859375
346,5.859375
347,3.906250
348,1.953125
349,0.000000
350,0.000000
351,-1.953125
352,-3.906250
353,-5.859375
354,-5.859375
355,-7.812500
356,-9.765625
357,-11.718750
358,-13.671875
359,-13.671875
360,-15.625000
361,-17.578125
362,-19.531250
363,-19.531250
364,-21.484375
365,-23.437500
366,-25.390625
367,-25.390625
368,-27.343750
369,-29.296875
370,-31.250000
371,-31.250000
372,-33.203125
373,-35.156250
374,-37.109375
375,-39.062500
376,-39.062500
377,-39.062500
378,-41.015625
379,-42.968750
380,-44.921875
381,-44.921875
382,-46.875000
383,-46.875000
384,-48.828125
385,-50.781250
386,-50.781250
387,-52.734375
388,-52.734375
389,-54.687500
390,-56.640625
391,-56.640625
392,-56.640625
393,-58.593750
394,-60.546875
395,-60.546875
396,-62.500000
397,-62.500000
398,-62.500000
399,-64.453125
400,-64.453125
401,-66.406250
402,-66.406250
403,-66.406250
404,-68.359375
405,-68.359375
406,-68.359375
407,-70.312500
408,-70.312500
409,-70.312500
410,-70.312500
411,-72.265625
412,-72.265625
413,-74.218750
414,-72.265625
415,-74.218750
416,-74.218750
417,-74.218750
418,-74.218750
419,-74.218750
420,-74.218750
421,-74.218750
422,-74.218750
423,-74.218750
424,-74.218750
425,-76.171875
426,-74.218750
427,-74.218750
428,-74.218750
429,-74.218750
430,-76.171875
431,-74.218750
432,-74.218750
433,-74.218750
434,-72.265625
435,-72.265625
436,-72.265625
437,-72.265625
438,-72.265625
439,-72.265625
440,-70.312500
441,-70.312500
442,-68.359375
443,-68.359375
444,-68.359375
445,-66.406250
446,-66.406250
447,-66.406250
448,-64.453125
449,-62.500000
450,-62.500000
451,-60.546875
452,-60.546875
453,-58.593750
454,-58.593750
455,-56.640625
456,-56.640625
457,-54.687500
458,-52.734375
459,-52.734375
460,-52.734375
461,-50.781250
462,-48.828125
463,-48.828125
464,-46.875000
465,-46.875000
466,-44.921875
467,-42.968750
468,-42.968750
469,-41.015625
470,-39.062500
471,-39.062500
472,-37.109375
473,-35.156250
474,-35.156250
475,-33.203125
476,-31.250000
477,-29.296875
478,-29.296875
479,-27.343750
480,-25.390625
481,-25.390625
482,-23.437500
483,-21.484375
484,-19.531250
485,-17.578125
486,-17.578125
487,-15.625000
488,-13.671875
489,-11.718750
490,-11.718750
491,-7.812500
492,-7.812500
493,-7.812500
494,-5.859375
495,-3.906250
496,-1.953125
497,0.000000
498,1.953125
499,1.953125
500,3.906250
501,5.859375
502,7.812500
503,7.812500
504,9.765625
505,9.765625
506,13.671875
507,13.671875
508,15.625000
509,15.625000
510,17.578125
511,19.531250
512,21.484375
513,23.437500
514,23.437500
515,25.390625
516,25.390625
517,27.343750
518,29.296875
519,29.296875
520,31.250000
521,33.203125
522,33.203125
523,35.156250
524,35.156250
525,37.109375
526,37.109375
527,39.062500
528,39.062500
529,41.015625
530,41.015625
531,42.968750
532,42.968750
533,44.921875
534,44.921875
535,46.875000
536,46.875000
537,48.828125
538,48.828125
539,48.828125
540,50.781250
541,50.781250
542,52.734375
543,52.734375
544,52.734375
545,52.734375
546,54.687500
547,54.687500
548,54.687500
549,56.640625
550,56.640625
551,56.640625
552,56.640625
553,56.640625
554,56.640625
555,58.593750
556,58.593750
557,58.593750
558,58.593750
559,58.593750
560,58.593750
561,58.593750
562,58.593750
563,58.593750
564,58.593750
565,58.593750
566,58.593750
567,58.593750
568,58.593750
569,58.593750
570,58.593750
571,58.593750
572,58.593750
573,58.593750
574,58.593750
575,58.593750
576,56.640625
577,56.640625
578,56.640625
579,56.640625
580,56.640625
581,56.640625
582,54.687500
583,54.687500
584,54.687500
585,52.734375
586,52.734375
587,52.734375
588,50.781250
589,50.781250
590,50.781250
591,50.781250
592,46.875000
593,46.875000
594,46.875000
595,46.875000
596,44.921875
597,44.921875
598,42.968750
599,42.968750
600,41.015625
601,41.015625
602,39.062500
603,37.109375
604,37.109375
605,35.156250
606,35.156250
607,33.203125
608,33.203125
609,31.250000
610,31.250000
611,29.296875
612,27.343750
613,27.343750
614,25.390625
615,23.437500
616,21.484375
617,21.484375
618,19.531250
619,17.578125
620,17.578125
621,15.625000
622,13.671875
623,13.671875
624,11.718750
625,9.765625
626,7.812500
627,7.812500
628,5.859375
629,3.906250
630,3.906250
631,1.953125
632,0.000000
633,-1.953125
634,-3.906250
635,-3.906250
636,-5.859375
637,-7.812500
638,-7.812500
639,-9.765625
640,-11.718750
641,-13.671875
642,-15.625000
643,-17.578125
644,-17.578125
645,-19.531250
646,-21.484375
647,-23.437500
648,-23.437500
649,-23.437500
650,-27.343750
651,-29.296875
652,-29.296875
653,-31.250000
654,-33.203125
655,-33.203125
656,-35.156250
657,-37.109375
658,-37.109375
659,-39.062500
660,-41.015625
661,-42.968750
662,-42.968750
663,-44.921875
664,-44.921875
665,-46.875000
666,-48.828125
667,-50.781250
668,-50.781250
669,-52.734375
670,-52.734375
671,-54.687500
672,-56.640625
673,-56.640625
674,-58.593750
675,-58.593750
676,-60.546875
677,-60.546875
678,-62.500000
679,-62.500000
680,-62.500000
681,-64.453125
682,-66.406250
683,-66.406250
684,-66.406250
685,-68.359375
686,-68.359375
687,-68.359375
688,-70.312500
689,-70.312500
690,-70.312500
691,-72.265625
692,-72.265625
693,-72.265625
694,-72.265625
695,-74.218750
696,-74.218750
697,-74.218750
698,-74.218750
699,-74.218750
700,-74.218750
701,-74.218750
702,-74.218750
703,-74.218750
704,-74.218750
705,-74.218750
706,-74.218750
707,-76.171875
708,-74.218750
709,-74.218750
710,-74.218750
711,-74.218750
712,-74.218750
713,-74.218750
714,-74.218750
715,-74.218750
716,-72.265625
717,-72.265625
718,-72.265625
719,-70.312500
720,-70.312500
721,-70.312500
722,-70.312500
723,-70.312500
724,-68.359375
725,-68.359375
726,-68.359375
727,-66.406250
728,-66.406250
729,-66.406250
730,-64.453125
731,-64.453125
732,-62.500000
733,-62.500000
734,-60.546875
735,-60.546875
736,-58.593750
737,-58.593750
738,-56.640625
739,-56.640625
740,-54.687500
741,-54.687500
742,-52.734375
743,-52.734375
744,-50.781250
745,-48.828125
746,-46.875000
747,-46.875000
748,-44.921875
749,-44.921875
750,-42.968750
751,-41.015625
752,-41.015625
753,-39.062500
754,-37.109375
755,-37.109375
756,-35.156250
757,-33.203125
758,-31.250000
759,-31.250000
760,-29.296875
761,-27.343750
762,-25.390625
763,-25.390625
764,-23.437500
765,-21.484375
766,-19.531250
767,-19.531250
768,-17.578125
769,-15.625000
770,-13.671875
771,-13.671875
772,-11.718750
773,-9.765625
774,-7.812500
775,-5.859375
776,-3.906250
777,-3.906250
778,-1.953125
779,0.000000
780,1.953125
781,1.953125
782,3.906250
783,5.859375
784,7.812500
785,7.812500
786,9.765625
787,11.718750
788,11.718750
789,13.671875
790,15.625000
791,15.625000
792,17.578125
793,19.531250
794,19.531250
795,21.484375
796,23.437500
797,23.437500
798,25.390625
799,27.343750
800,27.343750
801,29.296875
802,31.250000
803,31.250000
804,33.203125
805,33.203125
806,35.156250
807,37.109375
808,37.109375
809,39.062500
810,39.062500
811,41.015625
812,41.015625
813,42.968750
814,42.968750
815,42.968750
816,44.921875
817,44.921875
818,46.875000
819,46.875000
820,48.828125
821,48.828125
822,48.828125
823,50.781250
824,50.781250
825,52.734375
826,52.734375
827,52.734375
828,54.687500
829,54.687500
830,54.687500
831,54.687500
832,56.640625
833,56.640625
834,56.640625
835,56.640625
836,58.593750
837,58.593750
838,58.593750
839,58.593750
840,58.593750
841,58.593750
842,58.593750
843,58.593750
844,58.593750
845,58.593750
846,58.593750
847,60.546875
848,58.593750
849,58.593750
850,58.593750
851,58.593750
852,58.593750
853,58.593750
854,58.593750
855,58.593750
856,56.640625
857,58.593750
858,56.640625
859,56.640625
860,56.640625
861,56.640625
862,56.640625
863,54.687500
864,54.687500
865,54.687500
866,52.734375
867,52.734375
868,52.734375
869,52.734375
870,52.734375
871,50.781250
872,50.781250
873,48.828125
874,48.828125
875,46.875000
876,46.875000
877,46.875000
878,44.921875
879,42.968750
880,44.921875
881,42.968750
882,41.015625
883,39.062500
884,39.062500
885,37.109375
886,37.109375
887,35.156250
888,35.156250
889,33.203125
890,33.203125
891,31.250000
892,31.250000
893,29.296875
894,27.343750
895,27.343750
896,25.390625
897,23.437500
898,23.437500
899,21.484375
900,19.531250
901,19.531250
902,17.578125
903,17.578125
904,15.625000
905,13.671875
906,11.718750
907,11.718750
908,9.765625
909,7.812500
910,5.859375
911,3.906250
912,3.906250
913,1.953125
914,0.000000
915,-1.953125
916,-3.906250
917,-3.906250
918,-5.859375
919,-7.812500
920,-9.765625
921,-9.765625
922,-11.718750
923,-13.671875
924,-15.625000
925,-15.625000
926,-17.578125
927,-19.531250
928,-21.484375
929,-21.484375
930,-23.437500
931,-25.390625
932,-27.343750
933,-27.343750
934,-29.296875
935,-31.250000
936,-33.203125
937,-33.203125
938,-35.156250
939,-37.109375
940,-37.109375
941,-39.062500
942,-41.015625
943,-42.968750
944,-42.968750
945,-44.921875
946,-44.921875
947,-46.875000
948,-48.828125
949,-48.828125
950,-50.781250
951,-52.734375
952,-52.734375
953,-54.687500
954,-54.687500
955,-56.640625
956,-58.593750
957,-58.593750
958,-58.593750
959,-60.546875
960,-60.546875
961,-62.500000
962,-62.500000
963,-64.453125
964,-64.453125
965,-64.453125
966,-66.406250
967,-66.406250
968,-68.359375
969,-68.359375
970,-70.312500
971,-70.312500
972,-70.312500
973,-70.312500
974,-72.265625
975,-72.265625
976,-72.265625
977,-72.265625
978,-72.265625
979,-72.265625
980,-74.218750
981,-74.218750
982,-74.218750
983,-74.218750
984,-74.218750
985,-74.218750
986,-74.218750
987,-74.218750
988,-74.218750
989,-74.218750
990,-74.218750
991,-74.218750
992,-74.218750
993,-74.218750
994,-74.218750
995,-74.218750
996,-74.218750
997,-74.218750
998,-72.265625
999,-72.265625
1000,-72.265625
1001,-72.265625
1002,-72.265625
1003,-70.312500
1004,-70.312500
1005,-70.312500
1006,-70.312500
1007,-68.359375
1008,-68.359375
1009,-68.359375
1010,-66.406250
1011,-66.406250
1012,-64.453125
1013,-64.453125
1014,-62.500000
1015,-62.500000
1016,-60.546875
1017,-60.546875
1018,-60.546875
1019,-58.593750
1020,-56.640625
1021,-56.640625
1022,-56.640625
1023,-54.687500
1024,-52.734375
1025,-50.781250
1026,-50.781250
1027,-48.828125
1028,-48.828125
1029,-46.875000
1030,-46.875000
1031,-44.921875
1032,-42.968750
1033,-41.015625
1034,-41.015625
1035,-39.062500
1036,-37.109375
1037,-37.109375
1038,-35.156250
1039,-33.203125
1040,-33.203125
1041,-31.250000
1042,-29.296875
1043,-27.343750
1044,-25.390625
1045,-25.390625
1046,-23.437500
1047,-21.484375
1048,-21.484375
1049,-19.531250
1050,-17.578125
1051,-17.578125
1052,-15.625000
1053,-13.671875
1054,-11.718750
1055,-9.765625
1056,-9.765625
1057,-7.812500
1058,-7.812500
1059,-3.906250
1060,-3.906250
1061,-1.953125
1062,0.000000
1063,1.953125
1064,1.953125
1065,5.859375
1066,5.859375
1067,7.812500
1068,7.812500
1069,9.765625
1070,11.718750
1071,13.671875
1072,13.671875
1073,15.625000
1074,17.578125
1075,17.578125
1076,19.531250
1077,21.484375
1078,21.484375
1079,23.437500
1080,25.390625
1081,25.390625
1082,27.343750
1083,29.296875
1084,29.296875
1085,31.250000
1086,31.250000
1087,33.203125
1088,35.156250
1089,35.156250
1090,37.109375
1091,39.062500
1092,39.062500
1093,39.062500
1094,41.015625
1095,42.968750
1096,42.968750
1097,42.968750
1098,44.921875
1099,44.921875
1100,46.875000
1101,46.875000
1102,48.828125
1103,48.828125
1104,48.828125
1105,50.781250
1106,50.781250
1107,52.734375
1108,52.734375
1109,52.734375
1110,54.687500
1111,54.687500
1112,54.687500
1113,54.687500
1114,54.687500
1115,56.640625
1116,56.640625
1117,56.640625
1118,56.640625
1119,58.593750
1120,58.593750
1121,58.593750
1122,58.593750
1123,58.593750
1124,58.593750
1125,58.593750
1126,58.593750
1127,58.593750
1128,58.593750
1129,58.593750
1130,58.593750
1131,58.593750
1132,58.593750
1133,58.593750
1134,58.593750
1135,58.593750
1136,58.593750
1137,58.593750
1138,58.593750
1139,56.640625
1140,56.640625
1141,56.640625
1142,56.640625
1143,56.640625
1144,56.640625
1145,54.687500
1146,54.687500
1147,54.687500
1148,54.687500
1149,52.734375
1150,52.734375
1151,52.734375
1152,50.781250
1153,50.781250
1154,50.781250
1155,50.781250
1156,48.828125
1157,48.828125
1158,46.875000
1159,46.875000
1160,46.875000
1161,42.968750
1162,42.968750
1163,42.968750
1164,42.968750
1165,41.015625
1166,39.062500
1167,39.062500
1168,39.062500
1169,37.109375
1170,35.156250
1171,35.156250
1172,33.203125
1173,33.203125
1174,31.250000
1175,29.296875
1176,29.296875
1177,27.343750
1178,25.390625
1179,25.390625
1180,23.437500
1181,21.484375
1182,21.484375
1183,19.531250
1184,17.578125
1185,15.625000
1186,15.625000
1187,13.671875
1188,11.718750
1189,11.718750
1190,9.765625
1191,7.812500
1192,5.859375
1193,5.859375
1194,3.906250
1195,1.953125
1196,0.000000
1197,0.000000
1198,-1.953125
1199,-3.906250
1200,-5.859375
1201,-5.859375
1202,-7.812500
1203,-9.765625
1204,-11.718750
1205,-11.718750
1206,-15.625000
1207,-15.625000
1208,-17.578125
1209,-19.531250
1210,-19.531250
1211,-21.484375
1212,-23.437500
1213,-25.390625
1214,-25.390625
1215,-27.343750
1216,-29.296875
1217,-31.250000
1218,-31.250000
1219,-33.203125
1220,-35.156250
1221,-35.156250
1222,-37.109375
1223,-39.062500
1224,-41.015625
1225,-41.015625
1226,-44.921875
1227,-42.968750
1228,-44.921875
1229,-46.875000
1230,-48.828125
1231,-48.828125
1232,-50.781250
1233,-50.781250
1234,-52.734375
1235,-54.687500
1236,-54.687500
1237,-56.640625
1238,-56.640625
1239,-58.593750
1240,-58.593750
1241,-60.546875
1242,-60.546875
1243,-62.500000
1244,-62.500000
1245,-64.453125
1246,-64.453125
1247,-66.406250
1248,-66.406250
1249,-66.406250
1250,-68.359375
1251,-68.359375
1252,-70.312500
1253,-70.312500
1254,-70.312500
1255,-70.312500
1256,-72.265625
1257,-72.265625
1258,-72.265625
1259,-72.265625
1260,-74.218750
1261,-74.218750
1262,-74.218750
1263,-74.218750
1264,-74.218750
1265,-74.218750
1266,-76.171875
1267,-74.218750
1268,-74.218750
1269,-74.218750
1270,-76.171875
1271,-74.218750
1272,-74.218750
1273,-74.218750
1274,-74.218750
1275,-76.171875
1276,-76.171875
1277,-74.218750
1278,-74.218750
1279,-74.218750
1280,-74.218750
1281,-74.218750
1282,-72.265625
1283,-72.265625
1284,-72.265625
1285,-72.265625
1286,-70.312500
1287,-70.312500
1288,-68.359375
1289,-68.359375
1290,-68.359375
1291,-68.359375
1292,-66.406250
1293,-66.406250
1294,-64.453125
1295,-64.453125
1296,-64.453125
1297,-62.500000
1298,-62.500000
1299,-60.546875
1300,-60.546875
1301,-58.593750
1302,-58.593750
1303,-56.640625
1304,-54.687500
1305,-54.687500
1306,-52.734375
1307,-52.734375
1308,-50.781250
1309,-50.781250
1310,-48.828125
1311,-46.875000
1312,-46.875000
1313,-44.921875
1314,-44.921875
1315,-42.968750
1316,-41.015625
1317,-41.015625
1318,-39.062500
1319,-37.109375
1320,-35.156250
1321,-33.203125
1322,-35.156250
1323,-31.250000
1324,-31.250000
1325,-29.296875
1326,-27.343750
1327,-25.390625
1328,-25.390625
1329,-23.437500
1330,-21.484375
1331,-19.531250
1332,-19.531250
1333,-17.578125
1334,-15.625000
1335,-13.671875
1336,-13.671875
1337,-11.718750
1338,-9.765625
1339,-7.812500
1340,-7.812500
1341,-5.859375
1342,-3.906250
1343,-1.953125
1344,0.000000
1345,0.000000
1346,3.906250
1347,3.906250
1348,5.859375
1349,7.812500
1350,7.812500
1351,9.765625
1352,11.718750
