Practicum8/data/opgave1/meting-1-2.csv

Channel              :,CH1
Frequency            :,1.013kHz
Period               :,0.987ms
PK-PK                :,351.6mV
Probe attenuation    :,1X
Voltage per ADC value:,0.122070mV
Time interval        :,1.00000us

index,CH1_Voltage(mV)
1,-60.546875
2,-60.546875
3,-60.546875
4,-58.593750
5,-56.640625
6,-56.640625
7,-54.687500
8,-54.687500
9,-52.734375
10,-52.734375
11,-50.781250
12,-50.781250
13,-50.781250
14,-48.828125
15,-48.828125
16,-46.875000
17,-44.921875
18,-42.968750
19,-41.015625
20,-41.015625
21,-39.062500
22,-39.062500
23,-37.109375
24,-37.109375
25,-35.156250
26,-33.203125
27,-33.203125
28,-33.203125
29,-31.250000
30,-31.250000
31,-29.296875
32,-27.343750
33,-27.343750
34,-25.390625
35,-23.437500
36,-23.437500
37,-21.484375
38,-21.484375
39,-19.531250
40,-17.578125
41,-17.578125
42,-15.625000
43,-15.625000
44,-13.671875
45,-13.671875
46,-11.718750
47,-9.765625
48,-9.765625
49,-7.812500
50,-7.812500
51,-5.859375
52,-5.859375
53,-3.906250
54,-1.953125
55,-1.953125
56,0.000000
57,0.000000
58,1.953125
59,3.906250
60,5.859375
61,5.859375
62,7.812500
63,7.812500
64,9.765625
65,9.765625
66,11.718750
67,11.718750
68,13.671875
69,13.671875
70,15.625000
71,17.578125
72,17.578125
73,19.531250
74,21.484375
75,21.484375
76,23.437500
77,23.437500
78,25.390625
79,25.390625
80,27.343750
81,27.343750
82,29.296875
83,29.296875
84,31.250000
85,33.203125
86,35.156250
87,35.156250
88,37.109375
89,37.109375
90,39.062500
91,39.062500
92,41.015625
93,41.015625
94,42.968750
95,44.921875
96,44.921875
97,46.875000
98,46.875000
99,48.828125
100,48.828125
101,50.781250
102,50.781250
103,52.734375
104,54.687500
105,54.687500
106,54.687500
107,56.640625
108,58.593750
109,60.546875
110,60.546875
111,62.500000
112,62.500000
113,62.500000
114,64.453125
115,66.406250
116,68.359375
117,68.359375
118,68.359375
119,70.312500
120,70.312500
121,72.265625
122,72.265625
123,74.218750
124,74.218750
125,76.171875
126,76.171875
127,78.125000
128,80.078125
129,80.078125
130,82.031250
131,82.031250
132,83.984375
133,83.984375
134,85.937500
135,85.937500
136,85.937500
137,87.890625
138,87.890625
139,89.843750
140,89.843750
141,91.796875
142,91.796875
143,93.750000
144,93.750000
145,93.750000
146,95.703125
147,97.656250
148,97.656250
149,99.609375
150,99.609375
151,101.562500
152,101.562500
153,103.515625
154,103.515625
155,105.468750
156,105.468750
157,105.468750
158,105.468750
159,107.421875
160,107.421875
161,109.375000
162,111.328125
163,111.328125
164,111.328125
165,113.281250
166,113.281250
167,113.281250
168,115.234375
169,117.187500
170,117.187500
171,119.140625
172,119.140625
173,119.140625
174,119.140625
175,121.093750
176,121.093750
177,123.046875
178,123.046875
179,123.046875
180,125.000000
181,125.000000
182,125.000000
183,126.953125
184,125.000000
185,128.906250
186,128.906250
187,130.859375
188,130.859375
189,130.859375
190,130.859375
191,132.812500
192,132.812500
193,134.765625
194,134.765625
195,134.765625
196,134.765625
197,136.718750
198,136.718750
199,136.718750
200,138.671875
201,138.671875
202,140.625000
203,140.625000
204,140.625000
205,142.578125
206,142.578125
207,142.578125
208,144.531250
209,144.531250
210,144.531250
211,146.484375
212,146.484375
213,146.484375
214,148.437500
215,146.484375
216,148.437500
217,150.390625
218,150.390625
219,150.390625
220,152.343750
221,152.343750
222,152.343750
223,152.343750
224,152.343750
225,152.343750
226,154.296875
227,154.296875
228,154.296875
229,156.250000
230,156.250000
231,156.250000
232,158.203125
233,156.250000
234,158.203125
235,158.203125
236,160.156250
237,160.156250
238,160.156250
239,160.156250
240,162.109375
241,162.109375
242,164.062500
243,162.109375
244,162.109375
245,164.062500
246,164.062500
247,164.062500
248,164.062500
249,164.062500
250,166.015625
251,166.015625
252,166.015625
253,166.015625
254,167.968750
255,166.015625
256,167.968750
257,167.968750
258,167.968750
259,167.968750
260,169.921875
261,169.921875
262,169.921875
263,169.921875
264,169.921875
265,169.921875
266,169.921875
267,171.875000
268,171.875000
269,171.875000
270,171.875000
271,171.875000
272,171.875000
273,173.828125
274,173.828125
275,171.875000
276,173.828125
277,173.828125
278,173.828125
279,173.828125
280,175.781250
281,175.781250
282,175.781250
283,175.781250
284,175.781250
285,175.781250
286,175.781250
287,177.734375
288,175.781250
289,177.734375
290,175.781250
291,177.734375
292,177.734375
293,177.734375
294,177.734375
295,177.734375
296,177.734375
297,177.734375
298,177.734375
299,177.734375
300,177.734375
301,179.687500
302,179.687500
303,179.687500
304,179.687500
305,177.734375
306,179.687500
307,179.687500
308,179.687500
309,179.687500
310,179.687500
311,179.687500
312,179.687500
313,179.687500
314,179.687500
315,179.687500
316,179.687500
317,179.687500
318,179.687500
319,181.640625
320,179.687500
321,179.687500
322,179.687500
323,179.687500
324,179.687500
325,179.687500
326,179.687500
327,179.687500
328,179.687500
329,179.687500
330,179.687500
331,179.687500
332,179.687500
333,179.687500
334,179.687500
335,179.687500
336,181.640625
337,179.687500
338,179.687500
339,179.687500
340,179.687500
341,179.687500
342,179.687500
343,179.687500
344,179.687500
345,179.687500
346,179.687500
347,179.687500
348,179.687500
349,179.687500
350,177.734375
351,179.687500
352,179.687500
353,177.734375
354,179.687500
355,177.734375
356,177.734375
357,177.734375
358,177.734375
359,177.734375
360,177.734375
361,177.734375
362,177.734375
363,175.781250
364,175.781250
365,177.734375
366,175.781250
367,175.781250
368,175.781250
369,175.781250
370,175.781250
371,175.781250
372,175.781250
373,175.781250
374,175.781250
375,173.828125
376,173.828125
377,173.828125
378,173.828125
379,173.828125
380,171.875000
381,173.828125
382,173.828125
383,171.875000
384,171.875000
385,171.875000
386,171.875000
387,169.921875
388,169.921875
389,169.921875
390,169.921875
391,169.921875
392,169.921875
393,169.921875
394,167.968750
395,167.968750
396,167.968750
397,167.968750
398,167.968750
399,167.968750
400,167.968750
401,166.015625
402,166.015625
403,166.015625
404,164.062500
405,164.062500
406,164.062500
407,164.062500
408,164.062500
409,164.062500
410,162.109375
411,162.109375
412,162.109375
413,162.109375
414,162.109375
415,160.156250
416,160.156250
417,160.156250
418,158.203125
419,158.203125
420,158.203125
421,158.203125
422,156.250000
423,156.250000
424,156.250000
425,156.250000
426,154.296875
427,156.250000
428,154.296875
429,154.296875
430,152.343750
431,152.343750
432,152.343750
433,152.343750
434,152.343750
435,150.390625
436,150.390625
437,148.437500
438,148.437500
439,148.437500
440,146.484375
441,146.484375
442,146.484375
443,146.484375
444,144.531250
445,144.531250
446,142.578125
447,142.578125
448,142.578125
449,142.578125
450,140.625000
451,140.625000
452,138.671875
453,138.671875
454,138.671875
455,138.671875
456,136.718750
457,136.718750
458,134.765625
459,134.765625
460,134.765625
461,132.812500
462,132.812500
463,132.812500
464,130.859375
465,130.859375
466,128.906250
467,128.906250
468,126.953125
469,126.953125
470,126.953125
471,126.953125
472,125.000000
473,125.000000
474,123.046875
475,123.046875
476,123.046875
477,121.093750
478,121.093750
479,121.093750
480,119.140625
481,117.187500
482,117.187500
483,117.187500
484,115.234375
485,113.281250
486,113.281250
487,113.281250
488,113.281250
489,111.328125
490,111.328125
491,109.375000
492,109.375000
493,107.421875
494,107.421875
495,105.468750
496,105.468750
497,103.515625
498,103.515625
499,101.562500
500,101.562500
501,101.562500
502,99.609375
503,99.609375
504,97.656250
505,97.656250
506,97.656250
507,95.703125
508,93.750000
509,93.750000
510,91.796875
511,91.796875
512,89.843750
513,89.843750
514,87.890625
515,87.890625
516,85.937500
517,85.937500
518,85.937500
519,83.984375
520,82.031250
521,82.031250
522,80.078125
523,80.078125
524,80.078125
525,78.125000
526,76.171875
527,76.171875
528,74.218750
529,74.218750
530,74.218750
531,72.265625
532,70.312500
533,68.359375
534,68.359375
535,68.359375
536,66.406250
537,64.453125
538,64.453125
539,64.453125
540,62.500000
541,60.546875
542,60.546875
543,58.593750
544,56.640625
545,56.640625
546,54.687500
547,54.687500
548,52.734375
549,52.734375
550,50.781250
551,50.781250
552,48.828125
553,48.828125
554,46.875000
555,44.921875
556,44.921875
557,42.968750
558,41.015625
559,41.015625
560,41.015625
561,39.062500
562,37.109375
563,37.109375
564,35.156250
565,35.156250
566,33.203125
567,33.203125
568,31.250000
569,29.296875
570,29.296875
571,27.343750
572,25.390625
573,25.390625
574,23.437500
575,23.437500
576,21.484375
577,19.531250
578,19.531250
579,17.578125
580,17.578125
581,15.625000
582,15.625000
583,13.671875
584,11.718750
585,11.718750
586,11.718750
587,9.765625
588,7.812500
589,5.859375
590,3.906250
591,3.906250
592,3.906250
593,1.953125
594,1.953125
595,0.000000
596,-1.953125
597,-3.906250
598,-3.906250
599,-5.859375
600,-5.859375
601,-7.812500
602,-7.812500
603,-9.765625
604,-9.765625
605,-11.718750
606,-13.671875
607,-15.625000
608,-17.578125
609,-17.578125
610,-17.578125
611,-19.531250
612,-19.531250
613,-21.484375
614,-21.484375
615,-25.390625
616,-23.437500
617,-25.390625
618,-27.343750
619,-29.296875
620,-27.343750
621,-31.250000
622,-31.250000
623,-33.203125
624,-35.156250
625,-35.156250
626,-37.109375
627,-37.109375
628,-39.062500
629,-41.015625
630,-41.015625
631,-42.968750
632,-42.968750
633,-44.921875
634,-44.921875
635,-46.875000
636,-46.875000
637,-48.828125
638,-48.828125
639,-50.781250
640,-52.734375
641,-52.734375
642,-54.687500
643,-56.640625
644,-56.640625
645,-58.593750
646,-58.593750
647,-60.546875
648,-60.546875
649,-62.500000
650,-62.500000
651,-64.453125
652,-66.406250
653,-66.406250
654,-68.359375
655,-68.359375
656,-70.312500
657,-70.312500
658,-72.265625
659,-74.218750
660,-74.218750
661,-76.171875
662,-76.171875
663,-78.125000
664,-78.125000
665,-80.078125
666,-80.078125
667,-82.031250
668,-82.031250
669,-83.984375
670,-83.984375
671,-85.937500
672,-85.937500
673,-85.937500
674,-87.890625
675,-89.843750
676,-89.843750
677,-91.796875
678,-93.750000
679,-93.750000
680,-95.703125
681,-95.703125
682,-97.656250
683,-97.656250
684,-99.609375
685,-99.609375
686,-101.562500
687,-101.562500
688,-101.562500
689,-103.515625
690,-103.515625
691,-105.468750
692,-105.468750
693,-107.421875
694,-109.375000
695,-109.375000
696,-109.375000
697,-111.328125
698,-111.328125
699,-113.281250
700,-113.281250
701,-115.234375
702,-115.234375
703,-115.234375
704,-117.187500
705,-117.187500
706,-119.140625
707,-119.140625
708,-121.093750
709,-121.093750
710,-123.046875
711,-123.046875
712,-123.046875
713,-125.000000
714,-125.000000
715,-126.953125
716,-126.953125
717,-128.906250
718,-128.906250
719,-130.859375
720,-130.859375
721,-130.859375
722,-130.859375
723,-132.812500
724,-132.812500
725,-134.765625
726,-134.765625
727,-136.718750
728,-136.718750
729,-136.718750
730,-136.718750
731,-138.671875
732,-138.671875
733,-140.625000
734,-140.625000
735,-142.578125
736,-140.625000
737,-142.578125
738,-142.578125
739,-142.578125
740,-144.531250
741,-144.531250
742,-144.531250
743,-146.484375
744,-146.484375
745,-148.437500
746,-148.437500
747,-148.437500
748,-148.437500
749,-150.390625
750,-150.390625
751,-150.390625
752,-150.390625
753,-152.343750
754,-152.343750
755,-152.343750
756,-152.343750
757,-154.296875
758,-154.296875
759,-154.296875
760,-154.296875
761,-156.250000
762,-156.250000
763,-156.250000
764,-156.250000
765,-156.250000
766,-158.203125
767,-158.203125
768,-158.203125
769,-158.203125
770,-160.156250
771,-160.156250
772,-160.156250
773,-160.156250
774,-160.156250
775,-160.156250
776,-160.156250
777,-162.109375
778,-162.109375
779,-162.109375
780,-162.109375
781,-162.109375
782,-162.109375
783,-164.062500
784,-164.062500
785,-164.062500
786,-164.062500
787,-164.062500
788,-164.062500
789,-164.062500
790,-166.015625
791,-166.015625
792,-166.015625
793,-166.015625
794,-166.015625
795,-166.015625
796,-166.015625
797,-167.968750
798,-166.015625
799,-167.968750
800,-167.968750
801,-167.968750
802,-167.968750
803,-167.968750
804,-167.968750
805,-167.968750
806,-167.968750
807,-167.968750
808,-167.968750
809,-167.968750
810,-167.968750
811,-167.968750
812,-167.968750
813,-167.968750
814,-167.968750
815,-167.968750
816,-167.968750
817,-169.921875
818,-167.968750
819,-167.968750
820,-167.968750
821,-169.921875
822,-169.921875
823,-169.921875
824,-169.921875
825,-167.968750
826,-169.921875
827,-167.968750
828,-167.968750
829,-167.968750
830,-167.968750
831,-167.968750
832,-167.968750
833,-167.968750
834,-167.968750
835,-167.968750
836,-167.968750
837,-167.968750
838,-167.968750
839,-167.968750
840,-167.968750
841,-166.015625
842,-166.015625
843,-166.015625
844,-166.015625
845,-166.015625
846,-166.015625
847,-166.015625
848,-164.062500
849,-166.015625
850,-164.062500
851,-164.062500
852,-164.062500
853,-164.062500
854,-164.062500
855,-164.062500
856,-162.109375
857,-162.109375
858,-162.109375
859,-162.109375
860,-162.109375
861,-162.109375
862,-160.156250
863,-160.156250
864,-160.156250
865,-160.156250
866,-160.156250
867,-160.156250
868,-158.203125
869,-158.203125
870,-158.203125
871,-158.203125
872,-158.203125
873,-156.250000
874,-156.250000
875,-156.250000
876,-156.250000
877,-156.250000
878,-154.296875
879,-154.296875
880,-152.343750
881,-152.343750
882,-152.343750
883,-152.343750
884,-150.390625
885,-150.390625
886,-150.390625
887,-148.437500
888,-148.437500
889,-148.437500
890,-148.437500
891,-148.437500
892,-146.484375
893,-146.484375
894,-144.531250
895,-144.531250
896,-144.531250
897,-144.531250
898,-142.578125
899,-142.578125
900,-140.625000
901,-140.625000
902,-140.625000
903,-140.625000
904,-138.671875
905,-138.671875
906,-138.671875
907,-136.718750
908,-136.718750
909,-134.765625
910,-134.765625
911,-134.765625
912,-132.812500
913,-132.812500
914,-130.859375
915,-130.859375
916,-130.859375
917,-128.906250
918,-128.906250
919,-128.906250
920,-126.953125
921,-126.953125
922,-125.000000
923,-125.000000
924,-125.000000
925,-123.046875
926,-123.046875
927,-123.046875
928,-121.093750
929,-121.093750
930,-119.140625
931,-119.140625
932,-117.187500
933,-117.187500
934,-115.234375
935,-115.234375
936,-113.281250
937,-113.281250
938,-113.281250
939,-111.328125
940,-111.328125
941,-109.375000
942,-109.375000
943,-107.421875
944,-107.421875
945,-105.468750
946,-105.468750
947,-105.468750
948,-103.515625
949,-103.515625
950,-101.562500
951,-99.609375
952,-99.609375
953,-99.609375
954,-97.656250
955,-97.656250
956,-95.703125
957,-95.703125
958,-93.750000
959,-93.750000
960,-91.796875
961,-91.796875
962,-89.843750
963,-89.843750
964,-87.890625
965,-87.890625
966,-85.937500
967,-85.937500
968,-83.984375
969,-83.984375
970,-82.031250
971,-82.031250
972,-80.078125
973,-80.078125
974,-78.125000
975,-76.171875
976,-76.171875
977,-74.218750
978,-74.218750
979,-72.265625
980,-70.312500
981,-70.312500
982,-68.359375
983,-68.359375
984,-68.359375
985,-66.406250
986,-64.453125
987,-62.500000
988,-62.500000
989,-62.500000
990,-60.546875
991,-58.593750
992,-58.593750
993,-58.593750
994,-56.640625
995,-54.687500
996,-52.734375
997,-52.734375
998,-52.734375
999,-50.781250
1000,-48.828125
1001,-48.828125
1002,-46.875000
1003,-46.875000
1004,-44.921875
1005,-42.968750
1006,-42.968750
1007,-41.015625
1008,-39.062500
1009,-39.062500
1010,-37.109375
1011,-37.109375
1012,-35.156250
1013,-35.156250
1014,-33.203125
1015,-33.203125
1016,-31.250000
1017,-29.296875
1018,-29.296875
1019,-27.343750
1020,-25.390625
1021,-25.390625
1022,-23.437500
1023,-23.437500
1024,-21.484375
1025,-21.484375
1026,-19.531250
1027,-19.531250
1028,-17.578125
1029,-15.625000
1030,-13.671875
1031,-13.671875
1032,-11.718750
1033,-11.718750
1034,-9.765625
1035,-9.765625
1036,-7.812500
1037,-5.859375
1038,-5.859375
1039,-3.906250
1040,-1.953125
1041,-1.953125
1042,-1.953125
1043,0.000000
1044,1.953125
1045,3.906250
1046,1.953125
1047,5.859375
1048,5.859375
1049,7.812500
1050,9.765625
1051,9.765625
1052,11.718750
1053,11.718750
1054,13.671875
1055,15.625000
1056,15.625000
1057,15.625000
1058,17.578125
1059,19.531250
1060,19.531250
1061,21.484375
1062,21.484375
1063,23.437500
1064,25.390625
1065,25.390625
1066,27.343750
1067,29.296875
1068,29.296875
1069,31.250000
1070,31.250000
1071,31.250000
1072,33.203125
1073,35.156250
1074,35.156250
1075,37.109375
1076,37.109375
1077,39.062500
1078,41.015625
1079,41.015625
1080,42.968750
1081,44.921875
1082,44.921875
1083,44.921875
1084,46.875000
1085,46.875000
1086,48.828125
1087,48.828125
1088,50.781250
1089,52.734375
1090,52.734375
1091,56.640625
1092,54.687500
1093,56.640625
1094,56.640625
1095,54.687500
1096,58.593750
1097,60.546875
1098,60.546875
1099,62.500000
1100,64.453125
1101,64.453125
1102,66.406250
1103,66.406250
1104,68.359375
1105,68.359375
1106,70.312500
1107,70.312500
1108,70.312500
1109,72.265625
1110,74.218750
1111,74.218750
1112,76.171875
1113,76.171875
1114,78.125000
1115,80.078125
1116,80.078125
1117,80.078125
1118,82.031250
1119,82.031250
1120,83.984375
1121,83.984375
1122,83.984375
1123,85.937500
1124,87.890625
1125,87.890625
1126,89.843750
1127,89.843750
1128,91.796875
1129,91.796875
1130,93.750000
1131,93.750000
1132,93.750000
1133,95.703125
1134,95.703125
1135,97.656250
1136,97.656250
1137,99.609375
1138,101.562500
1139,101.562500
1140,101.562500
1141,103.515625
1142,103.515625
1143,103.515625
1144,105.468750
1145,107.421875
1146,107.421875
1147,107.421875
1148,109.375000
1149,109.375000
1150,111.328125
1151,111.328125
1152,113.281250
1153,113.281250
1154,115.234375
1155,115.234375
1156,117.187500
1157,117.187500
1158,117.187500
1159,119.140625
1160,119.140625
1161,119.140625
1162,121.093750
1163,121.093750
1164,123.046875
1165,123.046875
1166,125.000000
1167,125.000000
1168,125.000000
1169,125.000000
1170,126.953125
1171,126.953125
1172,128.906250
1173,128.906250
1174,130.859375
1175,130.859375
1176,130.859375
1177,132.812500
1178,132.812500
1179,132.812500
1180,134.765625
1181,134.765625
1182,136.718750
1183,136.718750
1184,136.718750
1185,138.671875
1186,138.671875
1187,138.671875
1188,138.671875
1189,140.625000
1190,140.625000
1191,140.625000
1192,142.578125
1193,144.531250
1194,144.531250
1195,142.578125
1196,144.531250
1197,144.531250
1198,146.484375
1199,146.484375
1200,146.484375
1201,148.437500
1202,148.437500
1203,148.437500
1204,148.437500
1205,150.390625
1206,150.390625
1207,150.390625
1208,152.343750
1209,152.343750
1210,152.343750
1211,152.343750
1212,152.343750
1213,154.296875
1214,154.296875
1215,156.250000
1216,156.250000
1217,156.250000
1218,156.250000
1219,158.203125
1220,156.250000
1221,158.203125
1222,158.203125
1223,158.203125
1224,160.156250
1225,160.156250
1226,160.156250
1227,160.156250
1228,162.109375
1229,162.109375
1230,162.109375
1231,162.109375
1232,164.062500
1233,162.109375
1234,164.062500
1235,164.062500
1236,164.062500
1237,164.062500
1238,164.062500
1239,166.015625
1240,166.015625
1241,166.015625
1242,166.015625
1243,167.968750
1244,167.968750
1245,167.968750
1246,167.968750
1247,167.968750
1248,167.968750
1249,169.921875
1250,169.921875
1251,169.921875
1252,169.921875
1253,169.921875
1254,169.921875
1255,171.875000
1256,171.875000
1257,171.875000
1258,171.875000
1259,171.875000
1260,171.875000
1261,173.828125
1262,171.875000
1263,173.828125
1264,173.828125
1265,173.828125
1266,173.828125
1267,175.781250
1268,175.781250
1269,175.781250
1270,175.781250
1271,175.781250
1272,175.781250
1273,175.781250
1274,175.781250
1275,175.781250
1276,177.734375
1277,177.734375
1278,177.734375
1279,177.734375
1280,177.734375
1281,177.734375
1282,177.734375
1283,177.734375
1284,179.687500
1285,177.734375
1286,177.734375
1287,177.734375
1288,179.687500
1289,179.687500
1290,179.687500
1291,179.687500
1292,179.687500
1293,179.687500
1294,179.687500
1295,179.687500
1296,179.687500
1297,179.687500
1298,179.687500
1299,179.687500
1300,179.687500
1301,179.687500
1302,179.687500
1303,179.687500
1304,179.687500
1305,179.687500
1306,179.687500
1307,179.687500
1308,179.687500
1309,179.687500
