Practicum8/data/opgave4/freq1/trash/data_76_003.csv

Channel              :,CH1
Frequency            :,957.9Hz
Period               :,1.044ms
PK-PK                :,238.3mV
Probe attenuation    :,1X
Voltage per ADC value:,0.122070mV
Time interval        :,0.40000us

index,CH1_Voltage(mV)
1,52.734375
2,52.734375
3,52.734375
4,52.734375
5,52.734375
6,52.734375
7,52.734375
8,54.687500
9,54.687500
10,54.687500
11,54.687500
12,54.687500
13,54.687500
14,54.687500
15,54.687500
16,56.640625
17,56.640625
18,56.640625
19,56.640625
20,56.640625
21,56.640625
22,56.640625
23,56.640625
24,56.640625
25,56.640625
26,58.593750
27,58.593750
28,58.593750
29,58.593750
30,58.593750
31,58.593750
32,58.593750
33,58.593750
34,58.593750
35,60.546875
36,60.546875
37,60.546875
38,60.546875
39,60.546875
40,60.546875
41,60.546875
42,62.500000
43,60.546875
44,62.500000
45,62.500000
46,62.500000
47,62.500000
48,62.500000
49,62.500000
50,62.500000
51,64.453125
52,64.453125
53,64.453125
54,62.500000
55,64.453125
56,64.453125
57,64.453125
58,64.453125
59,64.453125
60,64.453125
61,64.453125
62,66.406250
63,66.406250
64,66.406250
65,66.406250
66,66.406250
67,66.406250
68,66.406250
69,66.406250
70,66.406250
71,66.406250
72,68.359375
73,68.359375
74,68.359375
75,68.359375
76,68.359375
77,68.359375
78,68.359375
79,70.312500
80,68.359375
81,68.359375
82,70.312500
83,70.312500
84,70.312500
85,70.312500
86,70.312500
87,70.312500
88,70.312500
89,72.265625
90,72.265625
91,70.312500
92,72.265625
93,74.218750
94,72.265625
95,72.265625
96,72.265625
97,74.218750
98,72.265625
99,74.218750
100,72.265625
101,74.218750
102,74.218750
103,74.218750
104,74.218750
105,74.218750
106,74.218750
107,74.218750
108,74.218750
109,74.218750
110,74.218750
111,74.218750
112,76.171875
113,74.218750
114,76.171875
115,76.171875
116,76.171875
117,76.171875
118,76.171875
119,76.171875
120,76.171875
121,78.125000
122,76.171875
123,78.125000
124,78.125000
125,78.125000
126,78.125000
127,78.125000
128,78.125000
129,78.125000
130,78.125000
131,78.125000
132,78.125000
133,78.125000
134,80.078125
135,80.078125
136,80.078125
137,80.078125
138,80.078125
139,80.078125
140,80.078125
141,80.078125
142,82.031250
143,80.078125
144,82.031250
145,80.078125
146,82.031250
147,82.031250
148,82.031250
149,82.031250
150,82.031250
151,82.031250
152,82.031250
153,82.031250
154,82.031250
155,82.031250
156,83.984375
157,83.984375
158,83.984375
159,83.984375
160,83.984375
161,83.984375
162,83.984375
163,83.984375
164,83.984375
165,83.984375
166,83.984375
167,83.984375
168,83.984375
169,85.937500
170,85.937500
171,85.937500
172,85.937500
173,85.937500
174,85.937500
175,85.937500
176,85.937500
177,85.937500
178,85.937500
179,85.937500
180,87.890625
181,85.937500
182,87.890625
183,87.890625
184,87.890625
185,87.890625
186,87.890625
187,87.890625
188,87.890625
189,87.890625
190,87.890625
191,87.890625
192,87.890625
193,87.890625
194,89.843750
195,87.890625
196,89.843750
197,89.843750
198,89.843750
199,89.843750
200,89.843750
201,89.843750
202,89.843750
203,89.843750
204,91.796875
205,89.843750
206,91.796875
207,89.843750
208,89.843750
209,91.796875
210,91.796875
211,91.796875
212,91.796875
213,91.796875
214,91.796875
215,91.796875
216,91.796875
217,91.796875
218,91.796875
219,91.796875
220,91.796875
221,91.796875
222,93.750000
223,91.796875
224,93.750000
225,93.750000
226,93.750000
227,93.750000
228,93.750000
229,93.750000
230,93.750000
231,93.750000
232,93.750000
233,93.750000
234,93.750000
235,93.750000
236,95.703125
237,95.703125
238,95.703125
239,95.703125
240,95.703125
241,95.703125
242,95.703125
243,95.703125
244,95.703125
245,95.703125
246,95.703125
247,95.703125
248,95.703125
249,97.656250
250,95.703125
251,97.656250
252,95.703125
253,95.703125
254,97.656250
255,95.703125
256,97.656250
257,97.656250
258,97.656250
259,97.656250
260,97.656250
261,97.656250
262,97.656250
263,97.656250
264,97.656250
265,95.703125
266,97.656250
267,97.656250
268,97.656250
269,97.656250
270,99.609375
271,99.609375
272,99.609375
273,99.609375
274,99.609375
275,99.609375
276,99.609375
277,99.609375
278,99.609375
279,97.656250
280,99.609375
281,99.609375
282,99.609375
283,99.609375
284,99.609375
285,99.609375
286,99.609375
287,99.609375
288,99.609375
289,99.609375
290,101.562500
291,99.609375
292,99.609375
293,101.562500
294,99.609375
295,101.562500
296,101.562500
297,101.562500
298,101.562500
299,101.562500
300,101.562500
301,101.562500
302,101.562500
303,101.562500
304,101.562500
305,101.562500
306,101.562500
307,101.562500
308,103.515625
309,101.562500
310,101.562500
311,103.515625
312,101.562500
313,103.515625
314,101.562500
315,103.515625
316,103.515625
317,103.515625
318,103.515625
319,103.515625
320,103.515625
321,103.515625
322,103.515625
323,103.515625
324,103.515625
325,103.515625
326,103.515625
327,103.515625
328,103.515625
329,103.515625
330,103.515625
331,103.515625
332,103.515625
333,103.515625
334,103.515625
335,103.515625
336,103.515625
337,103.515625
338,103.515625
339,105.468750
340,105.468750
341,105.468750
342,105.468750
343,105.468750
344,105.468750
345,105.468750
346,105.468750
347,105.468750
348,105.468750
349,105.468750
350,105.468750
351,105.468750
352,105.468750
353,105.468750
354,105.468750
355,105.468750
356,105.468750
357,105.468750
358,105.468750
359,105.468750
360,105.468750
361,105.468750
362,105.468750
363,105.468750
364,105.468750
365,105.468750
366,105.468750
367,105.468750
368,105.468750
369,105.468750
370,105.468750
371,105.468750
372,105.468750
373,107.421875
374,105.468750
375,107.421875
376,107.421875
377,105.468750
378,107.421875
379,105.468750
380,107.421875
381,107.421875
382,105.468750
383,107.421875
384,107.421875
385,107.421875
386,107.421875
387,107.421875
388,107.421875
389,107.421875
390,107.421875
391,107.421875
392,107.421875
393,107.421875
394,105.468750
395,107.421875
396,107.421875
397,107.421875
398,107.421875
399,107.421875
400,107.421875
401,107.421875
402,107.421875
403,107.421875
404,107.421875
405,107.421875
406,107.421875
407,107.421875
408,107.421875
409,107.421875
410,107.421875
411,107.421875
412,107.421875
413,107.421875
414,107.421875
415,107.421875
416,107.421875
417,107.421875
418,107.421875
419,107.421875
420,107.421875
421,107.421875
422,107.421875
423,107.421875
424,107.421875
425,107.421875
426,107.421875
427,107.421875
428,109.375000
429,107.421875
430,109.375000
431,109.375000
432,109.375000
433,107.421875
434,107.421875
435,109.375000
436,107.421875
437,109.375000
438,107.421875
439,109.375000
440,107.421875
441,107.421875
442,109.375000
443,109.375000
444,109.375000
445,109.375000
446,109.375000
447,109.375000
448,107.421875
449,109.375000
450,107.421875
451,109.375000
452,107.421875
453,109.375000
454,109.375000
455,109.375000
456,109.375000
457,109.375000
458,107.421875
459,109.375000
460,109.375000
461,109.375000
462,109.375000
463,107.421875
464,109.375000
465,109.375000
466,109.375000
467,109.375000
468,107.421875
469,109.375000
470,109.375000
471,109.375000
472,109.375000
473,107.421875
474,107.421875
475,107.421875
476,107.421875
477,109.375000
478,107.421875
479,109.375000
480,109.375000
481,109.375000
482,109.375000
483,107.421875
484,109.375000
485,107.421875
486,107.421875
487,109.375000
488,107.421875
489,109.375000
490,107.421875
491,107.421875
492,109.375000
493,107.421875
494,109.375000
495,107.421875
496,109.375000
497,109.375000
498,107.421875
499,109.375000
500,107.421875
501,107.421875
502,107.421875
503,109.375000
504,107.421875
505,107.421875
506,107.421875
507,107.421875
508,107.421875
509,107.421875
510,107.421875
511,107.421875
512,107.421875
513,107.421875
514,107.421875
515,107.421875
516,107.421875
517,107.421875
518,107.421875
519,107.421875
520,107.421875
521,109.375000
522,107.421875
523,107.421875
524,107.421875
525,107.421875
526,107.421875
527,107.421875
528,107.421875
529,107.421875
530,107.421875
531,107.421875
532,107.421875
533,107.421875
534,107.421875
535,107.421875
536,107.421875
537,107.421875
538,107.421875
539,107.421875
540,107.421875
541,107.421875
542,107.421875
543,107.421875
544,107.421875
545,105.468750
546,107.421875
547,107.421875
548,105.468750
549,107.421875
550,105.468750
551,105.468750
552,105.468750
553,105.468750
554,105.468750
555,105.468750
556,107.421875
557,105.468750
558,105.468750
559,105.468750
560,105.468750
561,105.468750
562,105.468750
563,105.468750
564,105.468750
565,105.468750
566,107.421875
567,105.468750
568,105.468750
569,105.468750
570,105.468750
571,105.468750
572,105.468750
573,105.468750
574,105.468750
575,105.468750
576,105.468750
577,103.515625
578,105.468750
579,103.515625
580,105.468750
581,105.468750
582,105.468750
583,103.515625
584,103.515625
585,105.468750
586,103.515625
587,105.468750
588,103.515625
589,103.515625
590,103.515625
591,103.515625
592,103.515625
593,103.515625
594,103.515625
595,103.515625
596,103.515625
597,103.515625
598,103.515625
599,103.515625
600,103.515625
601,103.515625
602,101.562500
603,103.515625
604,103.515625
605,103.515625
606,103.515625
607,101.562500
608,103.515625
609,101.562500
610,103.515625
611,101.562500
612,101.562500
613,103.515625
614,101.562500
615,101.562500
616,101.562500
617,101.562500
618,101.562500
619,101.562500
620,101.562500
621,101.562500
622,101.562500
623,101.562500
624,101.562500
625,101.562500
626,101.562500
627,101.562500
628,101.562500
629,99.609375
630,101.562500
631,101.562500
632,101.562500
633,99.609375
634,99.609375
635,99.609375
636,99.609375
637,99.609375
638,99.609375
639,99.609375
640,99.609375
641,99.609375
642,99.609375
643,99.609375
644,99.609375
645,99.609375
646,99.609375
647,99.609375
648,99.609375
649,97.656250
650,99.609375
651,97.656250
652,97.656250
653,99.609375
654,97.656250
655,99.609375
656,97.656250
657,97.656250
658,99.609375
659,97.656250
660,97.656250
661,97.656250
662,97.656250
663,97.656250
664,97.656250
665,97.656250
666,97.656250
667,97.656250
668,97.656250
669,97.656250
670,95.703125
671,95.703125
672,95.703125
673,95.703125
674,95.703125
675,95.703125
676,95.703125
677,95.703125
678,95.703125
679,95.703125
680,95.703125
681,95.703125
682,95.703125
683,95.703125
684,93.750000
685,95.703125
686,93.750000
687,93.750000
688,95.703125
689,93.750000
690,93.750000
691,93.750000
692,93.750000
693,93.750000
694,93.750000
695,93.750000
696,93.750000
697,91.796875
698,93.750000
699,93.750000
700,93.750000
701,91.796875
702,91.796875
703,91.796875
704,91.796875
705,91.796875
706,91.796875
707,91.796875
708,91.796875
709,91.796875
710,91.796875
711,91.796875
712,91.796875
713,91.796875
714,91.796875
715,91.796875
716,89.843750
717,89.843750
718,89.843750
719,89.843750
720,89.843750
721,89.843750
722,89.843750
723,89.843750
724,89.843750
725,89.843750
726,89.843750
727,89.843750
728,89.843750
729,87.890625
730,87.890625
731,87.890625
732,87.890625
733,87.890625
734,87.890625
735,87.890625
736,87.890625
737,87.890625
738,85.937500
739,87.890625
740,87.890625
741,87.890625
742,85.937500
743,87.890625
744,85.937500
745,85.937500
746,85.937500
747,85.937500
748,85.937500
749,85.937500
750,85.937500
751,85.937500
752,85.937500
753,85.937500
754,83.984375
755,85.937500
756,83.984375
757,83.984375
758,83.984375
759,83.984375
760,83.984375
761,83.984375
762,83.984375
763,83.984375
764,83.984375
765,82.031250
766,83.984375
767,82.031250
768,82.031250
769,82.031250
770,82.031250
771,82.031250
772,82.031250
773,82.031250
774,82.031250
775,82.031250
776,80.078125
777,82.031250
778,80.078125
779,82.031250
780,80.078125
781,80.078125
782,80.078125
783,80.078125
784,80.078125
785,80.078125
786,80.078125
787,80.078125
788,80.078125
789,80.078125
790,78.125000
791,78.125000
792,78.125000
793,78.125000
794,78.125000
795,78.125000
796,78.125000
797,78.125000
798,78.125000
799,78.125000
800,76.171875
801,78.125000
802,76.171875
803,76.171875
804,76.171875
805,76.171875
806,76.171875
807,76.171875
808,74.218750
809,76.171875
810,74.218750
811,74.218750
812,74.218750
813,74.218750
814,74.218750
815,74.218750
816,74.218750
817,74.218750
818,74.218750
819,74.218750
820,72.265625
821,74.218750
822,72.265625
823,72.265625
824,72.265625
825,72.265625
826,72.265625
827,72.265625
828,72.265625
829,72.265625
830,72.265625
831,72.265625
832,70.312500
833,70.312500
834,70.312500
835,70.312500
836,70.312500
837,70.312500
838,70.312500
839,70.312500
840,70.312500
841,68.359375
842,70.312500
843,68.359375
844,68.359375
845,68.359375
846,68.359375
847,68.359375
848,68.359375
849,68.359375
850,66.406250
851,68.359375
852,66.406250
853,66.406250
854,66.406250
855,66.406250
856,66.406250
857,64.453125
858,66.406250
859,66.406250
860,64.453125
861,64.453125
862,64.453125
863,64.453125
864,64.453125
865,64.453125
866,64.453125
867,64.453125
868,62.500000
869,64.453125
870,62.500000
871,62.500000
872,60.546875
873,62.500000
874,62.500000
875,62.500000
876,62.500000
877,60.546875
878,62.500000
879,60.546875
880,60.546875
881,60.546875
882,60.546875
883,60.546875
884,60.546875
885,60.546875
886,58.593750
887,58.593750
888,58.593750
889,58.593750
890,58.593750
891,58.593750
892,58.593750
893,58.593750
894,58.593750
895,58.593750
896,56.640625
897,56.640625
898,56.640625
899,56.640625
900,56.640625
901,56.640625
902,56.640625
903,56.640625
904,54.687500
905,54.687500
906,54.687500
907,54.687500
908,54.687500
909,54.687500
910,54.687500
911,54.687500
912,52.734375
913,52.734375
914,54.687500
915,52.734375
916,52.734375
917,52.734375
918,52.734375
919,52.734375
920,50.781250
921,52.734375
922,50.781250
923,50.781250
924,50.781250
925,50.781250
926,50.781250
927,48.828125
928,50.781250
929,50.781250
930,50.781250
931,48.828125
932,48.828125
933,48.828125
934,48.828125
935,48.828125
936,48.828125
937,46.875000
938,46.875000
939,46.875000
940,46.875000
941,46.875000
942,46.875000
943,46.875000
944,46.875000
945,46.875000
946,44.921875
947,44.921875
948,44.921875
949,44.921875
950,44.921875
951,44.921875
952,44.921875
953,44.921875
954,42.968750
955,44.921875
956,42.968750
957,42.968750
958,42.968750
959,41.015625
960,42.968750
961,41.015625
962,42.968750
963,41.015625
964,41.015625
965,41.015625
966,41.015625
967,41.015625
968,41.015625
969,39.062500
970,39.062500
971,39.062500
972,39.062500
973,39.062500
974,39.062500
975,39.062500
976,39.062500
977,37.109375
978,37.109375
979,37.109375
980,37.109375
981,37.109375
982,37.109375
983,37.109375
984,35.156250
985,35.156250
986,35.156250
987,35.156250
988,35.156250
989,35.156250
990,35.156250
991,33.203125
992,33.203125
993,35.156250
994,33.203125
995,33.203125
996,33.203125
997,33.203125
998,31.250000
999,31.250000
1000,31.250000
1001,31.250000
1002,31.250000
1003,31.250000
1004,29.296875
1005,31.250000
1006,29.296875
1007,29.296875
1008,29.296875
1009,29.296875
1010,29.296875
1011,29.296875
1012,29.296875
1013,29.296875
1014,27.343750
1015,29.296875
1016,27.343750
1017,27.343750
1018,27.343750
1019,27.343750
1020,27.343750
1021,25.390625
1022,27.343750
1023,25.390625
1024,25.390625
1025,25.390625
1026,25.390625
1027,25.390625
1028,25.390625
1029,25.390625
1030,23.437500
1031,23.437500
1032,23.437500
1033,23.437500
1034,23.437500
1035,23.437500
1036,21.484375
1037,23.437500
1038,21.484375
1039,21.484375
1040,21.484375
1041,21.484375
1042,21.484375
1043,19.531250
1044,19.531250
1045,19.531250
1046,19.531250
1047,19.531250
1048,19.531250
1049,19.531250
1050,19.531250
1051,17.578125
1052,17.578125
1053,17.578125
1054,17.578125
1055,17.578125
1056,17.578125
1057,17.578125
1058,15.625000
1059,15.625000
1060,15.625000
1061,15.625000
1062,15.625000
1063,15.625000
1064,13.671875
1065,13.671875
1066,13.671875
1067,13.671875
1068,13.671875
1069,13.671875
1070,13.671875
1071,13.671875
1072,11.718750
1073,11.718750
1074,11.718750
1075,11.718750
1076,11.718750
1077,11.718750
1078,11.718750
1079,9.765625
1080,9.765625
1081,9.765625
1082,9.765625
1083,9.765625
1084,9.765625
1085,9.765625
1086,7.812500
1087,7.812500
1088,7.812500
1089,7.812500
1090,7.812500
1091,5.859375
1092,7.812500
1093,5.859375
1094,5.859375
1095,5.859375
1096,5.859375
1097,5.859375
1098,3.906250
1099,5.859375
1100,3.906250
1101,3.906250
1102,3.906250
1103,3.906250
1104,3.906250
1105,3.906250
1106,3.906250
1107,1.953125
1108,1.953125
1109,1.953125
1110,1.953125
1111,1.953125
1112,1.953125
1113,0.000000
1114,0.000000
1115,0.000000
1116,0.000000
1117,0.000000
1118,0.000000
1119,0.000000
1120,-1.953125
1121,-1.953125
1122,-1.953125
1123,-1.953125
1124,-1.953125
1125,-1.953125
1126,-1.953125
1127,-3.906250
1128,-3.906250
1129,-3.906250
1130,-3.906250
1131,-3.906250
1132,-3.906250
1133,-3.906250
1134,-5.859375
1135,-5.859375
1136,-5.859375
1137,-5.859375
1138,-5.859375
1139,-5.859375
1140,-5.859375
1141,-7.812500
1142,-7.812500
1143,-7.812500
1144,-7.812500
1145,-7.812500
1146,-7.812500
1147,-9.765625
1148,-9.765625
1149,-9.765625
1150,-9.765625
1151,-9.765625
1152,-9.765625
1153,-11.718750
1154,-9.765625
1155,-11.718750
1156,-11.718750
1157,-11.718750
1158,-11.718750
1159,-11.718750
1160,-11.718750
1161,-11.718750
1162,-13.671875
1163,-13.671875
1164,-13.671875
1165,-13.671875
1166,-13.671875
1167,-13.671875
1168,-15.625000
1169,-13.671875
1170,-15.625000
1171,-15.625000
1172,-15.625000
1173,-15.625000
1174,-15.625000
1175,-17.578125
1176,-17.578125
1177,-17.578125
1178,-17.578125
1179,-17.578125
1180,-17.578125
1181,-17.578125
1182,-17.578125
1183,-19.531250
1184,-19.531250
1185,-19.531250
1186,-19.531250
1187,-21.484375
1188,-19.531250
1189,-21.484375
1190,-21.484375
1191,-21.484375
1192,-21.484375
1193,-21.484375
1194,-21.484375
1195,-21.484375
1196,-23.437500
1197,-23.437500
1198,-23.437500
1199,-23.437500
1200,-23.437500
1201,-23.437500
1202,-23.437500
1203,-25.390625
1204,-25.390625
1205,-25.390625
1206,-25.390625
1207,-25.390625
1208,-27.343750
1209,-25.390625
1210,-27.343750
1211,-27.343750
1212,-27.343750
1213,-29.296875
1214,-27.343750
1215,-29.296875
1216,-27.343750
1217,-29.296875
1218,-29.296875
1219,-29.296875
1220,-29.296875
1221,-29.296875
1222,-29.296875
1223,-31.250000
1224,-29.296875
1225,-31.250000
1226,-31.250000
1227,-31.250000
1228,-31.250000
1229,-31.250000
1230,-33.203125
1231,-31.250000
1232,-33.203125
1233,-33.203125
1234,-33.203125
1235,-33.203125
1236,-33.203125
1237,-35.156250
1238,-35.156250
1239,-35.156250
1240,-35.156250
1241,-35.156250
1242,-35.156250
1243,-35.156250
1244,-35.156250
1245,-37.109375
1246,-37.109375
1247,-37.109375
1248,-37.109375
1249,-37.109375
1250,-37.109375
1251,-39.062500
1252,-39.062500
1253,-39.062500
1254,-39.062500
1255,-39.062500
1256,-39.062500
1257,-41.015625
1258,-39.062500
1259,-41.015625
1260,-41.015625
1261,-41.015625
1262,-41.015625
1263,-41.015625
1264,-42.968750
1265,-41.015625
1266,-42.968750
1267,-42.968750
1268,-42.968750
1269,-42.968750
1270,-42.968750
1271,-42.968750
1272,-44.921875
1273,-44.921875
1274,-44.921875
1275,-44.921875
1276,-44.921875
1277,-44.921875
1278,-44.921875
1279,-44.921875
1280,-46.875000
1281,-44.921875
1282,-46.875000
1283,-46.875000
1284,-48.828125
1285,-48.828125
1286,-46.875000
1287,-46.875000
1288,-48.828125
1289,-48.828125
1290,-48.828125
1291,-48.828125
1292,-48.828125
1293,-50.781250
1294,-50.781250
1295,-50.781250
1296,-50.781250
1297,-50.781250
1298,-50.781250
1299,-52.734375
1300,-50.781250
1301,-50.781250
1302,-52.734375
1303,-52.734375
1304,-52.734375
1305,-52.734375
1306,-52.734375
1307,-54.687500
1308,-52.734375
1309,-54.687500
1310,-52.734375
1311,-54.687500
1312,-54.687500
1313,-54.687500
1314,-54.687500
1315,-54.687500
1316,-56.640625
1317,-56.640625
1318,-56.640625
1319,-56.640625
1320,-56.640625
1321,-56.640625
1322,-56.640625
1323,-58.593750
1324,-58.593750
1325,-58.593750
1326,-58.593750
1327,-58.593750
1328,-58.593750
1329,-60.546875
1330,-58.593750
1331,-60.546875
1332,-58.593750
1333,-60.546875
1334,-60.546875
1335,-60.546875
1336,-62.500000
1337,-60.546875
1338,-62.500000
1339,-62.500000
1340,-62.500000
1341,-62.500000
1342,-62.500000
1343,-62.500000
1344,-62.500000
1345,-62.500000
1346,-64.453125
1347,-64.453125
1348,-64.453125
1349,-64.453125
1350,-64.453125
1351,-64.453125
1352,-64.453125
1353,-66.406250
1354,-66.406250
1355,-64.453125
1356,-66.406250
1357,-66.406250
