Practicum8/data/opgave4/freq1/trash/data_76_000.csv

Channel              :,CH1
Frequency            :,326.1Hz
Period               :,3.067ms
PK-PK                :,20.51mV
Probe attenuation    :,1X
Voltage per ADC value:,0.012207mV
Time interval        :,10.00000us

index,CH1_Voltage(mV)
1,-0.585938
2,-0.585938
3,-0.585938
4,-0.390625
5,0.195313
6,0.781250
7,0.976563
8,1.562500
9,1.757813
10,1.757813
11,2.148438
12,1.562500
13,3.125000
14,2.734375
15,3.125000
16,3.320313
17,3.906250
18,4.882813
19,5.273438
20,5.664063
21,6.445313
22,6.054688
23,5.664063
24,6.640625
25,6.640625
26,7.031250
27,7.421875
28,7.226563
29,7.226563
30,7.617188
31,8.007813
32,8.007813
33,8.203125
34,8.593750
35,9.375000
36,9.960938
37,9.375000
38,9.375000
39,9.375000
40,9.570313
41,9.375000
42,9.765625
43,9.375000
44,9.765625
45,8.984375
46,10.546875
47,10.937500
48,10.937500
49,10.546875
50,10.546875
51,10.937500
52,10.351563
53,10.546875
54,10.351563
55,10.351563
56,9.765625
57,9.960938
58,9.765625
59,9.375000
60,9.375000
61,9.179688
62,9.179688
63,9.179688
64,9.375000
65,8.984375
66,8.203125
67,8.593750
68,8.203125
69,8.007813
70,8.203125
71,7.812500
72,7.617188
73,7.812500
74,7.617188
75,7.031250
76,7.031250
77,7.031250
78,7.226563
79,6.445313
80,5.664063
81,5.468750
82,5.273438
83,5.273438
84,7.617188
85,7.226563
86,6.835938
87,4.687500
88,4.687500
89,4.492188
90,4.687500
91,4.296875
92,4.101563
93,3.906250
94,3.320313
95,3.125000
96,3.515625
97,3.320313
98,3.320313
99,3.320313
100,2.929688
101,2.734375
102,3.710938
103,3.515625
104,3.320313
105,2.539063
106,2.734375
107,3.320313
108,3.125000
109,3.320313
110,3.125000
111,4.687500
112,3.906250
113,3.710938
114,4.101563
115,4.296875
116,4.492188
117,3.906250
118,5.664063
119,3.710938
120,4.492188
121,6.640625
122,4.296875
123,4.492188
124,5.273438
125,5.859375
126,5.468750
127,6.250000
128,6.640625
129,6.054688
130,5.859375
131,9.960938
132,6.250000
133,6.250000
134,6.054688
135,6.250000
136,7.031250
137,6.835938
138,6.835938
139,7.421875
140,7.617188
141,6.835938
142,7.031250
143,7.031250
144,7.226563
145,7.031250
146,7.421875
147,7.421875
148,7.226563
149,7.617188
150,7.812500
151,7.421875
152,7.617188
153,7.812500
154,7.226563
155,7.031250
156,7.617188
157,7.226563
158,7.031250
159,7.031250
160,6.640625
161,6.835938
162,6.640625
163,6.835938
164,7.031250
165,6.250000
166,6.835938
167,6.445313
168,6.250000
169,5.664063
170,5.859375
171,4.687500
172,5.468750
173,5.273438
174,4.492188
175,5.078125
176,4.101563
177,4.101563
178,4.101563
179,4.296875
180,3.515625
181,3.710938
182,3.125000
183,2.734375
184,2.148438
185,1.953125
186,2.148438
187,2.148438
188,1.757813
189,1.171875
190,1.171875
191,0.976563
192,0.390625
193,0.000000
194,-0.195313
195,-0.585938
196,-0.781250
197,-0.976563
198,-1.562500
199,-1.757813
200,-1.562500
201,-1.757813
202,-2.148438
203,-2.343750
204,-2.539063
205,-2.343750
206,-2.929688
207,-3.710938
208,-4.296875
209,-3.320313
210,-3.710938
211,-4.492188
212,-4.296875
213,-3.515625
214,-4.492188
215,-4.101563
216,-4.492188
217,-4.296875
218,-4.687500
219,-5.078125
220,-4.882813
221,-5.273438
222,-5.078125
223,-5.078125
224,-5.078125
225,-4.882813
226,-5.078125
227,-4.101563
228,-4.492188
229,-4.882813
230,-4.101563
231,-4.492188
232,-5.078125
233,-4.687500
234,-4.492188
235,-4.687500
236,-4.296875
237,-4.296875
238,-4.687500
239,-4.101563
240,-3.906250
241,-3.906250
242,-4.296875
243,-3.515625
244,-3.515625
245,-3.125000
246,-2.929688
247,-3.125000
248,-3.125000
249,-2.539063
250,-2.343750
251,-2.539063
252,-2.148438
253,-2.343750
254,-2.148438
255,-1.953125
256,-1.757813
257,-1.757813
258,-1.757813
259,-1.562500
260,-1.367188
261,-0.976563
262,-1.562500
263,-0.781250
264,-0.390625
265,-0.781250
266,-0.976563
267,0.195313
268,0.000000
269,0.585938
270,0.390625
271,0.585938
272,0.585938
273,0.585938
274,0.000000
275,0.195313
276,0.390625
277,0.976563
278,0.585938
279,0.390625
280,0.976563
281,0.390625
282,0.976563
283,1.757813
284,1.171875
285,0.976563
286,0.976563
287,1.171875
288,0.781250
289,1.562500
290,1.367188
291,1.171875
292,1.171875
293,0.781250
294,1.171875
295,1.171875
296,0.976563
297,0.976563
298,0.781250
299,0.781250
300,0.390625
301,0.781250
302,0.585938
303,0.390625
304,0.000000
305,0.000000
306,-0.195313
307,0.195313
308,-0.390625
309,-0.976563
310,-0.585938
311,-0.781250
312,-1.171875
313,-1.757813
314,-1.367188
315,-1.562500
316,-1.171875
317,-1.367188
318,-1.953125
319,-1.562500
320,-1.953125
321,-1.562500
322,-2.343750
323,-2.343750
324,-1.953125
325,-2.539063
326,-2.734375
327,-2.929688
328,-3.125000
329,-3.320313
330,-2.734375
331,-2.929688
332,-2.539063
333,-2.734375
334,-2.539063
335,-2.539063
336,-3.125000
337,-2.734375
338,-2.929688
339,-2.734375
340,-2.734375
341,-2.148438
342,-2.929688
343,-2.148438
344,-2.343750
345,-1.757813
346,-1.367188
347,-0.976563
348,-1.367188
349,-1.367188
350,-0.976563
351,-0.976563
352,-0.781250
353,0.000000
354,-0.390625
355,0.000000
356,0.585938
357,1.367188
358,1.562500
359,1.367188
360,1.953125
361,1.757813
362,1.953125
363,2.343750
364,3.125000
365,3.320313
366,3.515625
367,3.710938
368,3.906250
369,4.687500
370,4.882813
371,4.882813
372,5.859375
373,6.054688
374,6.054688
375,5.859375
376,6.250000
377,6.640625
378,7.031250
379,6.640625
380,7.421875
381,7.812500
382,7.812500
383,8.593750
384,9.179688
385,8.789063
386,8.593750
387,8.789063
388,9.375000
389,9.570313
390,9.765625
391,8.984375
392,9.765625
393,10.351563
394,9.960938
395,10.156250
396,9.960938
397,10.351563
398,10.351563
399,10.156250
400,10.742188
401,10.351563
402,9.960938
403,9.960938
404,10.742188
405,10.156250
406,9.765625
407,9.570313
408,9.765625
409,9.570313
410,9.960938
411,9.570313
412,9.570313
413,9.179688
414,9.375000
415,8.984375
416,8.398438
417,8.789063
418,8.007813
419,8.593750
420,8.984375
421,8.203125
422,8.007813
423,8.007813
424,7.812500
425,7.617188
426,7.226563
427,7.226563
428,6.835938
429,6.640625
430,6.445313
431,5.859375
432,6.054688
433,5.859375
434,5.859375
435,5.468750
436,5.468750
437,5.664063
438,5.078125
439,4.882813
440,4.296875
441,4.492188
442,3.906250
443,3.710938
444,3.320313
445,4.101563
446,3.906250
447,3.906250
448,3.906250
449,3.710938
450,3.515625
451,3.320313
452,3.515625
453,2.929688
454,2.929688
455,2.734375
456,3.515625
457,3.320313
458,2.734375
459,3.320313
460,3.320313
461,3.515625
462,3.320313
463,3.906250
464,3.320313
465,3.515625
466,3.710938
467,3.515625
468,3.320313
469,3.515625
470,4.101563
471,3.906250
472,4.687500
473,4.101563
474,5.078125
475,4.882813
476,5.078125
477,5.468750
478,5.273438
479,5.078125
480,5.078125
481,5.273438
482,5.468750
483,6.054688
484,5.468750
485,6.250000
486,5.859375
487,6.250000
488,7.031250
489,7.226563
490,6.835938
491,6.835938
492,6.445313
493,7.031250
494,6.835938
495,7.226563
496,7.812500
497,6.835938
498,7.812500
499,7.812500
500,7.812500
501,7.031250
502,8.007813
503,7.421875
504,8.007813
505,7.226563
506,7.226563
507,7.812500
508,6.835938
509,7.031250
510,7.031250
511,7.421875
512,6.835938
513,7.421875
514,6.640625
515,7.031250
516,7.226563
517,6.640625
518,6.250000
519,6.054688
520,5.859375
521,7.421875
522,6.054688
523,5.078125
524,5.273438
525,4.101563
526,4.687500
527,4.492188
528,3.906250
529,4.101563
530,3.906250
531,3.125000
532,3.906250
533,2.734375
534,2.734375
535,2.148438
536,2.929688
537,2.539063
538,2.539063
539,1.562500
540,1.367188
541,1.562500
542,1.171875
543,0.390625
544,0.390625
545,0.000000
546,-0.781250
547,-0.195313
548,-0.585938
549,-1.171875
550,-1.367188
551,-1.757813
552,-2.343750
553,-2.148438
554,-2.929688
555,-2.539063
556,-2.539063
557,-3.125000
558,-3.515625
559,-3.710938
560,-3.906250
561,-4.492188
562,-3.906250
563,-3.710938
564,-4.492188
565,-5.078125
566,-4.882813
567,-4.687500
568,-5.273438
569,-5.273438
570,-5.078125
571,-4.882813
572,-5.468750
573,-4.492188
574,-5.859375
575,-5.273438
576,-5.078125
577,-4.882813
578,-4.882813
579,-5.468750
580,-5.078125
581,-5.078125
582,-5.273438
583,-5.273438
584,-5.468750
585,-5.468750
586,-4.882813
587,-4.882813
588,-4.296875
589,-4.882813
590,-3.906250
591,-4.687500
592,-4.296875
593,-3.515625
594,-3.515625
595,-2.148438
596,-3.515625
597,-3.710938
598,-3.710938
599,-3.320313
600,-3.125000
601,-2.734375
602,-2.929688
603,-1.953125
604,-2.539063
605,-2.148438
606,-1.562500
607,-1.953125
608,-1.953125
609,-2.148438
610,-1.562500
611,-1.367188
612,-1.367188
613,-1.171875
614,-0.781250
615,-0.195313
616,-0.195313
617,0.195313
618,0.195313
619,0.000000
620,0.585938
621,0.195313
622,0.390625
623,0.195313
624,0.390625
625,0.390625
626,0.976563
627,1.171875
628,0.976563
629,1.367188
630,1.367188
631,1.171875
632,0.976563
633,1.562500
634,1.562500
635,1.367188
636,0.976563
637,0.585938
638,0.781250
639,1.367188
640,1.562500
641,0.976563
642,0.781250
643,1.171875
644,0.976563
645,1.171875
646,0.585938
647,0.976563
648,0.585938
649,0.000000
650,0.195313
651,0.585938
652,0.195313
653,0.390625
654,-0.195313
655,0.585938
656,0.195313
657,-0.195313
658,0.000000
659,-0.781250
660,-1.171875
661,-1.171875
662,-1.562500
663,-1.367188
664,-1.562500
665,-1.562500
666,-1.757813
667,-1.562500
668,-1.757813
669,-2.539063
670,-2.539063
671,-1.562500
672,-2.343750
673,-2.343750
674,-2.929688
675,-3.320313
676,-3.320313
677,-3.125000
678,-3.125000
679,-3.320313
680,-3.515625
681,-3.125000
682,-3.710938
683,-2.929688
684,-2.929688
685,-3.320313
686,-3.710938
687,-3.320313
688,-3.906250
689,-3.125000
690,-3.125000
691,-2.929688
692,-2.929688
693,-2.734375
694,-2.539063
695,-2.539063
696,-2.148438
697,-1.953125
698,-1.953125
699,-1.953125
700,-1.367188
701,-1.757813
702,-0.976563
703,-0.976563
704,-0.781250
705,0.390625
706,0.585938
707,0.390625
708,0.976563
709,1.367188
710,1.562500
711,1.562500
712,1.757813
713,2.343750
714,2.734375
715,2.929688
716,2.929688
717,4.101563
718,3.906250
719,4.882813
720,4.882813
721,4.687500
722,5.468750
723,5.664063
724,6.250000
725,5.859375
726,6.054688
727,6.054688
728,7.031250
729,7.812500
730,7.421875
731,8.203125
732,8.593750
733,8.789063
734,9.179688
735,8.789063
736,9.179688
737,9.570313
738,8.789063
739,9.375000
740,9.570313
741,9.179688
742,9.960938
743,10.742188
744,10.156250
745,10.742188
746,10.351563
747,10.156250
748,10.351563
749,10.351563
750,9.960938
751,9.765625
752,9.765625
753,10.351563
754,10.156250
755,9.570313
756,9.960938
757,9.960938
758,9.375000
759,9.570313
760,9.570313
761,9.179688
762,8.984375
763,8.984375
764,8.593750
765,8.398438
766,8.593750
767,8.398438
768,8.593750
769,7.812500
770,8.593750
771,7.812500
772,8.789063
773,8.203125
774,8.007813
775,7.421875
776,7.421875
777,6.835938
778,6.250000
779,6.640625
780,6.250000
781,6.054688
782,5.859375
783,6.250000
784,5.664063
785,6.445313
786,5.273438
787,4.687500
788,5.078125
789,4.882813
790,4.687500
791,4.101563
792,4.101563
793,3.906250
794,3.710938
795,3.906250
796,4.296875
797,3.710938
798,3.710938
799,3.710938
800,3.906250
801,3.515625
802,3.125000
803,2.539063
804,3.125000
805,2.929688
806,3.125000
807,2.929688
808,3.906250
809,3.515625
810,3.515625
811,3.515625
812,3.320313
813,3.710938
814,3.320313
815,3.710938
816,3.710938
817,3.710938
818,4.101563
819,3.710938
820,3.710938
821,4.492188
822,4.296875
823,4.687500
824,5.078125
825,4.687500
826,4.882813
827,5.273438
828,5.468750
829,5.273438
830,5.078125
831,6.054688
832,6.054688
833,6.445313
834,6.250000
835,6.250000
836,6.054688
837,6.445313
838,6.640625
839,7.031250
840,7.031250
841,6.640625
842,7.421875
843,7.226563
844,7.421875
845,7.031250
846,7.226563
847,7.031250
848,7.617188
849,7.421875
850,7.617188
851,8.398438
852,7.617188
853,7.421875
854,8.007813
855,7.421875
856,7.812500
857,7.031250
858,7.226563
859,7.226563
860,7.617188
861,6.835938
862,6.835938
863,7.031250
864,7.226563
865,6.640625
866,6.054688
867,6.054688
868,6.250000
869,5.273438
870,5.078125
871,5.468750
872,5.468750
873,5.273438
874,4.882813
875,4.882813
876,4.492188
877,4.101563
878,3.710938
879,3.710938
880,3.710938
881,4.101563
882,3.125000
883,2.734375
884,2.343750
885,2.539063
886,2.539063
887,2.148438
888,2.148438
889,3.515625
890,1.757813
891,1.367188
892,1.367188
893,0.976563
894,0.390625
895,-0.195313
896,0.390625
897,-0.390625
898,0.000000
899,-0.781250
900,-0.781250
901,-0.976563
902,-1.367188
903,-1.367188
904,-2.148438
905,-2.148438
906,-3.125000
907,-2.929688
908,-3.125000
909,-2.929688
910,-3.320313
911,-3.515625
912,-3.320313
913,-4.296875
914,-3.710938
915,-4.687500
916,-4.492188
917,-5.078125
918,-4.882813
919,-5.468750
920,-5.468750
921,-5.273438
922,-5.664063
923,-4.882813
924,-5.273438
925,-5.468750
926,-5.273438
927,-5.468750
928,-5.078125
929,-5.078125
930,-4.882813
931,-5.273438
932,-5.273438
933,-5.664063
934,-5.273438
935,-5.078125
936,-5.273438
937,-5.273438
938,-4.492188
939,-3.906250
940,-4.101563
941,-4.296875
942,-3.710938
943,-4.492188
944,-4.101563
945,-3.906250
946,-3.515625
947,-3.320313
948,-2.343750
949,-2.929688
950,-3.125000
951,-2.929688
952,-2.148438
953,-2.343750
954,-1.367188
955,-1.757813
956,-2.539063
957,-2.148438
958,-1.953125
959,-0.976563
960,-0.781250
961,-1.171875
962,-0.976563
963,-0.976563
964,-0.781250
965,-0.585938
966,-0.390625
967,0.195313
968,0.000000
969,0.781250
970,1.562500
971,-0.390625
972,-0.390625
973,0.000000
974,0.390625
975,0.781250
976,0.585938
977,0.781250
978,0.976563
979,0.976563
980,1.367188
981,0.976563
982,0.585938
983,1.171875
984,1.171875
985,0.390625
986,0.976563
987,1.562500
988,1.367188
989,1.562500
990,1.562500
991,1.367188
992,1.367188
993,1.757813
994,0.390625
995,0.390625
996,0.976563
997,1.171875
998,0.781250
999,0.781250
1000,0.390625
1001,0.390625
1002,-0.390625
1003,0.585938
1004,-0.195313
1005,-0.390625
1006,-0.390625
1007,0.976563
1008,0.195313
1009,1.171875
1010,-0.195313
1011,-0.781250
1012,-1.367188
1013,-1.562500
1014,-0.976563
1015,-0.976563
1016,-1.171875
1017,-1.171875
1018,-1.367188
1019,-0.585938
1020,-2.148438
1021,-2.148438
1022,-3.710938
1023,-1.953125
1024,-3.125000
1025,-2.539063
1026,-2.734375
1027,-2.734375
1028,-2.929688
1029,-2.929688
1030,-2.929688
1031,-3.320313
1032,-3.906250
1033,-3.320313
1034,-3.906250
1035,-2.734375
1036,-3.125000
1037,-2.929688
1038,-3.125000
1039,-2.343750
1040,-2.929688
1041,-2.734375
1042,-2.539063
1043,-2.343750
1044,-1.757813
1045,-1.953125
1046,-2.539063
1047,-1.562500
1048,-1.562500
1049,-1.562500
1050,-1.562500
1051,-0.976563
1052,-0.976563
1053,-0.390625
1054,-0.390625
1055,-0.195313
1056,0.781250
1057,1.171875
1058,0.976563
1059,1.367188
1060,1.367188
1061,0.195313
1062,1.953125
1063,1.757813
1064,2.148438
1065,3.320313
1066,3.710938
1067,3.906250
1068,4.882813
1069,4.296875
1070,4.882813
1071,5.664063
1072,5.078125
1073,5.273438
1074,5.078125
1075,5.664063
1076,6.640625
1077,5.859375
1078,6.445313
1079,7.031250
1080,8.007813
1081,7.617188
1082,7.617188
1083,8.203125
1084,8.203125
1085,8.203125
1086,8.398438
1087,8.593750
1088,8.984375
1089,9.179688
1090,8.593750
1091,9.570313
1092,9.765625
1093,9.179688
1094,9.960938
1095,9.960938
1096,9.960938
1097,9.960938
1098,8.203125
1099,9.960938
1100,9.960938
1101,9.570313
1102,9.570313
1103,10.156250
1104,9.960938
1105,10.156250
1106,10.156250
1107,10.156250
1108,9.570313
1109,9.375000
1110,9.960938
1111,9.765625
1112,9.765625
1113,9.179688
1114,8.984375
1115,8.984375
1116,8.789063
1117,9.179688
1118,9.765625
1119,8.593750
1120,8.593750
1121,8.593750
1122,8.203125
1123,8.398438
1124,7.226563
1125,7.812500
1126,7.031250
1127,7.031250
1128,6.835938
1129,6.445313
1130,6.445313
1131,6.445313
1132,6.640625
1133,5.859375
1134,5.664063
1135,5.859375
1136,5.468750
1137,5.468750
1138,4.882813
1139,4.492188
1140,4.101563
1141,4.492188
1142,4.101563
1143,4.492188
1144,4.687500
1145,5.468750
1146,4.687500
1147,4.492188
1148,3.906250
1149,3.515625
1150,3.515625
1151,3.515625
1152,3.125000
1153,3.125000
1154,3.320313
1155,3.515625
1156,3.125000
1157,3.320313
1158,3.710938
1159,3.515625
1160,3.710938
1161,3.320313
1162,3.710938
1163,3.515625
1164,3.125000
1165,3.515625
1166,4.101563
1167,6.250000
1168,3.710938
1169,3.515625
1170,3.906250
1171,3.906250
1172,4.101563
1173,4.882813
1174,4.296875
1175,5.078125
1176,5.273438
1177,5.078125
1178,5.273438
1179,4.687500
1180,5.078125
1181,5.273438
1182,5.273438
1183,5.859375
1184,6.054688
1185,6.445313
1186,6.250000
1187,7.617188
1188,7.031250
1189,6.054688
1190,6.640625
1191,6.640625
1192,6.250000
1193,6.640625
1194,6.835938
1195,7.226563
1196,7.226563
1197,7.617188
1198,7.226563
1199,7.031250
1200,7.226563
1201,6.835938
1202,7.226563
1203,7.421875
1204,7.226563
1205,7.226563
1206,7.031250
1207,7.226563
1208,5.078125
1209,7.617188
1210,7.812500
1211,7.421875
1212,7.031250
1213,6.835938
1214,6.835938
1215,6.445313
1216,6.250000
1217,9.179688
1218,6.054688
1219,7.226563
1220,5.859375
1221,5.664063
1222,5.664063
1223,5.468750
1224,4.882813
1225,5.273438
1226,5.664063
1227,4.296875
1228,4.296875
1229,3.906250
1230,4.101563
1231,3.515625
1232,3.515625
1233,4.296875
1234,3.515625
1235,3.320313
1236,3.906250
1237,2.734375
1238,2.734375
1239,2.734375
1240,1.757813
1241,1.757813
1242,1.367188
1243,0.781250
1244,0.781250
1245,-0.390625
1246,0.781250
1247,-0.195313
1248,-0.390625
1249,-0.585938
1250,-0.585938
1251,-1.171875
1252,-1.367188
1253,-1.562500
1254,-2.343750
1255,-2.929688
1256,-2.539063
1257,-3.320313
1258,-3.710938
1259,-3.515625
1260,-3.515625
1261,-3.906250
1262,-4.101563
1263,-3.710938
1264,-4.101563
1265,-4.492188
1266,-4.687500
1267,-4.882813
1268,-5.078125
1269,-5.273438
1270,-5.078125
1271,-4.687500
1272,-5.078125
1273,-3.515625
1274,-4.882813
1275,-4.687500
1276,-4.882813
1277,-5.078125
1278,-5.273438
1279,-5.468750
1280,-6.054688
1281,-5.273438
1282,-5.664063
1283,-5.468750
1284,-5.664063
1285,-4.492188
1286,-4.687500
1287,-4.492188
1288,-4.882813
1289,-4.101563
1290,-4.882813
1291,-4.101563
1292,-4.101563
1293,-3.906250
1294,-3.906250
1295,-3.710938
1296,-2.929688
1297,-3.515625
1298,-2.929688
1299,-2.734375
1300,-3.125000
1301,-2.734375
1302,-2.539063
1303,-2.343750
1304,-1.953125
1305,-1.953125
1306,-1.953125
1307,-1.562500
1308,-1.171875
1309,-0.976563
1310,-1.757813
1311,-1.171875
1312,-0.390625
1313,-1.367188
1314,-0.390625
1315,-0.195313
1316,0.000000
1317,0.390625
1318,-0.585938
1319,-0.195313
1320,0.195313
1321,0.585938
1322,0.000000
1323,0.781250
1324,0.390625
1325,-0.390625
1326,2.343750
1327,1.171875
1328,0.585938
1329,0.976563
1330,1.367188
1331,1.171875
1332,1.171875
1333,1.367188
1334,0.976563
1335,1.367188
1336,1.757813
1337,0.976563
1338,1.367188
1339,1.367188
1340,1.953125
1341,1.562500
1342,1.562500
1343,1.562500
1344,1.171875
1345,1.562500
1346,1.171875
1347,0.585938
1348,1.171875
1349,0.390625
1350,0.976563
1351,0.976563
1352,0.781250
1353,0.976563
1354,0.195313
1355,0.390625
1356,0.195313
1357,-0.390625
1358,-0.390625
1359,-0.781250
1360,-0.781250
1361,-0.976563
1362,-0.781250
1363,-1.171875
1364,-0.976563
1365,-0.976563
1366,-1.171875
1367,-1.367188
1368,-1.953125
1369,-1.562500
1370,-2.148438
1371,-2.539063
1372,-0.781250
1373,-2.929688
1374,-1.171875
1375,-2.539063
1376,-2.929688
1377,-2.734375
1378,-2.539063
1379,-2.734375
1380,-2.734375
1381,-3.515625
1382,-3.125000
1383,-3.515625
1384,-3.320313
1385,-3.515625
1386,-3.515625
1387,-3.906250
1388,-2.929688
1389,-2.929688
1390,-2.929688
1391,-2.929688
1392,-2.343750
1393,-2.343750
1394,-2.148438
1395,-1.953125
1396,-2.148438
1397,-1.757813
1398,-2.343750
1399,-1.953125
1400,-1.757813
1401,-0.781250
1402,-0.976563
1403,-0.390625
1404,-0.195313
1405,0.195313
1406,0.195313
1407,0.585938
1408,0.781250
1409,0.976563
1410,1.171875
1411,1.757813
1412,1.953125
1413,1.953125
1414,3.125000
1415,2.929688
1416,3.710938
1417,3.906250
1418,4.296875
1419,5.078125
1420,4.882813
1421,4.882813
1422,5.273438
1423,5.859375
1424,5.664063
1425,6.054688
1426,6.054688
1427,6.835938
1428,7.031250
1429,7.617188
1430,7.617188
1431,8.203125
1432,8.007813
1433,8.789063
1434,8.398438
1435,8.984375
1436,8.203125
1437,8.984375
1438,8.789063
1439,9.765625
1440,9.570313
1441,9.570313
1442,9.960938
1443,9.960938
1444,9.960938
1445,10.156250
1446,9.960938
1447,10.156250
1448,9.960938
1449,10.546875
1450,10.351563
1451,10.351563
1452,10.156250
1453,9.570313
