Practicum8/data/opgave4/distance200/data_78_010.csv

Channel              :,CH1
Frequency            :,  ?
Period               :,  ?
PK-PK                :,23.44mV
Probe attenuation    :,1X
Voltage per ADC value:,0.122070mV
Time interval        :,2.00000us

index,CH1_Voltage(mV)
1,-3.906250
2,-3.906250
3,-3.906250
4,-5.859375
5,-3.906250
6,-3.906250
7,-3.906250
8,-3.906250
9,-3.906250
10,-3.906250
11,-3.906250
12,-3.906250
13,-3.906250
14,-3.906250
15,-1.953125
16,-1.953125
17,-3.906250
18,-3.906250
19,-1.953125
20,-1.953125
21,-1.953125
22,-1.953125
23,-1.953125
24,-1.953125
25,-1.953125
26,-1.953125
27,-1.953125
28,-1.953125
29,-1.953125
30,0.000000
31,0.000000
32,-1.953125
33,0.000000
34,0.000000
35,-1.953125
36,0.000000
37,0.000000
38,0.000000
39,0.000000
40,0.000000
41,0.000000
42,0.000000
43,0.000000
44,0.000000
45,0.000000
46,0.000000
47,0.000000
48,0.000000
49,0.000000
50,0.000000
51,0.000000
52,0.000000
53,0.000000
54,0.000000
55,0.000000
56,0.000000
57,0.000000
58,0.000000
59,0.000000
60,0.000000
61,0.000000
62,0.000000
63,0.000000
64,0.000000
65,0.000000
66,0.000000
67,0.000000
68,1.953125
69,0.000000
70,0.000000
71,0.000000
72,0.000000
73,0.000000
74,0.000000
75,0.000000
76,0.000000
77,1.953125
78,0.000000
79,1.953125
80,0.000000
81,0.000000
82,0.000000
83,1.953125
84,0.000000
85,0.000000
86,0.000000
87,1.953125
88,1.953125
89,1.953125
90,0.000000
91,0.000000
92,1.953125
93,1.953125
94,1.953125
95,0.000000
96,0.000000
97,0.000000
98,0.000000
99,0.000000
100,0.000000
101,0.000000
102,0.000000
103,0.000000
104,0.000000
105,0.000000
106,0.000000
107,0.000000
108,0.000000
109,0.000000
110,0.000000
111,-1.953125
112,0.000000
113,0.000000
114,-1.953125
115,0.000000
116,-1.953125
117,-1.953125
118,-1.953125
119,-1.953125
120,-1.953125
121,-1.953125
122,-1.953125
123,-1.953125
124,-1.953125
125,-1.953125
126,-3.906250
127,-1.953125
128,-3.906250
129,-3.906250
130,-1.953125
131,-3.906250
132,-3.906250
133,-3.906250
134,-3.906250
135,-3.906250
136,-3.906250
137,-3.906250
138,-3.906250
139,-3.906250
140,-3.906250
141,-3.906250
142,-3.906250
143,-5.859375
144,-3.906250
145,-5.859375
146,-5.859375
147,-5.859375
148,-5.859375
149,-5.859375
150,-5.859375
151,-5.859375
152,-5.859375
153,-5.859375
154,-5.859375
155,-7.812500
156,-5.859375
157,-5.859375
158,-5.859375
159,-7.812500
160,-7.812500
161,-7.812500
162,-7.812500
163,-7.812500
164,-7.812500
165,-7.812500
166,-7.812500
167,-7.812500
168,-7.812500
169,-7.812500
170,-9.765625
171,-9.765625
172,-9.765625
173,-9.765625
174,-9.765625
175,-9.765625
176,-9.765625
177,-9.765625
178,-9.765625
179,-9.765625
180,-9.765625
181,-9.765625
182,-11.718750
183,-9.765625
184,-9.765625
185,-11.718750
186,-11.718750
187,-11.718750
188,-11.718750
189,-11.718750
190,-11.718750
191,-11.718750
192,-11.718750
193,-11.718750
194,-11.718750
195,-11.718750
196,-11.718750
197,-11.718750
198,-11.718750
199,-11.718750
200,-13.671875
201,-11.718750
202,-11.718750
203,-11.718750
204,-11.718750
205,-13.671875
206,-13.671875
207,-13.671875
208,-13.671875
209,-11.718750
210,-13.671875
211,-13.671875
212,-11.718750
213,-13.671875
214,-13.671875
215,-11.718750
216,-13.671875
217,-13.671875
218,-13.671875
219,-13.671875
220,-13.671875
221,-13.671875
222,-13.671875
223,-13.671875
224,-13.671875
225,-13.671875
226,-13.671875
227,-13.671875
228,-13.671875
229,-13.671875
230,-13.671875
231,-13.671875
232,-13.671875
233,-13.671875
234,-13.671875
235,-13.671875
236,-13.671875
237,-13.671875
238,-13.671875
239,-13.671875
240,-13.671875
241,-13.671875
242,-15.625000
243,-13.671875
244,-13.671875
245,-15.625000
246,-13.671875
247,-15.625000
248,-13.671875
249,-13.671875
250,-13.671875
251,-15.625000
252,-13.671875
253,-13.671875
254,-13.671875
255,-13.671875
256,-15.625000
257,-15.625000
258,-13.671875
259,-13.671875
260,-15.625000
261,-15.625000
262,-15.625000
263,-15.625000
264,-13.671875
265,-13.671875
266,-15.625000
267,-13.671875
268,-13.671875
269,-17.578125
270,-15.625000
271,-13.671875
272,-13.671875
273,-15.625000
274,-15.625000
275,-13.671875
276,-13.671875
277,-13.671875
278,-13.671875
279,-13.671875
280,-13.671875
281,-13.671875
282,-13.671875
283,-13.671875
284,-15.625000
285,-13.671875
286,-13.671875
287,-13.671875
288,-13.671875
289,-13.671875
290,-13.671875
291,-13.671875
292,-13.671875
293,-13.671875
294,-13.671875
295,-13.671875
296,-13.671875
297,-13.671875
298,-13.671875
299,-13.671875
300,-13.671875
301,-13.671875
302,-13.671875
303,-13.671875
304,-11.718750
305,-13.671875
306,-13.671875
307,-13.671875
308,-13.671875
309,-13.671875
310,-13.671875
311,-13.671875
312,-13.671875
313,-13.671875
314,-13.671875
315,-13.671875
316,-13.671875
317,-13.671875
318,-13.671875
319,-11.718750
320,-13.671875
321,-13.671875
322,-11.718750
323,-11.718750
324,-11.718750
325,-11.718750
326,-13.671875
327,-13.671875
328,-11.718750
329,-11.718750
330,-11.718750
331,-11.718750
332,-11.718750
333,-11.718750
334,-11.718750
335,-11.718750
336,-11.718750
337,-11.718750
338,-11.718750
339,-11.718750
340,-9.765625
341,-11.718750
342,-11.718750
343,-9.765625
344,-9.765625
345,-11.718750
346,-9.765625
347,-9.765625
348,-11.718750
349,-9.765625
350,-9.765625
351,-11.718750
352,-9.765625
353,-9.765625
354,-11.718750
355,-9.765625
356,-9.765625
357,-9.765625
358,-9.765625
359,-9.765625
360,-9.765625
361,-9.765625
362,-9.765625
363,-9.765625
364,-9.765625
365,-9.765625
366,-9.765625
367,-11.718750
368,-9.765625
369,-9.765625
370,-9.765625
371,-9.765625
372,-9.765625
373,-9.765625
374,-9.765625
375,-9.765625
376,-9.765625
377,-9.765625
378,-9.765625
379,-9.765625
380,-9.765625
381,-9.765625
382,-9.765625
383,-9.765625
384,-9.765625
385,-9.765625
386,-9.765625
387,-9.765625
388,-9.765625
389,-9.765625
390,-9.765625
391,-9.765625
392,-9.765625
393,-9.765625
394,-9.765625
395,-9.765625
396,-9.765625
397,-9.765625
398,-9.765625
399,-9.765625
400,-9.765625
401,-9.765625
402,-9.765625
403,-9.765625
404,-9.765625
405,-9.765625
406,-9.765625
407,-9.765625
408,-9.765625
409,-9.765625
410,-9.765625
411,-9.765625
412,-9.765625
413,-11.718750
414,-9.765625
415,-9.765625
416,-11.718750
417,-9.765625
418,-11.718750
419,-11.718750
420,-11.718750
421,-9.765625
422,-11.718750
423,-11.718750
424,-11.718750
425,-11.718750
426,-11.718750
427,-11.718750
428,-11.718750
429,-11.718750
430,-11.718750
431,-11.718750
432,-11.718750
433,-11.718750
434,-11.718750
435,-11.718750
436,-11.718750
437,-11.718750
438,-13.671875
439,-11.718750
440,-11.718750
441,-11.718750
442,-11.718750
443,-11.718750
444,-13.671875
445,-13.671875
446,-13.671875
447,-13.671875
448,-13.671875
449,-13.671875
450,-11.718750
451,-13.671875
452,-13.671875
453,-13.671875
454,-13.671875
455,-13.671875
456,-13.671875
457,-13.671875
458,-13.671875
459,-13.671875
460,-13.671875
461,-13.671875
462,-13.671875
463,-13.671875
464,-13.671875
465,-13.671875
466,-13.671875
467,-13.671875
468,-13.671875
469,-13.671875
470,-13.671875
471,-13.671875
472,-13.671875
473,-13.671875
474,-13.671875
475,-13.671875
476,-13.671875
477,-13.671875
478,-13.671875
479,-13.671875
480,-13.671875
481,-13.671875
482,-13.671875
483,-13.671875
484,-13.671875
485,-13.671875
486,-13.671875
487,-13.671875
488,-13.671875
489,-13.671875
490,-13.671875
491,-13.671875
492,-13.671875
493,-13.671875
494,-13.671875
495,-13.671875
496,-13.671875
497,-13.671875
498,-13.671875
499,-13.671875
500,-13.671875
501,-13.671875
502,-13.671875
503,-13.671875
504,-13.671875
505,-13.671875
506,-13.671875
507,-13.671875
508,-13.671875
509,-13.671875
510,-13.671875
511,-13.671875
512,-13.671875
513,-11.718750
514,-11.718750
515,-13.671875
516,-11.718750
517,-11.718750
518,-13.671875
519,-11.718750
520,-11.718750
521,-11.718750
522,-11.718750
523,-13.671875
524,-11.718750
525,-11.718750
526,-11.718750
527,-11.718750
528,-11.718750
529,-11.718750
530,-11.718750
531,-11.718750
532,-11.718750
533,-9.765625
534,-9.765625
535,-9.765625
536,-11.718750
537,-11.718750
538,-9.765625
539,-9.765625
540,-9.765625
541,-9.765625
542,-9.765625
543,-9.765625
544,-9.765625
545,-9.765625
546,-9.765625
547,-9.765625
548,-9.765625
549,-9.765625
550,-9.765625
551,-7.812500
552,-9.765625
553,-9.765625
554,-7.812500
555,-7.812500
556,-7.812500
557,-7.812500
558,-7.812500
559,-7.812500
560,-7.812500
561,-7.812500
562,-7.812500
563,-7.812500
564,-7.812500
565,-7.812500
566,-7.812500
567,-7.812500
568,-5.859375
569,-7.812500
570,-5.859375
571,-7.812500
572,-5.859375
573,-5.859375
574,-5.859375
575,-5.859375
576,-5.859375
577,-5.859375
578,-5.859375
579,-5.859375
580,-5.859375
581,-3.906250
582,-5.859375
583,-3.906250
584,-3.906250
585,-5.859375
586,-3.906250
587,-3.906250
588,-3.906250
589,-3.906250
590,-3.906250
591,-3.906250
592,-3.906250
593,-3.906250
594,-3.906250
595,-3.906250
596,-1.953125
597,-3.906250
598,-3.906250
599,-1.953125
600,-1.953125
601,-3.906250
602,-1.953125
603,-1.953125
604,-1.953125
605,-1.953125
606,-1.953125
607,-1.953125
608,-1.953125
609,-1.953125
610,-1.953125
611,-1.953125
612,-1.953125
613,-1.953125
614,-1.953125
615,-1.953125
616,-1.953125
617,0.000000
618,-1.953125
619,0.000000
620,0.000000
621,-1.953125
622,0.000000
623,0.000000
624,-1.953125
625,0.000000
626,0.000000
627,0.000000
628,0.000000
629,0.000000
630,0.000000
631,0.000000
632,0.000000
633,0.000000
634,0.000000
635,0.000000
636,0.000000
637,0.000000
638,0.000000
639,0.000000
640,0.000000
641,0.000000
642,0.000000
643,0.000000
644,0.000000
645,0.000000
646,0.000000
647,0.000000
648,0.000000
649,0.000000
650,0.000000
651,0.000000
652,0.000000
653,0.000000
654,0.000000
655,1.953125
656,0.000000
657,0.000000
658,1.953125
659,1.953125
660,0.000000
661,0.000000
662,1.953125
663,0.000000
664,0.000000
665,0.000000
666,0.000000
667,0.000000
668,1.953125
669,1.953125
670,0.000000
671,0.000000
672,0.000000
673,0.000000
674,0.000000
675,1.953125
676,0.000000
677,0.000000
678,0.000000
679,0.000000
680,0.000000
681,0.000000
682,0.000000
683,0.000000
684,0.000000
685,0.000000
686,1.953125
687,0.000000
688,0.000000
689,0.000000
690,0.000000
691,0.000000
692,0.000000
693,-1.953125
694,-1.953125
695,-1.953125
696,-1.953125
697,0.000000
698,-1.953125
699,-1.953125
700,-1.953125
701,-1.953125
702,-1.953125
703,-1.953125
704,-1.953125
705,-1.953125
706,-1.953125
707,-1.953125
708,-1.953125
709,-3.906250
710,-3.906250
711,-1.953125
712,-3.906250
713,-3.906250
714,-3.906250
715,-3.906250
716,-3.906250
717,-3.906250
718,-3.906250
719,-3.906250
720,-3.906250
721,-3.906250
722,-3.906250
723,-3.906250
724,-3.906250
725,-3.906250
726,-3.906250
727,-3.906250
728,-5.859375
729,-5.859375
730,-5.859375
731,-5.859375
732,-5.859375
733,-5.859375
734,-5.859375
735,-5.859375
736,-5.859375
737,-5.859375
738,-7.812500
739,-7.812500
740,-5.859375
741,-5.859375
742,-7.812500
743,-7.812500
744,-5.859375
745,-7.812500
746,-7.812500
747,-7.812500
748,-7.812500
749,-7.812500
750,-7.812500
751,-7.812500
752,-9.765625
753,-7.812500
754,-7.812500
755,-9.765625
756,-9.765625
757,-7.812500
758,-9.765625
759,-9.765625
760,-9.765625
761,-9.765625
762,-9.765625
763,-9.765625
764,-9.765625
765,-9.765625
766,-9.765625
767,-9.765625
768,-9.765625
769,-11.718750
770,-9.765625
771,-11.718750
772,-11.718750
773,-11.718750
774,-11.718750
775,-11.718750
776,-11.718750
777,-11.718750
778,-11.718750
779,-11.718750
780,-11.718750
781,-11.718750
782,-11.718750
783,-11.718750
784,-11.718750
785,-11.718750
786,-11.718750
787,-11.718750
788,-13.671875
789,-11.718750
790,-11.718750
791,-13.671875
792,-11.718750
793,-13.671875
794,-13.671875
795,-13.671875
796,-11.718750
797,-13.671875
798,-13.671875
799,-13.671875
800,-11.718750
801,-13.671875
802,-13.671875
803,-13.671875
804,-11.718750
805,-13.671875
806,-13.671875
807,-13.671875
808,-13.671875
809,-13.671875
810,-13.671875
811,-13.671875
812,-13.671875
813,-13.671875
814,-13.671875
815,-13.671875
816,-13.671875
817,-13.671875
818,-13.671875
819,-13.671875
820,-13.671875
821,-13.671875
822,-13.671875
823,-13.671875
824,-13.671875
825,-15.625000
826,-13.671875
827,-13.671875
828,-13.671875
829,-13.671875
830,-13.671875
831,-13.671875
832,-13.671875
833,-13.671875
834,-13.671875
835,-13.671875
836,-13.671875
837,-13.671875
838,-15.625000
839,-13.671875
840,-13.671875
841,-15.625000
842,-15.625000
843,-13.671875
844,-15.625000
845,-15.625000
846,-15.625000
847,-13.671875
848,-13.671875
849,-15.625000
850,-13.671875
851,-13.671875
852,-15.625000
853,-13.671875
854,-13.671875
855,-13.671875
856,-11.718750
857,-13.671875
858,-13.671875
859,-15.625000
860,-13.671875
861,-13.671875
862,-13.671875
863,-13.671875
864,-13.671875
865,-13.671875
866,-13.671875
867,-13.671875
868,-13.671875
869,-13.671875
870,-13.671875
871,-13.671875
872,-13.671875
873,-13.671875
874,-13.671875
875,-13.671875
876,-13.671875
877,-13.671875
878,-13.671875
879,-13.671875
880,-13.671875
881,-13.671875
882,-13.671875
883,-15.625000
884,-13.671875
885,-11.718750
886,-13.671875
887,-13.671875
888,-11.718750
889,-13.671875
890,-13.671875
891,-11.718750
892,-13.671875
893,-13.671875
894,-13.671875
895,-13.671875
896,-13.671875
897,-13.671875
898,-13.671875
899,-13.671875
900,-13.671875
901,-13.671875
902,-13.671875
903,-13.671875
904,-13.671875
905,-13.671875
906,-13.671875
907,-13.671875
908,-11.718750
909,-13.671875
910,-11.718750
911,-11.718750
912,-13.671875
913,-11.718750
914,-11.718750
915,-13.671875
916,-11.718750
917,-11.718750
918,-11.718750
919,-11.718750
920,-11.718750
921,-11.718750
922,-11.718750
923,-11.718750
924,-11.718750
925,-11.718750
926,-9.765625
927,-11.718750
928,-9.765625
929,-11.718750
930,-11.718750
931,-9.765625
932,-11.718750
933,-11.718750
934,-9.765625
935,-9.765625
936,-9.765625
937,-9.765625
938,-9.765625
939,-9.765625
940,-9.765625
941,-9.765625
942,-9.765625
943,-9.765625
944,-9.765625
945,-9.765625
946,-9.765625
947,-9.765625
948,-9.765625
949,-9.765625
950,-9.765625
951,-9.765625
952,-9.765625
953,-9.765625
954,-9.765625
955,-9.765625
956,-9.765625
957,-9.765625
958,-9.765625
959,-9.765625
960,-11.718750
961,-9.765625
962,-9.765625
963,-9.765625
964,-11.718750
965,-9.765625
966,-9.765625
967,-9.765625
968,-9.765625
969,-9.765625
970,-9.765625
971,-9.765625
972,-9.765625
973,-9.765625
974,-9.765625
975,-9.765625
976,-9.765625
977,-9.765625
978,-9.765625
979,-9.765625
980,-9.765625
981,-9.765625
982,-9.765625
983,-9.765625
984,-9.765625
985,-11.718750
986,-9.765625
987,-9.765625
988,-9.765625
989,-11.718750
990,-11.718750
991,-9.765625
992,-9.765625
993,-11.718750
994,-11.718750
995,-11.718750
996,-9.765625
997,-9.765625
998,-11.718750
999,-11.718750
1000,-9.765625
1001,-11.718750
1002,-11.718750
1003,-11.718750
1004,-9.765625
1005,-11.718750
1006,-11.718750
1007,-11.718750
1008,-11.718750
1009,-11.718750
1010,-11.718750
1011,-11.718750
1012,-11.718750
1013,-11.718750
1014,-11.718750
1015,-11.718750
1016,-11.718750
1017,-13.671875
1018,-11.718750
1019,-11.718750
1020,-13.671875
1021,-11.718750
1022,-11.718750
1023,-13.671875
1024,-13.671875
1025,-11.718750
1026,-11.718750
1027,-13.671875
1028,-13.671875
1029,-11.718750
1030,-13.671875
1031,-13.671875
1032,-11.718750
1033,-13.671875
1034,-13.671875
1035,-13.671875
1036,-13.671875
1037,-13.671875
1038,-13.671875
1039,-13.671875
1040,-13.671875
1041,-13.671875
1042,-13.671875
1043,-13.671875
1044,-13.671875
1045,-13.671875
1046,-13.671875
1047,-13.671875
1048,-13.671875
1049,-13.671875
1050,-13.671875
1051,-13.671875
1052,-13.671875
1053,-13.671875
1054,-13.671875
1055,-13.671875
1056,-13.671875
1057,-13.671875
1058,-13.671875
1059,-13.671875
1060,-13.671875
1061,-13.671875
1062,-13.671875
1063,-13.671875
1064,-13.671875
1065,-13.671875
1066,-13.671875
1067,-13.671875
1068,-13.671875
1069,-13.671875
1070,-13.671875
1071,-13.671875
1072,-13.671875
1073,-13.671875
1074,-13.671875
1075,-13.671875
1076,-13.671875
1077,-13.671875
1078,-13.671875
1079,-13.671875
1080,-13.671875
1081,-13.671875
1082,-13.671875
1083,-13.671875
1084,-13.671875
1085,-13.671875
1086,-13.671875
1087,-13.671875
1088,-13.671875
1089,-13.671875
1090,-13.671875
1091,-13.671875
1092,-13.671875
1093,-13.671875
1094,-13.671875
1095,-13.671875
1096,-13.671875
1097,-13.671875
1098,-11.718750
1099,-11.718750
1100,-13.671875
1101,-13.671875
1102,-11.718750
1103,-11.718750
1104,-13.671875
1105,-11.718750
1106,-11.718750
1107,-11.718750
1108,-11.718750
1109,-11.718750
1110,-11.718750
1111,-11.718750
1112,-11.718750
1113,-11.718750
1114,-11.718750
1115,-11.718750
1116,-11.718750
1117,-11.718750
1118,-9.765625
1119,-9.765625
1120,-9.765625
1121,-11.718750
1122,-9.765625
1123,-9.765625
1124,-9.765625
1125,-9.765625
1126,-9.765625
1127,-9.765625
1128,-9.765625
1129,-9.765625
1130,-9.765625
1131,-9.765625
1132,-9.765625
1133,-9.765625
1134,-9.765625
1135,-9.765625
1136,-7.812500
1137,-7.812500
1138,-7.812500
1139,-7.812500
1140,-7.812500
1141,-7.812500
1142,-7.812500
1143,-7.812500
1144,-7.812500
1145,-7.812500
1146,-7.812500
1147,-7.812500
1148,-7.812500
1149,-7.812500
1150,-7.812500
1151,-7.812500
1152,-7.812500
1153,-7.812500
1154,-7.812500
1155,-7.812500
1156,-5.859375
1157,-5.859375
1158,-7.812500
1159,-5.859375
1160,-5.859375
1161,-5.859375
1162,-5.859375
1163,-5.859375
1164,-5.859375
1165,-5.859375
1166,-5.859375
1167,-3.906250
1168,-5.859375
1169,-3.906250
1170,-3.906250
1171,-5.859375
1172,-3.906250
1173,-5.859375
1174,-3.906250
1175,-3.906250
1176,-3.906250
1177,-3.906250
1178,-3.906250
1179,-3.906250
1180,-1.953125
1181,-3.906250
1182,-3.906250
1183,-1.953125
1184,-1.953125
1185,-3.906250
1186,-1.953125
1187,-1.953125
1188,-3.906250
1189,-3.906250
1190,-1.953125
1191,-1.953125
1192,-1.953125
1193,-1.953125
1194,-1.953125
1195,0.000000
1196,-1.953125
1197,-1.953125
1198,0.000000
1199,-1.953125
1200,-1.953125
1201,0.000000
1202,-1.953125
1203,-1.953125
1204,-1.953125
1205,0.000000
1206,0.000000
1207,0.000000
1208,0.000000
1209,0.000000
1210,0.000000
1211,0.000000
1212,0.000000
1213,0.000000
1214,0.000000
1215,0.000000
1216,0.000000
1217,0.000000
1218,0.000000
1219,0.000000
1220,0.000000
1221,0.000000
1222,0.000000
1223,0.000000
1224,0.000000
1225,0.000000
1226,0.000000
1227,0.000000
1228,0.000000
1229,0.000000
1230,0.000000
1231,0.000000
1232,0.000000
1233,0.000000
1234,0.000000
1235,0.000000
1236,0.000000
1237,0.000000
1238,0.000000
1239,0.000000
1240,0.000000
1241,0.000000
1242,0.000000
1243,0.000000
1244,0.000000
1245,1.953125
1246,0.000000
1247,0.000000
1248,0.000000
1249,1.953125
1250,0.000000
1251,0.000000
1252,0.000000
1253,0.000000
1254,1.953125
1255,0.000000
1256,1.953125
1257,0.000000
1258,1.953125
1259,1.953125
1260,0.000000
1261,0.000000
1262,0.000000
1263,0.000000
1264,0.000000
1265,1.953125
1266,0.000000
1267,0.000000
1268,0.000000
1269,0.000000
1270,0.000000
1271,0.000000
1272,0.000000
1273,0.000000
1274,0.000000
1275,0.000000
1276,-1.953125
1277,0.000000
1278,0.000000
1279,0.000000
1280,-1.953125
1281,-1.953125
1282,-1.953125
1283,-1.953125
1284,-1.953125
1285,-1.953125
1286,0.000000
1287,-1.953125
1288,-1.953125
1289,-1.953125
1290,-1.953125
1291,-1.953125
1292,-1.953125
1293,-1.953125
1294,-3.906250
1295,-1.953125
1296,-1.953125
1297,-3.906250
1298,-3.906250
1299,-3.906250
1300,-3.906250
1301,-3.906250
1302,-3.906250
1303,-3.906250
1304,-3.906250
1305,-3.906250
1306,-3.906250
1307,-3.906250
1308,-3.906250
1309,-3.906250
1310,-3.906250
1311,-5.859375
1312,-3.906250
1313,-3.906250
1314,-5.859375
1315,-5.859375
1316,-5.859375
1317,-5.859375
1318,-5.859375
1319,-5.859375
1320,-5.859375
1321,-5.859375
1322,-5.859375
1323,-5.859375
1324,-5.859375
1325,-7.812500
1326,-5.859375
1327,-5.859375
1328,-7.812500
1329,-7.812500
1330,-7.812500
1331,-7.812500
1332,-7.812500
1333,-7.812500
1334,-7.812500
1335,-7.812500
1336,-7.812500
1337,-7.812500
1338,-7.812500
1339,-9.765625
1340,-9.765625
1341,-7.812500
1342,-9.765625
1343,-9.765625
1344,-9.765625
1345,-9.765625
1346,-9.765625
1347,-9.765625
1348,-9.765625
1349,-9.765625
1350,-9.765625
1351,-9.765625
1352,-9.765625
1353,-9.765625
1354,-9.765625
1355,-11.718750
1356,-11.718750
1357,-9.765625
1358,-11.718750
1359,-11.718750
1360,-9.765625
1361,-9.765625
1362,-11.718750
1363,-11.718750
1364,-11.718750
1365,-11.718750
1366,-11.718750
1367,-11.718750
1368,-11.718750
