Practicum8/data/opgave4/distance200/data_78_008.csv

Channel              :,CH1
Frequency            :,857.1Hz
Period               :,1.167ms
PK-PK                :,72.27mV
Probe attenuation    :,1X
Voltage per ADC value:,0.122070mV
Time interval        :,2.00000us

index,CH1_Voltage(mV)
1,17.578125
2,17.578125
3,17.578125
4,17.578125
5,17.578125
6,15.625000
7,17.578125
8,15.625000
9,15.625000
10,15.625000
11,15.625000
12,15.625000
13,15.625000
14,13.671875
15,13.671875
16,13.671875
17,13.671875
18,13.671875
19,13.671875
20,13.671875
21,11.718750
22,13.671875
23,11.718750
24,11.718750
25,11.718750
26,11.718750
27,9.765625
28,11.718750
29,9.765625
30,9.765625
31,9.765625
32,9.765625
33,7.812500
34,9.765625
35,7.812500
36,7.812500
37,7.812500
38,5.859375
39,5.859375
40,5.859375
41,5.859375
42,5.859375
43,5.859375
44,3.906250
45,5.859375
46,3.906250
47,1.953125
48,3.906250
49,3.906250
50,1.953125
51,1.953125
52,1.953125
53,1.953125
54,0.000000
55,0.000000
56,0.000000
57,0.000000
58,-1.953125
59,-1.953125
60,-1.953125
61,-1.953125
62,-3.906250
63,-3.906250
64,-3.906250
65,-3.906250
66,-3.906250
67,-5.859375
68,-5.859375
69,-5.859375
70,-7.812500
71,-5.859375
72,-5.859375
73,-7.812500
74,-7.812500
75,-7.812500
76,-7.812500
77,-9.765625
78,-9.765625
79,-9.765625
80,-9.765625
81,-9.765625
82,-11.718750
83,-11.718750
84,-11.718750
85,-11.718750
86,-13.671875
87,-13.671875
88,-13.671875
89,-13.671875
90,-15.625000
91,-13.671875
92,-15.625000
93,-15.625000
94,-15.625000
95,-15.625000
96,-17.578125
97,-17.578125
98,-17.578125
99,-17.578125
100,-17.578125
101,-17.578125
102,-19.531250
103,-19.531250
104,-19.531250
105,-19.531250
106,-19.531250
107,-21.484375
108,-21.484375
109,-21.484375
110,-21.484375
111,-23.437500
112,-23.437500
113,-23.437500
114,-25.390625
115,-25.390625
116,-23.437500
117,-25.390625
118,-25.390625
119,-27.343750
120,-27.343750
121,-25.390625
122,-27.343750
123,-27.343750
124,-27.343750
125,-27.343750
126,-29.296875
127,-27.343750
128,-29.296875
129,-29.296875
130,-29.296875
131,-29.296875
132,-31.250000
133,-31.250000
134,-31.250000
135,-31.250000
136,-33.203125
137,-33.203125
138,-33.203125
139,-33.203125
140,-33.203125
141,-33.203125
142,-33.203125
143,-33.203125
144,-35.156250
145,-35.156250
146,-35.156250
147,-35.156250
148,-35.156250
149,-35.156250
150,-35.156250
151,-37.109375
152,-37.109375
153,-37.109375
154,-37.109375
155,-37.109375
156,-37.109375
157,-39.062500
158,-37.109375
159,-37.109375
160,-39.062500
161,-39.062500
162,-39.062500
163,-39.062500
164,-39.062500
165,-39.062500
166,-39.062500
167,-39.062500
168,-39.062500
169,-41.015625
170,-41.015625
171,-41.015625
172,-41.015625
173,-41.015625
174,-41.015625
175,-41.015625
176,-41.015625
177,-41.015625
178,-41.015625
179,-41.015625
180,-41.015625
181,-42.968750
182,-42.968750
183,-42.968750
184,-42.968750
185,-42.968750
186,-42.968750
187,-42.968750
188,-42.968750
189,-42.968750
190,-42.968750
191,-42.968750
192,-44.921875
193,-42.968750
194,-42.968750
195,-44.921875
196,-42.968750
197,-42.968750
198,-42.968750
199,-44.921875
200,-44.921875
201,-44.921875
202,-44.921875
203,-44.921875
204,-44.921875
205,-44.921875
206,-44.921875
207,-44.921875
208,-44.921875
209,-42.968750
210,-44.921875
211,-44.921875
212,-44.921875
213,-44.921875
214,-44.921875
215,-44.921875
216,-44.921875
217,-44.921875
218,-44.921875
219,-44.921875
220,-44.921875
221,-44.921875
222,-44.921875
223,-44.921875
224,-44.921875
225,-44.921875
226,-46.875000
227,-44.921875
228,-44.921875
229,-44.921875
230,-44.921875
231,-44.921875
232,-44.921875
233,-44.921875
234,-44.921875
235,-44.921875
236,-44.921875
237,-44.921875
238,-42.968750
239,-44.921875
240,-44.921875
241,-44.921875
242,-44.921875
243,-42.968750
244,-42.968750
245,-42.968750
246,-42.968750
247,-42.968750
248,-42.968750
249,-42.968750
250,-42.968750
251,-42.968750
252,-42.968750
253,-42.968750
254,-41.015625
255,-42.968750
256,-42.968750
257,-42.968750
258,-41.015625
259,-41.015625
260,-41.015625
261,-42.968750
262,-41.015625
263,-41.015625
264,-41.015625
265,-41.015625
266,-41.015625
267,-41.015625
268,-41.015625
269,-39.062500
270,-39.062500
271,-39.062500
272,-39.062500
273,-39.062500
274,-39.062500
275,-39.062500
276,-39.062500
277,-37.109375
278,-37.109375
279,-37.109375
280,-37.109375
281,-37.109375
282,-35.156250
283,-35.156250
284,-35.156250
285,-35.156250
286,-35.156250
287,-35.156250
288,-33.203125
289,-33.203125
290,-33.203125
291,-33.203125
292,-33.203125
293,-33.203125
294,-33.203125
295,-31.250000
296,-31.250000
297,-33.203125
298,-31.250000
299,-31.250000
300,-29.296875
301,-29.296875
302,-29.296875
303,-29.296875
304,-29.296875
305,-29.296875
306,-27.343750
307,-27.343750
308,-27.343750
309,-27.343750
310,-27.343750
311,-27.343750
312,-25.390625
313,-25.390625
314,-25.390625
315,-25.390625
316,-25.390625
317,-23.437500
318,-23.437500
319,-23.437500
320,-23.437500
321,-23.437500
322,-21.484375
323,-21.484375
324,-21.484375
325,-21.484375
326,-19.531250
327,-19.531250
328,-19.531250
329,-19.531250
330,-19.531250
331,-19.531250
332,-17.578125
333,-17.578125
334,-17.578125
335,-17.578125
336,-15.625000
337,-15.625000
338,-15.625000
339,-15.625000
340,-15.625000
341,-15.625000
342,-13.671875
343,-13.671875
344,-13.671875
345,-13.671875
346,-11.718750
347,-11.718750
348,-11.718750
349,-11.718750
350,-9.765625
351,-11.718750
352,-9.765625
353,-9.765625
354,-9.765625
355,-9.765625
356,-9.765625
357,-7.812500
358,-7.812500
359,-7.812500
360,-7.812500
361,-7.812500
362,-7.812500
363,-5.859375
364,-5.859375
365,-5.859375
366,-5.859375
367,-3.906250
368,-3.906250
369,-3.906250
370,-3.906250
371,-3.906250
372,-3.906250
373,-1.953125
374,-1.953125
375,-1.953125
376,-1.953125
377,-1.953125
378,0.000000
379,0.000000
380,0.000000
381,0.000000
382,0.000000
383,0.000000
384,1.953125
385,0.000000
386,1.953125
387,1.953125
388,3.906250
389,1.953125
390,1.953125
391,1.953125
392,3.906250
393,3.906250
394,3.906250
395,3.906250
396,3.906250
397,3.906250
398,3.906250
399,3.906250
400,3.906250
401,5.859375
402,5.859375
403,5.859375
404,5.859375
405,5.859375
406,5.859375
407,5.859375
408,7.812500
409,7.812500
410,7.812500
411,7.812500
412,7.812500
413,7.812500
414,7.812500
415,9.765625
416,9.765625
417,9.765625
418,9.765625
419,9.765625
420,9.765625
421,9.765625
422,9.765625
423,9.765625
424,9.765625
425,11.718750
426,13.671875
427,11.718750
428,11.718750
429,11.718750
430,11.718750
431,11.718750
432,11.718750
433,11.718750
434,11.718750
435,13.671875
436,13.671875
437,13.671875
438,13.671875
439,13.671875
440,13.671875
441,13.671875
442,13.671875
443,13.671875
444,13.671875
445,13.671875
446,15.625000
447,13.671875
448,15.625000
449,15.625000
450,15.625000
451,15.625000
452,15.625000
453,15.625000
454,15.625000
455,15.625000
456,15.625000
457,15.625000
458,15.625000
459,15.625000
460,15.625000
461,17.578125
462,17.578125
463,17.578125
464,17.578125
465,17.578125
466,17.578125
467,15.625000
468,17.578125
469,17.578125
470,17.578125
471,17.578125
472,17.578125
473,17.578125
474,17.578125
475,19.531250
476,19.531250
477,17.578125
478,17.578125
479,19.531250
480,19.531250
481,19.531250
482,19.531250
483,19.531250
484,19.531250
485,19.531250
486,19.531250
487,19.531250
488,19.531250
489,19.531250
490,19.531250
491,19.531250
492,19.531250
493,19.531250
494,19.531250
495,19.531250
496,21.484375
497,21.484375
498,21.484375
499,21.484375
500,19.531250
501,21.484375
502,21.484375
503,21.484375
504,21.484375
505,21.484375
506,21.484375
507,21.484375
508,21.484375
509,21.484375
510,21.484375
511,21.484375
512,21.484375
513,21.484375
514,21.484375
515,23.437500
516,21.484375
517,21.484375
518,21.484375
519,21.484375
520,21.484375
521,21.484375
522,21.484375
523,23.437500
524,23.437500
525,21.484375
526,21.484375
527,21.484375
528,21.484375
529,23.437500
530,21.484375
531,21.484375
532,21.484375
533,21.484375
534,21.484375
535,23.437500
536,23.437500
537,23.437500
538,23.437500
539,23.437500
540,21.484375
541,23.437500
542,23.437500
543,21.484375
544,23.437500
545,23.437500
546,23.437500
547,23.437500
548,21.484375
549,21.484375
550,23.437500
551,23.437500
552,23.437500
553,21.484375
554,21.484375
555,21.484375
556,21.484375
557,23.437500
558,23.437500
559,21.484375
560,21.484375
561,23.437500
562,21.484375
563,21.484375
564,21.484375
565,21.484375
566,21.484375
567,21.484375
568,19.531250
569,21.484375
570,21.484375
571,21.484375
572,19.531250
573,21.484375
574,19.531250
575,19.531250
576,19.531250
577,19.531250
578,19.531250
579,19.531250
580,19.531250
581,19.531250
582,19.531250
583,19.531250
584,17.578125
585,17.578125
586,17.578125
587,17.578125
588,17.578125
589,17.578125
590,15.625000
591,15.625000
592,15.625000
593,15.625000
594,15.625000
595,15.625000
596,13.671875
597,13.671875
598,13.671875
599,13.671875
600,13.671875
601,13.671875
602,13.671875
603,13.671875
604,11.718750
605,11.718750
606,11.718750
607,11.718750
608,11.718750
609,11.718750
610,11.718750
611,9.765625
612,9.765625
613,9.765625
614,9.765625
615,9.765625
616,9.765625
617,9.765625
618,7.812500
619,7.812500
620,7.812500
621,5.859375
622,7.812500
623,7.812500
624,5.859375
625,5.859375
626,5.859375
627,3.906250
628,5.859375
629,5.859375
630,3.906250
631,3.906250
632,3.906250
633,1.953125
634,3.906250
635,1.953125
636,1.953125
637,0.000000
638,0.000000
639,0.000000
640,0.000000
641,-1.953125
642,-1.953125
643,-1.953125
644,-1.953125
645,-3.906250
646,-3.906250
647,-3.906250
648,-3.906250
649,-3.906250
650,-3.906250
651,-5.859375
652,-5.859375
653,-5.859375
654,-5.859375
655,-7.812500
656,-7.812500
657,-7.812500
658,-7.812500
659,-7.812500
660,-9.765625
661,-9.765625
662,-9.765625
663,-9.765625
664,-11.718750
665,-11.718750
666,-11.718750
667,-11.718750
668,-11.718750
669,-11.718750
670,-13.671875
671,-13.671875
672,-13.671875
673,-13.671875
674,-13.671875
675,-15.625000
676,-15.625000
677,-15.625000
678,-15.625000
679,-15.625000
680,-15.625000
681,-17.578125
682,-17.578125
683,-17.578125
684,-17.578125
685,-19.531250
686,-19.531250
687,-19.531250
688,-19.531250
689,-19.531250
690,-19.531250
691,-21.484375
692,-21.484375
693,-21.484375
694,-21.484375
695,-23.437500
696,-23.437500
697,-23.437500
698,-23.437500
699,-23.437500
700,-25.390625
701,-25.390625
702,-25.390625
703,-25.390625
704,-27.343750
705,-27.343750
706,-27.343750
707,-27.343750
708,-27.343750
709,-27.343750
710,-29.296875
711,-29.296875
712,-29.296875
713,-29.296875
714,-29.296875
715,-29.296875
716,-31.250000
717,-31.250000
718,-31.250000
719,-31.250000
720,-31.250000
721,-33.203125
722,-33.203125
723,-33.203125
724,-33.203125
725,-35.156250
726,-33.203125
727,-33.203125
728,-35.156250
729,-35.156250
730,-35.156250
731,-35.156250
732,-35.156250
733,-35.156250
734,-35.156250
735,-37.109375
736,-37.109375
737,-37.109375
738,-37.109375
739,-37.109375
740,-37.109375
741,-37.109375
742,-37.109375
743,-37.109375
744,-39.062500
745,-39.062500
746,-39.062500
747,-39.062500
748,-39.062500
749,-39.062500
750,-39.062500
751,-39.062500
752,-39.062500
753,-39.062500
754,-39.062500
755,-41.015625
756,-41.015625
757,-41.015625
758,-41.015625
759,-41.015625
760,-41.015625
761,-41.015625
762,-41.015625
763,-41.015625
764,-41.015625
765,-42.968750
766,-42.968750
767,-42.968750
768,-42.968750
769,-42.968750
770,-42.968750
771,-42.968750
772,-42.968750
773,-44.921875
774,-42.968750
775,-42.968750
776,-42.968750
777,-44.921875
778,-44.921875
779,-42.968750
780,-44.921875
781,-44.921875
782,-44.921875
783,-44.921875
784,-46.875000
785,-44.921875
786,-44.921875
787,-44.921875
788,-44.921875
789,-44.921875
790,-44.921875
791,-44.921875
792,-44.921875
793,-44.921875
794,-44.921875
795,-44.921875
796,-44.921875
797,-44.921875
798,-44.921875
799,-44.921875
800,-44.921875
801,-44.921875
802,-44.921875
803,-44.921875
804,-44.921875
805,-44.921875
806,-44.921875
807,-44.921875
808,-44.921875
809,-42.968750
810,-44.921875
811,-44.921875
812,-44.921875
813,-44.921875
814,-44.921875
815,-44.921875
816,-44.921875
817,-44.921875
818,-44.921875
819,-44.921875
820,-44.921875
821,-44.921875
822,-42.968750
823,-44.921875
824,-44.921875
825,-44.921875
826,-44.921875
827,-44.921875
828,-42.968750
829,-42.968750
830,-42.968750
831,-42.968750
832,-42.968750
833,-42.968750
834,-42.968750
835,-42.968750
836,-42.968750
837,-41.015625
838,-42.968750
839,-42.968750
840,-42.968750
841,-42.968750
842,-41.015625
843,-41.015625
844,-41.015625
845,-41.015625
846,-41.015625
847,-41.015625
848,-41.015625
849,-41.015625
850,-41.015625
851,-41.015625
852,-41.015625
853,-41.015625
854,-39.062500
855,-39.062500
856,-39.062500
857,-39.062500
858,-39.062500
859,-39.062500
860,-37.109375
861,-37.109375
862,-37.109375
863,-37.109375
864,-37.109375
865,-37.109375
866,-37.109375
867,-37.109375
868,-35.156250
869,-35.156250
870,-35.156250
871,-35.156250
872,-35.156250
873,-35.156250
874,-33.203125
875,-33.203125
876,-33.203125
877,-33.203125
878,-31.250000
879,-31.250000
880,-31.250000
881,-31.250000
882,-31.250000
883,-29.296875
884,-29.296875
885,-29.296875
886,-29.296875
887,-29.296875
888,-29.296875
889,-29.296875
890,-27.343750
891,-27.343750
892,-27.343750
893,-25.390625
894,-25.390625
895,-25.390625
896,-25.390625
897,-25.390625
898,-25.390625
899,-25.390625
900,-23.437500
901,-23.437500
902,-23.437500
903,-23.437500
904,-23.437500
905,-21.484375
906,-21.484375
907,-21.484375
908,-21.484375
909,-19.531250
910,-19.531250
911,-21.484375
912,-19.531250
913,-19.531250
914,-19.531250
915,-17.578125
916,-17.578125
917,-17.578125
918,-17.578125
919,-15.625000
920,-15.625000
921,-15.625000
922,-15.625000
923,-15.625000
924,-13.671875
925,-15.625000
926,-13.671875
927,-11.718750
928,-13.671875
929,-11.718750
930,-11.718750
931,-11.718750
932,-11.718750
933,-9.765625
934,-9.765625
935,-9.765625
936,-9.765625
937,-9.765625
938,-9.765625
939,-7.812500
940,-7.812500
941,-7.812500
942,-7.812500
943,-7.812500
944,-7.812500
945,-5.859375
946,-5.859375
947,-5.859375
948,-5.859375
949,-5.859375
950,-3.906250
951,-3.906250
952,-3.906250
953,-3.906250
954,-3.906250
955,-3.906250
956,-3.906250
957,-1.953125
958,-1.953125
959,-1.953125
960,-1.953125
961,-1.953125
962,0.000000
963,0.000000
964,0.000000
965,0.000000
966,0.000000
967,0.000000
968,1.953125
969,1.953125
970,1.953125
971,1.953125
972,1.953125
973,1.953125
974,1.953125
975,3.906250
976,3.906250
977,1.953125
978,3.906250
979,3.906250
980,3.906250
981,3.906250
982,3.906250
983,3.906250
984,5.859375
985,5.859375
986,5.859375
987,5.859375
988,5.859375
989,5.859375
990,5.859375
991,7.812500
992,7.812500
993,7.812500
994,7.812500
995,7.812500
996,7.812500
997,7.812500
998,9.765625
999,9.765625
1000,9.765625
1001,9.765625
1002,11.718750
1003,9.765625
1004,9.765625
1005,11.718750
1006,11.718750
1007,11.718750
1008,11.718750
1009,11.718750
1010,11.718750
1011,11.718750
1012,11.718750
1013,11.718750
1014,13.671875
1015,11.718750
1016,13.671875
1017,13.671875
1018,13.671875
1019,13.671875
1020,13.671875
1021,13.671875
1022,13.671875
1023,13.671875
1024,13.671875
1025,13.671875
1026,13.671875
1027,15.625000
1028,13.671875
1029,15.625000
1030,15.625000
1031,15.625000
1032,15.625000
1033,15.625000
1034,15.625000
1035,15.625000
1036,15.625000
1037,15.625000
1038,15.625000
1039,15.625000
1040,15.625000
1041,17.578125
1042,17.578125
1043,17.578125
1044,17.578125
1045,17.578125
1046,17.578125
1047,17.578125
1048,17.578125
1049,17.578125
1050,17.578125
1051,17.578125
1052,17.578125
1053,17.578125
1054,19.531250
1055,17.578125
1056,17.578125
1057,17.578125
1058,19.531250
1059,19.531250
1060,19.531250
1061,19.531250
1062,19.531250
1063,17.578125
1064,19.531250
1065,19.531250
1066,19.531250
1067,19.531250
1068,19.531250
1069,19.531250
1070,21.484375
1071,21.484375
1072,21.484375
1073,21.484375
1074,19.531250
1075,21.484375
1076,21.484375
1077,21.484375
1078,21.484375
1079,21.484375
1080,21.484375
1081,21.484375
1082,21.484375
1083,21.484375
1084,21.484375
1085,21.484375
1086,21.484375
1087,21.484375
1088,21.484375
1089,21.484375
1090,21.484375
1091,21.484375
1092,21.484375
1093,21.484375
1094,23.437500
1095,23.437500
1096,21.484375
1097,21.484375
1098,21.484375
1099,21.484375
1100,21.484375
1101,23.437500
1102,23.437500
1103,21.484375
1104,23.437500
1105,21.484375
1106,21.484375
1107,23.437500
1108,23.437500
1109,21.484375
1110,23.437500
1111,23.437500
1112,21.484375
1113,23.437500
1114,23.437500
1115,23.437500
1116,23.437500
1117,23.437500
1118,23.437500
1119,23.437500
1120,23.437500
1121,23.437500
1122,23.437500
1123,23.437500
1124,23.437500
1125,23.437500
1126,23.437500
1127,23.437500
1128,23.437500
1129,25.390625
1130,23.437500
1131,23.437500
1132,23.437500
1133,23.437500
1134,23.437500
1135,23.437500
1136,23.437500
1137,23.437500
1138,23.437500
1139,23.437500
1140,23.437500
1141,23.437500
1142,23.437500
1143,23.437500
1144,23.437500
1145,23.437500
1146,21.484375
1147,19.531250
1148,21.484375
1149,21.484375
1150,21.484375
1151,21.484375
1152,21.484375
1153,21.484375
1154,21.484375
1155,21.484375
1156,19.531250
1157,19.531250
1158,19.531250
1159,21.484375
1160,19.531250
1161,19.531250
1162,19.531250
1163,19.531250
1164,17.578125
1165,19.531250
1166,19.531250
1167,17.578125
1168,17.578125
1169,17.578125
1170,17.578125
1171,17.578125
1172,17.578125
1173,17.578125
1174,17.578125
1175,15.625000
1176,15.625000
1177,15.625000
1178,15.625000
1179,15.625000
1180,15.625000
1181,17.578125
1182,15.625000
1183,15.625000
1184,13.671875
1185,13.671875
1186,13.671875
1187,13.671875
1188,11.718750
1189,11.718750
1190,13.671875
1191,11.718750
1192,11.718750
1193,11.718750
1194,9.765625
1195,9.765625
1196,9.765625
1197,9.765625
1198,11.718750
1199,9.765625
1200,7.812500
1201,7.812500
1202,7.812500
1203,7.812500
1204,7.812500
1205,7.812500
1206,5.859375
1207,5.859375
1208,5.859375
1209,5.859375
1210,3.906250
1211,3.906250
1212,3.906250
1213,3.906250
1214,3.906250
1215,3.906250
1216,3.906250
1217,1.953125
1218,1.953125
1219,1.953125
1220,1.953125
1221,0.000000
1222,0.000000
1223,0.000000
1224,0.000000
1225,-1.953125
1226,-1.953125
1227,-1.953125
1228,-1.953125
1229,-3.906250
1230,-1.953125
1231,-3.906250
1232,-3.906250
1233,-5.859375
1234,-5.859375
1235,-5.859375
1236,-5.859375
1237,-5.859375
1238,-5.859375
1239,-7.812500
1240,-7.812500
1241,-7.812500
1242,-7.812500
1243,-7.812500
1244,-9.765625
1245,-9.765625
1246,-9.765625
1247,-9.765625
1248,-11.718750
1249,-9.765625
1250,-11.718750
1251,-11.718750
1252,-11.718750
1253,-13.671875
1254,-13.671875
1255,-13.671875
1256,-13.671875
1257,-13.671875
1258,-15.625000
1259,-15.625000
1260,-15.625000
1261,-15.625000
1262,-17.578125
1263,-15.625000
1264,-17.578125
1265,-17.578125
1266,-17.578125
1267,-19.531250
1268,-19.531250
1269,-19.531250
1270,-19.531250
1271,-19.531250
1272,-21.484375
1273,-21.484375
1274,-21.484375
1275,-21.484375
1276,-21.484375
1277,-21.484375
1278,-23.437500
1279,-23.437500
1280,-23.437500
1281,-23.437500
1282,-23.437500
1283,-25.390625
1284,-25.390625
1285,-25.390625
1286,-25.390625
1287,-25.390625
1288,-27.343750
1289,-27.343750
1290,-27.343750
1291,-27.343750
1292,-29.296875
1293,-29.296875
1294,-29.296875
1295,-29.296875
1296,-31.250000
1297,-29.296875
1298,-31.250000
1299,-31.250000
1300,-31.250000
1301,-31.250000
1302,-31.250000
1303,-33.203125
1304,-33.203125
1305,-33.203125
1306,-33.203125
1307,-33.203125
1308,-33.203125
1309,-33.203125
1310,-35.156250
1311,-35.156250
1312,-35.156250
1313,-35.156250
1314,-35.156250
1315,-37.109375
1316,-37.109375
1317,-37.109375
1318,-37.109375
1319,-37.109375
1320,-37.109375
1321,-37.109375
1322,-37.109375
1323,-37.109375
1324,-39.062500
1325,-39.062500
1326,-39.062500
1327,-39.062500
1328,-39.062500
1329,-39.062500
1330,-39.062500
1331,-39.062500
1332,-39.062500
1333,-39.062500
1334,-39.062500
1335,-41.015625
1336,-41.015625
1337,-41.015625
1338,-41.015625
1339,-41.015625
1340,-41.015625
1341,-41.015625
1342,-41.015625
1343,-41.015625
1344,-42.968750
1345,-42.968750
1346,-42.968750
1347,-42.968750
1348,-42.968750
1349,-42.968750
1350,-42.968750
1351,-42.968750
1352,-42.968750
1353,-42.968750
1354,-42.968750
1355,-42.968750
1356,-42.968750
1357,-42.968750
1358,-44.921875
1359,-44.921875
1360,-44.921875
