Practicum8/data/opgave2/opgave2_1/data_72_018.csv

Channel              :,CH1
Frequency            :,  ?
Period               :,  ?
PK-PK                :,31.25mV
Probe attenuation    :,1X
Voltage per ADC value:,0.244141mV
Time interval        :,1.00000us

index,CH1_Voltage(mV)
1,-11.718750
2,-11.718750
3,-11.718750
4,-11.718750
5,-11.718750
6,-11.718750
7,-11.718750
8,-11.718750
9,-11.718750
10,-11.718750
11,-11.718750
12,-11.718750
13,-11.718750
14,-11.718750
15,-11.718750
16,-11.718750
17,-11.718750
18,-11.718750
19,-11.718750
20,-11.718750
21,-11.718750
22,-11.718750
23,-11.718750
24,-11.718750
25,-11.718750
26,-11.718750
27,-11.718750
28,-11.718750
29,-11.718750
30,-15.625000
31,-11.718750
32,-11.718750
33,-11.718750
34,-15.625000
35,-15.625000
36,-15.625000
37,-15.625000
38,-11.718750
39,-11.718750
40,-15.625000
41,-15.625000
42,-15.625000
43,-15.625000
44,-15.625000
45,-15.625000
46,-15.625000
47,-15.625000
48,-15.625000
49,-15.625000
50,-15.625000
51,-15.625000
52,-15.625000
53,-15.625000
54,-15.625000
55,-15.625000
56,-15.625000
57,-15.625000
58,-15.625000
59,-15.625000
60,-15.625000
61,-15.625000
62,-15.625000
63,-15.625000
64,-15.625000
65,-15.625000
66,-15.625000
67,-15.625000
68,-15.625000
69,-15.625000
70,-15.625000
71,-15.625000
72,-15.625000
73,-15.625000
74,-15.625000
75,-15.625000
76,-15.625000
77,-15.625000
78,-15.625000
79,-15.625000
80,-15.625000
81,-15.625000
82,-19.531250
83,-19.531250
84,-15.625000
85,-15.625000
86,-19.531250
87,-19.531250
88,-19.531250
89,-19.531250
90,-19.531250
91,-19.531250
92,-19.531250
93,-19.531250
94,-19.531250
95,-19.531250
96,-19.531250
97,-19.531250
98,-19.531250
99,-19.531250
100,-15.625000
101,-19.531250
102,-19.531250
103,-19.531250
104,-19.531250
105,-19.531250
106,-19.531250
107,-19.531250
108,-19.531250
109,-19.531250
110,-19.531250
111,-19.531250
112,-19.531250
113,-19.531250
114,-19.531250
115,-19.531250
116,-19.531250
117,-19.531250
118,-19.531250
119,-19.531250
120,-19.531250
121,-19.531250
122,-19.531250
123,-19.531250
124,-19.531250
125,-19.531250
126,-19.531250
127,-19.531250
128,-19.531250
129,-19.531250
130,-19.531250
131,-19.531250
132,-19.531250
133,-19.531250
134,-19.531250
135,-19.531250
136,-23.437500
137,-19.531250
138,-23.437500
139,-23.437500
140,-23.437500
141,-19.531250
142,-23.437500
143,-23.437500
144,-23.437500
145,-23.437500
146,-23.437500
147,-23.437500
148,-23.437500
149,-23.437500
150,-23.437500
151,-19.531250
152,-23.437500
153,-23.437500
154,-23.437500
155,-23.437500
156,-23.437500
157,-23.437500
158,-23.437500
159,-23.437500
160,-23.437500
161,-23.437500
162,-23.437500
163,-23.437500
164,-23.437500
165,-23.437500
166,-27.343750
167,-19.531250
168,-23.437500
169,-23.437500
170,-27.343750
171,-23.437500
172,-23.437500
173,-23.437500
174,-23.437500
175,-23.437500
176,-23.437500
177,-23.437500
178,-23.437500
179,-23.437500
180,-27.343750
181,-23.437500
182,-23.437500
183,-23.437500
184,-23.437500
185,-23.437500
186,-27.343750
187,-27.343750
188,-23.437500
189,-27.343750
190,-27.343750
191,-23.437500
192,-23.437500
193,-27.343750
194,-27.343750
195,-27.343750
196,-27.343750
197,-27.343750
198,-27.343750
199,-27.343750
200,-27.343750
201,-23.437500
202,-27.343750
203,-27.343750
204,-27.343750
205,-27.343750
206,-27.343750
207,-27.343750
208,-27.343750
209,-27.343750
210,-27.343750
211,-27.343750
212,-27.343750
213,-27.343750
214,-27.343750
215,-27.343750
216,-27.343750
217,-27.343750
218,-27.343750
219,-27.343750
220,-27.343750
221,-27.343750
222,-27.343750
223,-27.343750
224,-27.343750
225,-27.343750
226,-27.343750
227,-27.343750
228,-27.343750
229,-27.343750
230,-27.343750
231,-27.343750
232,-27.343750
233,-27.343750
234,-27.343750
235,-27.343750
236,-27.343750
237,-27.343750
238,-27.343750
239,-27.343750
240,-27.343750
241,-27.343750
242,-27.343750
243,-27.343750
244,-27.343750
245,-27.343750
246,-27.343750
247,-27.343750
248,-27.343750
249,-27.343750
250,-27.343750
251,-27.343750
252,-27.343750
253,-27.343750
254,-27.343750
255,-27.343750
256,-27.343750
257,-27.343750
258,-27.343750
259,-27.343750
260,-27.343750
261,-27.343750
262,-27.343750
263,-27.343750
264,-27.343750
265,-27.343750
266,-27.343750
267,-27.343750
268,-27.343750
269,-27.343750
270,-27.343750
271,-27.343750
272,-27.343750
273,-27.343750
274,-27.343750
275,-27.343750
276,-27.343750
277,-27.343750
278,-27.343750
279,-27.343750
280,-27.343750
281,-27.343750
282,-27.343750
283,-27.343750
284,-27.343750
285,-27.343750
286,-27.343750
287,-27.343750
288,-27.343750
289,-27.343750
290,-27.343750
291,-27.343750
292,-27.343750
293,-27.343750
294,-27.343750
295,-27.343750
296,-27.343750
297,-27.343750
298,-27.343750
299,-27.343750
300,-27.343750
301,-27.343750
302,-27.343750
303,-27.343750
304,-31.250000
305,-27.343750
306,-27.343750
307,-27.343750
308,-27.343750
309,-27.343750
310,-27.343750
311,-27.343750
312,-27.343750
313,-27.343750
314,-27.343750
315,-27.343750
316,-27.343750
317,-27.343750
318,-27.343750
319,-27.343750
320,-27.343750
321,-27.343750
322,-27.343750
323,-27.343750
324,-27.343750
325,-27.343750
326,-27.343750
327,-27.343750
328,-27.343750
329,-27.343750
330,-27.343750
331,-27.343750
332,-27.343750
333,-27.343750
334,-27.343750
335,-27.343750
336,-27.343750
337,-27.343750
338,-27.343750
339,-27.343750
340,-27.343750
341,-27.343750
342,-27.343750
343,-27.343750
344,-27.343750
345,-27.343750
346,-27.343750
347,-27.343750
348,-27.343750
349,-27.343750
350,-27.343750
351,-27.343750
352,-27.343750
353,-27.343750
354,-27.343750
355,-27.343750
356,-27.343750
357,-27.343750
358,-27.343750
359,-27.343750
360,-27.343750
361,-27.343750
362,-27.343750
363,-27.343750
364,-27.343750
365,-23.437500
366,-27.343750
367,-27.343750
368,-27.343750
369,-23.437500
370,-23.437500
371,-23.437500
372,-23.437500
373,-23.437500
374,-27.343750
375,-27.343750
376,-27.343750
377,-27.343750
378,-23.437500
379,-23.437500
380,-23.437500
381,-23.437500
382,-27.343750
383,-23.437500
384,-23.437500
385,-23.437500
386,-23.437500
387,-23.437500
388,-23.437500
389,-23.437500
390,-23.437500
391,-23.437500
392,-23.437500
393,-23.437500
394,-23.437500
395,-23.437500
396,-23.437500
397,-23.437500
398,-23.437500
399,-23.437500
400,-23.437500
401,-23.437500
402,-23.437500
403,-23.437500
404,-23.437500
405,-23.437500
406,-23.437500
407,-23.437500
408,-23.437500
409,-23.437500
410,-23.437500
411,-23.437500
412,-23.437500
413,-23.437500
414,-23.437500
415,-23.437500
416,-23.437500
417,-23.437500
418,-23.437500
419,-23.437500
420,-23.437500
421,-23.437500
422,-23.437500
423,-23.437500
424,-23.437500
425,-23.437500
426,-23.437500
427,-23.437500
428,-23.437500
429,-23.437500
430,-23.437500
431,-23.437500
432,-23.437500
433,-19.531250
434,-23.437500
435,-19.531250
436,-19.531250
437,-19.531250
438,-19.531250
439,-19.531250
440,-19.531250
441,-23.437500
442,-19.531250
443,-19.531250
444,-19.531250
445,-19.531250
446,-19.531250
447,-19.531250
448,-19.531250
449,-19.531250
450,-19.531250
451,-19.531250
452,-19.531250
453,-19.531250
454,-19.531250
455,-19.531250
456,-19.531250
457,-19.531250
458,-19.531250
459,-19.531250
460,-19.531250
461,-19.531250
462,-19.531250
463,-19.531250
464,-19.531250
465,-19.531250
466,-19.531250
467,-19.531250
468,-19.531250
469,-19.531250
470,-19.531250
471,-19.531250
472,-19.531250
473,-19.531250
474,-15.625000
475,-15.625000
476,-15.625000
477,-15.625000
478,-19.531250
479,-15.625000
480,-15.625000
481,-15.625000
482,-19.531250
483,-15.625000
484,-15.625000
485,-15.625000
486,-15.625000
487,-15.625000
488,-15.625000
489,-15.625000
490,-15.625000
491,-15.625000
492,-15.625000
493,-15.625000
494,-15.625000
495,-15.625000
496,-15.625000
497,-15.625000
498,-15.625000
499,-15.625000
500,-15.625000
501,-15.625000
502,-15.625000
503,-15.625000
504,-15.625000
505,-15.625000
506,-15.625000
507,-15.625000
508,-15.625000
509,-15.625000
510,-15.625000
511,-15.625000
512,-15.625000
513,-15.625000
514,-15.625000
515,-11.718750
516,-11.718750
517,-11.718750
518,-15.625000
519,-11.718750
520,-11.718750
521,-11.718750
522,-11.718750
523,-11.718750
524,-11.718750
525,-11.718750
526,-11.718750
527,-11.718750
528,-11.718750
529,-11.718750
530,-11.718750
531,-11.718750
532,-11.718750
533,-11.718750
534,-11.718750
535,-11.718750
536,-11.718750
537,-11.718750
538,-11.718750
539,-11.718750
540,-11.718750
541,-11.718750
542,-11.718750
543,-11.718750
544,-11.718750
545,-11.718750
546,-11.718750
547,-11.718750
548,-11.718750
549,-11.718750
550,-11.718750
551,-11.718750
552,-11.718750
553,-11.718750
554,-11.718750
555,-11.718750
556,-11.718750
557,-11.718750
558,-11.718750
559,-11.718750
560,-11.718750
561,-11.718750
562,-11.718750
563,-11.718750
564,-7.812500
565,-7.812500
566,-11.718750
567,-7.812500
568,-7.812500
569,-11.718750
570,-7.812500
571,-7.812500
572,-7.812500
573,-7.812500
574,-7.812500
575,-7.812500
576,-7.812500
577,-7.812500
578,-11.718750
579,-7.812500
580,-7.812500
581,-7.812500
582,-7.812500
583,-7.812500
584,-7.812500
585,-7.812500
586,-7.812500
587,-7.812500
588,-7.812500
589,-7.812500
590,-7.812500
591,-7.812500
592,-7.812500
593,-7.812500
594,-7.812500
595,-7.812500
596,-7.812500
597,-7.812500
598,-7.812500
599,-7.812500
600,-7.812500
601,-7.812500
602,-7.812500
603,-7.812500
604,-7.812500
605,-7.812500
606,-7.812500
607,-7.812500
608,-7.812500
609,-7.812500
610,-7.812500
611,-7.812500
612,-7.812500
613,-7.812500
614,-7.812500
615,-7.812500
616,-7.812500
617,-7.812500
618,-7.812500
619,-7.812500
620,-7.812500
621,-7.812500
622,-7.812500
623,-7.812500
624,-7.812500
625,-3.906250
626,-3.906250
627,-7.812500
628,-3.906250
629,-7.812500
630,-7.812500
631,-7.812500
632,-7.812500
633,-3.906250
634,-3.906250
635,-3.906250
636,-3.906250
637,-7.812500
638,-3.906250
639,-3.906250
640,-3.906250
641,-3.906250
642,-3.906250
643,-3.906250
644,-3.906250
645,-3.906250
646,-3.906250
647,-3.906250
648,-3.906250
649,-3.906250
650,-3.906250
651,-3.906250
652,-3.906250
653,-3.906250
654,-3.906250
655,-3.906250
656,-3.906250
657,-3.906250
658,-3.906250
659,-3.906250
660,-3.906250
661,-3.906250
662,-3.906250
663,-3.906250
664,-3.906250
665,-3.906250
666,-3.906250
667,-3.906250
668,-3.906250
669,-3.906250
670,-3.906250
671,-3.906250
672,-3.906250
673,-3.906250
674,-3.906250
675,-3.906250
676,-3.906250
677,-3.906250
678,-3.906250
679,-3.906250
680,-3.906250
681,-3.906250
682,-3.906250
683,-3.906250
684,-3.906250
685,-3.906250
686,-3.906250
687,-3.906250
688,-3.906250
689,-3.906250
690,-3.906250
691,-3.906250
692,-3.906250
693,-3.906250
694,-3.906250
695,-3.906250
696,-3.906250
697,-3.906250
698,-3.906250
699,-3.906250
700,-3.906250
701,-3.906250
702,-3.906250
703,-3.906250
704,-3.906250
705,-3.906250
706,-3.906250
707,-3.906250
708,-3.906250
709,-3.906250
710,-3.906250
711,-3.906250
712,-3.906250
713,-3.906250
714,-3.906250
715,-3.906250
716,-3.906250
717,-3.906250
718,-3.906250
719,-3.906250
720,-3.906250
721,-3.906250
722,-3.906250
723,-3.906250
724,-3.906250
725,-3.906250
726,-3.906250
727,-3.906250
728,-3.906250
729,-3.906250
730,-3.906250
731,-3.906250
732,-3.906250
733,-3.906250
734,-3.906250
735,-3.906250
736,-3.906250
737,-3.906250
738,-3.906250
739,-3.906250
740,-3.906250
741,-3.906250
742,-3.906250
743,-3.906250
744,-3.906250
745,-3.906250
746,-3.906250
747,-3.906250
748,-3.906250
749,-3.906250
750,-3.906250
751,-3.906250
752,-3.906250
753,-3.906250
754,-3.906250
755,-3.906250
756,-3.906250
757,-3.906250
758,-3.906250
759,-3.906250
760,-3.906250
761,-3.906250
762,-3.906250
763,-3.906250
764,-3.906250
765,-3.906250
766,-3.906250
767,-3.906250
768,-3.906250
769,-3.906250
770,-3.906250
771,-3.906250
772,-3.906250
773,-3.906250
774,-3.906250
775,-3.906250
776,-3.906250
777,-3.906250
778,-3.906250
779,-3.906250
780,-3.906250
781,-3.906250
782,-3.906250
783,-3.906250
784,-3.906250
785,-3.906250
786,-3.906250
787,-3.906250
788,-3.906250
789,-3.906250
790,-3.906250
791,-3.906250
792,-3.906250
793,-3.906250
794,-3.906250
795,-3.906250
796,-3.906250
797,-3.906250
798,-3.906250
799,-3.906250
800,-3.906250
801,-3.906250
802,-3.906250
803,-3.906250
804,-3.906250
805,-3.906250
806,-3.906250
807,-3.906250
808,-3.906250
809,-3.906250
810,-3.906250
811,-3.906250
812,-3.906250
813,-3.906250
814,-3.906250
815,-3.906250
816,-3.906250
817,-3.906250
818,-3.906250
819,-3.906250
820,-3.906250
821,-3.906250
822,-3.906250
823,-3.906250
824,-3.906250
825,-3.906250
826,-3.906250
827,-3.906250
828,-3.906250
829,-3.906250
830,-3.906250
831,-3.906250
832,-3.906250
833,-3.906250
834,-3.906250
835,-3.906250
836,-3.906250
837,-3.906250
838,-3.906250
839,-3.906250
840,-3.906250
841,-3.906250
842,-3.906250
843,-3.906250
844,-3.906250
845,-3.906250
846,-3.906250
847,-3.906250
848,-3.906250
849,-3.906250
850,-3.906250
851,-3.906250
852,-3.906250
853,-3.906250
854,-3.906250
855,-3.906250
856,-3.906250
857,-3.906250
858,-3.906250
859,-3.906250
860,-3.906250
861,-3.906250
862,-3.906250
863,-3.906250
864,-3.906250
865,-3.906250
866,-3.906250
867,-3.906250
868,-3.906250
869,-7.812500
870,-3.906250
871,-3.906250
872,-3.906250
873,-3.906250
874,-3.906250
875,-3.906250
876,-3.906250
877,-3.906250
878,-3.906250
879,-3.906250
880,-3.906250
881,-7.812500
882,-7.812500
883,-7.812500
884,-7.812500
885,-3.906250
886,-7.812500
887,-3.906250
888,-7.812500
889,-3.906250
890,-3.906250
891,-3.906250
892,-7.812500
893,-3.906250
894,-7.812500
895,-3.906250
896,-7.812500
897,-7.812500
898,-7.812500
899,-3.906250
900,-3.906250
901,-3.906250
902,-7.812500
903,-7.812500
904,-7.812500
905,-7.812500
906,-7.812500
907,-7.812500
908,-7.812500
909,-7.812500
910,-7.812500
911,-7.812500
912,-7.812500
913,-7.812500
914,-7.812500
915,-7.812500
916,-7.812500
917,-7.812500
918,-7.812500
919,-7.812500
920,-7.812500
921,-7.812500
922,-7.812500
923,-7.812500
924,-7.812500
925,-7.812500
926,-7.812500
927,-7.812500
928,-7.812500
929,-7.812500
930,-7.812500
931,-7.812500
932,-7.812500
933,-7.812500
934,-7.812500
935,-7.812500
936,-7.812500
937,-7.812500
938,-7.812500
939,-7.812500
940,-7.812500
941,-7.812500
942,-7.812500
943,-7.812500
944,-7.812500
945,-7.812500
946,-7.812500
947,-7.812500
948,-7.812500
949,-7.812500
950,-7.812500
951,-7.812500
952,-7.812500
953,-7.812500
954,-7.812500
955,-7.812500
956,-7.812500
957,-7.812500
958,-7.812500
959,-7.812500
960,-7.812500
961,-7.812500
962,-7.812500
963,-7.812500
964,-11.718750
965,-11.718750
966,-7.812500
967,-7.812500
968,-11.718750
969,-11.718750
970,-7.812500
971,-11.718750
972,-11.718750
973,-11.718750
974,-11.718750
975,-7.812500
976,-11.718750
977,-11.718750
978,-11.718750
979,-11.718750
980,-11.718750
981,-11.718750
982,-11.718750
983,-11.718750
984,-11.718750
985,-11.718750
986,-11.718750
987,-11.718750
988,-11.718750
989,-11.718750
990,-11.718750
991,-11.718750
992,-11.718750
993,-11.718750
994,-11.718750
995,-11.718750
996,-11.718750
997,-11.718750
998,-11.718750
999,-11.718750
1000,-11.718750
1001,-11.718750
1002,-11.718750
1003,-11.718750
1004,-11.718750
1005,-11.718750
1006,-11.718750
1007,-11.718750
1008,-11.718750
1009,-11.718750
1010,-11.718750
1011,-11.718750
1012,-11.718750
1013,-11.718750
1014,-11.718750
1015,-11.718750
1016,-11.718750
1017,-11.718750
1018,-11.718750
1019,-11.718750
1020,-11.718750
1021,-11.718750
1022,-11.718750
1023,-15.625000
1024,-11.718750
1025,-11.718750
1026,-11.718750
1027,-11.718750
1028,-11.718750
1029,-11.718750
1030,-11.718750
1031,-15.625000
1032,-15.625000
1033,-15.625000
1034,-11.718750
1035,-15.625000
1036,-15.625000
1037,-15.625000
1038,-15.625000
1039,-15.625000
1040,-15.625000
1041,-15.625000
1042,-15.625000
1043,-15.625000
1044,-15.625000
1045,-15.625000
1046,-15.625000
1047,-15.625000
1048,-15.625000
1049,-15.625000
1050,-15.625000
1051,-15.625000
1052,-15.625000
1053,-15.625000
1054,-15.625000
1055,-15.625000
1056,-15.625000
1057,-15.625000
1058,-15.625000
1059,-15.625000
1060,-15.625000
1061,-15.625000
1062,-15.625000
1063,-15.625000
1064,-15.625000
1065,-15.625000
1066,-15.625000
1067,-15.625000
1068,-15.625000
1069,-15.625000
1070,-15.625000
1071,-15.625000
1072,-15.625000
1073,-15.625000
1074,-19.531250
1075,-19.531250
1076,-15.625000
1077,-19.531250
1078,-19.531250
1079,-19.531250
1080,-19.531250
1081,-15.625000
1082,-19.531250
1083,-15.625000
1084,-19.531250
1085,-19.531250
1086,-19.531250
1087,-19.531250
1088,-19.531250
1089,-19.531250
1090,-19.531250
1091,-19.531250
1092,-19.531250
1093,-19.531250
1094,-19.531250
1095,-19.531250
1096,-19.531250
1097,-19.531250
1098,-19.531250
1099,-19.531250
1100,-19.531250
1101,-19.531250
1102,-19.531250
1103,-19.531250
1104,-19.531250
1105,-19.531250
1106,-19.531250
1107,-19.531250
1108,-19.531250
1109,-19.531250
1110,-19.531250
1111,-19.531250
1112,-19.531250
1113,-19.531250
1114,-19.531250
1115,-23.437500
1116,-19.531250
1117,-19.531250
1118,-19.531250
1119,-19.531250
1120,-19.531250
1121,-19.531250
1122,-19.531250
1123,-19.531250
1124,-19.531250
1125,-23.437500
1126,-19.531250
1127,-23.437500
1128,-23.437500
1129,-23.437500
1130,-23.437500
1131,-19.531250
1132,-19.531250
1133,-23.437500
1134,-23.437500
1135,-23.437500
1136,-23.437500
1137,-23.437500
1138,-23.437500
1139,-23.437500
1140,-23.437500
1141,-23.437500
1142,-23.437500
1143,-23.437500
1144,-23.437500
1145,-23.437500
1146,-23.437500
1147,-23.437500
1148,-23.437500
1149,-23.437500
1150,-23.437500
1151,-23.437500
1152,-23.437500
1153,-23.437500
1154,-23.437500
1155,-23.437500
1156,-23.437500
1157,-23.437500
1158,-23.437500
1159,-23.437500
1160,-23.437500
1161,-23.437500
1162,-23.437500
1163,-23.437500
1164,-23.437500
1165,-23.437500
1166,-23.437500
1167,-23.437500
1168,-23.437500
1169,-23.437500
1170,-23.437500
1171,-23.437500
1172,-23.437500
1173,-23.437500
1174,-23.437500
1175,-23.437500
1176,-23.437500
1177,-23.437500
1178,-23.437500
1179,-23.437500
1180,-27.343750
1181,-27.343750
1182,-23.437500
1183,-23.437500
1184,-23.437500
1185,-23.437500
1186,-23.437500
1187,-23.437500
1188,-27.343750
1189,-23.437500
1190,-23.437500
1191,-23.437500
1192,-27.343750
1193,-27.343750
1194,-27.343750
1195,-27.343750
1196,-27.343750
1197,-27.343750
1198,-27.343750
1199,-27.343750
1200,-27.343750
1201,-23.437500
1202,-23.437500
1203,-27.343750
1204,-27.343750
1205,-27.343750
1206,-27.343750
1207,-27.343750
1208,-27.343750
1209,-27.343750
1210,-27.343750
1211,-27.343750
1212,-27.343750
1213,-27.343750
1214,-27.343750
1215,-27.343750
1216,-27.343750
1217,-27.343750
1218,-27.343750
1219,-27.343750
1220,-27.343750
1221,-27.343750
1222,-27.343750
1223,-27.343750
1224,-27.343750
1225,-27.343750
1226,-27.343750
1227,-27.343750
1228,-27.343750
1229,-27.343750
1230,-27.343750
1231,-27.343750
1232,-27.343750
1233,-27.343750
1234,-27.343750
1235,-27.343750
1236,-27.343750
1237,-27.343750
1238,-27.343750
1239,-27.343750
1240,-27.343750
1241,-27.343750
1242,-27.343750
1243,-27.343750
1244,-27.343750
1245,-27.343750
1246,-27.343750
1247,-27.343750
1248,-27.343750
1249,-27.343750
1250,-27.343750
1251,-27.343750
1252,-27.343750
1253,-27.343750
1254,-27.343750
1255,-27.343750
1256,-27.343750
1257,-27.343750
1258,-27.343750
1259,-27.343750
1260,-27.343750
1261,-27.343750
1262,-27.343750
1263,-27.343750
1264,-27.343750
1265,-27.343750
1266,-27.343750
1267,-27.343750
1268,-27.343750
1269,-27.343750
1270,-27.343750
1271,-27.343750
1272,-31.250000
1273,-27.343750
1274,-27.343750
1275,-31.250000
1276,-27.343750
1277,-27.343750
1278,-27.343750
1279,-27.343750
1280,-27.343750
1281,-27.343750
1282,-27.343750
1283,-27.343750
1284,-27.343750
1285,-27.343750
1286,-27.343750
1287,-27.343750
1288,-27.343750
1289,-27.343750
1290,-27.343750
1291,-27.343750
1292,-27.343750
1293,-27.343750
1294,-27.343750
1295,-27.343750
1296,-27.343750
1297,-27.343750
1298,-27.343750
1299,-27.343750
1300,-27.343750
1301,-27.343750
1302,-27.343750
1303,-27.343750
1304,-27.343750
1305,-27.343750
1306,-27.343750
1307,-27.343750
1308,-27.343750
1309,-27.343750
1310,-27.343750
1311,-27.343750
1312,-27.343750
1313,-27.343750
1314,-27.343750
1315,-27.343750
1316,-27.343750
1317,-27.343750
1318,-27.343750
1319,-27.343750
1320,-27.343750
1321,-27.343750
1322,-27.343750
1323,-27.343750
1324,-27.343750
1325,-27.343750
1326,-27.343750
1327,-27.343750
1328,-27.343750
1329,-27.343750
1330,-27.343750
