Practicum8/data/opgave5/f1/data_83_017.csv

Channel              :,CH1
Frequency            :,619.8Hz
Period               :,1.613ms
PK-PK                :,128.9mV
Probe attenuation    :,1X
Voltage per ADC value:,0.122070mV
Time interval        :,2.00000us

index,CH1_Voltage(mV)
1,56.640625
2,56.640625
3,56.640625
4,54.687500
5,54.687500
6,54.687500
7,54.687500
8,54.687500
9,54.687500
10,54.687500
11,54.687500
12,52.734375
13,52.734375
14,52.734375
15,52.734375
16,52.734375
17,52.734375
18,52.734375
19,52.734375
20,50.781250
21,50.781250
22,50.781250
23,50.781250
24,50.781250
25,50.781250
26,50.781250
27,48.828125
28,48.828125
29,48.828125
30,48.828125
31,48.828125
32,46.875000
33,46.875000
34,46.875000
35,46.875000
36,46.875000
37,46.875000
38,46.875000
39,44.921875
40,44.921875
41,44.921875
42,44.921875
43,44.921875
44,44.921875
45,42.968750
46,42.968750
47,42.968750
48,42.968750
49,41.015625
50,41.015625
51,41.015625
52,41.015625
53,41.015625
54,39.062500
55,39.062500
56,39.062500
57,39.062500
58,39.062500
59,39.062500
60,37.109375
61,37.109375
62,39.062500
63,37.109375
64,37.109375
65,37.109375
66,35.156250
67,35.156250
68,35.156250
69,35.156250
70,35.156250
71,35.156250
72,33.203125
73,35.156250
74,33.203125
75,33.203125
76,31.250000
77,31.250000
78,31.250000
79,29.296875
80,31.250000
81,31.250000
82,31.250000
83,29.296875
84,29.296875
85,27.343750
86,29.296875
87,27.343750
88,27.343750
89,27.343750
90,25.390625
91,25.390625
92,25.390625
93,25.390625
94,25.390625
95,25.390625
96,23.437500
97,23.437500
98,23.437500
99,21.484375
100,21.484375
101,21.484375
102,21.484375
103,21.484375
104,19.531250
105,19.531250
106,19.531250
107,19.531250
108,19.531250
109,17.578125
110,17.578125
111,17.578125
112,17.578125
113,15.625000
114,15.625000
115,15.625000
116,15.625000
117,13.671875
118,13.671875
119,13.671875
120,13.671875
121,13.671875
122,11.718750
123,11.718750
124,11.718750
125,11.718750
126,9.765625
127,9.765625
128,9.765625
129,9.765625
130,9.765625
131,7.812500
132,7.812500
133,7.812500
134,5.859375
135,7.812500
136,7.812500
137,5.859375
138,5.859375
139,3.906250
140,3.906250
141,3.906250
142,3.906250
143,1.953125
144,1.953125
145,1.953125
146,1.953125
147,0.000000
148,0.000000
149,0.000000
150,-1.953125
151,0.000000
152,0.000000
153,-1.953125
154,-1.953125
155,-3.906250
156,-3.906250
157,-3.906250
158,-3.906250
159,-5.859375
160,-5.859375
161,-5.859375
162,-5.859375
163,-7.812500
164,-7.812500
165,-7.812500
166,-7.812500
167,-9.765625
168,-9.765625
169,-9.765625
170,-11.718750
171,-11.718750
172,-11.718750
173,-11.718750
174,-11.718750
175,-11.718750
176,-13.671875
177,-13.671875
178,-13.671875
179,-15.625000
180,-15.625000
181,-15.625000
182,-15.625000
183,-15.625000
184,-17.578125
185,-17.578125
186,-17.578125
187,-17.578125
188,-19.531250
189,-17.578125
190,-19.531250
191,-19.531250
192,-19.531250
193,-19.531250
194,-21.484375
195,-19.531250
196,-21.484375
197,-23.437500
198,-23.437500
199,-23.437500
200,-23.437500
201,-23.437500
202,-23.437500
203,-25.390625
204,-25.390625
205,-25.390625
206,-25.390625
207,-27.343750
208,-27.343750
209,-27.343750
210,-27.343750
211,-27.343750
212,-27.343750
213,-29.296875
214,-29.296875
215,-29.296875
216,-29.296875
217,-31.250000
218,-31.250000
219,-31.250000
220,-31.250000
221,-31.250000
222,-33.203125
223,-33.203125
224,-31.250000
225,-33.203125
226,-33.203125
227,-35.156250
228,-35.156250
229,-33.203125
230,-35.156250
231,-37.109375
232,-35.156250
233,-37.109375
234,-37.109375
235,-37.109375
236,-37.109375
237,-37.109375
238,-39.062500
239,-39.062500
240,-39.062500
241,-39.062500
242,-39.062500
243,-39.062500
244,-39.062500
245,-39.062500
246,-41.015625
247,-41.015625
248,-41.015625
249,-41.015625
250,-41.015625
251,-42.968750
252,-42.968750
253,-42.968750
254,-42.968750
255,-42.968750
256,-42.968750
257,-44.921875
258,-44.921875
259,-44.921875
260,-44.921875
261,-44.921875
262,-39.062500
263,-44.921875
264,-44.921875
265,-46.875000
266,-46.875000
267,-46.875000
268,-46.875000
269,-46.875000
270,-46.875000
271,-46.875000
272,-46.875000
273,-46.875000
274,-48.828125
275,-48.828125
276,-48.828125
277,-48.828125
278,-48.828125
279,-48.828125
280,-48.828125
281,-48.828125
282,-50.781250
283,-50.781250
284,-50.781250
285,-50.781250
286,-50.781250
287,-50.781250
288,-50.781250
289,-50.781250
290,-50.781250
291,-52.734375
292,-50.781250
293,-52.734375
294,-52.734375
295,-52.734375
296,-52.734375
297,-52.734375
298,-52.734375
299,-52.734375
300,-52.734375
301,-52.734375
302,-52.734375
303,-54.687500
304,-52.734375
305,-52.734375
306,-52.734375
307,-54.687500
308,-54.687500
309,-52.734375
310,-54.687500
311,-54.687500
312,-54.687500
313,-54.687500
314,-54.687500
315,-54.687500
316,-54.687500
317,-54.687500
318,-54.687500
319,-54.687500
320,-54.687500
321,-54.687500
322,-54.687500
323,-54.687500
324,-54.687500
325,-54.687500
326,-54.687500
327,-54.687500
328,-54.687500
329,-52.734375
330,-54.687500
331,-54.687500
332,-54.687500
333,-54.687500
334,-54.687500
335,-54.687500
336,-54.687500
337,-54.687500
338,-54.687500
339,-54.687500
340,-54.687500
341,-56.640625
342,-54.687500
343,-54.687500
344,-54.687500
345,-54.687500
346,-54.687500
347,-54.687500
348,-54.687500
349,-54.687500
350,-54.687500
351,-54.687500
352,-54.687500
353,-54.687500
354,-54.687500
355,-54.687500
356,-54.687500
357,-54.687500
358,-54.687500
359,-54.687500
360,-54.687500
361,-54.687500
362,-54.687500
363,-54.687500
364,-54.687500
365,-54.687500
366,-54.687500
367,-52.734375
368,-52.734375
369,-52.734375
370,-52.734375
371,-54.687500
372,-52.734375
373,-52.734375
374,-52.734375
375,-52.734375
376,-52.734375
377,-52.734375
378,-52.734375
379,-52.734375
380,-52.734375
381,-50.781250
382,-50.781250
383,-50.781250
384,-50.781250
385,-50.781250
386,-50.781250
387,-50.781250
388,-50.781250
389,-48.828125
390,-48.828125
391,-50.781250
392,-48.828125
393,-48.828125
394,-48.828125
395,-48.828125
396,-48.828125
397,-48.828125
398,-46.875000
399,-46.875000
400,-48.828125
401,-46.875000
402,-46.875000
403,-46.875000
404,-46.875000
405,-46.875000
406,-46.875000
407,-44.921875
408,-44.921875
409,-44.921875
410,-44.921875
411,-44.921875
412,-44.921875
413,-44.921875
414,-44.921875
415,-44.921875
416,-44.921875
417,-42.968750
418,-42.968750
419,-42.968750
420,-42.968750
421,-42.968750
422,-41.015625
423,-41.015625
424,-41.015625
425,-41.015625
426,-41.015625
427,-41.015625
428,-41.015625
429,-39.062500
430,-39.062500
431,-39.062500
432,-39.062500
433,-39.062500
434,-37.109375
435,-37.109375
436,-39.062500
437,-37.109375
438,-37.109375
439,-37.109375
440,-37.109375
441,-37.109375
442,-35.156250
443,-35.156250
444,-35.156250
445,-35.156250
446,-33.203125
447,-35.156250
448,-33.203125
449,-33.203125
450,-33.203125
451,-33.203125
452,-31.250000
453,-31.250000
454,-31.250000
455,-31.250000
456,-29.296875
457,-29.296875
458,-29.296875
459,-29.296875
460,-29.296875
461,-27.343750
462,-27.343750
463,-27.343750
464,-27.343750
465,-27.343750
466,-27.343750
467,-25.390625
468,-25.390625
469,-25.390625
470,-25.390625
471,-23.437500
472,-25.390625
473,-23.437500
474,-23.437500
475,-23.437500
476,-21.484375
477,-21.484375
478,-21.484375
479,-21.484375
480,-19.531250
481,-19.531250
482,-19.531250
483,-19.531250
484,-19.531250
485,-19.531250
486,-17.578125
487,-17.578125
488,-17.578125
489,-17.578125
490,-17.578125
491,-15.625000
492,-15.625000
493,-15.625000
494,-13.671875
495,-15.625000
496,-13.671875
497,-13.671875
498,-13.671875
499,-13.671875
500,-11.718750
501,-11.718750
502,-11.718750
503,-11.718750
504,-11.718750
505,-9.765625
506,-11.718750
507,-9.765625
508,-7.812500
509,-7.812500
510,-7.812500
511,-9.765625
512,-5.859375
513,-5.859375
514,-5.859375
515,-5.859375
516,-9.765625
517,-3.906250
518,-3.906250
519,-3.906250
520,-1.953125
521,-1.953125
522,-1.953125
523,-1.953125
524,-1.953125
525,-1.953125
526,0.000000
527,0.000000
528,0.000000
529,1.953125
530,0.000000
531,1.953125
532,1.953125
533,1.953125
534,3.906250
535,3.906250
536,3.906250
537,5.859375
538,3.906250
539,3.906250
540,5.859375
541,5.859375
542,5.859375
543,5.859375
544,7.812500
545,7.812500
546,7.812500
547,9.765625
548,7.812500
549,9.765625
550,9.765625
551,9.765625
552,11.718750
553,11.718750
554,11.718750
555,11.718750
556,13.671875
557,13.671875
558,13.671875
559,15.625000
560,13.671875
561,13.671875
562,15.625000
563,15.625000
564,15.625000
565,15.625000
566,17.578125
567,17.578125
568,17.578125
569,19.531250
570,19.531250
571,19.531250
572,19.531250
573,19.531250
574,21.484375
575,21.484375
576,21.484375
577,21.484375
578,23.437500
579,23.437500
580,23.437500
581,23.437500
582,23.437500
583,25.390625
584,25.390625
585,25.390625
586,25.390625
587,27.343750
588,29.296875
589,27.343750
590,27.343750
591,27.343750
592,29.296875
593,29.296875
594,29.296875
595,29.296875
596,29.296875
597,29.296875
598,31.250000
599,31.250000
600,31.250000
601,31.250000
602,33.203125
603,33.203125
604,33.203125
605,33.203125
606,33.203125
607,35.156250
608,35.156250
609,35.156250
610,35.156250
611,35.156250
612,37.109375
613,37.109375
614,37.109375
615,37.109375
616,37.109375
617,37.109375
618,39.062500
619,37.109375
620,39.062500
621,39.062500
622,39.062500
623,39.062500
624,39.062500
625,41.015625
626,41.015625
627,41.015625
628,41.015625
629,41.015625
630,42.968750
631,42.968750
632,42.968750
633,42.968750
634,42.968750
635,44.921875
636,44.921875
637,44.921875
638,44.921875
639,44.921875
640,44.921875
641,46.875000
642,46.875000
643,46.875000
644,46.875000
645,46.875000
646,46.875000
647,46.875000
648,48.828125
649,48.828125
650,48.828125
651,48.828125
652,48.828125
653,48.828125
654,48.828125
655,50.781250
656,50.781250
657,50.781250
658,50.781250
659,50.781250
660,52.734375
661,52.734375
662,50.781250
663,52.734375
664,52.734375
665,52.734375
666,52.734375
667,54.687500
668,52.734375
669,52.734375
670,52.734375
671,54.687500
672,54.687500
673,54.687500
674,54.687500
675,54.687500
676,54.687500
677,54.687500
678,54.687500
679,56.640625
680,56.640625
681,56.640625
682,56.640625
683,56.640625
684,56.640625
685,56.640625
686,56.640625
687,56.640625
688,58.593750
689,56.640625
690,58.593750
691,56.640625
692,58.593750
693,58.593750
694,58.593750
695,58.593750
696,58.593750
697,58.593750
698,58.593750
699,58.593750
700,58.593750
701,60.546875
702,60.546875
703,60.546875
704,58.593750
705,60.546875
706,60.546875
707,58.593750
708,60.546875
709,60.546875
710,60.546875
711,58.593750
712,60.546875
713,60.546875
714,62.500000
715,60.546875
716,62.500000
717,60.546875
718,62.500000
719,62.500000
720,62.500000
721,62.500000
722,62.500000
723,62.500000
724,62.500000
725,62.500000
726,60.546875
727,62.500000
728,62.500000
729,62.500000
730,62.500000
731,62.500000
732,62.500000
733,62.500000
734,62.500000
735,62.500000
736,62.500000
737,60.546875
738,62.500000
739,62.500000
740,62.500000
741,62.500000
742,62.500000
743,62.500000
744,62.500000
745,62.500000
746,62.500000
747,62.500000
748,62.500000
749,62.500000
750,60.546875
751,62.500000
752,62.500000
753,62.500000
754,62.500000
755,62.500000
756,62.500000
757,62.500000
758,62.500000
759,62.500000
760,62.500000
761,62.500000
762,62.500000
763,62.500000
764,62.500000
765,60.546875
766,62.500000
767,60.546875
768,60.546875
769,62.500000
770,60.546875
771,62.500000
772,60.546875
773,62.500000
774,60.546875
775,60.546875
776,60.546875
777,60.546875
778,62.500000
779,60.546875
780,60.546875
781,60.546875
782,60.546875
783,60.546875
784,60.546875
785,60.546875
786,58.593750
787,58.593750
788,60.546875
789,58.593750
790,58.593750
791,58.593750
792,58.593750
793,58.593750
794,58.593750
795,58.593750
796,58.593750
797,58.593750
798,58.593750
799,56.640625
800,58.593750
801,56.640625
802,56.640625
803,56.640625
804,56.640625
805,56.640625
806,54.687500
807,56.640625
808,56.640625
809,54.687500
810,54.687500
811,54.687500
812,54.687500
813,54.687500
814,54.687500
815,54.687500
816,54.687500
817,52.734375
818,52.734375
819,52.734375
820,52.734375
821,52.734375
822,52.734375
823,52.734375
824,52.734375
825,50.781250
826,50.781250
827,52.734375
828,50.781250
829,50.781250
830,50.781250
831,50.781250
832,50.781250
833,48.828125
834,48.828125
835,48.828125
836,48.828125
837,48.828125
838,48.828125
839,48.828125
840,48.828125
841,46.875000
842,46.875000
843,46.875000
844,46.875000
845,46.875000
846,44.921875
847,46.875000
848,44.921875
849,44.921875
850,44.921875
851,44.921875
852,44.921875
853,42.968750
854,42.968750
855,42.968750
856,42.968750
857,42.968750
858,42.968750
859,41.015625
860,41.015625
861,39.062500
862,41.015625
863,41.015625
864,39.062500
865,39.062500
866,39.062500
867,39.062500
868,39.062500
869,37.109375
870,37.109375
871,37.109375
872,35.156250
873,35.156250
874,35.156250
875,35.156250
876,35.156250
877,35.156250
878,35.156250
879,33.203125
880,33.203125
881,33.203125
882,33.203125
883,31.250000
884,31.250000
885,31.250000
886,31.250000
887,31.250000
888,31.250000
889,29.296875
890,29.296875
891,29.296875
892,29.296875
893,27.343750
894,27.343750
895,27.343750
896,27.343750
897,27.343750
898,27.343750
899,25.390625
900,25.390625
901,25.390625
902,25.390625
903,23.437500
904,23.437500
905,23.437500
906,23.437500
907,23.437500
908,21.484375
909,21.484375
910,21.484375
911,19.531250
912,19.531250
913,19.531250
914,19.531250
915,19.531250
916,17.578125
917,17.578125
918,17.578125
919,15.625000
920,17.578125
921,15.625000
922,17.578125
923,15.625000
924,15.625000
925,13.671875
926,13.671875
927,13.671875
928,13.671875
929,11.718750
930,11.718750
931,11.718750
932,11.718750
933,9.765625
934,9.765625
935,7.812500
936,9.765625
937,7.812500
938,7.812500
939,7.812500
940,7.812500
941,5.859375
942,5.859375
943,5.859375
944,5.859375
945,3.906250
946,3.906250
947,3.906250
948,1.953125
949,1.953125
950,1.953125
951,1.953125
952,1.953125
953,1.953125
954,0.000000
955,0.000000
956,0.000000
957,0.000000
958,-1.953125
959,-1.953125
960,-1.953125
961,-1.953125
962,-1.953125
963,-3.906250
964,-3.906250
965,-3.906250
966,-5.859375
967,-5.859375
968,-5.859375
969,-5.859375
970,-5.859375
971,-7.812500
972,-7.812500
973,-7.812500
974,-9.765625
975,-9.765625
976,-9.765625
977,-9.765625
978,-11.718750
979,-11.718750
980,-11.718750
981,-11.718750
982,-11.718750
983,-13.671875
984,-13.671875
985,-13.671875
986,-13.671875
987,-15.625000
988,-15.625000
989,-15.625000
990,-15.625000
991,-15.625000
992,-17.578125
993,-17.578125
994,-17.578125
995,-17.578125
996,-17.578125
997,-19.531250
998,-19.531250
999,-19.531250
1000,-19.531250
1001,-21.484375
1002,-21.484375
1003,-21.484375
1004,-21.484375
1005,-23.437500
1006,-23.437500
1007,-23.437500
1008,-23.437500
1009,-25.390625
1010,-25.390625
1011,-25.390625
1012,-25.390625
1013,-25.390625
1014,-27.343750
1015,-27.343750
1016,-27.343750
1017,-27.343750
1018,-29.296875
1019,-29.296875
1020,-29.296875
1021,-29.296875
1022,-29.296875
1023,-29.296875
1024,-31.250000
1025,-31.250000
1026,-31.250000
1027,-31.250000
1028,-31.250000
1029,-31.250000
1030,-31.250000
1031,-33.203125
1032,-33.203125
1033,-33.203125
1034,-35.156250
1035,-33.203125
1036,-35.156250
1037,-35.156250
1038,-35.156250
1039,-35.156250
1040,-35.156250
1041,-35.156250
1042,-37.109375
1043,-37.109375
1044,-37.109375
1045,-37.109375
1046,-37.109375
1047,-39.062500
1048,-39.062500
1049,-39.062500
1050,-39.062500
1051,-39.062500
1052,-41.015625
1053,-41.015625
1054,-41.015625
1055,-41.015625
1056,-41.015625
1057,-41.015625
1058,-41.015625
1059,-42.968750
1060,-42.968750
1061,-42.968750
1062,-42.968750
1063,-42.968750
1064,-44.921875
1065,-44.921875
1066,-44.921875
1067,-44.921875
1068,-44.921875
1069,-44.921875
1070,-44.921875
1071,-44.921875
1072,-46.875000
1073,-46.875000
1074,-46.875000
1075,-46.875000
1076,-46.875000
1077,-46.875000
1078,-46.875000
1079,-48.828125
1080,-46.875000
1081,-48.828125
1082,-48.828125
1083,-48.828125
1084,-48.828125
1085,-48.828125
1086,-48.828125
1087,-48.828125
1088,-50.781250
1089,-48.828125
1090,-50.781250
1091,-50.781250
1092,-50.781250
1093,-52.734375
1094,-50.781250
1095,-50.781250
1096,-50.781250
1097,-50.781250
1098,-50.781250
1099,-52.734375
1100,-52.734375
1101,-52.734375
1102,-50.781250
1103,-52.734375
1104,-52.734375
1105,-52.734375
1106,-52.734375
1107,-52.734375
1108,-52.734375
1109,-54.687500
1110,-52.734375
1111,-52.734375
1112,-52.734375
1113,-52.734375
1114,-54.687500
1115,-52.734375
1116,-52.734375
1117,-54.687500
1118,-54.687500
1119,-52.734375
1120,-54.687500
1121,-54.687500
1122,-54.687500
1123,-54.687500
1124,-54.687500
1125,-54.687500
1126,-54.687500
1127,-54.687500
1128,-54.687500
1129,-54.687500
1130,-54.687500
1131,-56.640625
1132,-54.687500
1133,-54.687500
1134,-54.687500
1135,-56.640625
1136,-56.640625
1137,-54.687500
1138,-54.687500
1139,-56.640625
1140,-56.640625
1141,-54.687500
1142,-54.687500
1143,-56.640625
1144,-54.687500
1145,-54.687500
1146,-54.687500
1147,-54.687500
1148,-56.640625
1149,-54.687500
1150,-54.687500
1151,-56.640625
1152,-54.687500
1153,-54.687500
1154,-54.687500
1155,-54.687500
1156,-54.687500
1157,-54.687500
1158,-54.687500
1159,-54.687500
1160,-54.687500
1161,-54.687500
1162,-54.687500
1163,-54.687500
1164,-54.687500
1165,-54.687500
1166,-54.687500
1167,-54.687500
1168,-54.687500
1169,-54.687500
1170,-52.734375
1171,-54.687500
1172,-54.687500
1173,-52.734375
1174,-52.734375
1175,-52.734375
1176,-54.687500
1177,-52.734375
1178,-52.734375
1179,-52.734375
1180,-52.734375
1181,-52.734375
1182,-52.734375
1183,-52.734375
1184,-52.734375
1185,-50.781250
1186,-52.734375
1187,-52.734375
1188,-50.781250
1189,-50.781250
1190,-50.781250
1191,-52.734375
1192,-50.781250
1193,-50.781250
1194,-50.781250
1195,-50.781250
1196,-50.781250
1197,-48.828125
1198,-50.781250
1199,-50.781250
1200,-48.828125
1201,-48.828125
1202,-48.828125
1203,-48.828125
1204,-46.875000
1205,-48.828125
1206,-48.828125
1207,-48.828125
1208,-48.828125
1209,-46.875000
1210,-46.875000
1211,-46.875000
1212,-46.875000
1213,-46.875000
1214,-46.875000
1215,-46.875000
1216,-44.921875
1217,-44.921875
1218,-44.921875
1219,-44.921875
1220,-44.921875
1221,-44.921875
1222,-44.921875
1223,-42.968750
1224,-42.968750
1225,-42.968750
1226,-42.968750
1227,-42.968750
1228,-42.968750
1229,-41.015625
1230,-41.015625
1231,-42.968750
1232,-41.015625
1233,-39.062500
1234,-41.015625
1235,-41.015625
1236,-39.062500
1237,-39.062500
1238,-39.062500
1239,-39.062500
1240,-39.062500
1241,-37.109375
1242,-37.109375
1243,-37.109375
1244,-37.109375
1245,-37.109375
1246,-37.109375
1247,-37.109375
1248,-35.156250
1249,-35.156250
1250,-35.156250
1251,-35.156250
1252,-35.156250
1253,-35.156250
1254,-33.203125
1255,-33.203125
1256,-33.203125
1257,-33.203125
1258,-33.203125
1259,-31.250000
1260,-31.250000
1261,-31.250000
1262,-31.250000
1263,-31.250000
1264,-31.250000
1265,-29.296875
1266,-29.296875
1267,-29.296875
1268,-27.343750
1269,-29.296875
1270,-27.343750
1271,-27.343750
1272,-27.343750
1273,-27.343750
1274,-25.390625
1275,-25.390625
1276,-25.390625
1277,-25.390625
1278,-25.390625
1279,-25.390625
1280,-23.437500
1281,-23.437500
1282,-23.437500
1283,-23.437500
1284,-21.484375
1285,-21.484375
1286,-23.437500
1287,-21.484375
1288,-19.531250
1289,-19.531250
1290,-19.531250
1291,-19.531250
1292,-19.531250
1293,-17.578125
1294,-17.578125
1295,-17.578125
1296,-19.531250
1297,-15.625000
1298,-15.625000
1299,-15.625000
1300,-15.625000
1301,-13.671875
1302,-15.625000
1303,-13.671875
1304,-15.625000
1305,-13.671875
1306,-13.671875
1307,-11.718750
1308,-11.718750
1309,-11.718750
1310,-11.718750
1311,-11.718750
1312,-9.765625
1313,-9.765625
1314,-9.765625
1315,-7.812500
1316,-7.812500
1317,-7.812500
1318,-7.812500
1319,-7.812500
1320,-5.859375
1321,-5.859375
1322,-5.859375
1323,-5.859375
1324,-3.906250
1325,-3.906250
1326,-3.906250
1327,-3.906250
1328,-3.906250
1329,-3.906250
1330,-1.953125
1331,-1.953125
1332,-1.953125
1333,-1.953125
1334,0.000000
1335,0.000000
1336,5.859375
1337,0.000000
1338,1.953125
1339,1.953125
1340,1.953125
1341,1.953125
1342,3.906250
1343,3.906250
1344,3.906250
1345,3.906250
1346,3.906250
1347,5.859375
1348,5.859375
1349,5.859375
1350,5.859375
1351,7.812500
1352,7.812500
1353,7.812500
