Practicum8/data/opgave5/f1/data_83_012.csv

Channel              :,CH1
Frequency            :,619.8Hz
Period               :,1.613ms
PK-PK                :,52.73mV
Probe attenuation    :,1X
Voltage per ADC value:,0.122070mV
Time interval        :,2.00000us

index,CH1_Voltage(mV)
1,-17.578125
2,-17.578125
3,-15.625000
4,-15.625000
5,-15.625000
6,-17.578125
7,-17.578125
8,-17.578125
9,-15.625000
10,-17.578125
11,-17.578125
12,-17.578125
13,-17.578125
14,-17.578125
15,-17.578125
16,-17.578125
17,-17.578125
18,-17.578125
19,-17.578125
20,-17.578125
21,-17.578125
22,-17.578125
23,-17.578125
24,-17.578125
25,-17.578125
26,-17.578125
27,-17.578125
28,-17.578125
29,-17.578125
30,-17.578125
31,-17.578125
32,-17.578125
33,-17.578125
34,-17.578125
35,-17.578125
36,-17.578125
37,-17.578125
38,-17.578125
39,-13.671875
40,-17.578125
41,-17.578125
42,-17.578125
43,-17.578125
44,-17.578125
45,-17.578125
46,-17.578125
47,-17.578125
48,-17.578125
49,-17.578125
50,-17.578125
51,-17.578125
52,-17.578125
53,-17.578125
54,-17.578125
55,-17.578125
56,-17.578125
57,-17.578125
58,-17.578125
59,-17.578125
60,-17.578125
61,-17.578125
62,-17.578125
63,-17.578125
64,-17.578125
65,-17.578125
66,-17.578125
67,-17.578125
68,-17.578125
69,-17.578125
70,-17.578125
71,-17.578125
72,-17.578125
73,-19.531250
74,-17.578125
75,-17.578125
76,-17.578125
77,-17.578125
78,-17.578125
79,-17.578125
80,-17.578125
81,-17.578125
82,-17.578125
83,-17.578125
84,-17.578125
85,-17.578125
86,-17.578125
87,-17.578125
88,-15.625000
89,-17.578125
90,-17.578125
91,-17.578125
92,-17.578125
93,-17.578125
94,-17.578125
95,-15.625000
96,-15.625000
97,-17.578125
98,-17.578125
99,-15.625000
100,-15.625000
101,-17.578125
102,-15.625000
103,-15.625000
104,-15.625000
105,-15.625000
106,-15.625000
107,-15.625000
108,-15.625000
109,-15.625000
110,-15.625000
111,-13.671875
112,-15.625000
113,-15.625000
114,-13.671875
115,-13.671875
116,-13.671875
117,-13.671875
118,-13.671875
119,-13.671875
120,-13.671875
121,-13.671875
122,-13.671875
123,-13.671875
124,-13.671875
125,-13.671875
126,-13.671875
127,-13.671875
128,-13.671875
129,-13.671875
130,-13.671875
131,-13.671875
132,-13.671875
133,-11.718750
134,-13.671875
135,-11.718750
136,-11.718750
137,-13.671875
138,-11.718750
139,-11.718750
140,-11.718750
141,-11.718750
142,-11.718750
143,-11.718750
144,-11.718750
145,-11.718750
146,-11.718750
147,-11.718750
148,-11.718750
149,-11.718750
150,-11.718750
151,-11.718750
152,-9.765625
153,-9.765625
154,-9.765625
155,-7.812500
156,-9.765625
157,-9.765625
158,-9.765625
159,-9.765625
160,-9.765625
161,-7.812500
162,-7.812500
163,-9.765625
164,-7.812500
165,-7.812500
166,-7.812500
167,-7.812500
168,-7.812500
169,-7.812500
170,-7.812500
171,-7.812500
172,-7.812500
173,-5.859375
174,-5.859375
175,-5.859375
176,-7.812500
177,-5.859375
178,-5.859375
179,-5.859375
180,-5.859375
181,-5.859375
182,-5.859375
183,-5.859375
184,-5.859375
185,-5.859375
186,-5.859375
187,-5.859375
188,-5.859375
189,-3.906250
190,-3.906250
191,-3.906250
192,-3.906250
193,-3.906250
194,-3.906250
195,-3.906250
196,-3.906250
197,-3.906250
198,-1.953125
199,-1.953125
200,-1.953125
201,-3.906250
202,-1.953125
203,-1.953125
204,-1.953125
205,0.000000
206,-1.953125
207,-1.953125
208,-1.953125
209,0.000000
210,0.000000
211,-1.953125
212,0.000000
213,-1.953125
214,0.000000
215,0.000000
216,0.000000
217,0.000000
218,1.953125
219,0.000000
220,0.000000
221,0.000000
222,0.000000
223,1.953125
224,1.953125
225,1.953125
226,1.953125
227,1.953125
228,1.953125
229,1.953125
230,1.953125
231,1.953125
232,1.953125
233,1.953125
234,3.906250
235,3.906250
236,3.906250
237,3.906250
238,3.906250
239,3.906250
240,3.906250
241,3.906250
242,5.859375
243,5.859375
244,5.859375
245,5.859375
246,5.859375
247,5.859375
248,5.859375
249,5.859375
250,5.859375
251,5.859375
252,5.859375
253,7.812500
254,7.812500
255,7.812500
256,7.812500
257,7.812500
258,7.812500
259,7.812500
260,7.812500
261,7.812500
262,7.812500
263,7.812500
264,7.812500
265,9.765625
266,9.765625
267,9.765625
268,9.765625
269,9.765625
270,9.765625
271,9.765625
272,9.765625
273,9.765625
274,9.765625
275,11.718750
276,11.718750
277,11.718750
278,11.718750
279,11.718750
280,11.718750
281,11.718750
282,11.718750
283,11.718750
284,11.718750
285,11.718750
286,11.718750
287,13.671875
288,13.671875
289,13.671875
290,13.671875
291,13.671875
292,13.671875
293,13.671875
294,13.671875
295,15.625000
296,15.625000
297,13.671875
298,15.625000
299,15.625000
300,15.625000
301,15.625000
302,15.625000
303,15.625000
304,15.625000
305,15.625000
306,15.625000
307,15.625000
308,17.578125
309,15.625000
310,17.578125
311,17.578125
312,17.578125
313,17.578125
314,17.578125
315,17.578125
316,17.578125
317,19.531250
318,17.578125
319,17.578125
320,17.578125
321,19.531250
322,19.531250
323,19.531250
324,19.531250
325,19.531250
326,19.531250
327,19.531250
328,19.531250
329,19.531250
330,19.531250
331,19.531250
332,19.531250
333,19.531250
334,19.531250
335,19.531250
336,21.484375
337,21.484375
338,19.531250
339,19.531250
340,19.531250
341,21.484375
342,21.484375
343,21.484375
344,21.484375
345,21.484375
346,21.484375
347,21.484375
348,19.531250
349,21.484375
350,21.484375
351,21.484375
352,21.484375
353,23.437500
354,21.484375
355,23.437500
356,23.437500
357,21.484375
358,21.484375
359,21.484375
360,23.437500
361,21.484375
362,23.437500
363,21.484375
364,23.437500
365,23.437500
366,23.437500
367,23.437500
368,23.437500
369,23.437500
370,23.437500
371,23.437500
372,23.437500
373,23.437500
374,23.437500
375,23.437500
376,25.390625
377,25.390625
378,25.390625
379,25.390625
380,23.437500
381,25.390625
382,25.390625
383,25.390625
384,23.437500
385,23.437500
386,25.390625
387,25.390625
388,25.390625
389,25.390625
390,23.437500
391,23.437500
392,25.390625
393,25.390625
394,25.390625
395,25.390625
396,25.390625
397,25.390625
398,25.390625
399,25.390625
400,25.390625
401,25.390625
402,25.390625
403,25.390625
404,25.390625
405,23.437500
406,25.390625
407,25.390625
408,25.390625
409,25.390625
410,25.390625
411,25.390625
412,25.390625
413,25.390625
414,25.390625
415,25.390625
416,25.390625
417,25.390625
418,25.390625
419,25.390625
420,25.390625
421,25.390625
422,25.390625
423,25.390625
424,25.390625
425,25.390625
426,25.390625
427,25.390625
428,25.390625
429,25.390625
430,27.343750
431,25.390625
432,25.390625
433,25.390625
434,25.390625
435,25.390625
436,25.390625
437,27.343750
438,25.390625
439,25.390625
440,25.390625
441,25.390625
442,25.390625
443,25.390625
444,25.390625
445,25.390625
446,27.343750
447,25.390625
448,25.390625
449,27.343750
450,25.390625
451,25.390625
452,25.390625
453,25.390625
454,25.390625
455,25.390625
456,25.390625
457,25.390625
458,25.390625
459,25.390625
460,25.390625
461,21.484375
462,25.390625
463,25.390625
464,25.390625
465,25.390625
466,25.390625
467,25.390625
468,25.390625
469,25.390625
470,25.390625
471,25.390625
472,25.390625
473,25.390625
474,23.437500
475,25.390625
476,25.390625
477,25.390625
478,25.390625
479,25.390625
480,23.437500
481,23.437500
482,23.437500
483,23.437500
484,25.390625
485,23.437500
486,23.437500
487,23.437500
488,23.437500
489,23.437500
490,23.437500
491,23.437500
492,23.437500
493,23.437500
494,23.437500
495,23.437500
496,23.437500
497,23.437500
498,23.437500
499,23.437500
500,23.437500
501,23.437500
502,23.437500
503,23.437500
504,23.437500
505,23.437500
506,23.437500
507,23.437500
508,23.437500
509,23.437500
510,23.437500
511,23.437500
512,23.437500
513,21.484375
514,21.484375
515,21.484375
516,21.484375
517,21.484375
518,23.437500
519,21.484375
520,21.484375
521,21.484375
522,21.484375
523,21.484375
524,21.484375
525,21.484375
526,21.484375
527,19.531250
528,19.531250
529,19.531250
530,19.531250
531,19.531250
532,19.531250
533,19.531250
534,19.531250
535,19.531250
536,19.531250
537,19.531250
538,19.531250
539,19.531250
540,19.531250
541,19.531250
542,17.578125
543,19.531250
544,17.578125
545,19.531250
546,19.531250
547,17.578125
548,17.578125
549,17.578125
550,17.578125
551,17.578125
552,17.578125
553,17.578125
554,17.578125
555,17.578125
556,17.578125
557,17.578125
558,17.578125
559,17.578125
560,15.625000
561,17.578125
562,15.625000
563,17.578125
564,15.625000
565,15.625000
566,15.625000
567,15.625000
568,15.625000
569,15.625000
570,15.625000
571,15.625000
572,15.625000
573,15.625000
574,15.625000
575,15.625000
576,13.671875
577,13.671875
578,13.671875
579,13.671875
580,13.671875
581,13.671875
582,13.671875
583,13.671875
584,13.671875
585,13.671875
586,11.718750
587,13.671875
588,13.671875
589,11.718750
590,11.718750
591,11.718750
592,11.718750
593,11.718750
594,11.718750
595,11.718750
596,11.718750
597,11.718750
598,11.718750
599,9.765625
600,11.718750
601,11.718750
602,9.765625
603,9.765625
604,9.765625
605,9.765625
606,9.765625
607,9.765625
608,9.765625
609,9.765625
610,9.765625
611,9.765625
612,7.812500
613,7.812500
614,7.812500
615,9.765625
616,7.812500
617,7.812500
618,7.812500
619,7.812500
620,9.765625
621,7.812500
622,5.859375
623,7.812500
624,7.812500
625,5.859375
626,7.812500
627,7.812500
628,5.859375
629,5.859375
630,5.859375
631,7.812500
632,5.859375
633,5.859375
634,5.859375
635,5.859375
636,5.859375
637,5.859375
638,5.859375
639,5.859375
640,5.859375
641,3.906250
642,3.906250
643,3.906250
644,3.906250
645,3.906250
646,3.906250
647,3.906250
648,3.906250
649,3.906250
650,3.906250
651,3.906250
652,1.953125
653,1.953125
654,1.953125
655,0.000000
656,1.953125
657,1.953125
658,1.953125
659,1.953125
660,1.953125
661,1.953125
662,1.953125
663,0.000000
664,0.000000
665,0.000000
666,0.000000
667,0.000000
668,0.000000
669,0.000000
670,0.000000
671,0.000000
672,0.000000
673,-1.953125
674,-1.953125
675,0.000000
676,-1.953125
677,-1.953125
678,-1.953125
679,-1.953125
680,-1.953125
681,-1.953125
682,-1.953125
683,-3.906250
684,-1.953125
685,-1.953125
686,-1.953125
687,-1.953125
688,-3.906250
689,-3.906250
690,-3.906250
691,-3.906250
692,-1.953125
693,-3.906250
694,-3.906250
695,-3.906250
696,-3.906250
697,-3.906250
698,-3.906250
699,-3.906250
700,-3.906250
701,-3.906250
702,-3.906250
703,-3.906250
704,-3.906250
705,-5.859375
706,-5.859375
707,-5.859375
708,-5.859375
709,-5.859375
710,-5.859375
711,-5.859375
712,-5.859375
713,-5.859375
714,-5.859375
715,-5.859375
716,-7.812500
717,-7.812500
718,-7.812500
719,-7.812500
720,-7.812500
721,-7.812500
722,-7.812500
723,-7.812500
724,-7.812500
725,-7.812500
726,-7.812500
727,-7.812500
728,-7.812500
729,-7.812500
730,-7.812500
731,-9.765625
732,-9.765625
733,-9.765625
734,-9.765625
735,-9.765625
736,-9.765625
737,-9.765625
738,-9.765625
739,-9.765625
740,-9.765625
741,-9.765625
742,-9.765625
743,-9.765625
744,-9.765625
745,-11.718750
746,-9.765625
747,-9.765625
748,-11.718750
749,-11.718750
750,-11.718750
751,-9.765625
752,-11.718750
753,-11.718750
754,-11.718750
755,-11.718750
756,-11.718750
757,-11.718750
758,-11.718750
759,-11.718750
760,-11.718750
761,-13.671875
762,-11.718750
763,-13.671875
764,-11.718750
765,-13.671875
766,-13.671875
767,-13.671875
768,-13.671875
769,-13.671875
770,-13.671875
771,-13.671875
772,-13.671875
773,-13.671875
774,-13.671875
775,-13.671875
776,-13.671875
777,-13.671875
778,-13.671875
779,-13.671875
780,-13.671875
781,-13.671875
782,-13.671875
783,-15.625000
784,-15.625000
785,-13.671875
786,-15.625000
787,-15.625000
788,-15.625000
789,-15.625000
790,-15.625000
791,-15.625000
792,-15.625000
793,-15.625000
794,-15.625000
795,-15.625000
796,-15.625000
797,-13.671875
798,-15.625000
799,-15.625000
800,-15.625000
801,-15.625000
802,-15.625000
803,-15.625000
804,-15.625000
805,-15.625000
806,-15.625000
807,-15.625000
808,-15.625000
809,-17.578125
810,-15.625000
811,-15.625000
812,-17.578125
813,-17.578125
814,-17.578125
815,-15.625000
816,-17.578125
817,-17.578125
818,-17.578125
819,-17.578125
820,-17.578125
821,-17.578125
822,-17.578125
823,-17.578125
824,-17.578125
825,-17.578125
826,-15.625000
827,-17.578125
828,-17.578125
829,-15.625000
830,-17.578125
831,-17.578125
832,-17.578125
833,-17.578125
834,-17.578125
835,-17.578125
836,-17.578125
837,-17.578125
838,-17.578125
839,-17.578125
840,-17.578125
841,-17.578125
842,-17.578125
843,-17.578125
844,-17.578125
845,-17.578125
846,-17.578125
847,-17.578125
848,-17.578125
849,-17.578125
850,-17.578125
851,-17.578125
852,-17.578125
853,-17.578125
854,-17.578125
855,-17.578125
856,-17.578125
857,-17.578125
858,-17.578125
859,-17.578125
860,-17.578125
861,-17.578125
862,-17.578125
863,-17.578125
864,-17.578125
865,-17.578125
866,-17.578125
867,-17.578125
868,-17.578125
869,-17.578125
870,-17.578125
871,-17.578125
872,-17.578125
873,-17.578125
874,-17.578125
875,-17.578125
876,-17.578125
877,-17.578125
878,-17.578125
879,-17.578125
880,-17.578125
881,-17.578125
882,-17.578125
883,-17.578125
884,-15.625000
885,-17.578125
886,-17.578125
887,-17.578125
888,-17.578125
889,-15.625000
890,-15.625000
891,-15.625000
892,-15.625000
893,-17.578125
894,-15.625000
895,-17.578125
896,-17.578125
897,-17.578125
898,-15.625000
899,-15.625000
900,-15.625000
901,-15.625000
902,-15.625000
903,-15.625000
904,-15.625000
905,-15.625000
906,-15.625000
907,-15.625000
908,-15.625000
909,-15.625000
910,-15.625000
911,-15.625000
912,-15.625000
913,-15.625000
914,-15.625000
915,-15.625000
916,-15.625000
917,-15.625000
918,-15.625000
919,-15.625000
920,-15.625000
921,-15.625000
922,-15.625000
923,-13.671875
924,-15.625000
925,-13.671875
926,-15.625000
927,-13.671875
928,-13.671875
929,-13.671875
930,-13.671875
931,-13.671875
932,-13.671875
933,-13.671875
934,-13.671875
935,-13.671875
936,-13.671875
937,-13.671875
938,-13.671875
939,-13.671875
940,-13.671875
941,-13.671875
942,-11.718750
943,-11.718750
944,-11.718750
945,-11.718750
946,-11.718750
947,-11.718750
948,-11.718750
949,-11.718750
950,-11.718750
951,-11.718750
952,-11.718750
953,-11.718750
954,-9.765625
955,-11.718750
956,-11.718750
957,-9.765625
958,-9.765625
959,-9.765625
960,-9.765625
961,-9.765625
962,-9.765625
963,-9.765625
964,-5.859375
965,-9.765625
966,-9.765625
967,-9.765625
968,-7.812500
969,-9.765625
970,-7.812500
971,-7.812500
972,-7.812500
973,-7.812500
974,-7.812500
975,-7.812500
976,-7.812500
977,-7.812500
978,-7.812500
979,-7.812500
980,-7.812500
981,-7.812500
982,-7.812500
983,-7.812500
984,-7.812500
985,-5.859375
986,-7.812500
987,-5.859375
988,-5.859375
989,-5.859375
990,-5.859375
991,-5.859375
992,-5.859375
993,-5.859375
994,-5.859375
995,-3.906250
996,-5.859375
997,-5.859375
998,-3.906250
999,-5.859375
1000,-3.906250
1001,-3.906250
1002,-3.906250
1003,-3.906250
1004,-3.906250
1005,-3.906250
1006,-1.953125
1007,-1.953125
1008,-3.906250
1009,-1.953125
1010,-1.953125
1011,-1.953125
1012,-1.953125
1013,-1.953125
1014,-1.953125
1015,-1.953125
1016,-1.953125
1017,0.000000
1018,0.000000
1019,0.000000
1020,-1.953125
1021,0.000000
1022,0.000000
1023,0.000000
1024,0.000000
1025,0.000000
1026,0.000000
1027,0.000000
1028,0.000000
1029,1.953125
1030,1.953125
1031,1.953125
1032,1.953125
1033,3.906250
1034,1.953125
1035,1.953125
1036,1.953125
1037,1.953125
1038,0.000000
1039,1.953125
1040,3.906250
1041,3.906250
1042,3.906250
1043,3.906250
1044,3.906250
1045,3.906250
1046,3.906250
1047,3.906250
1048,3.906250
1049,3.906250
1050,5.859375
1051,5.859375
1052,3.906250
1053,5.859375
1054,3.906250
1055,5.859375
1056,5.859375
1057,5.859375
1058,5.859375
1059,5.859375
1060,7.812500
1061,5.859375
1062,5.859375
1063,5.859375
1064,7.812500
1065,7.812500
1066,7.812500
1067,7.812500
1068,7.812500
1069,7.812500
1070,7.812500
1071,9.765625
1072,7.812500
1073,7.812500
1074,9.765625
1075,9.765625
1076,9.765625
1077,9.765625
1078,9.765625
1079,11.718750
1080,9.765625
1081,9.765625
1082,9.765625
1083,11.718750
1084,11.718750
1085,11.718750
1086,11.718750
1087,11.718750
1088,11.718750
1089,11.718750
1090,11.718750
1091,11.718750
1092,11.718750
1093,11.718750
1094,11.718750
1095,13.671875
1096,13.671875
1097,13.671875
1098,13.671875
1099,13.671875
1100,13.671875
1101,13.671875
1102,13.671875
1103,13.671875
1104,13.671875
1105,15.625000
1106,15.625000
1107,13.671875
1108,15.625000
1109,15.625000
1110,15.625000
1111,15.625000
1112,15.625000
1113,15.625000
1114,15.625000
1115,15.625000
1116,15.625000
1117,15.625000
1118,17.578125
1119,17.578125
1120,17.578125
1121,15.625000
1122,17.578125
1123,17.578125
1124,17.578125
1125,17.578125
1126,17.578125
1127,17.578125
1128,17.578125
1129,17.578125
1130,17.578125
1131,19.531250
1132,19.531250
1133,19.531250
1134,17.578125
1135,17.578125
1136,19.531250
1137,21.484375
1138,19.531250
1139,19.531250
1140,19.531250
1141,19.531250
1142,19.531250
1143,19.531250
1144,19.531250
1145,19.531250
1146,19.531250
1147,19.531250
1148,21.484375
1149,21.484375
1150,21.484375
1151,19.531250
1152,21.484375
1153,21.484375
1154,21.484375
1155,21.484375
1156,21.484375
1157,21.484375
1158,21.484375
1159,21.484375
1160,21.484375
1161,23.437500
1162,21.484375
1163,21.484375
1164,23.437500
1165,23.437500
1166,23.437500
1167,21.484375
1168,23.437500
1169,23.437500
1170,21.484375
1171,21.484375
1172,23.437500
1173,21.484375
1174,23.437500
1175,23.437500
1176,23.437500
1177,23.437500
1178,23.437500
1179,23.437500
1180,23.437500
1181,23.437500
1182,23.437500
1183,23.437500
1184,21.484375
1185,23.437500
1186,23.437500
1187,23.437500
1188,23.437500
1189,23.437500
1190,23.437500
1191,23.437500
1192,23.437500
1193,23.437500
1194,25.390625
1195,25.390625
1196,25.390625
1197,25.390625
1198,25.390625
1199,25.390625
1200,25.390625
1201,25.390625
1202,25.390625
1203,25.390625
1204,25.390625
1205,25.390625
1206,25.390625
1207,25.390625
1208,25.390625
1209,25.390625
1210,25.390625
1211,25.390625
1212,25.390625
1213,25.390625
1214,25.390625
1215,25.390625
1216,25.390625
1217,25.390625
1218,25.390625
1219,25.390625
1220,25.390625
1221,25.390625
1222,25.390625
1223,25.390625
1224,25.390625
1225,25.390625
1226,25.390625
1227,25.390625
1228,25.390625
1229,25.390625
1230,25.390625
1231,25.390625
1232,25.390625
1233,27.343750
1234,25.390625
1235,25.390625
1236,25.390625
1237,25.390625
1238,25.390625
1239,25.390625
1240,25.390625
1241,25.390625
1242,25.390625
1243,25.390625
1244,23.437500
1245,25.390625
1246,25.390625
1247,25.390625
1248,25.390625
1249,25.390625
1250,25.390625
1251,25.390625
1252,25.390625
1253,25.390625
1254,25.390625
1255,25.390625
1256,27.343750
1257,25.390625
1258,25.390625
1259,25.390625
1260,25.390625
1261,25.390625
1262,25.390625
1263,25.390625
1264,25.390625
1265,25.390625
1266,25.390625
1267,25.390625
1268,25.390625
1269,25.390625
1270,25.390625
1271,25.390625
1272,25.390625
1273,25.390625
1274,25.390625
1275,25.390625
1276,31.250000
1277,25.390625
1278,25.390625
1279,25.390625
1280,25.390625
1281,23.437500
1282,25.390625
1283,25.390625
1284,25.390625
1285,25.390625
1286,25.390625
1287,25.390625
1288,25.390625
1289,25.390625
1290,25.390625
1291,23.437500
1292,25.390625
1293,23.437500
1294,23.437500
1295,23.437500
1296,23.437500
1297,23.437500
1298,23.437500
1299,23.437500
1300,23.437500
1301,23.437500
1302,23.437500
1303,23.437500
1304,23.437500
1305,23.437500
1306,23.437500
1307,23.437500
1308,21.484375
1309,23.437500
1310,23.437500
1311,21.484375
1312,21.484375
1313,21.484375
1314,21.484375
1315,21.484375
1316,21.484375
1317,21.484375
1318,21.484375
1319,21.484375
1320,21.484375
1321,21.484375
1322,21.484375
1323,21.484375
1324,21.484375
1325,21.484375
1326,21.484375
1327,21.484375
1328,21.484375
1329,21.484375
1330,21.484375
1331,21.484375
1332,21.484375
1333,19.531250
1334,21.484375
1335,21.484375
1336,19.531250
1337,21.484375
1338,19.531250
1339,21.484375
1340,19.531250
1341,19.531250
1342,19.531250
1343,19.531250
1344,19.531250
1345,19.531250
1346,19.531250
1347,19.531250
1348,19.531250
1349,19.531250
1350,19.531250
1351,19.531250
1352,17.578125
1353,17.578125
1354,17.578125
1355,17.578125
1356,17.578125
1357,17.578125
1358,17.578125
1359,17.578125
1360,17.578125
1361,17.578125
1362,17.578125
1363,17.578125
1364,15.625000
1365,17.578125
1366,17.578125
1367,17.578125
1368,17.578125
1369,15.625000
1370,15.625000
1371,15.625000
1372,17.578125
1373,15.625000
1374,15.625000
1375,15.625000
1376,17.578125
1377,15.625000
1378,15.625000
1379,13.671875
1380,13.671875
