Practicum8/data/opgave5/f1/data_83_009.csv

Channel              :,CH1
Frequency            :,619.2Hz
Period               :,1.615ms
PK-PK                :,33.20mV
Probe attenuation    :,1X
Voltage per ADC value:,0.122070mV
Time interval        :,2.00000us

index,CH1_Voltage(mV)
1,1.953125
2,1.953125
3,1.953125
4,1.953125
5,1.953125
6,1.953125
7,0.000000
8,0.000000
9,0.000000
10,0.000000
11,0.000000
12,0.000000
13,0.000000
14,0.000000
15,0.000000
16,0.000000
17,0.000000
18,0.000000
19,0.000000
20,0.000000
21,0.000000
22,0.000000
23,0.000000
24,0.000000
25,-1.953125
26,0.000000
27,0.000000
28,-1.953125
29,-1.953125
30,-1.953125
31,-1.953125
32,-1.953125
33,-1.953125
34,-1.953125
35,-1.953125
36,-1.953125
37,-1.953125
38,-1.953125
39,-1.953125
40,-1.953125
41,-1.953125
42,-1.953125
43,-1.953125
44,-1.953125
45,-1.953125
46,-1.953125
47,-3.906250
48,-3.906250
49,-3.906250
50,-1.953125
51,-3.906250
52,-3.906250
53,-3.906250
54,-3.906250
55,-3.906250
56,-3.906250
57,-3.906250
58,-3.906250
59,-3.906250
60,-3.906250
61,-3.906250
62,-5.859375
63,-3.906250
64,-3.906250
65,-3.906250
66,-3.906250
67,-3.906250
68,-3.906250
69,-3.906250
70,-3.906250
71,-3.906250
72,-3.906250
73,-5.859375
74,-5.859375
75,-3.906250
76,-3.906250
77,-3.906250
78,-5.859375
79,-3.906250
80,-5.859375
81,-3.906250
82,-5.859375
83,-5.859375
84,-5.859375
85,-5.859375
86,-5.859375
87,-5.859375
88,-5.859375
89,-5.859375
90,-5.859375
91,-5.859375
92,-5.859375
93,-5.859375
94,-5.859375
95,-5.859375
96,-7.812500
97,-5.859375
98,-5.859375
99,-5.859375
100,-5.859375
101,-7.812500
102,-7.812500
103,-7.812500
104,-5.859375
105,-5.859375
106,-7.812500
107,-5.859375
108,-7.812500
109,-7.812500
110,-5.859375
111,-7.812500
112,-5.859375
113,-7.812500
114,-7.812500
115,-7.812500
116,-7.812500
117,-5.859375
118,-7.812500
119,-7.812500
120,-7.812500
121,-7.812500
122,-7.812500
123,-7.812500
124,-5.859375
125,-7.812500
126,-7.812500
127,-7.812500
128,-7.812500
129,-7.812500
130,-7.812500
131,-7.812500
132,-7.812500
133,-7.812500
134,-7.812500
135,-7.812500
136,-7.812500
137,-7.812500
138,-7.812500
139,-7.812500
140,-7.812500
141,-7.812500
142,-7.812500
143,-7.812500
144,-7.812500
145,-7.812500
146,-7.812500
147,-7.812500
148,-7.812500
149,-7.812500
150,-7.812500
151,-7.812500
152,-7.812500
153,-7.812500
154,-7.812500
155,-7.812500
156,-7.812500
157,-7.812500
158,-7.812500
159,-9.765625
160,-7.812500
161,-9.765625
162,-7.812500
163,-7.812500
164,-7.812500
165,-7.812500
166,-7.812500
167,-9.765625
168,-7.812500
169,-7.812500
170,-7.812500
171,-9.765625
172,-9.765625
173,-9.765625
174,-9.765625
175,-9.765625
176,-7.812500
177,-9.765625
178,-7.812500
179,-7.812500
180,-7.812500
181,-7.812500
182,-9.765625
183,-9.765625
184,-7.812500
185,-7.812500
186,-7.812500
187,-7.812500
188,-7.812500
189,-7.812500
190,-7.812500
191,-7.812500
192,-7.812500
193,-7.812500
194,-7.812500
195,-7.812500
196,-9.765625
197,-7.812500
198,-7.812500
199,-7.812500
200,-7.812500
201,-7.812500
202,-7.812500
203,-7.812500
204,-7.812500
205,-5.859375
206,-7.812500
207,-7.812500
208,-7.812500
209,-7.812500
210,-7.812500
211,-3.906250
212,-7.812500
213,-7.812500
214,-7.812500
215,-7.812500
216,-7.812500
217,-7.812500
218,-5.859375
219,-7.812500
220,-7.812500
221,-5.859375
222,-7.812500
223,-7.812500
224,-7.812500
225,-7.812500
226,-7.812500
227,-7.812500
228,-5.859375
229,-5.859375
230,-7.812500
231,-7.812500
232,-5.859375
233,-7.812500
234,-5.859375
235,-5.859375
236,-7.812500
237,-7.812500
238,-5.859375
239,-5.859375
240,-7.812500
241,-5.859375
242,-5.859375
243,-5.859375
244,-5.859375
245,-5.859375
246,-5.859375
247,-5.859375
248,-5.859375
249,-5.859375
250,-5.859375
251,-5.859375
252,-3.906250
253,-5.859375
254,-5.859375
255,-5.859375
256,-3.906250
257,-5.859375
258,-5.859375
259,-5.859375
260,-5.859375
261,-3.906250
262,-5.859375
263,-3.906250
264,-1.953125
265,-3.906250
266,-3.906250
267,-3.906250
268,-3.906250
269,-3.906250
270,-3.906250
271,-3.906250
272,-1.953125
273,-3.906250
274,-3.906250
275,-3.906250
276,-3.906250
277,-3.906250
278,-3.906250
279,-3.906250
280,-3.906250
281,-3.906250
282,-3.906250
283,-3.906250
284,-3.906250
285,-3.906250
286,-3.906250
287,-3.906250
288,-3.906250
289,-1.953125
290,-7.812500
291,-3.906250
292,-3.906250
293,-3.906250
294,-1.953125
295,-3.906250
296,-1.953125
297,-1.953125
298,-1.953125
299,-1.953125
300,-3.906250
301,-1.953125
302,-1.953125
303,-1.953125
304,-1.953125
305,-1.953125
306,-1.953125
307,-1.953125
308,-1.953125
309,-1.953125
310,-1.953125
311,-1.953125
312,0.000000
313,0.000000
314,0.000000
315,0.000000
316,-1.953125
317,0.000000
318,0.000000
319,0.000000
320,0.000000
321,0.000000
322,0.000000
323,0.000000
324,0.000000
325,0.000000
326,0.000000
327,0.000000
328,0.000000
329,0.000000
330,0.000000
331,0.000000
332,1.953125
333,1.953125
334,1.953125
335,1.953125
336,1.953125
337,1.953125
338,1.953125
339,1.953125
340,1.953125
341,1.953125
342,1.953125
343,1.953125
344,1.953125
345,1.953125
346,1.953125
347,1.953125
348,1.953125
349,1.953125
350,1.953125
351,1.953125
352,1.953125
353,3.906250
354,1.953125
355,1.953125
356,1.953125
357,1.953125
358,1.953125
359,1.953125
360,3.906250
361,3.906250
362,1.953125
363,3.906250
364,5.859375
365,3.906250
366,1.953125
367,3.906250
368,3.906250
369,3.906250
370,3.906250
371,3.906250
372,3.906250
373,3.906250
374,3.906250
375,3.906250
376,5.859375
377,3.906250
378,5.859375
379,5.859375
380,5.859375
381,3.906250
382,5.859375
383,5.859375
384,5.859375
385,5.859375
386,5.859375
387,5.859375
388,5.859375
389,5.859375
390,5.859375
391,5.859375
392,5.859375
393,5.859375
394,5.859375
395,5.859375
396,5.859375
397,5.859375
398,5.859375
399,7.812500
400,7.812500
401,5.859375
402,5.859375
403,7.812500
404,7.812500
405,7.812500
406,7.812500
407,5.859375
408,7.812500
409,7.812500
410,7.812500
411,7.812500
412,7.812500
413,7.812500
414,7.812500
415,7.812500
416,7.812500
417,7.812500
418,7.812500
419,7.812500
420,7.812500
421,7.812500
422,7.812500
423,5.859375
424,7.812500
425,7.812500
426,7.812500
427,7.812500
428,7.812500
429,7.812500
430,7.812500
431,7.812500
432,7.812500
433,7.812500
434,9.765625
435,9.765625
436,9.765625
437,9.765625
438,9.765625
439,9.765625
440,9.765625
441,9.765625
442,9.765625
443,9.765625
444,9.765625
445,9.765625
446,9.765625
447,9.765625
448,11.718750
449,9.765625
450,9.765625
451,9.765625
452,9.765625
453,9.765625
454,11.718750
455,9.765625
456,9.765625
457,11.718750
458,11.718750
459,9.765625
460,11.718750
461,9.765625
462,11.718750
463,11.718750
464,11.718750
465,11.718750
466,11.718750
467,11.718750
468,11.718750
469,11.718750
470,11.718750
471,11.718750
472,13.671875
473,11.718750
474,11.718750
475,11.718750
476,11.718750
477,11.718750
478,11.718750
479,11.718750
480,11.718750
481,11.718750
482,11.718750
483,11.718750
484,11.718750
485,11.718750
486,11.718750
487,11.718750
488,11.718750
489,11.718750
490,11.718750
491,11.718750
492,11.718750
493,13.671875
494,13.671875
495,11.718750
496,13.671875
497,11.718750
498,11.718750
499,13.671875
500,11.718750
501,13.671875
502,13.671875
503,11.718750
504,13.671875
505,13.671875
506,13.671875
507,13.671875
508,13.671875
509,13.671875
510,13.671875
511,13.671875
512,13.671875
513,13.671875
514,13.671875
515,13.671875
516,13.671875
517,13.671875
518,13.671875
519,13.671875
520,13.671875
521,13.671875
522,13.671875
523,13.671875
524,13.671875
525,13.671875
526,15.625000
527,13.671875
528,13.671875
529,13.671875
530,13.671875
531,13.671875
532,13.671875
533,13.671875
534,13.671875
535,15.625000
536,13.671875
537,13.671875
538,13.671875
539,13.671875
540,13.671875
541,13.671875
542,15.625000
543,13.671875
544,13.671875
545,15.625000
546,13.671875
547,13.671875
548,15.625000
549,15.625000
550,13.671875
551,13.671875
552,13.671875
553,15.625000
554,15.625000
555,13.671875
556,15.625000
557,15.625000
558,15.625000
559,15.625000
560,9.765625
561,13.671875
562,15.625000
563,15.625000
564,15.625000
565,15.625000
566,15.625000
567,15.625000
568,15.625000
569,15.625000
570,15.625000
571,15.625000
572,15.625000
573,15.625000
574,15.625000
575,15.625000
576,15.625000
577,15.625000
578,15.625000
579,15.625000
580,15.625000
581,13.671875
582,15.625000
583,15.625000
584,15.625000
585,15.625000
586,15.625000
587,15.625000
588,15.625000
589,15.625000
590,15.625000
591,15.625000
592,15.625000
593,15.625000
594,15.625000
595,15.625000
596,15.625000
597,15.625000
598,15.625000
599,15.625000
600,15.625000
601,13.671875
602,15.625000
603,13.671875
604,15.625000
605,15.625000
606,15.625000
607,15.625000
608,15.625000
609,15.625000
610,15.625000
611,15.625000
612,15.625000
613,15.625000
614,15.625000
615,13.671875
616,15.625000
617,15.625000
618,15.625000
619,15.625000
620,15.625000
621,15.625000
622,15.625000
623,15.625000
624,13.671875
625,13.671875
626,15.625000
627,15.625000
628,15.625000
629,15.625000
630,15.625000
631,13.671875
632,17.578125
633,15.625000
634,15.625000
635,15.625000
636,13.671875
637,15.625000
638,15.625000
639,15.625000
640,15.625000
641,13.671875
642,13.671875
643,13.671875
644,15.625000
645,13.671875
646,15.625000
647,15.625000
648,13.671875
649,15.625000
650,13.671875
651,15.625000
652,13.671875
653,13.671875
654,13.671875
655,13.671875
656,13.671875
657,13.671875
658,13.671875
659,13.671875
660,13.671875
661,13.671875
662,13.671875
663,13.671875
664,13.671875
665,13.671875
666,13.671875
667,13.671875
668,13.671875
669,13.671875
670,13.671875
671,11.718750
672,13.671875
673,13.671875
674,13.671875
675,13.671875
676,13.671875
677,13.671875
678,11.718750
679,13.671875
680,11.718750
681,11.718750
682,11.718750
683,11.718750
684,11.718750
685,11.718750
686,11.718750
687,11.718750
688,11.718750
689,11.718750
690,11.718750
691,11.718750
692,11.718750
693,11.718750
694,11.718750
695,11.718750
696,11.718750
697,11.718750
698,11.718750
699,11.718750
700,11.718750
701,11.718750
702,11.718750
703,11.718750
704,11.718750
705,11.718750
706,11.718750
707,11.718750
708,9.765625
709,11.718750
710,9.765625
711,11.718750
712,9.765625
713,9.765625
714,11.718750
715,9.765625
716,9.765625
717,9.765625
718,9.765625
719,9.765625
720,9.765625
721,9.765625
722,9.765625
723,9.765625
724,9.765625
725,9.765625
726,9.765625
727,9.765625
728,9.765625
729,9.765625
730,9.765625
731,9.765625
732,7.812500
733,9.765625
734,7.812500
735,7.812500
736,7.812500
737,7.812500
738,7.812500
739,7.812500
740,7.812500
741,7.812500
742,7.812500
743,7.812500
744,7.812500
745,7.812500
746,7.812500
747,7.812500
748,7.812500
749,5.859375
750,7.812500
751,7.812500
752,7.812500
753,7.812500
754,5.859375
755,5.859375
756,7.812500
757,5.859375
758,5.859375
759,5.859375
760,5.859375
761,5.859375
762,5.859375
763,5.859375
764,5.859375
765,5.859375
766,5.859375
767,5.859375
768,5.859375
769,5.859375
770,5.859375
771,5.859375
772,5.859375
773,5.859375
774,5.859375
775,3.906250
776,3.906250
777,3.906250
778,3.906250
779,3.906250
780,3.906250
781,3.906250
782,3.906250
783,3.906250
784,3.906250
785,3.906250
786,3.906250
787,3.906250
788,3.906250
789,3.906250
790,3.906250
791,3.906250
792,3.906250
793,3.906250
794,1.953125
795,3.906250
796,1.953125
797,3.906250
798,1.953125
799,1.953125
800,1.953125
801,1.953125
802,1.953125
803,1.953125
804,1.953125
805,1.953125
806,1.953125
807,1.953125
808,1.953125
809,1.953125
810,0.000000
811,0.000000
812,1.953125
813,0.000000
814,1.953125
815,0.000000
816,0.000000
817,0.000000
818,0.000000
819,0.000000
820,0.000000
821,0.000000
822,0.000000
823,0.000000
824,0.000000
825,0.000000
826,-1.953125
827,0.000000
828,0.000000
829,0.000000
830,0.000000
831,-1.953125
832,-1.953125
833,0.000000
834,0.000000
835,-1.953125
836,-1.953125
837,-1.953125
838,-1.953125
839,0.000000
840,-3.906250
841,-1.953125
842,-1.953125
843,-1.953125
844,-1.953125
845,-1.953125
846,-1.953125
847,-1.953125
848,-1.953125
849,-1.953125
850,-1.953125
851,-3.906250
852,-1.953125
853,-1.953125
854,-3.906250
855,-3.906250
856,-1.953125
857,-3.906250
858,-3.906250
859,-3.906250
860,-3.906250
861,-1.953125
862,-3.906250
863,-5.859375
864,-3.906250
865,-3.906250
866,-3.906250
867,-3.906250
868,-3.906250
869,-3.906250
870,-3.906250
871,-3.906250
872,-5.859375
873,-3.906250
874,-5.859375
875,-5.859375
876,-5.859375
877,-3.906250
878,-5.859375
879,-5.859375
880,-7.812500
881,-5.859375
882,-5.859375
883,-5.859375
884,-5.859375
885,-5.859375
886,-5.859375
887,-5.859375
888,-5.859375
889,-5.859375
890,-3.906250
891,-7.812500
892,-7.812500
893,-5.859375
894,-5.859375
895,-5.859375
896,-5.859375
897,-5.859375
898,-5.859375
899,-5.859375
900,-5.859375
901,-9.765625
902,-5.859375
903,-5.859375
904,-5.859375
905,-5.859375
906,-5.859375
907,-5.859375
908,-7.812500
909,-7.812500
910,-5.859375
911,-7.812500
912,-7.812500
913,-5.859375
914,-5.859375
915,-5.859375
916,-7.812500
917,-7.812500
918,-7.812500
919,-7.812500
920,-7.812500
921,-7.812500
922,-7.812500
923,-7.812500
924,-7.812500
925,-7.812500
926,-7.812500
927,-7.812500
928,-7.812500
929,-7.812500
930,-7.812500
931,-7.812500
932,-7.812500
933,-7.812500
934,-7.812500
935,-7.812500
936,-7.812500
937,-7.812500
938,-7.812500
939,-7.812500
940,-7.812500
941,-7.812500
942,-7.812500
943,-7.812500
944,-7.812500
945,-7.812500
946,-7.812500
947,-7.812500
948,-7.812500
949,-7.812500
950,-7.812500
951,-7.812500
952,-7.812500
953,-7.812500
954,-7.812500
955,-7.812500
956,-7.812500
957,-7.812500
958,-9.765625
959,-7.812500
960,-7.812500
961,-7.812500
962,-7.812500
963,-9.765625
964,-7.812500
965,-7.812500
966,-7.812500
967,-7.812500
968,-7.812500
969,-7.812500
970,-7.812500
971,-7.812500
972,-7.812500
973,-7.812500
974,-7.812500
975,-7.812500
976,-7.812500
977,-7.812500
978,-7.812500
979,-7.812500
980,-7.812500
981,-7.812500
982,-7.812500
983,-7.812500
984,-7.812500
985,-9.765625
986,-7.812500
987,-7.812500
988,-7.812500
989,-7.812500
990,-7.812500
991,-7.812500
992,-7.812500
993,-7.812500
994,-7.812500
995,-7.812500
996,-7.812500
997,-7.812500
998,-7.812500
999,-7.812500
1000,-7.812500
1001,-7.812500
1002,-7.812500
1003,-7.812500
1004,-7.812500
1005,-7.812500
1006,-7.812500
1007,-7.812500
1008,-7.812500
1009,-7.812500
1010,-7.812500
1011,-7.812500
1012,-7.812500
1013,-7.812500
1014,-7.812500
1015,-7.812500
1016,-7.812500
1017,-7.812500
1018,-7.812500
1019,-7.812500
1020,-7.812500
1021,-7.812500
1022,-7.812500
1023,-7.812500
1024,-5.859375
1025,-7.812500
1026,-7.812500
1027,-5.859375
1028,-7.812500
1029,-7.812500
1030,-7.812500
1031,-5.859375
1032,-5.859375
1033,-7.812500
1034,-7.812500
1035,-5.859375
1036,-5.859375
1037,-5.859375
1038,-5.859375
1039,-7.812500
1040,-5.859375
1041,-7.812500
1042,-5.859375
1043,-5.859375
1044,-5.859375
1045,-7.812500
1046,-5.859375
1047,-5.859375
1048,-5.859375
1049,-5.859375
1050,-5.859375
1051,-7.812500
1052,-5.859375
1053,-5.859375
1054,-5.859375
1055,-5.859375
1056,-7.812500
1057,-5.859375
1058,-5.859375
1059,-5.859375
1060,-5.859375
1061,-5.859375
1062,-5.859375
1063,-5.859375
1064,-3.906250
1065,-5.859375
1066,-5.859375
1067,-5.859375
1068,-3.906250
1069,-5.859375
1070,-5.859375
1071,-3.906250
1072,-3.906250
1073,-3.906250
1074,-5.859375
1075,-3.906250
1076,-3.906250
1077,-3.906250
1078,-3.906250
1079,-3.906250
1080,-3.906250
1081,-3.906250
1082,-3.906250
1083,-3.906250
1084,-3.906250
1085,-3.906250
1086,-3.906250
1087,-3.906250
1088,-3.906250
1089,-3.906250
1090,-3.906250
1091,-3.906250
1092,-3.906250
1093,-3.906250
1094,-1.953125
1095,-1.953125
1096,-1.953125
1097,-1.953125
1098,-1.953125
1099,-1.953125
1100,-1.953125
1101,-1.953125
1102,-1.953125
1103,-1.953125
1104,-1.953125
1105,-1.953125
1106,-1.953125
1107,-1.953125
1108,-1.953125
1109,0.000000
1110,-1.953125
1111,-1.953125
1112,-1.953125
1113,0.000000
1114,-1.953125
1115,-1.953125
1116,0.000000
1117,0.000000
1118,-1.953125
1119,0.000000
1120,0.000000
1121,0.000000
1122,-1.953125
1123,0.000000
1124,0.000000
1125,0.000000
1126,0.000000
1127,0.000000
1128,0.000000
1129,0.000000
1130,0.000000
1131,0.000000
1132,0.000000
1133,0.000000
1134,0.000000
1135,0.000000
1136,1.953125
1137,0.000000
1138,1.953125
1139,1.953125
1140,0.000000
1141,1.953125
1142,1.953125
1143,1.953125
1144,0.000000
1145,1.953125
1146,1.953125
1147,1.953125
1148,1.953125
1149,1.953125
1150,1.953125
1151,1.953125
1152,1.953125
1153,1.953125
1154,1.953125
1155,1.953125
1156,3.906250
1157,3.906250
1158,1.953125
1159,3.906250
1160,3.906250
1161,3.906250
1162,3.906250
1163,3.906250
1164,3.906250
1165,3.906250
1166,3.906250
1167,3.906250
1168,3.906250
1169,3.906250
1170,3.906250
1171,3.906250
1172,3.906250
1173,3.906250
1174,3.906250
1175,5.859375
1176,3.906250
1177,3.906250
1178,5.859375
1179,3.906250
1180,5.859375
1181,5.859375
1182,5.859375
1183,5.859375
1184,5.859375
1185,5.859375
1186,5.859375
1187,3.906250
1188,5.859375
1189,5.859375
1190,5.859375
1191,5.859375
1192,5.859375
1193,5.859375
1194,5.859375
1195,5.859375
1196,5.859375
1197,5.859375
1198,5.859375
1199,5.859375
1200,5.859375
1201,5.859375
1202,5.859375
1203,5.859375
1204,5.859375
1205,5.859375
1206,5.859375
1207,5.859375
1208,5.859375
1209,5.859375
1210,5.859375
1211,5.859375
1212,5.859375
1213,7.812500
1214,5.859375
1215,7.812500
1216,7.812500
1217,7.812500
1218,7.812500
1219,7.812500
1220,7.812500
1221,7.812500
1222,7.812500
1223,7.812500
1224,7.812500
1225,7.812500
1226,7.812500
1227,9.765625
1228,7.812500
1229,7.812500
1230,7.812500
1231,7.812500
1232,9.765625
1233,7.812500
1234,7.812500
1235,9.765625
1236,9.765625
1237,7.812500
1238,9.765625
1239,9.765625
1240,9.765625
1241,9.765625
1242,9.765625
1243,7.812500
1244,9.765625
1245,9.765625
1246,9.765625
1247,9.765625
1248,9.765625
1249,9.765625
1250,7.812500
1251,9.765625
1252,9.765625
1253,9.765625
1254,9.765625
1255,9.765625
1256,9.765625
1257,9.765625
1258,11.718750
1259,9.765625
1260,9.765625
1261,9.765625
1262,9.765625
1263,9.765625
1264,9.765625
1265,9.765625
1266,9.765625
1267,9.765625
1268,9.765625
1269,9.765625
1270,11.718750
1271,9.765625
1272,9.765625
1273,9.765625
1274,11.718750
1275,9.765625
1276,11.718750
1277,11.718750
1278,11.718750
1279,11.718750
1280,11.718750
1281,11.718750
1282,11.718750
1283,11.718750
1284,11.718750
1285,11.718750
1286,11.718750
1287,11.718750
1288,11.718750
1289,11.718750
1290,11.718750
1291,11.718750
1292,11.718750
1293,11.718750
1294,11.718750
1295,11.718750
1296,11.718750
1297,11.718750
1298,11.718750
1299,13.671875
1300,11.718750
1301,13.671875
1302,11.718750
1303,13.671875
1304,11.718750
1305,11.718750
1306,13.671875
1307,13.671875
1308,11.718750
1309,11.718750
1310,13.671875
1311,13.671875
1312,13.671875
1313,13.671875
1314,13.671875
1315,13.671875
1316,13.671875
1317,13.671875
1318,13.671875
1319,13.671875
1320,13.671875
1321,13.671875
1322,13.671875
1323,13.671875
1324,13.671875
1325,13.671875
1326,13.671875
1327,13.671875
1328,13.671875
1329,13.671875
1330,13.671875
1331,13.671875
1332,13.671875
1333,13.671875
1334,13.671875
1335,13.671875
1336,13.671875
1337,13.671875
1338,13.671875
1339,13.671875
1340,13.671875
1341,13.671875
1342,13.671875
1343,13.671875
1344,13.671875
1345,15.625000
1346,13.671875
1347,13.671875
1348,13.671875
1349,15.625000
1350,21.484375
1351,13.671875
1352,15.625000
1353,15.625000
1354,15.625000
1355,13.671875
1356,15.625000
1357,15.625000
1358,13.671875
1359,15.625000
1360,15.625000
1361,15.625000
1362,15.625000
1363,15.625000
1364,15.625000
1365,13.671875
1366,13.671875
1367,17.578125
1368,15.625000
1369,13.671875
1370,15.625000
1371,13.671875
1372,15.625000
1373,15.625000
1374,15.625000
1375,15.625000
1376,15.625000
1377,13.671875
1378,13.671875
1379,15.625000
1380,15.625000
1381,13.671875
1382,15.625000
1383,15.625000
1384,15.625000
1385,15.625000
1386,15.625000
1387,15.625000
1388,13.671875
1389,15.625000
1390,11.718750
1391,15.625000
1392,15.625000
1393,15.625000
1394,13.671875
1395,15.625000
1396,15.625000
1397,15.625000
1398,15.625000
1399,15.625000
1400,15.625000
1401,15.625000
1402,15.625000
1403,15.625000
1404,11.718750
1405,15.625000
1406,13.671875
1407,15.625000
1408,15.625000
1409,15.625000
1410,15.625000
1411,15.625000
1412,15.625000
1413,15.625000
1414,15.625000
1415,15.625000
1416,17.578125
1417,13.671875
1418,15.625000
1419,17.578125
1420,15.625000
1421,15.625000
