Practicum8/data/opgave5/f1/data_83_008.csv

Channel              :,CH1
Frequency            :,620.7Hz
Period               :,1.611ms
PK-PK                :,50.78mV
Probe attenuation    :,1X
Voltage per ADC value:,0.122070mV
Time interval        :,2.00000us

index,CH1_Voltage(mV)
1,-17.578125
2,-17.578125
3,-17.578125
4,-17.578125
5,-17.578125
6,-17.578125
7,-17.578125
8,-17.578125
9,-17.578125
10,-17.578125
11,-17.578125
12,-17.578125
13,-17.578125
14,-17.578125
15,-17.578125
16,-17.578125
17,-17.578125
18,-17.578125
19,-17.578125
20,-17.578125
21,-17.578125
22,-17.578125
23,-17.578125
24,-19.531250
25,-17.578125
26,-17.578125
27,-17.578125
28,-17.578125
29,-17.578125
30,-17.578125
31,-17.578125
32,-17.578125
33,-17.578125
34,-17.578125
35,-17.578125
36,-17.578125
37,-17.578125
38,-17.578125
39,-17.578125
40,-17.578125
41,-17.578125
42,-17.578125
43,-17.578125
44,-17.578125
45,-17.578125
46,-17.578125
47,-17.578125
48,-17.578125
49,-17.578125
50,-17.578125
51,-17.578125
52,-17.578125
53,-17.578125
54,-17.578125
55,-17.578125
56,-17.578125
57,-17.578125
58,-17.578125
59,-17.578125
60,-17.578125
61,-17.578125
62,-17.578125
63,-17.578125
64,-17.578125
65,-17.578125
66,-17.578125
67,-17.578125
68,-17.578125
69,-17.578125
70,-17.578125
71,-17.578125
72,-15.625000
73,-17.578125
74,-17.578125
75,-17.578125
76,-17.578125
77,-17.578125
78,-17.578125
79,-15.625000
80,-15.625000
81,-17.578125
82,-15.625000
83,-17.578125
84,-15.625000
85,-15.625000
86,-15.625000
87,-15.625000
88,-17.578125
89,-15.625000
90,-15.625000
91,-15.625000
92,-15.625000
93,-15.625000
94,-15.625000
95,-15.625000
96,-15.625000
97,-15.625000
98,-15.625000
99,-15.625000
100,-15.625000
101,-15.625000
102,-15.625000
103,-15.625000
104,-15.625000
105,-15.625000
106,-13.671875
107,-15.625000
108,-15.625000
109,-13.671875
110,-13.671875
111,-13.671875
112,-13.671875
113,-13.671875
114,-13.671875
115,-13.671875
116,-13.671875
117,-13.671875
118,-13.671875
119,-13.671875
120,-13.671875
121,-13.671875
122,-13.671875
123,-13.671875
124,-13.671875
125,-13.671875
126,-13.671875
127,-13.671875
128,-11.718750
129,-11.718750
130,-11.718750
131,-11.718750
132,-11.718750
133,-11.718750
134,-11.718750
135,-11.718750
136,-11.718750
137,-11.718750
138,-11.718750
139,-11.718750
140,-11.718750
141,-9.765625
142,-9.765625
143,-9.765625
144,-11.718750
145,-9.765625
146,-9.765625
147,-9.765625
148,-9.765625
149,-9.765625
150,-9.765625
151,-9.765625
152,-9.765625
153,-7.812500
154,-9.765625
155,-7.812500
156,-9.765625
157,-7.812500
158,-7.812500
159,-7.812500
160,-7.812500
161,-7.812500
162,-7.812500
163,-7.812500
164,-7.812500
165,-7.812500
166,-5.859375
167,-5.859375
168,-7.812500
169,-7.812500
170,-5.859375
171,-5.859375
172,-5.859375
173,-5.859375
174,-5.859375
175,-5.859375
176,-5.859375
177,-5.859375
178,-5.859375
179,-5.859375
180,-5.859375
181,-3.906250
182,-3.906250
183,-5.859375
184,-3.906250
185,-5.859375
186,-3.906250
187,-3.906250
188,-3.906250
189,-3.906250
190,-3.906250
191,-3.906250
192,-1.953125
193,-1.953125
194,-1.953125
195,-1.953125
196,-1.953125
197,-1.953125
198,-1.953125
199,-1.953125
200,-1.953125
201,0.000000
202,0.000000
203,-1.953125
204,-1.953125
205,0.000000
206,0.000000
207,0.000000
208,0.000000
209,0.000000
210,0.000000
211,0.000000
212,0.000000
213,0.000000
214,1.953125
215,0.000000
216,1.953125
217,1.953125
218,1.953125
219,0.000000
220,1.953125
221,1.953125
222,1.953125
223,1.953125
224,3.906250
225,1.953125
226,1.953125
227,1.953125
228,3.906250
229,3.906250
230,3.906250
231,3.906250
232,3.906250
233,3.906250
234,5.859375
235,3.906250
236,3.906250
237,3.906250
238,3.906250
239,3.906250
240,5.859375
241,5.859375
242,5.859375
243,5.859375
244,5.859375
245,5.859375
246,5.859375
247,5.859375
248,5.859375
249,5.859375
250,5.859375
251,5.859375
252,5.859375
253,7.812500
254,7.812500
255,7.812500
256,7.812500
257,7.812500
258,7.812500
259,7.812500
260,7.812500
261,9.765625
262,9.765625
263,7.812500
264,9.765625
265,9.765625
266,9.765625
267,9.765625
268,9.765625
269,9.765625
270,9.765625
271,9.765625
272,9.765625
273,9.765625
274,11.718750
275,11.718750
276,11.718750
277,11.718750
278,11.718750
279,11.718750
280,11.718750
281,11.718750
282,11.718750
283,11.718750
284,11.718750
285,11.718750
286,11.718750
287,11.718750
288,13.671875
289,11.718750
290,11.718750
291,13.671875
292,13.671875
293,15.625000
294,13.671875
295,13.671875
296,13.671875
297,13.671875
298,13.671875
299,13.671875
300,13.671875
301,13.671875
302,15.625000
303,15.625000
304,13.671875
305,15.625000
306,15.625000
307,15.625000
308,15.625000
309,15.625000
310,15.625000
311,15.625000
312,15.625000
313,15.625000
314,15.625000
315,15.625000
316,15.625000
317,15.625000
318,15.625000
319,17.578125
320,17.578125
321,17.578125
322,17.578125
323,17.578125
324,17.578125
325,17.578125
326,17.578125
327,17.578125
328,17.578125
329,17.578125
330,17.578125
331,17.578125
332,19.531250
333,17.578125
334,17.578125
335,19.531250
336,19.531250
337,19.531250
338,19.531250
339,19.531250
340,19.531250
341,19.531250
342,19.531250
343,19.531250
344,19.531250
345,21.484375
346,19.531250
347,19.531250
348,19.531250
349,19.531250
350,19.531250
351,19.531250
352,19.531250
353,19.531250
354,21.484375
355,21.484375
356,21.484375
357,19.531250
358,21.484375
359,21.484375
360,21.484375
361,21.484375
362,21.484375
363,21.484375
364,21.484375
365,21.484375
366,21.484375
367,21.484375
368,21.484375
369,21.484375
370,21.484375
371,21.484375
372,23.437500
373,21.484375
374,21.484375
375,21.484375
376,21.484375
377,23.437500
378,23.437500
379,21.484375
380,21.484375
381,23.437500
382,23.437500
383,23.437500
384,23.437500
385,23.437500
386,23.437500
387,23.437500
388,23.437500
389,23.437500
390,23.437500
391,23.437500
392,23.437500
393,23.437500
394,23.437500
395,23.437500
396,23.437500
397,25.390625
398,25.390625
399,23.437500
400,23.437500
401,23.437500
402,23.437500
403,25.390625
404,23.437500
405,23.437500
406,25.390625
407,23.437500
408,25.390625
409,23.437500
410,23.437500
411,25.390625
412,23.437500
413,23.437500
414,25.390625
415,25.390625
416,23.437500
417,25.390625
418,23.437500
419,25.390625
420,25.390625
421,23.437500
422,23.437500
423,25.390625
424,25.390625
425,23.437500
426,23.437500
427,23.437500
428,23.437500
429,25.390625
430,25.390625
431,25.390625
432,25.390625
433,25.390625
434,23.437500
435,25.390625
436,25.390625
437,23.437500
438,23.437500
439,25.390625
440,27.343750
441,25.390625
442,25.390625
443,23.437500
444,25.390625
445,25.390625
446,25.390625
447,25.390625
448,25.390625
449,23.437500
450,23.437500
451,25.390625
452,23.437500
453,25.390625
454,23.437500
455,23.437500
456,23.437500
457,25.390625
458,23.437500
459,23.437500
460,25.390625
461,25.390625
462,23.437500
463,25.390625
464,23.437500
465,25.390625
466,23.437500
467,23.437500
468,25.390625
469,25.390625
470,23.437500
471,23.437500
472,23.437500
473,25.390625
474,23.437500
475,23.437500
476,23.437500
477,23.437500
478,23.437500
479,23.437500
480,23.437500
481,23.437500
482,23.437500
483,23.437500
484,23.437500
485,23.437500
486,23.437500
487,23.437500
488,25.390625
489,23.437500
490,23.437500
491,23.437500
492,23.437500
493,23.437500
494,23.437500
495,23.437500
496,23.437500
497,21.484375
498,23.437500
499,21.484375
500,23.437500
501,21.484375
502,21.484375
503,21.484375
504,21.484375
505,21.484375
506,21.484375
507,21.484375
508,21.484375
509,21.484375
510,21.484375
511,21.484375
512,21.484375
513,21.484375
514,21.484375
515,21.484375
516,21.484375
517,21.484375
518,21.484375
519,21.484375
520,21.484375
521,21.484375
522,21.484375
523,21.484375
524,21.484375
525,21.484375
526,19.531250
527,19.531250
528,21.484375
529,19.531250
530,19.531250
531,19.531250
532,19.531250
533,19.531250
534,19.531250
535,19.531250
536,19.531250
537,19.531250
538,19.531250
539,19.531250
540,19.531250
541,19.531250
542,19.531250
543,19.531250
544,17.578125
545,17.578125
546,17.578125
547,17.578125
548,17.578125
549,17.578125
550,17.578125
551,17.578125
552,17.578125
553,17.578125
554,17.578125
555,17.578125
556,17.578125
557,17.578125
558,17.578125
559,15.625000
560,17.578125
561,15.625000
562,15.625000
563,15.625000
564,15.625000
565,15.625000
566,15.625000
567,15.625000
568,13.671875
569,15.625000
570,15.625000
571,13.671875
572,15.625000
573,15.625000
574,15.625000
575,13.671875
576,13.671875
577,13.671875
578,13.671875
579,13.671875
580,13.671875
581,13.671875
582,13.671875
583,13.671875
584,13.671875
585,13.671875
586,13.671875
587,13.671875
588,13.671875
589,11.718750
590,11.718750
591,13.671875
592,11.718750
593,13.671875
594,11.718750
595,11.718750
596,11.718750
597,11.718750
598,11.718750
599,11.718750
600,11.718750
601,11.718750
602,9.765625
603,11.718750
604,9.765625
605,9.765625
606,9.765625
607,9.765625
608,9.765625
609,9.765625
610,9.765625
611,9.765625
612,9.765625
613,9.765625
614,9.765625
615,9.765625
616,7.812500
617,7.812500
618,7.812500
619,7.812500
620,7.812500
621,7.812500
622,7.812500
623,7.812500
624,7.812500
625,7.812500
626,5.859375
627,5.859375
628,5.859375
629,5.859375
630,5.859375
631,5.859375
632,5.859375
633,3.906250
634,5.859375
635,5.859375
636,5.859375
637,5.859375
638,3.906250
639,3.906250
640,3.906250
641,3.906250
642,3.906250
643,3.906250
644,3.906250
645,3.906250
646,3.906250
647,3.906250
648,3.906250
649,1.953125
650,3.906250
651,3.906250
652,1.953125
653,1.953125
654,1.953125
655,1.953125
656,1.953125
657,1.953125
658,1.953125
659,1.953125
660,1.953125
661,1.953125
662,1.953125
663,0.000000
664,-1.953125
665,0.000000
666,0.000000
667,0.000000
668,0.000000
669,0.000000
670,0.000000
671,0.000000
672,0.000000
673,0.000000
674,-1.953125
675,-1.953125
676,0.000000
677,-1.953125
678,-1.953125
679,-1.953125
680,-1.953125
681,-1.953125
682,-1.953125
683,-3.906250
684,-1.953125
685,-3.906250
686,-3.906250
687,-3.906250
688,-3.906250
689,-3.906250
690,-3.906250
691,-1.953125
692,-3.906250
693,-3.906250
694,-5.859375
695,-3.906250
696,-5.859375
697,-5.859375
698,-5.859375
699,-3.906250
700,-5.859375
701,-5.859375
702,-5.859375
703,-5.859375
704,-5.859375
705,-5.859375
706,-5.859375
707,-5.859375
708,-5.859375
709,-7.812500
710,-5.859375
711,-7.812500
712,-5.859375
713,-5.859375
714,-7.812500
715,-7.812500
716,-7.812500
717,-7.812500
718,-7.812500
719,-7.812500
720,-7.812500
721,-7.812500
722,-7.812500
723,-7.812500
724,-9.765625
725,-7.812500
726,-7.812500
727,-9.765625
728,-9.765625
729,-9.765625
730,-9.765625
731,-9.765625
732,-9.765625
733,-9.765625
734,-9.765625
735,-11.718750
736,-9.765625
737,-9.765625
738,-11.718750
739,-11.718750
740,-9.765625
741,-11.718750
742,-11.718750
743,-11.718750
744,-11.718750
745,-11.718750
746,-11.718750
747,-11.718750
748,-11.718750
749,-11.718750
750,-11.718750
751,-13.671875
752,-11.718750
753,-11.718750
754,-13.671875
755,-13.671875
756,-13.671875
757,-13.671875
758,-13.671875
759,-13.671875
760,-13.671875
761,-13.671875
762,-13.671875
763,-13.671875
764,-13.671875
765,-13.671875
766,-13.671875
767,-13.671875
768,-13.671875
769,-13.671875
770,-13.671875
771,-13.671875
772,-15.625000
773,-13.671875
774,-13.671875
775,-13.671875
776,-15.625000
777,-13.671875
778,-15.625000
779,-15.625000
780,-15.625000
781,-15.625000
782,-13.671875
783,-15.625000
784,-15.625000
785,-15.625000
786,-15.625000
787,-15.625000
788,-15.625000
789,-15.625000
790,-15.625000
791,-15.625000
792,-15.625000
793,-15.625000
794,-15.625000
795,-15.625000
796,-15.625000
797,-15.625000
798,-17.578125
799,-15.625000
800,-17.578125
801,-15.625000
802,-17.578125
803,-17.578125
804,-17.578125
805,-17.578125
806,-17.578125
807,-17.578125
808,-17.578125
809,-17.578125
810,-17.578125
811,-17.578125
812,-17.578125
813,-17.578125
814,-17.578125
815,-17.578125
816,-17.578125
817,-17.578125
818,-19.531250
819,-17.578125
820,-17.578125
821,-17.578125
822,-17.578125
823,-19.531250
824,-17.578125
825,-17.578125
826,-17.578125
827,-17.578125
828,-17.578125
829,-17.578125
830,-17.578125
831,-17.578125
832,-17.578125
833,-17.578125
834,-17.578125
835,-17.578125
836,-17.578125
837,-17.578125
838,-17.578125
839,-17.578125
840,-17.578125
841,-15.625000
842,-17.578125
843,-17.578125
844,-17.578125
845,-17.578125
846,-17.578125
847,-17.578125
848,-17.578125
849,-17.578125
850,-17.578125
851,-17.578125
852,-17.578125
853,-17.578125
854,-17.578125
855,-17.578125
856,-17.578125
857,-17.578125
858,-17.578125
859,-17.578125
860,-17.578125
861,-17.578125
862,-17.578125
863,-17.578125
864,-17.578125
865,-17.578125
866,-17.578125
867,-17.578125
868,-17.578125
869,-17.578125
870,-17.578125
871,-19.531250
872,-17.578125
873,-17.578125
874,-17.578125
875,-17.578125
876,-17.578125
877,-17.578125
878,-17.578125
879,-17.578125
880,-17.578125
881,-17.578125
882,-17.578125
883,-17.578125
884,-15.625000
885,-15.625000
886,-17.578125
887,-17.578125
888,-17.578125
889,-17.578125
890,-15.625000
891,-17.578125
892,-15.625000
893,-15.625000
894,-17.578125
895,-15.625000
896,-15.625000
897,-15.625000
898,-15.625000
899,-15.625000
900,-15.625000
901,-15.625000
902,-15.625000
903,-15.625000
904,-15.625000
905,-15.625000
906,-15.625000
907,-15.625000
908,-15.625000
909,-15.625000
910,-15.625000
911,-13.671875
912,-15.625000
913,-15.625000
914,-13.671875
915,-13.671875
916,-15.625000
917,-13.671875
918,-13.671875
919,-13.671875
920,-13.671875
921,-13.671875
922,-13.671875
923,-13.671875
924,-13.671875
925,-13.671875
926,-13.671875
927,-13.671875
928,-13.671875
929,-11.718750
930,-13.671875
931,-13.671875
932,-11.718750
933,-13.671875
934,-11.718750
935,-11.718750
936,-13.671875
937,-11.718750
938,-11.718750
939,-11.718750
940,-11.718750
941,-11.718750
942,-11.718750
943,-11.718750
944,-11.718750
945,-11.718750
946,-11.718750
947,-11.718750
948,-11.718750
949,-9.765625
950,-9.765625
951,-9.765625
952,-9.765625
953,-9.765625
954,-9.765625
955,-9.765625
956,-9.765625
957,-9.765625
958,-9.765625
959,-9.765625
960,-9.765625
961,-9.765625
962,-7.812500
963,-9.765625
964,-7.812500
965,-7.812500
966,-7.812500
967,-7.812500
968,-7.812500
969,-7.812500
970,-7.812500
971,-7.812500
972,-7.812500
973,-5.859375
974,-5.859375
975,-5.859375
976,-5.859375
977,-5.859375
978,-5.859375
979,-5.859375
980,-5.859375
981,-5.859375
982,-5.859375
983,-5.859375
984,-5.859375
985,-5.859375
986,-3.906250
987,-5.859375
988,-5.859375
989,-5.859375
990,-3.906250
991,-3.906250
992,-3.906250
993,-3.906250
994,-3.906250
995,-3.906250
996,-3.906250
997,-3.906250
998,-3.906250
999,-3.906250
1000,-3.906250
1001,-1.953125
1002,-1.953125
1003,-1.953125
1004,-1.953125
1005,-1.953125
1006,-1.953125
1007,-1.953125
1008,-1.953125
1009,-1.953125
1010,-1.953125
1011,0.000000
1012,-1.953125
1013,-1.953125
1014,0.000000
1015,0.000000
1016,0.000000
1017,0.000000
1018,0.000000
1019,0.000000
1020,1.953125
1021,0.000000
1022,0.000000
1023,1.953125
1024,1.953125
1025,0.000000
1026,1.953125
1027,1.953125
1028,1.953125
1029,1.953125
1030,1.953125
1031,1.953125
1032,1.953125
1033,1.953125
1034,1.953125
1035,3.906250
1036,1.953125
1037,3.906250
1038,3.906250
1039,3.906250
1040,3.906250
1041,3.906250
1042,3.906250
1043,3.906250
1044,3.906250
1045,5.859375
1046,5.859375
1047,5.859375
1048,5.859375
1049,5.859375
1050,5.859375
1051,5.859375
1052,5.859375
1053,5.859375
1054,7.812500
1055,5.859375
1056,5.859375
1057,7.812500
1058,7.812500
1059,7.812500
1060,7.812500
1061,7.812500
1062,7.812500
1063,7.812500
1064,7.812500
1065,7.812500
1066,7.812500
1067,7.812500
1068,7.812500
1069,7.812500
1070,7.812500
1071,9.765625
1072,9.765625
1073,9.765625
1074,9.765625
1075,9.765625
1076,9.765625
1077,9.765625
1078,9.765625
1079,9.765625
1080,9.765625
1081,11.718750
1082,9.765625
1083,11.718750
1084,11.718750
1085,11.718750
1086,11.718750
1087,11.718750
1088,11.718750
1089,11.718750
1090,11.718750
1091,11.718750
1092,11.718750
1093,11.718750
1094,13.671875
1095,13.671875
1096,13.671875
1097,13.671875
1098,11.718750
1099,13.671875
1100,13.671875
1101,13.671875
1102,13.671875
1103,13.671875
1104,13.671875
1105,13.671875
1106,13.671875
1107,13.671875
1108,15.625000
1109,13.671875
1110,13.671875
1111,15.625000
1112,15.625000
1113,15.625000
1114,15.625000
1115,15.625000
1116,15.625000
1117,15.625000
1118,15.625000
1119,15.625000
1120,15.625000
1121,15.625000
1122,17.578125
1123,15.625000
1124,15.625000
1125,17.578125
1126,17.578125
1127,17.578125
1128,17.578125
1129,17.578125
1130,15.625000
1131,17.578125
1132,17.578125
1133,17.578125
1134,17.578125
1135,17.578125
1136,17.578125
1137,17.578125
1138,17.578125
1139,17.578125
1140,17.578125
1141,19.531250
1142,19.531250
1143,17.578125
1144,19.531250
1145,19.531250
1146,19.531250
1147,19.531250
1148,19.531250
1149,19.531250
1150,19.531250
1151,19.531250
1152,19.531250
1153,19.531250
1154,19.531250
1155,19.531250
1156,19.531250
1157,19.531250
1158,19.531250
1159,21.484375
1160,21.484375
1161,19.531250
1162,19.531250
1163,21.484375
1164,21.484375
1165,21.484375
1166,21.484375
1167,21.484375
1168,21.484375
1169,21.484375
1170,21.484375
1171,21.484375
1172,21.484375
1173,23.437500
1174,23.437500
1175,21.484375
1176,21.484375
1177,23.437500
1178,19.531250
1179,23.437500
1180,21.484375
1181,21.484375
1182,23.437500
1183,23.437500
1184,23.437500
1185,21.484375
1186,23.437500
1187,23.437500
1188,23.437500
1189,23.437500
1190,23.437500
1191,23.437500
1192,23.437500
1193,23.437500
1194,23.437500
1195,23.437500
1196,23.437500
1197,23.437500
1198,23.437500
1199,23.437500
1200,23.437500
1201,23.437500
1202,23.437500
1203,23.437500
1204,23.437500
1205,23.437500
1206,23.437500
1207,23.437500
1208,23.437500
1209,23.437500
1210,23.437500
1211,23.437500
1212,23.437500
1213,23.437500
1214,23.437500
1215,23.437500
1216,23.437500
1217,23.437500
1218,23.437500
1219,23.437500
1220,25.390625
1221,23.437500
1222,23.437500
1223,23.437500
1224,25.390625
1225,23.437500
1226,25.390625
1227,23.437500
1228,23.437500
1229,23.437500
1230,25.390625
1231,25.390625
1232,23.437500
1233,25.390625
1234,25.390625
1235,25.390625
1236,25.390625
1237,25.390625
1238,23.437500
1239,25.390625
1240,25.390625
1241,25.390625
1242,25.390625
1243,25.390625
1244,25.390625
1245,25.390625
1246,25.390625
1247,23.437500
1248,25.390625
1249,25.390625
1250,25.390625
1251,25.390625
1252,25.390625
1253,25.390625
1254,25.390625
1255,25.390625
1256,25.390625
1257,23.437500
1258,25.390625
1259,25.390625
1260,23.437500
1261,25.390625
1262,23.437500
1263,25.390625
1264,25.390625
1265,23.437500
1266,23.437500
1267,25.390625
1268,23.437500
1269,23.437500
1270,23.437500
1271,23.437500
1272,23.437500
1273,23.437500
1274,23.437500
1275,25.390625
1276,25.390625
1277,23.437500
1278,23.437500
1279,23.437500
1280,23.437500
1281,23.437500
1282,23.437500
1283,23.437500
1284,23.437500
1285,23.437500
1286,23.437500
1287,29.296875
1288,23.437500
1289,23.437500
1290,23.437500
1291,23.437500
1292,23.437500
1293,23.437500
1294,23.437500
1295,23.437500
1296,23.437500
1297,23.437500
1298,23.437500
1299,23.437500
1300,23.437500
1301,23.437500
1302,23.437500
1303,23.437500
1304,23.437500
1305,23.437500
1306,23.437500
1307,23.437500
1308,27.343750
1309,23.437500
1310,23.437500
1311,23.437500
1312,23.437500
1313,21.484375
1314,23.437500
1315,23.437500
1316,21.484375
1317,21.484375
1318,21.484375
1319,21.484375
1320,21.484375
1321,21.484375
1322,21.484375
1323,21.484375
1324,21.484375
1325,21.484375
1326,21.484375
1327,21.484375
1328,21.484375
1329,21.484375
1330,21.484375
1331,19.531250
1332,21.484375
1333,21.484375
1334,19.531250
1335,19.531250
1336,19.531250
1337,19.531250
1338,19.531250
1339,19.531250
1340,19.531250
1341,19.531250
1342,19.531250
1343,19.531250
1344,19.531250
1345,19.531250
1346,19.531250
1347,19.531250
1348,19.531250
1349,19.531250
1350,19.531250
1351,19.531250
1352,19.531250
1353,17.578125
1354,17.578125
1355,17.578125
1356,17.578125
1357,17.578125
1358,17.578125
1359,17.578125
1360,17.578125
1361,17.578125
1362,17.578125
1363,17.578125
1364,15.625000
1365,17.578125
1366,17.578125
1367,15.625000
1368,15.625000
1369,17.578125
1370,15.625000
1371,17.578125
1372,15.625000
1373,15.625000
1374,15.625000
1375,15.625000
1376,15.625000
1377,15.625000
1378,15.625000
1379,15.625000
1380,13.671875
1381,13.671875
1382,17.578125
