Practicum8/data/opgave5/f1/data_83_011.csv

Channel              :,CH1
Frequency            :,620.2Hz
Period               :,1.612ms
PK-PK                :,33.20mV
Probe attenuation    :,1X
Voltage per ADC value:,0.122070mV
Time interval        :,2.00000us

index,CH1_Voltage(mV)
1,-3.906250
2,-3.906250
3,-3.906250
4,-3.906250
5,-1.953125
6,-3.906250
7,-3.906250
8,-3.906250
9,-3.906250
10,-3.906250
11,-3.906250
12,-3.906250
13,-3.906250
14,-3.906250
15,-3.906250
16,-3.906250
17,-3.906250
18,-3.906250
19,-3.906250
20,-3.906250
21,-7.812500
22,-3.906250
23,-3.906250
24,-3.906250
25,-3.906250
26,-3.906250
27,-3.906250
28,-3.906250
29,-5.859375
30,-3.906250
31,-5.859375
32,-3.906250
33,-3.906250
34,-3.906250
35,-5.859375
36,-5.859375
37,-5.859375
38,-5.859375
39,-5.859375
40,-5.859375
41,-5.859375
42,-5.859375
43,-5.859375
44,-5.859375
45,-5.859375
46,-5.859375
47,-5.859375
48,-5.859375
49,-5.859375
50,-5.859375
51,-5.859375
52,-5.859375
53,-5.859375
54,-7.812500
55,-5.859375
56,-5.859375
57,-5.859375
58,-5.859375
59,-7.812500
60,-5.859375
61,-5.859375
62,-5.859375
63,-5.859375
64,-7.812500
65,-5.859375
66,-5.859375
67,-7.812500
68,-7.812500
69,-7.812500
70,-7.812500
71,-5.859375
72,-7.812500
73,-5.859375
74,-7.812500
75,-5.859375
76,-5.859375
77,-7.812500
78,-7.812500
79,-7.812500
80,-7.812500
81,-7.812500
82,-7.812500
83,-7.812500
84,-7.812500
85,-7.812500
86,-7.812500
87,-5.859375
88,-7.812500
89,-7.812500
90,-7.812500
91,-7.812500
92,-5.859375
93,-7.812500
94,-7.812500
95,-7.812500
96,-7.812500
97,-5.859375
98,-7.812500
99,-7.812500
100,-7.812500
101,-7.812500
102,-7.812500
103,-7.812500
104,-7.812500
105,-7.812500
106,-7.812500
107,-7.812500
108,-5.859375
109,-7.812500
110,-5.859375
111,-7.812500
112,-7.812500
113,-7.812500
114,-7.812500
115,-7.812500
116,-7.812500
117,-7.812500
118,-7.812500
119,-5.859375
120,-7.812500
121,-7.812500
122,-9.765625
123,-7.812500
124,-7.812500
125,-7.812500
126,-7.812500
127,-7.812500
128,-7.812500
129,-7.812500
130,-7.812500
131,-7.812500
132,-7.812500
133,-7.812500
134,-7.812500
135,-7.812500
136,-7.812500
137,-7.812500
138,-7.812500
139,-7.812500
140,-7.812500
141,-7.812500
142,-7.812500
143,-9.765625
144,-7.812500
145,-7.812500
146,-7.812500
147,-7.812500
148,-7.812500
149,-7.812500
150,-7.812500
151,-7.812500
152,-7.812500
153,-7.812500
154,-7.812500
155,-7.812500
156,-5.859375
157,-7.812500
158,-7.812500
159,-5.859375
160,-7.812500
161,-7.812500
162,-7.812500
163,-7.812500
164,-7.812500
165,-7.812500
166,-7.812500
167,-7.812500
168,-7.812500
169,-7.812500
170,-5.859375
171,-7.812500
172,-7.812500
173,-7.812500
174,-5.859375
175,-7.812500
176,-7.812500
177,-5.859375
178,-7.812500
179,-7.812500
180,-5.859375
181,-5.859375
182,-7.812500
183,-7.812500
184,-7.812500
185,-5.859375
186,-5.859375
187,-5.859375
188,-7.812500
189,-7.812500
190,-5.859375
191,-7.812500
192,-5.859375
193,-5.859375
194,-7.812500
195,-5.859375
196,-5.859375
197,-5.859375
198,-5.859375
199,-5.859375
200,-5.859375
201,-5.859375
202,-5.859375
203,-5.859375
204,-5.859375
205,-5.859375
206,-5.859375
207,-5.859375
208,-5.859375
209,-5.859375
210,-5.859375
211,-5.859375
212,-5.859375
213,-5.859375
214,-5.859375
215,-5.859375
216,-5.859375
217,-5.859375
218,-5.859375
219,-5.859375
220,-5.859375
221,-5.859375
222,-3.906250
223,-5.859375
224,-5.859375
225,-3.906250
226,-1.953125
227,-3.906250
228,-3.906250
229,-3.906250
230,-3.906250
231,-3.906250
232,-3.906250
233,-3.906250
234,-3.906250
235,-3.906250
236,-3.906250
237,-3.906250
238,-3.906250
239,-3.906250
240,-3.906250
241,-3.906250
242,-1.953125
243,-7.812500
244,-3.906250
245,-3.906250
246,-1.953125
247,-1.953125
248,-1.953125
249,-1.953125
250,-1.953125
251,-1.953125
252,-1.953125
253,-1.953125
254,-1.953125
255,-3.906250
256,-1.953125
257,-1.953125
258,-1.953125
259,-1.953125
260,-1.953125
261,-1.953125
262,-1.953125
263,-1.953125
264,-1.953125
265,-1.953125
266,-1.953125
267,-1.953125
268,-1.953125
269,-1.953125
270,-1.953125
271,-1.953125
272,-1.953125
273,-1.953125
274,-1.953125
275,0.000000
276,0.000000
277,0.000000
278,0.000000
279,0.000000
280,0.000000
281,0.000000
282,0.000000
283,0.000000
284,0.000000
285,0.000000
286,0.000000
287,0.000000
288,1.953125
289,1.953125
290,0.000000
291,1.953125
292,1.953125
293,1.953125
294,1.953125
295,1.953125
296,1.953125
297,1.953125
298,1.953125
299,1.953125
300,1.953125
301,1.953125
302,1.953125
303,1.953125
304,1.953125
305,1.953125
306,1.953125
307,1.953125
308,1.953125
309,1.953125
310,3.906250
311,1.953125
312,3.906250
313,3.906250
314,3.906250
315,3.906250
316,3.906250
317,5.859375
318,3.906250
319,3.906250
320,3.906250
321,3.906250
322,3.906250
323,3.906250
324,3.906250
325,3.906250
326,3.906250
327,3.906250
328,3.906250
329,5.859375
330,3.906250
331,3.906250
332,3.906250
333,5.859375
334,3.906250
335,5.859375
336,5.859375
337,5.859375
338,5.859375
339,5.859375
340,5.859375
341,5.859375
342,7.812500
343,5.859375
344,5.859375
345,5.859375
346,5.859375
347,7.812500
348,5.859375
349,7.812500
350,7.812500
351,7.812500
352,7.812500
353,7.812500
354,7.812500
355,7.812500
356,7.812500
357,7.812500
358,7.812500
359,7.812500
360,7.812500
361,7.812500
362,7.812500
363,7.812500
364,7.812500
365,9.765625
366,7.812500
367,9.765625
368,9.765625
369,9.765625
370,9.765625
371,9.765625
372,9.765625
373,9.765625
374,9.765625
375,9.765625
376,9.765625
377,9.765625
378,9.765625
379,9.765625
380,9.765625
381,9.765625
382,11.718750
383,9.765625
384,9.765625
385,9.765625
386,11.718750
387,9.765625
388,9.765625
389,11.718750
390,11.718750
391,11.718750
392,11.718750
393,11.718750
394,11.718750
395,11.718750
396,11.718750
397,11.718750
398,11.718750
399,11.718750
400,11.718750
401,11.718750
402,11.718750
403,11.718750
404,11.718750
405,11.718750
406,13.671875
407,11.718750
408,11.718750
409,11.718750
410,13.671875
411,13.671875
412,13.671875
413,13.671875
414,13.671875
415,13.671875
416,13.671875
417,13.671875
418,13.671875
419,13.671875
420,13.671875
421,13.671875
422,13.671875
423,13.671875
424,15.625000
425,13.671875
426,13.671875
427,13.671875
428,13.671875
429,13.671875
430,13.671875
431,13.671875
432,13.671875
433,13.671875
434,15.625000
435,13.671875
436,13.671875
437,15.625000
438,15.625000
439,15.625000
440,15.625000
441,15.625000
442,13.671875
443,15.625000
444,15.625000
445,15.625000
446,15.625000
447,17.578125
448,15.625000
449,15.625000
450,15.625000
451,13.671875
452,15.625000
453,15.625000
454,15.625000
455,15.625000
456,15.625000
457,15.625000
458,15.625000
459,15.625000
460,15.625000
461,15.625000
462,15.625000
463,15.625000
464,15.625000
465,15.625000
466,15.625000
467,15.625000
468,15.625000
469,17.578125
470,15.625000
471,15.625000
472,15.625000
473,15.625000
474,15.625000
475,15.625000
476,17.578125
477,17.578125
478,17.578125
479,15.625000
480,17.578125
481,15.625000
482,17.578125
483,17.578125
484,15.625000
485,17.578125
486,17.578125
487,17.578125
488,17.578125
489,17.578125
490,17.578125
491,17.578125
492,17.578125
493,15.625000
494,17.578125
495,17.578125
496,17.578125
497,15.625000
498,15.625000
499,17.578125
500,17.578125
501,15.625000
502,15.625000
503,17.578125
504,17.578125
505,17.578125
506,17.578125
507,17.578125
508,17.578125
509,17.578125
510,17.578125
511,15.625000
512,17.578125
513,15.625000
514,17.578125
515,17.578125
516,15.625000
517,15.625000
518,17.578125
519,17.578125
520,17.578125
521,17.578125
522,15.625000
523,17.578125
524,17.578125
525,17.578125
526,15.625000
527,17.578125
528,17.578125
529,17.578125
530,15.625000
531,15.625000
532,17.578125
533,17.578125
534,15.625000
535,17.578125
536,17.578125
537,17.578125
538,17.578125
539,17.578125
540,17.578125
541,17.578125
542,17.578125
543,15.625000
544,17.578125
545,17.578125
546,17.578125
547,15.625000
548,15.625000
549,17.578125
550,15.625000
551,15.625000
552,15.625000
553,15.625000
554,15.625000
555,17.578125
556,17.578125
557,15.625000
558,15.625000
559,15.625000
560,15.625000
561,15.625000
562,15.625000
563,15.625000
564,15.625000
565,15.625000
566,15.625000
567,15.625000
568,15.625000
569,15.625000
570,15.625000
571,15.625000
572,15.625000
573,15.625000
574,15.625000
575,15.625000
576,15.625000
577,15.625000
578,13.671875
579,15.625000
580,15.625000
581,15.625000
582,13.671875
583,15.625000
584,13.671875
585,15.625000
586,13.671875
587,13.671875
588,15.625000
589,15.625000
590,13.671875
591,13.671875
592,15.625000
593,13.671875
594,13.671875
595,13.671875
596,13.671875
597,13.671875
598,13.671875
599,13.671875
600,13.671875
601,13.671875
602,13.671875
603,13.671875
604,13.671875
605,13.671875
606,13.671875
607,13.671875
608,13.671875
609,13.671875
610,13.671875
611,13.671875
612,11.718750
613,13.671875
614,13.671875
615,13.671875
616,13.671875
617,13.671875
618,15.625000
619,13.671875
620,11.718750
621,13.671875
622,13.671875
623,11.718750
624,11.718750
625,11.718750
626,11.718750
627,11.718750
628,11.718750
629,11.718750
630,11.718750
631,11.718750
632,11.718750
633,11.718750
634,11.718750
635,11.718750
636,11.718750
637,11.718750
638,11.718750
639,11.718750
640,11.718750
641,11.718750
642,11.718750
643,11.718750
644,11.718750
645,9.765625
646,11.718750
647,11.718750
648,9.765625
649,11.718750
650,11.718750
651,9.765625
652,9.765625
653,9.765625
654,9.765625
655,9.765625
656,9.765625
657,9.765625
658,9.765625
659,9.765625
660,9.765625
661,9.765625
662,9.765625
663,9.765625
664,9.765625
665,9.765625
666,9.765625
667,9.765625
668,9.765625
669,9.765625
670,7.812500
671,9.765625
672,9.765625
673,9.765625
674,9.765625
675,7.812500
676,7.812500
677,7.812500
678,7.812500
679,7.812500
680,7.812500
681,7.812500
682,7.812500
683,7.812500
684,7.812500
685,7.812500
686,7.812500
687,7.812500
688,7.812500
689,7.812500
690,7.812500
691,7.812500
692,5.859375
693,5.859375
694,7.812500
695,5.859375
696,7.812500
697,5.859375
698,5.859375
699,5.859375
700,5.859375
701,5.859375
702,5.859375
703,5.859375
704,5.859375
705,5.859375
706,5.859375
707,5.859375
708,5.859375
709,5.859375
710,3.906250
711,3.906250
712,3.906250
713,5.859375
714,3.906250
715,3.906250
716,3.906250
717,3.906250
718,3.906250
719,3.906250
720,3.906250
721,3.906250
722,3.906250
723,3.906250
724,3.906250
725,3.906250
726,3.906250
727,7.812500
728,3.906250
729,3.906250
730,3.906250
731,3.906250
732,3.906250
733,1.953125
734,1.953125
735,1.953125
736,3.906250
737,3.906250
738,1.953125
739,1.953125
740,1.953125
741,1.953125
742,1.953125
743,3.906250
744,1.953125
745,1.953125
746,1.953125
747,1.953125
748,1.953125
749,1.953125
750,1.953125
751,1.953125
752,0.000000
753,1.953125
754,1.953125
755,1.953125
756,1.953125
757,0.000000
758,1.953125
759,0.000000
760,0.000000
761,0.000000
762,0.000000
763,1.953125
764,0.000000
765,-1.953125
766,0.000000
767,0.000000
768,0.000000
769,0.000000
770,0.000000
771,-1.953125
772,0.000000
773,0.000000
774,0.000000
775,0.000000
776,0.000000
777,0.000000
778,0.000000
779,-1.953125
780,-3.906250
781,0.000000
782,-1.953125
783,-1.953125
784,0.000000
785,-1.953125
786,-1.953125
787,-1.953125
788,-1.953125
789,-1.953125
790,-1.953125
791,-1.953125
792,-1.953125
793,-1.953125
794,-1.953125
795,-1.953125
796,-3.906250
797,-1.953125
798,-1.953125
799,-1.953125
800,-1.953125
801,-1.953125
802,-3.906250
803,-3.906250
804,-1.953125
805,-3.906250
806,-1.953125
807,-3.906250
808,-3.906250
809,-1.953125
810,-3.906250
811,-3.906250
812,-3.906250
813,-1.953125
814,-3.906250
815,-3.906250
816,-3.906250
817,-3.906250
818,-3.906250
819,-3.906250
820,-3.906250
821,-3.906250
822,-3.906250
823,-3.906250
824,-3.906250
825,-3.906250
826,-3.906250
827,-3.906250
828,-5.859375
829,-5.859375
830,-3.906250
831,-3.906250
832,-5.859375
833,-5.859375
834,-5.859375
835,-3.906250
836,-3.906250
837,-5.859375
838,-3.906250
839,-5.859375
840,-5.859375
841,-5.859375
842,-5.859375
843,-5.859375
844,-5.859375
845,-5.859375
846,-5.859375
847,-5.859375
848,-5.859375
849,-5.859375
850,-5.859375
851,-5.859375
852,-5.859375
853,-5.859375
854,-5.859375
855,-5.859375
856,-5.859375
857,-5.859375
858,-5.859375
859,-5.859375
860,-5.859375
861,-7.812500
862,-5.859375
863,-5.859375
864,-5.859375
865,-5.859375
866,-5.859375
867,-5.859375
868,-5.859375
869,-5.859375
870,-7.812500
871,-5.859375
872,-5.859375
873,-5.859375
874,-5.859375
875,-7.812500
876,-5.859375
877,-7.812500
878,-5.859375
879,-7.812500
880,-7.812500
881,-5.859375
882,-5.859375
883,-5.859375
884,-7.812500
885,-7.812500
886,-7.812500
887,-5.859375
888,-7.812500
889,-7.812500
890,-7.812500
891,-7.812500
892,-7.812500
893,-7.812500
894,-7.812500
895,-7.812500
896,-7.812500
897,-7.812500
898,-5.859375
899,-7.812500
900,-7.812500
901,-7.812500
902,-7.812500
903,-7.812500
904,-7.812500
905,-7.812500
906,-7.812500
907,-7.812500
908,-7.812500
909,-7.812500
910,-7.812500
911,-7.812500
912,-7.812500
913,-7.812500
914,-7.812500
915,-7.812500
916,-7.812500
917,-7.812500
918,-9.765625
919,-7.812500
920,-7.812500
921,-7.812500
922,-7.812500
923,-7.812500
924,-7.812500
925,-7.812500
926,-7.812500
927,-5.859375
928,-7.812500
929,-7.812500
930,-7.812500
931,-7.812500
932,-7.812500
933,-7.812500
934,-7.812500
935,-7.812500
936,-7.812500
937,-7.812500
938,-7.812500
939,-7.812500
940,-7.812500
941,-7.812500
942,-7.812500
943,-7.812500
944,-7.812500
945,-7.812500
946,-7.812500
947,-7.812500
948,-7.812500
949,-7.812500
950,-7.812500
951,-7.812500
952,-7.812500
953,-7.812500
954,-7.812500
955,-7.812500
956,-9.765625
957,-7.812500
958,-7.812500
959,-7.812500
960,-7.812500
961,-7.812500
962,-9.765625
963,-7.812500
964,-7.812500
965,-7.812500
966,-7.812500
967,-7.812500
968,-7.812500
969,-7.812500
970,-7.812500
971,-7.812500
972,-7.812500
973,-7.812500
974,-7.812500
975,-7.812500
976,-5.859375
977,-7.812500
978,-7.812500
979,-7.812500
980,-7.812500
981,-7.812500
982,-7.812500
983,-7.812500
984,-7.812500
985,-7.812500
986,-7.812500
987,-7.812500
988,-7.812500
989,-7.812500
990,-7.812500
991,-7.812500
992,-7.812500
993,-5.859375
994,-7.812500
995,-7.812500
996,-5.859375
997,-5.859375
998,-5.859375
999,-5.859375
1000,-5.859375
1001,-5.859375
1002,-5.859375
1003,-5.859375
1004,-5.859375
1005,-5.859375
1006,-5.859375
1007,-5.859375
1008,-5.859375
1009,-5.859375
1010,-5.859375
1011,-3.906250
1012,-5.859375
1013,-5.859375
1014,-5.859375
1015,-5.859375
1016,-5.859375
1017,-5.859375
1018,-5.859375
1019,-5.859375
1020,-5.859375
1021,-5.859375
1022,-5.859375
1023,-5.859375
1024,-5.859375
1025,-5.859375
1026,-3.906250
1027,-5.859375
1028,-3.906250
1029,-3.906250
1030,-5.859375
1031,-3.906250
1032,-5.859375
1033,-3.906250
1034,-3.906250
1035,-3.906250
1036,-3.906250
1037,-3.906250
1038,-5.859375
1039,-3.906250
1040,-3.906250
1041,-3.906250
1042,-3.906250
1043,-3.906250
1044,-3.906250
1045,-3.906250
1046,-3.906250
1047,-3.906250
1048,-3.906250
1049,-3.906250
1050,-3.906250
1051,-3.906250
1052,-1.953125
1053,-1.953125
1054,-3.906250
1055,-3.906250
1056,-1.953125
1057,-1.953125
1058,-1.953125
1059,-1.953125
1060,-1.953125
1061,-1.953125
1062,-1.953125
1063,-1.953125
1064,-1.953125
1065,-1.953125
1066,-1.953125
1067,-1.953125
1068,-1.953125
1069,-1.953125
1070,0.000000
1071,-1.953125
1072,-1.953125
1073,0.000000
1074,-1.953125
1075,0.000000
1076,0.000000
1077,0.000000
1078,0.000000
1079,0.000000
1080,0.000000
1081,0.000000
1082,0.000000
1083,0.000000
1084,0.000000
1085,0.000000
1086,0.000000
1087,0.000000
1088,0.000000
1089,0.000000
1090,1.953125
1091,0.000000
1092,0.000000
1093,0.000000
1094,1.953125
1095,0.000000
1096,0.000000
1097,0.000000
1098,1.953125
1099,1.953125
1100,0.000000
1101,0.000000
1102,1.953125
1103,0.000000
1104,1.953125
1105,1.953125
1106,1.953125
1107,1.953125
1108,1.953125
1109,1.953125
1110,1.953125
1111,1.953125
1112,1.953125
1113,1.953125
1114,1.953125
1115,1.953125
1116,1.953125
1117,3.906250
1118,3.906250
1119,1.953125
1120,3.906250
1121,3.906250
1122,3.906250
1123,3.906250
1124,3.906250
1125,3.906250
1126,3.906250
1127,3.906250
1128,3.906250
1129,5.859375
1130,3.906250
1131,3.906250
1132,3.906250
1133,3.906250
1134,5.859375
1135,5.859375
1136,3.906250
1137,3.906250
1138,3.906250
1139,5.859375
1140,5.859375
1141,5.859375
1142,5.859375
1143,5.859375
1144,5.859375
1145,5.859375
1146,5.859375
1147,5.859375
1148,5.859375
1149,5.859375
1150,5.859375
1151,5.859375
1152,5.859375
1153,5.859375
1154,5.859375
1155,5.859375
1156,5.859375
1157,5.859375
1158,5.859375
1159,5.859375
1160,7.812500
1161,7.812500
1162,7.812500
1163,7.812500
1164,7.812500
1165,7.812500
1166,7.812500
1167,7.812500
1168,7.812500
1169,7.812500
1170,7.812500
1171,7.812500
1172,7.812500
1173,7.812500
1174,7.812500
1175,7.812500
1176,7.812500
1177,7.812500
1178,7.812500
1179,9.765625
1180,9.765625
1181,9.765625
1182,11.718750
1183,9.765625
1184,9.765625
1185,9.765625
1186,9.765625
1187,9.765625
1188,9.765625
1189,9.765625
1190,9.765625
1191,9.765625
1192,9.765625
1193,11.718750
1194,9.765625
1195,9.765625
1196,9.765625
1197,11.718750
1198,11.718750
1199,11.718750
1200,11.718750
1201,11.718750
1202,11.718750
1203,11.718750
1204,11.718750
1205,9.765625
1206,11.718750
1207,11.718750
1208,11.718750
1209,11.718750
1210,11.718750
1211,11.718750
1212,11.718750
1213,11.718750
1214,11.718750
1215,11.718750
1216,11.718750
1217,11.718750
1218,11.718750
1219,13.671875
1220,11.718750
1221,11.718750
1222,11.718750
1223,15.625000
1224,13.671875
1225,11.718750
1226,11.718750
1227,13.671875
1228,11.718750
1229,13.671875
1230,13.671875
1231,13.671875
1232,13.671875
1233,13.671875
1234,13.671875
1235,13.671875
1236,13.671875
1237,13.671875
1238,13.671875
1239,13.671875
1240,13.671875
1241,13.671875
1242,13.671875
1243,13.671875
1244,15.625000
1245,13.671875
1246,13.671875
1247,13.671875
1248,15.625000
1249,15.625000
1250,15.625000
1251,13.671875
1252,15.625000
1253,15.625000
1254,15.625000
1255,15.625000
1256,15.625000
1257,15.625000
1258,15.625000
1259,15.625000
1260,15.625000
1261,15.625000
1262,15.625000
1263,15.625000
1264,15.625000
1265,15.625000
1266,15.625000
1267,13.671875
1268,15.625000
1269,15.625000
1270,15.625000
1271,15.625000
1272,15.625000
1273,11.718750
1274,15.625000
1275,15.625000
1276,15.625000
1277,17.578125
1278,17.578125
1279,15.625000
1280,15.625000
1281,15.625000
1282,15.625000
1283,15.625000
1284,15.625000
1285,15.625000
1286,15.625000
1287,15.625000
1288,15.625000
1289,15.625000
1290,15.625000
1291,15.625000
1292,15.625000
1293,15.625000
1294,15.625000
1295,15.625000
1296,15.625000
1297,17.578125
1298,15.625000
1299,17.578125
1300,17.578125
1301,15.625000
1302,15.625000
1303,17.578125
1304,15.625000
1305,15.625000
1306,15.625000
1307,17.578125
1308,17.578125
1309,15.625000
1310,17.578125
1311,15.625000
1312,15.625000
1313,17.578125
1314,17.578125
1315,17.578125
1316,13.671875
1317,17.578125
1318,17.578125
1319,15.625000
1320,17.578125
1321,17.578125
1322,15.625000
1323,17.578125
1324,17.578125
1325,15.625000
1326,17.578125
1327,17.578125
1328,17.578125
1329,17.578125
1330,17.578125
1331,17.578125
1332,17.578125
1333,17.578125
1334,17.578125
1335,15.625000
1336,17.578125
1337,17.578125
1338,15.625000
1339,17.578125
1340,15.625000
1341,17.578125
1342,15.625000
1343,15.625000
1344,15.625000
1345,15.625000
1346,15.625000
1347,15.625000
1348,15.625000
1349,15.625000
1350,15.625000
1351,15.625000
1352,15.625000
1353,15.625000
1354,15.625000
1355,15.625000
1356,15.625000
1357,15.625000
1358,15.625000
1359,15.625000
1360,17.578125
1361,15.625000
1362,15.625000
1363,15.625000
1364,15.625000
1365,15.625000
1366,15.625000
1367,15.625000
1368,15.625000
1369,15.625000
1370,15.625000
1371,15.625000
1372,15.625000
1373,15.625000
1374,15.625000
1375,15.625000
1376,15.625000
1377,15.625000
1378,15.625000
1379,15.625000
1380,15.625000
1381,15.625000
1382,15.625000
1383,15.625000
1384,15.625000
1385,15.625000
1386,15.625000
1387,15.625000
1388,15.625000
1389,15.625000
1390,15.625000
1391,13.671875
1392,15.625000
1393,15.625000
1394,15.625000
1395,13.671875
1396,13.671875
1397,15.625000
1398,15.625000
1399,13.671875
1400,15.625000
1401,15.625000
1402,13.671875
1403,13.671875
1404,13.671875
1405,13.671875
1406,13.671875
1407,13.671875
1408,13.671875
1409,13.671875
1410,13.671875
1411,13.671875
1412,13.671875
1413,13.671875
1414,13.671875
1415,13.671875
