Practicum8/data/opgave5/freq/data_80_002.csv

Channel              :,CH1
Frequency            :,1.759kHz
Period               :,0.568ms
PK-PK                :,183.6mV
Probe attenuation    :,1X
Voltage per ADC value:,0.122070mV
Time interval        :,2.00000us

index,CH1_Voltage(mV)
1,60.546875
2,60.546875
3,60.546875
4,60.546875
5,58.593750
6,56.640625
7,56.640625
8,54.687500
9,52.734375
10,50.781250
11,48.828125
12,48.828125
13,46.875000
14,44.921875
15,42.968750
16,42.968750
17,41.015625
18,39.062500
19,37.109375
20,35.156250
21,33.203125
22,31.250000
23,29.296875
24,27.343750
25,27.343750
26,25.390625
27,23.437500
28,21.484375
29,19.531250
30,17.578125
31,15.625000
32,13.671875
33,11.718750
34,9.765625
35,7.812500
36,5.859375
37,3.906250
38,1.953125
39,0.000000
40,-1.953125
41,-3.906250
42,-5.859375
43,-7.812500
44,-9.765625
45,-11.718750
46,-13.671875
47,-15.625000
48,-17.578125
49,-19.531250
50,-21.484375
51,-23.437500
52,-23.437500
53,-27.343750
54,-29.296875
55,-31.250000
56,-33.203125
57,-33.203125
58,-37.109375
59,-39.062500
60,-41.015625
61,-41.015625
62,-42.968750
63,-44.921875
64,-48.828125
65,-48.828125
66,-50.781250
67,-52.734375
68,-52.734375
69,-56.640625
70,-56.640625
71,-60.546875
72,-60.546875
73,-62.500000
74,-64.453125
75,-64.453125
76,-66.406250
77,-68.359375
78,-70.312500
79,-70.312500
80,-72.265625
81,-74.218750
82,-74.218750
83,-76.171875
84,-78.125000
85,-78.125000
86,-80.078125
87,-80.078125
88,-82.031250
89,-82.031250
90,-83.984375
91,-83.984375
92,-85.937500
93,-87.890625
94,-87.890625
95,-87.890625
96,-87.890625
97,-89.843750
98,-89.843750
99,-91.796875
100,-91.796875
101,-91.796875
102,-91.796875
103,-91.796875
104,-93.750000
105,-93.750000
106,-93.750000
107,-93.750000
108,-93.750000
109,-93.750000
110,-93.750000
111,-93.750000
112,-93.750000
113,-93.750000
114,-93.750000
115,-93.750000
116,-93.750000
117,-91.796875
118,-91.796875
119,-91.796875
120,-91.796875
121,-91.796875
122,-89.843750
123,-89.843750
124,-89.843750
125,-89.843750
126,-87.890625
127,-87.890625
128,-85.937500
129,-85.937500
130,-85.937500
131,-83.984375
132,-83.984375
133,-82.031250
134,-80.078125
135,-80.078125
136,-80.078125
137,-78.125000
138,-76.171875
139,-76.171875
140,-74.218750
141,-74.218750
142,-72.265625
143,-70.312500
144,-68.359375
145,-68.359375
146,-66.406250
147,-66.406250
148,-62.500000
149,-62.500000
150,-60.546875
151,-58.593750
152,-58.593750
153,-54.687500
154,-54.687500
155,-52.734375
156,-50.781250
157,-48.828125
158,-46.875000
159,-44.921875
160,-42.968750
161,-41.015625
162,-39.062500
163,-37.109375
164,-37.109375
165,-33.203125
166,-31.250000
167,-31.250000
168,-29.296875
169,-27.343750
170,-25.390625
171,-23.437500
172,-21.484375
173,-19.531250
174,-15.625000
175,-15.625000
176,-13.671875
177,-9.765625
178,-9.765625
179,-7.812500
180,-3.906250
181,-3.906250
182,-1.953125
183,1.953125
184,3.906250
185,3.906250
186,7.812500
187,9.765625
188,9.765625
189,13.671875
190,15.625000
191,15.625000
192,17.578125
193,19.531250
194,23.437500
195,23.437500
196,25.390625
197,27.343750
198,29.296875
199,31.250000
200,33.203125
201,35.156250
202,35.156250
203,37.109375
204,39.062500
205,41.015625
206,42.968750
207,42.968750
208,44.921875
209,46.875000
210,48.828125
211,48.828125
212,50.781250
213,52.734375
214,54.687500
215,54.687500
216,56.640625
217,58.593750
218,58.593750
219,60.546875
220,62.500000
221,62.500000
222,64.453125
223,66.406250
224,66.406250
225,66.406250
226,68.359375
227,68.359375
228,70.312500
229,70.312500
230,72.265625
231,72.265625
232,74.218750
233,74.218750
234,74.218750
235,76.171875
236,76.171875
237,76.171875
238,78.125000
239,78.125000
240,78.125000
241,80.078125
242,80.078125
243,80.078125
244,80.078125
245,82.031250
246,82.031250
247,82.031250
248,82.031250
249,82.031250
250,82.031250
251,82.031250
252,82.031250
253,82.031250
254,82.031250
255,82.031250
256,82.031250
257,82.031250
258,82.031250
259,82.031250
260,82.031250
261,82.031250
262,80.078125
263,80.078125
264,80.078125
265,80.078125
266,80.078125
267,78.125000
268,78.125000
269,78.125000
270,78.125000
271,76.171875
272,76.171875
273,74.218750
274,74.218750
275,74.218750
276,72.265625
277,72.265625
278,70.312500
279,68.359375
280,68.359375
281,68.359375
282,66.406250
283,66.406250
284,64.453125
285,62.500000
286,62.500000
287,60.546875
288,60.546875
289,58.593750
290,56.640625
291,56.640625
292,54.687500
293,52.734375
294,50.781250
295,50.781250
296,48.828125
297,46.875000
298,44.921875
299,44.921875
300,42.968750
301,41.015625
302,39.062500
303,37.109375
304,35.156250
305,35.156250
306,33.203125
307,31.250000
308,29.296875
309,27.343750
310,25.390625
311,23.437500
312,23.437500
313,19.531250
314,17.578125
315,17.578125
316,15.625000
317,13.671875
318,11.718750
319,9.765625
320,7.812500
321,5.859375
322,3.906250
323,1.953125
324,0.000000
325,-1.953125
326,-3.906250
327,-5.859375
328,-7.812500
329,-9.765625
330,-13.671875
331,-13.671875
332,-15.625000
333,-17.578125
334,-19.531250
335,-21.484375
336,-23.437500
337,-27.343750
338,-27.343750
339,-29.296875
340,-31.250000
341,-33.203125
342,-35.156250
343,-37.109375
344,-39.062500
345,-41.015625
346,-42.968750
347,-44.921875
348,-46.875000
349,-48.828125
350,-50.781250
351,-50.781250
352,-52.734375
353,-56.640625
354,-56.640625
355,-58.593750
356,-60.546875
357,-60.546875
358,-64.453125
359,-64.453125
360,-66.406250
361,-68.359375
362,-68.359375
363,-70.312500
364,-72.265625
365,-72.265625
366,-74.218750
367,-76.171875
368,-76.171875
369,-78.125000
370,-78.125000
371,-80.078125
372,-82.031250
373,-82.031250
374,-83.984375
375,-83.984375
376,-83.984375
377,-85.937500
378,-85.937500
379,-87.890625
380,-87.890625
381,-87.890625
382,-89.843750
383,-89.843750
384,-89.843750
385,-89.843750
386,-91.796875
387,-91.796875
388,-91.796875
389,-91.796875
390,-91.796875
391,-91.796875
392,-91.796875
393,-91.796875
394,-91.796875
395,-93.750000
396,-91.796875
397,-91.796875
398,-93.750000
399,-93.750000
400,-91.796875
401,-91.796875
402,-91.796875
403,-91.796875
404,-91.796875
405,-89.843750
406,-89.843750
407,-89.843750
408,-89.843750
409,-89.843750
410,-87.890625
411,-87.890625
412,-87.890625
413,-85.937500
414,-83.984375
415,-83.984375
416,-83.984375
417,-82.031250
418,-82.031250
419,-82.031250
420,-80.078125
421,-78.125000
422,-76.171875
423,-76.171875
424,-74.218750
425,-74.218750
426,-72.265625
427,-70.312500
428,-68.359375
429,-68.359375
430,-66.406250
431,-64.453125
432,-62.500000
433,-62.500000
434,-60.546875
435,-58.593750
436,-56.640625
437,-54.687500
438,-54.687500
439,-50.781250
440,-50.781250
441,-48.828125
442,-46.875000
443,-44.921875
444,-42.968750
445,-41.015625
446,-39.062500
447,-37.109375
448,-35.156250
449,-33.203125
450,-33.203125
451,-29.296875
452,-29.296875
453,-25.390625
454,-23.437500
455,-23.437500
456,-21.484375
457,-19.531250
458,-15.625000
459,-15.625000
460,-11.718750
461,-11.718750
462,-9.765625
463,-5.859375
464,-5.859375
465,-1.953125
466,0.000000
467,0.000000
468,3.906250
469,3.906250
470,5.859375
471,7.812500
472,9.765625
473,13.671875
474,13.671875
475,15.625000
476,17.578125
477,19.531250
478,21.484375
479,23.437500
480,25.390625
481,27.343750
482,29.296875
483,29.296875
484,31.250000
485,33.203125
486,35.156250
487,37.109375
488,39.062500
489,41.015625
490,41.015625
491,42.968750
492,44.921875
493,46.875000
494,48.828125
495,48.828125
496,50.781250
497,52.734375
498,54.687500
499,54.687500
500,56.640625
501,58.593750
502,58.593750
503,60.546875
504,62.500000
505,62.500000
506,64.453125
507,64.453125
508,66.406250
509,68.359375
510,68.359375
511,70.312500
512,70.312500
513,70.312500
514,72.265625
515,72.265625
516,74.218750
517,74.218750
518,74.218750
519,76.171875
520,76.171875
521,78.125000
522,78.125000
523,78.125000
524,78.125000
525,78.125000
526,80.078125
527,80.078125
528,80.078125
529,80.078125
530,80.078125
531,82.031250
532,82.031250
533,82.031250
534,82.031250
535,82.031250
536,82.031250
537,82.031250
538,82.031250
539,82.031250
540,82.031250
541,80.078125
542,82.031250
543,80.078125
544,80.078125
545,80.078125
546,80.078125
547,80.078125
548,80.078125
549,78.125000
550,78.125000
551,78.125000
552,78.125000
553,76.171875
554,76.171875
555,76.171875
556,76.171875
557,74.218750
558,74.218750
559,72.265625
560,72.265625
561,70.312500
562,70.312500
563,70.312500
564,68.359375
565,68.359375
566,66.406250
567,64.453125
568,64.453125
569,62.500000
570,62.500000
571,60.546875
572,60.546875
573,58.593750
574,56.640625
575,56.640625
576,54.687500
577,52.734375
578,50.781250
579,50.781250
580,48.828125
581,46.875000
582,46.875000
583,44.921875
584,42.968750
585,41.015625
586,39.062500
587,37.109375
588,35.156250
589,33.203125
590,33.203125
591,31.250000
592,29.296875
593,27.343750
594,25.390625
595,23.437500
596,21.484375
597,19.531250
598,17.578125
599,17.578125
600,13.671875
601,11.718750
602,9.765625
603,7.812500
604,5.859375
605,3.906250
606,3.906250
607,0.000000
608,-1.953125
609,-3.906250
610,-5.859375
611,-7.812500
612,-9.765625
613,-11.718750
614,-13.671875
615,-15.625000
616,-17.578125
617,-19.531250
618,-21.484375
619,-23.437500
620,-23.437500
621,-27.343750
622,-29.296875
623,-31.250000
624,-33.203125
625,-35.156250
626,-35.156250
627,-39.062500
628,-41.015625
629,-41.015625
630,-44.921875
631,-44.921875
632,-46.875000
633,-48.828125
634,-50.781250
635,-52.734375
636,-54.687500
637,-54.687500
638,-56.640625
639,-58.593750
640,-60.546875
641,-62.500000
642,-64.453125
643,-64.453125
644,-66.406250
645,-68.359375
646,-68.359375
647,-72.265625
648,-72.265625
649,-74.218750
650,-74.218750
651,-76.171875
652,-76.171875
653,-78.125000
654,-80.078125
655,-80.078125
656,-82.031250
657,-82.031250
658,-83.984375
659,-85.937500
660,-83.984375
661,-85.937500
662,-87.890625
663,-87.890625
664,-87.890625
665,-89.843750
666,-89.843750
667,-89.843750
668,-91.796875
669,-91.796875
670,-91.796875
671,-91.796875
672,-91.796875
673,-93.750000
674,-93.750000
675,-93.750000
676,-93.750000
677,-93.750000
678,-93.750000
679,-93.750000
680,-93.750000
681,-93.750000
682,-93.750000
683,-93.750000
684,-93.750000
685,-93.750000
686,-93.750000
687,-91.796875
688,-91.796875
689,-91.796875
690,-89.843750
691,-89.843750
692,-89.843750
693,-87.890625
694,-89.843750
695,-87.890625
696,-85.937500
697,-85.937500
698,-85.937500
699,-83.984375
700,-83.984375
701,-82.031250
702,-82.031250
703,-80.078125
704,-78.125000
705,-78.125000
706,-76.171875
707,-76.171875
708,-74.218750
709,-74.218750
710,-72.265625
711,-70.312500
712,-70.312500
713,-68.359375
714,-66.406250
715,-64.453125
716,-64.453125
717,-60.546875
718,-60.546875
719,-58.593750
720,-56.640625
721,-54.687500
722,-54.687500
723,-52.734375
724,-50.781250
725,-48.828125
726,-46.875000
727,-44.921875
728,-42.968750
729,-41.015625
730,-39.062500
731,-37.109375
732,-37.109375
733,-33.203125
734,-33.203125
735,-31.250000
736,-29.296875
737,-27.343750
738,-25.390625
739,-23.437500
740,-21.484375
741,-19.531250
742,-17.578125
743,-15.625000
744,-13.671875
745,-11.718750
746,-9.765625
747,-7.812500
748,-3.906250
749,-3.906250
750,-1.953125
751,0.000000
752,1.953125
753,3.906250
754,5.859375
755,7.812500
756,9.765625
757,11.718750
758,13.671875
759,15.625000
760,17.578125
761,19.531250
762,21.484375
763,23.437500
764,25.390625
765,27.343750
766,29.296875
767,31.250000
768,33.203125
769,33.203125
770,35.156250
771,37.109375
772,39.062500
773,41.015625
774,41.015625
775,42.968750
776,44.921875
777,46.875000
778,48.828125
779,50.781250
780,50.781250
781,52.734375
782,54.687500
783,54.687500
784,56.640625
785,58.593750
786,58.593750
787,60.546875
788,62.500000
789,62.500000
790,64.453125
791,64.453125
792,66.406250
793,68.359375
794,70.312500
795,68.359375
796,70.312500
797,70.312500
798,72.265625
799,72.265625
800,72.265625
801,74.218750
802,76.171875
803,76.171875
804,76.171875
805,78.125000
806,78.125000
807,78.125000
808,78.125000
809,78.125000
810,80.078125
811,80.078125
812,80.078125
813,80.078125
814,80.078125
815,82.031250
816,82.031250
817,80.078125
818,82.031250
819,82.031250
820,82.031250
821,82.031250
822,82.031250
823,82.031250
824,82.031250
825,82.031250
826,82.031250
827,82.031250
828,80.078125
829,82.031250
830,80.078125
831,80.078125
832,80.078125
833,80.078125
834,80.078125
835,78.125000
836,78.125000
837,78.125000
838,78.125000
839,76.171875
840,76.171875
841,74.218750
842,74.218750
843,72.265625
844,72.265625
845,72.265625
846,70.312500
847,70.312500
848,68.359375
849,68.359375
850,66.406250
851,66.406250
852,64.453125
853,64.453125
854,62.500000
855,60.546875
856,60.546875
857,58.593750
858,56.640625
859,56.640625
860,54.687500
861,52.734375
862,52.734375
863,50.781250
864,48.828125
865,46.875000
866,44.921875
867,42.968750
868,42.968750
869,41.015625
870,41.015625
871,39.062500
872,37.109375
873,35.156250
874,33.203125
875,31.250000
876,29.296875
877,27.343750
878,25.390625
879,23.437500
880,23.437500
881,19.531250
882,19.531250
883,17.578125
884,13.671875
885,13.671875
886,11.718750
887,9.765625
888,7.812500
889,5.859375
890,3.906250
891,1.953125
892,0.000000
893,-1.953125
894,-5.859375
895,-5.859375
896,-7.812500
897,-9.765625
898,-11.718750
899,-13.671875
900,-15.625000
901,-17.578125
902,-19.531250
903,-21.484375
904,-23.437500
905,-25.390625
906,-27.343750
907,-29.296875
908,-31.250000
909,-33.203125
910,-35.156250
911,-37.109375
912,-39.062500
913,-41.015625
914,-42.968750
915,-44.921875
916,-44.921875
917,-48.828125
918,-50.781250
919,-52.734375
920,-54.687500
921,-54.687500
922,-56.640625
923,-58.593750
924,-60.546875
925,-62.500000
926,-62.500000
927,-64.453125
928,-66.406250
929,-68.359375
930,-68.359375
931,-70.312500
932,-72.265625
933,-72.265625
934,-74.218750
935,-74.218750
936,-76.171875
937,-78.125000
938,-78.125000
939,-80.078125
940,-82.031250
941,-82.031250
942,-83.984375
943,-83.984375
944,-85.937500
945,-85.937500
946,-85.937500
947,-87.890625
948,-87.890625
949,-87.890625
950,-89.843750
951,-89.843750
952,-89.843750
953,-91.796875
954,-91.796875
955,-91.796875
956,-91.796875
957,-91.796875
958,-93.750000
959,-93.750000
960,-93.750000
961,-93.750000
962,-93.750000
963,-93.750000
964,-93.750000
965,-93.750000
966,-93.750000
967,-91.796875
968,-93.750000
969,-91.796875
970,-91.796875
971,-91.796875
972,-91.796875
973,-89.843750
974,-91.796875
975,-89.843750
976,-89.843750
977,-89.843750
978,-87.890625
979,-87.890625
980,-87.890625
981,-85.937500
982,-85.937500
983,-83.984375
984,-83.984375
985,-82.031250
986,-82.031250
987,-80.078125
988,-80.078125
989,-78.125000
990,-78.125000
991,-76.171875
992,-74.218750
993,-74.218750
994,-72.265625
995,-70.312500
996,-70.312500
997,-68.359375
998,-66.406250
999,-64.453125
1000,-64.453125
1001,-62.500000
1002,-62.500000
1003,-58.593750
1004,-58.593750
1005,-56.640625
1006,-54.687500
1007,-52.734375
1008,-50.781250
1009,-48.828125
1010,-46.875000
1011,-44.921875
1012,-42.968750
1013,-42.968750
1014,-41.015625
1015,-37.109375
1016,-37.109375
1017,-35.156250
1018,-31.250000
1019,-31.250000
1020,-29.296875
1021,-27.343750
1022,-25.390625
1023,-23.437500
1024,-21.484375
1025,-19.531250
1026,-17.578125
1027,-15.625000
1028,-13.671875
1029,-11.718750
1030,-7.812500
1031,-7.812500
1032,-5.859375
1033,-3.906250
1034,-1.953125
1035,0.000000
1036,1.953125
1037,3.906250
1038,5.859375
1039,7.812500
1040,9.765625
1041,11.718750
1042,13.671875
1043,15.625000
1044,17.578125
1045,19.531250
1046,21.484375
1047,23.437500
1048,23.437500
1049,27.343750
1050,27.343750
1051,29.296875
1052,31.250000
1053,33.203125
1054,35.156250
1055,37.109375
1056,37.109375
1057,41.015625
1058,41.015625
1059,42.968750
1060,44.921875
1061,46.875000
1062,46.875000
1063,48.828125
1064,50.781250
1065,50.781250
1066,52.734375
1067,54.687500
1068,56.640625
1069,56.640625
1070,58.593750
1071,60.546875
1072,60.546875
1073,62.500000
1074,62.500000
1075,64.453125
1076,66.406250
1077,66.406250
1078,68.359375
1079,68.359375
1080,68.359375
1081,70.312500
1082,72.265625
1083,72.265625
1084,72.265625
1085,74.218750
1086,74.218750
1087,76.171875
1088,76.171875
1089,78.125000
1090,78.125000
1091,78.125000
1092,80.078125
1093,80.078125
1094,80.078125
1095,80.078125
1096,80.078125
1097,80.078125
1098,80.078125
1099,82.031250
1100,82.031250
1101,80.078125
1102,82.031250
1103,82.031250
1104,82.031250
1105,82.031250
1106,82.031250
1107,82.031250
1108,82.031250
1109,82.031250
1110,82.031250
1111,82.031250
1112,82.031250
1113,80.078125
1114,80.078125
1115,80.078125
1116,80.078125
1117,80.078125
1118,78.125000
1119,78.125000
1120,78.125000
1121,76.171875
1122,76.171875
1123,76.171875
1124,76.171875
1125,74.218750
1126,74.218750
1127,72.265625
1128,72.265625
1129,70.312500
1130,70.312500
1131,68.359375
1132,68.359375
1133,68.359375
1134,66.406250
1135,64.453125
1136,64.453125
1137,62.500000
1138,60.546875
1139,60.546875
1140,58.593750
1141,58.593750
1142,56.640625
1143,56.640625
1144,54.687500
1145,52.734375
1146,52.734375
1147,50.781250
1148,48.828125
1149,46.875000
1150,44.921875
1151,44.921875
1152,42.968750
1153,41.015625
1154,39.062500
1155,39.062500
1156,37.109375
1157,35.156250
1158,33.203125
1159,29.296875
1160,29.296875
1161,27.343750
1162,25.390625
1163,25.390625
1164,21.484375
1165,19.531250
1166,19.531250
1167,15.625000
1168,13.671875
1169,13.671875
1170,11.718750
1171,9.765625
1172,7.812500
1173,5.859375
1174,3.906250
1175,1.953125
1176,0.000000
1177,-1.953125
1178,-3.906250
1179,-7.812500
1180,-7.812500
1181,-9.765625
1182,-11.718750
1183,-13.671875
1184,-17.578125
1185,-17.578125
1186,-19.531250
1187,-21.484375
1188,-25.390625
1189,-27.343750
1190,-27.343750
1191,-31.250000
1192,-31.250000
1193,-33.203125
1194,-35.156250
1195,-37.109375
1196,-39.062500
1197,-41.015625
1198,-42.968750
1199,-44.921875
1200,-46.875000
1201,-48.828125
1202,-50.781250
1203,-52.734375
1204,-54.687500
1205,-54.687500
1206,-56.640625
1207,-58.593750
1208,-58.593750
1209,-60.546875
1210,-64.453125
1211,-64.453125
1212,-66.406250
1213,-68.359375
1214,-68.359375
1215,-70.312500
1216,-72.265625
1217,-72.265625
1218,-74.218750
1219,-76.171875
1220,-76.171875
1221,-76.171875
1222,-78.125000
1223,-80.078125
1224,-82.031250
1225,-82.031250
1226,-82.031250
1227,-83.984375
1228,-83.984375
1229,-85.937500
1230,-85.937500
1231,-87.890625
1232,-87.890625
1233,-87.890625
1234,-89.843750
1235,-89.843750
1236,-89.843750
1237,-91.796875
1238,-91.796875
1239,-91.796875
1240,-91.796875
1241,-91.796875
1242,-91.796875
1243,-91.796875
1244,-93.750000
1245,-93.750000
1246,-93.750000
1247,-93.750000
1248,-93.750000
1249,-93.750000
1250,-93.750000
1251,-93.750000
1252,-93.750000
1253,-93.750000
1254,-91.796875
1255,-91.796875
1256,-91.796875
1257,-91.796875
1258,-91.796875
1259,-89.843750
1260,-89.843750
1261,-89.843750
1262,-87.890625
1263,-87.890625
1264,-85.937500
1265,-85.937500
1266,-85.937500
1267,-85.937500
1268,-83.984375
1269,-82.031250
1270,-80.078125
1271,-82.031250
1272,-80.078125
1273,-78.125000
1274,-76.171875
1275,-76.171875
1276,-74.218750
1277,-74.218750
1278,-72.265625
1279,-70.312500
1280,-70.312500
1281,-66.406250
1282,-66.406250
1283,-64.453125
1284,-62.500000
1285,-62.500000
1286,-60.546875
1287,-58.593750
1288,-56.640625
1289,-54.687500
1290,-54.687500
1291,-52.734375
1292,-50.781250
1293,-48.828125
1294,-46.875000
1295,-44.921875
1296,-42.968750
1297,-41.015625
1298,-39.062500
1299,-39.062500
1300,-37.109375
1301,-33.203125
1302,-31.250000
1303,-31.250000
1304,-29.296875
1305,-27.343750
1306,-25.390625
1307,-23.437500
1308,-21.484375
1309,-19.531250
1310,-17.578125
1311,-15.625000
1312,-13.671875
1313,-11.718750
1314,-9.765625
1315,-7.812500
1316,-5.859375
1317,-3.906250
1318,-1.953125
1319,0.000000
1320,1.953125
1321,3.906250
1322,5.859375
1323,7.812500
1324,9.765625
1325,11.718750
1326,13.671875
1327,15.625000
1328,17.578125
1329,19.531250
1330,21.484375
1331,23.437500
1332,25.390625
1333,27.343750
1334,27.343750
1335,31.250000
1336,31.250000
1337,33.203125
1338,35.156250
1339,37.109375
1340,39.062500
1341,41.015625
1342,42.968750
1343,42.968750
1344,44.921875
1345,46.875000
1346,46.875000
1347,50.781250
1348,50.781250
1349,52.734375
1350,54.687500
1351,54.687500
