Practicum8/data/opgave4/freq2/data_79_006.csv

Channel              :,CH1
Frequency            :,1.771kHz
Period               :,0.565ms
PK-PK                :,31.25mV
Probe attenuation    :,1X
Voltage per ADC value:,0.122070mV
Time interval        :,2.00000us

index,CH1_Voltage(mV)
1,1.953125
2,1.953125
3,3.906250
4,3.906250
5,3.906250
6,3.906250
7,3.906250
8,3.906250
9,3.906250
10,3.906250
11,3.906250
12,3.906250
13,3.906250
14,3.906250
15,5.859375
16,5.859375
17,5.859375
18,5.859375
19,5.859375
20,5.859375
21,5.859375
22,5.859375
23,5.859375
24,5.859375
25,5.859375
26,5.859375
27,5.859375
28,5.859375
29,5.859375
30,5.859375
31,5.859375
32,5.859375
33,5.859375
34,5.859375
35,5.859375
36,5.859375
37,5.859375
38,5.859375
39,5.859375
40,5.859375
41,5.859375
42,5.859375
43,5.859375
44,5.859375
45,3.906250
46,5.859375
47,3.906250
48,3.906250
49,5.859375
50,5.859375
51,3.906250
52,3.906250
53,3.906250
54,3.906250
55,3.906250
56,3.906250
57,3.906250
58,3.906250
59,3.906250
60,3.906250
61,3.906250
62,3.906250
63,3.906250
64,3.906250
65,3.906250
66,1.953125
67,1.953125
68,1.953125
69,1.953125
70,1.953125
71,1.953125
72,1.953125
73,1.953125
74,1.953125
75,1.953125
76,1.953125
77,1.953125
78,1.953125
79,0.000000
80,0.000000
81,0.000000
82,0.000000
83,0.000000
84,0.000000
85,0.000000
86,0.000000
87,-1.953125
88,-1.953125
89,-1.953125
90,-1.953125
91,-1.953125
92,-1.953125
93,-3.906250
94,-1.953125
95,-3.906250
96,-3.906250
97,-3.906250
98,-3.906250
99,-3.906250
100,-3.906250
101,-5.859375
102,-5.859375
103,-5.859375
104,-5.859375
105,-5.859375
106,-5.859375
107,-7.812500
108,-7.812500
109,-7.812500
110,-7.812500
111,-7.812500
112,-7.812500
113,-7.812500
114,-7.812500
115,-9.765625
116,-9.765625
117,-9.765625
118,-9.765625
119,-9.765625
120,-9.765625
121,-9.765625
122,-9.765625
123,-11.718750
124,-11.718750
125,-11.718750
126,-11.718750
127,-11.718750
128,-11.718750
129,-11.718750
130,-13.671875
131,-13.671875
132,-13.671875
133,-13.671875
134,-13.671875
135,-13.671875
136,-15.625000
137,-13.671875
138,-13.671875
139,-13.671875
140,-13.671875
141,-15.625000
142,-15.625000
143,-15.625000
144,-15.625000
145,-15.625000
146,-15.625000
147,-15.625000
148,-15.625000
149,-17.578125
150,-17.578125
151,-17.578125
152,-15.625000
153,-17.578125
154,-17.578125
155,-17.578125
156,-17.578125
157,-17.578125
158,-17.578125
159,-17.578125
160,-17.578125
161,-19.531250
162,-17.578125
163,-17.578125
164,-17.578125
165,-17.578125
166,-19.531250
167,-19.531250
168,-17.578125
169,-19.531250
170,-19.531250
171,-19.531250
172,-19.531250
173,-19.531250
174,-19.531250
175,-19.531250
176,-19.531250
177,-19.531250
178,-19.531250
179,-19.531250
180,-19.531250
181,-19.531250
182,-19.531250
183,-19.531250
184,-19.531250
185,-17.578125
186,-19.531250
187,-19.531250
188,-19.531250
189,-19.531250
190,-19.531250
191,-17.578125
192,-17.578125
193,-19.531250
194,-17.578125
195,-17.578125
196,-17.578125
197,-17.578125
198,-17.578125
199,-17.578125
200,-17.578125
201,-17.578125
202,-17.578125
203,-17.578125
204,-17.578125
205,-15.625000
206,-15.625000
207,-15.625000
208,-15.625000
209,-15.625000
210,-15.625000
211,-15.625000
212,-15.625000
213,-15.625000
214,-13.671875
215,-13.671875
216,-13.671875
217,-13.671875
218,-13.671875
219,-13.671875
220,-13.671875
221,-13.671875
222,-11.718750
223,-11.718750
224,-13.671875
225,-11.718750
226,-11.718750
227,-11.718750
228,-11.718750
229,-11.718750
230,-9.765625
231,-9.765625
232,-9.765625
233,-9.765625
234,-9.765625
235,-9.765625
236,-9.765625
237,-7.812500
238,-7.812500
239,-7.812500
240,-7.812500
241,-7.812500
242,-7.812500
243,-5.859375
244,-5.859375
245,-5.859375
246,-5.859375
247,-5.859375
248,-5.859375
249,-5.859375
250,-5.859375
251,-5.859375
252,-3.906250
253,-3.906250
254,-3.906250
255,-3.906250
256,-3.906250
257,-3.906250
258,-3.906250
259,-1.953125
260,-1.953125
261,-1.953125
262,-1.953125
263,-1.953125
264,-1.953125
265,0.000000
266,0.000000
267,0.000000
268,0.000000
269,0.000000
270,0.000000
271,0.000000
272,0.000000
273,0.000000
274,0.000000
275,1.953125
276,1.953125
277,1.953125
278,1.953125
279,1.953125
280,1.953125
281,1.953125
282,1.953125
283,1.953125
284,3.906250
285,3.906250
286,3.906250
287,3.906250
288,3.906250
289,3.906250
290,3.906250
291,3.906250
292,3.906250
293,3.906250
294,3.906250
295,3.906250
296,3.906250
297,5.859375
298,5.859375
299,5.859375
300,3.906250
301,5.859375
302,5.859375
303,5.859375
304,5.859375
305,5.859375
306,5.859375
307,3.906250
308,5.859375
309,5.859375
310,5.859375
311,5.859375
312,5.859375
313,5.859375
314,5.859375
315,5.859375
316,5.859375
317,5.859375
318,5.859375
319,5.859375
320,5.859375
321,5.859375
322,5.859375
323,5.859375
324,5.859375
325,3.906250
326,5.859375
327,5.859375
328,5.859375
329,5.859375
330,5.859375
331,3.906250
332,5.859375
333,5.859375
334,3.906250
335,3.906250
336,3.906250
337,5.859375
338,3.906250
339,3.906250
340,3.906250
341,3.906250
342,3.906250
343,3.906250
344,5.859375
345,3.906250
346,3.906250
347,3.906250
348,3.906250
349,3.906250
350,1.953125
351,3.906250
352,1.953125
353,1.953125
354,1.953125
355,1.953125
356,1.953125
357,1.953125
358,1.953125
359,0.000000
360,0.000000
361,0.000000
362,0.000000
363,0.000000
364,0.000000
365,-1.953125
366,-1.953125
367,0.000000
368,-1.953125
369,-1.953125
370,-1.953125
371,-1.953125
372,-1.953125
373,-1.953125
374,-1.953125
375,-1.953125
376,-3.906250
377,-3.906250
378,-3.906250
379,-3.906250
380,-3.906250
381,-3.906250
382,-5.859375
383,-5.859375
384,-5.859375
385,-5.859375
386,-5.859375
387,-5.859375
388,-5.859375
389,-7.812500
390,-5.859375
391,-7.812500
392,-7.812500
393,-7.812500
394,-7.812500
395,-7.812500
396,-7.812500
397,-7.812500
398,-9.765625
399,-9.765625
400,-9.765625
401,-9.765625
402,-9.765625
403,-9.765625
404,-9.765625
405,-11.718750
406,-11.718750
407,-11.718750
408,-11.718750
409,-11.718750
410,-11.718750
411,-13.671875
412,-13.671875
413,-13.671875
414,-13.671875
415,-13.671875
416,-13.671875
417,-13.671875
418,-13.671875
419,-13.671875
420,-15.625000
421,-13.671875
422,-15.625000
423,-13.671875
424,-15.625000
425,-15.625000
426,-15.625000
427,-15.625000
428,-15.625000
429,-15.625000
430,-17.578125
431,-17.578125
432,-17.578125
433,-15.625000
434,-17.578125
435,-17.578125
436,-17.578125
437,-17.578125
438,-17.578125
439,-17.578125
440,-17.578125
441,-17.578125
442,-17.578125
443,-17.578125
444,-19.531250
445,-19.531250
446,-19.531250
447,-19.531250
448,-17.578125
449,-17.578125
450,-19.531250
451,-19.531250
452,-19.531250
453,-19.531250
454,-19.531250
455,-19.531250
456,-19.531250
457,-19.531250
458,-19.531250
459,-19.531250
460,-17.578125
461,-19.531250
462,-19.531250
463,-19.531250
464,-19.531250
465,-19.531250
466,-19.531250
467,-17.578125
468,-17.578125
469,-17.578125
470,-19.531250
471,-19.531250
472,-17.578125
473,-17.578125
474,-17.578125
475,-17.578125
476,-17.578125
477,-17.578125
478,-17.578125
479,-17.578125
480,-17.578125
481,-17.578125
482,-17.578125
483,-15.625000
484,-17.578125
485,-17.578125
486,-15.625000
487,-15.625000
488,-15.625000
489,-15.625000
490,-15.625000
491,-15.625000
492,-15.625000
493,-13.671875
494,-13.671875
495,-15.625000
496,-13.671875
497,-13.671875
498,-13.671875
499,-13.671875
500,-13.671875
501,-13.671875
502,-13.671875
503,-11.718750
504,-13.671875
505,-13.671875
506,-11.718750
507,-11.718750
508,-11.718750
509,-11.718750
510,-11.718750
511,-11.718750
512,-9.765625
513,-9.765625
514,-9.765625
515,-9.765625
516,-9.765625
517,-9.765625
518,-7.812500
519,-9.765625
520,-7.812500
521,-7.812500
522,-7.812500
523,-7.812500
524,-7.812500
525,-7.812500
526,-5.859375
527,-5.859375
528,-5.859375
529,-5.859375
530,-5.859375
531,-5.859375
532,-3.906250
533,-3.906250
534,-3.906250
535,-3.906250
536,-3.906250
537,-3.906250
538,-3.906250
539,-1.953125
540,-1.953125
541,-1.953125
542,-3.906250
543,-1.953125
544,-1.953125
545,-1.953125
546,-1.953125
547,-1.953125
548,-1.953125
549,-1.953125
550,0.000000
551,0.000000
552,0.000000
553,1.953125
554,0.000000
555,0.000000
556,1.953125
557,1.953125
558,1.953125
559,1.953125
560,1.953125
561,1.953125
562,1.953125
563,1.953125
564,1.953125
565,1.953125
566,1.953125
567,3.906250
568,3.906250
569,5.859375
570,3.906250
571,3.906250
572,3.906250
573,3.906250
574,3.906250
575,3.906250
576,3.906250
577,3.906250
578,3.906250
579,3.906250
580,3.906250
581,3.906250
582,5.859375
583,5.859375
584,3.906250
585,3.906250
586,5.859375
587,5.859375
588,5.859375
589,5.859375
590,5.859375
591,5.859375
592,5.859375
593,5.859375
594,5.859375
595,5.859375
596,5.859375
597,5.859375
598,5.859375
599,5.859375
600,5.859375
601,5.859375
602,5.859375
603,5.859375
604,5.859375
605,5.859375
606,5.859375
607,5.859375
608,5.859375
609,5.859375
610,5.859375
611,3.906250
612,5.859375
613,5.859375
614,5.859375
615,3.906250
616,5.859375
617,5.859375
618,3.906250
619,3.906250
620,3.906250
621,3.906250
622,3.906250
623,3.906250
624,3.906250
625,3.906250
626,3.906250
627,3.906250
628,3.906250
629,3.906250
630,3.906250
631,1.953125
632,1.953125
633,1.953125
634,1.953125
635,1.953125
636,1.953125
637,1.953125
638,1.953125
639,1.953125
640,1.953125
641,0.000000
642,0.000000
643,0.000000
644,0.000000
645,0.000000
646,0.000000
647,0.000000
648,-1.953125
649,-1.953125
650,-1.953125
651,-1.953125
652,-1.953125
653,-1.953125
654,-1.953125
655,-1.953125
656,-3.906250
657,-1.953125
658,-3.906250
659,-3.906250
660,-3.906250
661,-3.906250
662,-3.906250
663,-3.906250
664,-5.859375
665,-5.859375
666,-5.859375
667,-3.906250
668,-5.859375
669,-5.859375
670,-5.859375
671,-5.859375
672,-7.812500
673,-5.859375
674,-5.859375
675,-7.812500
676,-7.812500
677,-7.812500
678,-7.812500
679,-7.812500
680,-9.765625
681,-9.765625
682,-9.765625
683,-9.765625
684,-9.765625
685,-9.765625
686,-9.765625
687,-11.718750
688,-11.718750
689,-11.718750
690,-11.718750
691,-11.718750
692,-11.718750
693,-13.671875
694,-11.718750
695,-13.671875
696,-13.671875
697,-13.671875
698,-13.671875
699,-13.671875
700,-13.671875
701,-13.671875
702,-15.625000
703,-13.671875
704,-13.671875
705,-15.625000
706,-15.625000
707,-15.625000
708,-15.625000
709,-15.625000
710,-15.625000
711,-15.625000
712,-15.625000
713,-17.578125
714,-15.625000
715,-17.578125
716,-17.578125
717,-17.578125
718,-17.578125
719,-17.578125
720,-17.578125
721,-17.578125
722,-17.578125
723,-17.578125
724,-19.531250
725,-17.578125
726,-17.578125
727,-17.578125
728,-19.531250
729,-19.531250
730,-17.578125
731,-19.531250
732,-17.578125
733,-17.578125
734,-19.531250
735,-19.531250
736,-17.578125
737,-17.578125
738,-19.531250
739,-19.531250
740,-19.531250
741,-17.578125
742,-19.531250
743,-19.531250
744,-17.578125
745,-17.578125
746,-19.531250
747,-19.531250
748,-19.531250
749,-19.531250
750,-19.531250
751,-17.578125
752,-19.531250
753,-21.484375
754,-17.578125
755,-19.531250
756,-17.578125
757,-17.578125
758,-17.578125
759,-17.578125
760,-17.578125
761,-17.578125
762,-17.578125
763,-17.578125
764,-17.578125
765,-17.578125
766,-17.578125
767,-17.578125
768,-17.578125
769,-15.625000
770,-15.625000
771,-15.625000
772,-15.625000
773,-15.625000
774,-15.625000
775,-15.625000
776,-15.625000
777,-15.625000
778,-15.625000
779,-13.671875
780,-13.671875
781,-13.671875
782,-13.671875
783,-13.671875
784,-13.671875
785,-11.718750
786,-13.671875
787,-11.718750
788,-11.718750
789,-11.718750
790,-11.718750
791,-11.718750
792,-11.718750
793,-11.718750
794,-9.765625
795,-9.765625
796,-9.765625
797,-9.765625
798,-9.765625
799,-9.765625
800,-9.765625
801,-7.812500
802,-9.765625
803,-9.765625
804,-7.812500
805,-7.812500
806,-7.812500
807,-7.812500
808,-7.812500
809,-5.859375
810,-5.859375
811,-5.859375
812,-5.859375
813,-5.859375
814,-5.859375
815,-5.859375
816,-3.906250
817,-3.906250
818,-3.906250
819,-3.906250
820,-3.906250
821,-3.906250
822,-3.906250
823,-1.953125
824,-1.953125
825,-1.953125
826,-1.953125
827,-1.953125
828,-1.953125
829,-1.953125
830,-1.953125
831,-1.953125
832,0.000000
833,0.000000
834,0.000000
835,0.000000
836,0.000000
837,0.000000
838,0.000000
839,1.953125
840,1.953125
841,1.953125
842,1.953125
843,1.953125
844,1.953125
845,1.953125
846,1.953125
847,1.953125
848,3.906250
849,1.953125
850,3.906250
851,3.906250
852,3.906250
853,3.906250
854,3.906250
855,3.906250
856,3.906250
857,3.906250
858,3.906250
859,3.906250
860,5.859375
861,5.859375
862,5.859375
863,5.859375
864,5.859375
865,5.859375
866,5.859375
867,5.859375
868,5.859375
869,5.859375
870,5.859375
871,5.859375
872,5.859375
873,5.859375
874,5.859375
875,5.859375
876,5.859375
877,5.859375
878,5.859375
879,5.859375
880,5.859375
881,5.859375
882,5.859375
883,5.859375
884,5.859375
885,5.859375
886,5.859375
887,5.859375
888,5.859375
889,5.859375
890,5.859375
891,5.859375
892,5.859375
893,5.859375
894,3.906250
895,3.906250
896,3.906250
897,3.906250
898,3.906250
899,3.906250
900,3.906250
901,5.859375
902,3.906250
903,3.906250
904,3.906250
905,3.906250
906,3.906250
907,3.906250
908,3.906250
909,3.906250
910,3.906250
911,3.906250
912,1.953125
913,1.953125
914,1.953125
915,1.953125
916,1.953125
917,1.953125
918,1.953125
919,1.953125
920,1.953125
921,0.000000
922,1.953125
923,1.953125
924,1.953125
925,1.953125
926,0.000000
927,0.000000
928,0.000000
929,0.000000
930,0.000000
931,0.000000
932,0.000000
933,-1.953125
934,-1.953125
935,-1.953125
936,-1.953125
937,-1.953125
938,-1.953125
939,-3.906250
940,-3.906250
941,-3.906250
942,-3.906250
943,-3.906250
944,-3.906250
945,-3.906250
946,-3.906250
947,-5.859375
948,-5.859375
949,-5.859375
950,-5.859375
951,-5.859375
952,-5.859375
953,-5.859375
954,-5.859375
955,-7.812500
956,-7.812500
957,-7.812500
958,-7.812500
959,-7.812500
960,-7.812500
961,-9.765625
962,-7.812500
963,-9.765625
964,-9.765625
965,-9.765625
966,-9.765625
967,-9.765625
968,-11.718750
969,-11.718750
970,-11.718750
971,-11.718750
972,-11.718750
973,-11.718750
974,-11.718750
975,-11.718750
976,-13.671875
977,-13.671875
978,-13.671875
979,-13.671875
980,-13.671875
981,-13.671875
982,-13.671875
983,-13.671875
984,-15.625000
985,-13.671875
986,-15.625000
987,-15.625000
988,-15.625000
989,-15.625000
990,-15.625000
991,-15.625000
992,-15.625000
993,-15.625000
994,-15.625000
995,-15.625000
996,-15.625000
997,-17.578125
998,-17.578125
999,-17.578125
1000,-17.578125
1001,-17.578125
1002,-17.578125
1003,-17.578125
1004,-17.578125
1005,-17.578125
1006,-17.578125
1007,-17.578125
1008,-17.578125
1009,-19.531250
1010,-17.578125
1011,-17.578125
1012,-19.531250
1013,-19.531250
1014,-19.531250
1015,-17.578125
1016,-17.578125
1017,-19.531250
1018,-17.578125
1019,-19.531250
1020,-19.531250
1021,-19.531250
1022,-19.531250
1023,-19.531250
1024,-19.531250
1025,-19.531250
1026,-19.531250
1027,-19.531250
1028,-19.531250
1029,-19.531250
1030,-19.531250
1031,-19.531250
1032,-19.531250
1033,-19.531250
1034,-17.578125
1035,-19.531250
1036,-19.531250
1037,-19.531250
1038,-17.578125
1039,-17.578125
1040,-17.578125
1041,-17.578125
1042,-17.578125
1043,-17.578125
1044,-17.578125
1045,-17.578125
1046,-17.578125
1047,-17.578125
1048,-17.578125
1049,-17.578125
1050,-17.578125
1051,-15.625000
1052,-15.625000
1053,-15.625000
1054,-15.625000
1055,-13.671875
1056,-15.625000
1057,-15.625000
1058,-15.625000
1059,-13.671875
1060,-15.625000
1061,-15.625000
1062,-13.671875
1063,-13.671875
1064,-13.671875
1065,-13.671875
1066,-13.671875
1067,-13.671875
1068,-13.671875
1069,-11.718750
1070,-11.718750
1071,-11.718750
1072,-11.718750
1073,-11.718750
1074,-11.718750
1075,-11.718750
1076,-11.718750
1077,-9.765625
1078,-9.765625
1079,-9.765625
1080,-9.765625
1081,-9.765625
1082,-9.765625
1083,-9.765625
1084,-9.765625
1085,-7.812500
1086,-7.812500
1087,-7.812500
1088,-7.812500
1089,-7.812500
1090,-7.812500
1091,-5.859375
1092,-5.859375
1093,-5.859375
1094,-5.859375
1095,-5.859375
1096,-5.859375
1097,-5.859375
1098,-3.906250
1099,-3.906250
1100,-3.906250
1101,-3.906250
1102,-3.906250
1103,-3.906250
1104,-1.953125
1105,-1.953125
1106,-1.953125
1107,-1.953125
1108,-1.953125
1109,-1.953125
1110,-1.953125
1111,-1.953125
1112,-1.953125
1113,0.000000
1114,0.000000
1115,0.000000
1116,0.000000
1117,0.000000
1118,1.953125
1119,0.000000
1120,1.953125
1121,1.953125
1122,1.953125
1123,1.953125
1124,1.953125
1125,1.953125
1126,1.953125
1127,1.953125
1128,1.953125
1129,1.953125
1130,1.953125
1131,1.953125
1132,3.906250
1133,3.906250
1134,3.906250
1135,3.906250
1136,5.859375
1137,3.906250
1138,3.906250
1139,3.906250
1140,3.906250
1141,3.906250
1142,3.906250
1143,3.906250
1144,3.906250
1145,5.859375
1146,3.906250
1147,3.906250
1148,3.906250
1149,5.859375
1150,3.906250
1151,3.906250
1152,5.859375
1153,5.859375
1154,5.859375
1155,5.859375
1156,5.859375
1157,5.859375
1158,5.859375
1159,5.859375
1160,5.859375
1161,5.859375
1162,5.859375
1163,5.859375
1164,5.859375
1165,5.859375
1166,5.859375
1167,5.859375
1168,5.859375
1169,5.859375
1170,5.859375
1171,5.859375
1172,5.859375
1173,5.859375
1174,5.859375
1175,5.859375
1176,5.859375
1177,3.906250
1178,3.906250
1179,3.906250
1180,3.906250
1181,5.859375
1182,3.906250
1183,3.906250
1184,3.906250
1185,3.906250
1186,3.906250
1187,3.906250
1188,3.906250
1189,3.906250
1190,3.906250
1191,3.906250
1192,1.953125
1193,3.906250
1194,1.953125
1195,1.953125
1196,1.953125
1197,3.906250
1198,1.953125
1199,1.953125
1200,1.953125
1201,1.953125
1202,1.953125
1203,1.953125
1204,1.953125
1205,0.000000
1206,0.000000
1207,0.000000
1208,0.000000
1209,0.000000
1210,0.000000
1211,0.000000
1212,0.000000
1213,-1.953125
1214,-1.953125
1215,-1.953125
1216,-1.953125
1217,-1.953125
1218,-1.953125
1219,-1.953125
1220,-1.953125
1221,-1.953125
1222,-3.906250
1223,-3.906250
1224,-3.906250
1225,-3.906250
1226,-3.906250
1227,-3.906250
1228,-3.906250
1229,-5.859375
1230,-5.859375
1231,-5.859375
1232,-5.859375
1233,-5.859375
1234,-5.859375
1235,-5.859375
1236,-7.812500
1237,-7.812500
1238,-7.812500
1239,-7.812500
1240,-7.812500
1241,-7.812500
1242,-7.812500
1243,-7.812500
1244,-9.765625
1245,-9.765625
1246,-9.765625
1247,-7.812500
1248,-9.765625
1249,-9.765625
1250,-9.765625
1251,-9.765625
1252,-11.718750
1253,-11.718750
1254,-11.718750
1255,-11.718750
1256,-11.718750
1257,-11.718750
1258,-11.718750
1259,-13.671875
1260,-13.671875
1261,-13.671875
1262,-13.671875
1263,-15.625000
1264,-13.671875
1265,-13.671875
1266,-13.671875
1267,-13.671875
1268,-13.671875
1269,-15.625000
1270,-15.625000
1271,-15.625000
1272,-15.625000
1273,-15.625000
1274,-15.625000
1275,-15.625000
1276,-15.625000
1277,-17.578125
1278,-17.578125
1279,-17.578125
1280,-17.578125
1281,-17.578125
1282,-17.578125
1283,-17.578125
1284,-17.578125
1285,-17.578125
1286,-17.578125
1287,-17.578125
1288,-17.578125
1289,-17.578125
1290,-17.578125
1291,-19.531250
1292,-17.578125
1293,-17.578125
1294,-19.531250
1295,-17.578125
1296,-19.531250
1297,-19.531250
1298,-19.531250
1299,-19.531250
1300,-21.484375
1301,-19.531250
1302,-19.531250
1303,-19.531250
1304,-17.578125
1305,-19.531250
1306,-19.531250
1307,-19.531250
1308,-19.531250
1309,-19.531250
1310,-19.531250
1311,-17.578125
1312,-19.531250
1313,-19.531250
1314,-19.531250
1315,-19.531250
1316,-17.578125
1317,-17.578125
1318,-17.578125
1319,-19.531250
1320,-17.578125
1321,-17.578125
1322,-17.578125
1323,-17.578125
1324,-17.578125
1325,-17.578125
1326,-17.578125
1327,-17.578125
1328,-17.578125
1329,-17.578125
1330,-17.578125
1331,-17.578125
1332,-15.625000
1333,-17.578125
1334,-17.578125
1335,-11.718750
1336,-15.625000
1337,-15.625000
1338,-15.625000
1339,-15.625000
1340,-15.625000
1341,-15.625000
1342,-15.625000
1343,-13.671875
1344,-13.671875
1345,-15.625000
1346,-13.671875
1347,-11.718750
1348,-13.671875
1349,-13.671875
1350,-13.671875
1351,-13.671875
1352,-11.718750
1353,-11.718750
1354,-11.718750
1355,-11.718750
1356,-11.718750
1357,-11.718750
1358,-11.718750
1359,-11.718750
1360,-9.765625
1361,-9.765625
1362,-9.765625
1363,-9.765625
1364,-9.765625
1365,-7.812500
1366,-9.765625
1367,-9.765625
1368,-7.812500
1369,-7.812500
1370,-7.812500
1371,-7.812500
1372,-7.812500
1373,-7.812500
1374,-5.859375
1375,-5.859375
1376,-5.859375
1377,-5.859375
1378,-5.859375
1379,-5.859375
1380,-3.906250
1381,-3.906250
1382,-3.906250
1383,-3.906250
1384,-3.906250
1385,-3.906250
1386,-3.906250
1387,-1.953125
