Practicum8/data/opgave4/freq2/data_79_000.csv

Channel              :,CH1
Frequency            :,1.771kHz
Period               :,0.565ms
PK-PK                :,253.9mV
Probe attenuation    :,1X
Voltage per ADC value:,0.122070mV
Time interval        :,2.00000us

index,CH1_Voltage(mV)
1,111.328125
2,111.328125
3,111.328125
4,111.328125
5,111.328125
6,111.328125
7,111.328125
8,111.328125
9,109.375000
10,109.375000
11,109.375000
12,109.375000
13,107.421875
14,107.421875
15,105.468750
16,105.468750
17,105.468750
18,103.515625
19,101.562500
20,101.562500
21,99.609375
22,99.609375
23,99.609375
24,97.656250
25,95.703125
26,93.750000
27,91.796875
28,91.796875
29,89.843750
30,87.890625
31,87.890625
32,85.937500
33,83.984375
34,82.031250
35,80.078125
36,78.125000
37,76.171875
38,74.218750
39,72.265625
40,70.312500
41,68.359375
42,66.406250
43,64.453125
44,62.500000
45,60.546875
46,58.593750
47,56.640625
48,54.687500
49,50.781250
50,48.828125
51,46.875000
52,44.921875
53,41.015625
54,39.062500
55,37.109375
56,35.156250
57,31.250000
58,29.296875
59,27.343750
60,23.437500
61,21.484375
62,19.531250
63,15.625000
64,13.671875
65,9.765625
66,7.812500
67,3.906250
68,1.953125
69,-1.953125
70,-3.906250
71,-5.859375
72,-9.765625
73,-11.718750
74,-13.671875
75,-17.578125
76,-21.484375
77,-23.437500
78,-27.343750
79,-29.296875
80,-33.203125
81,-35.156250
82,-37.109375
83,-41.015625
84,-42.968750
85,-46.875000
86,-48.828125
87,-52.734375
88,-54.687500
89,-58.593750
90,-60.546875
91,-62.500000
92,-66.406250
93,-68.359375
94,-70.312500
95,-74.218750
96,-76.171875
97,-78.125000
98,-82.031250
99,-83.984375
100,-85.937500
101,-87.890625
102,-89.843750
103,-93.750000
104,-95.703125
105,-97.656250
106,-99.609375
107,-101.562500
108,-103.515625
109,-105.468750
110,-107.421875
111,-109.375000
112,-111.328125
113,-113.281250
114,-115.234375
115,-117.187500
116,-119.140625
117,-119.140625
118,-121.093750
119,-123.046875
120,-123.046875
121,-125.000000
122,-126.953125
123,-126.953125
124,-128.906250
125,-128.906250
126,-130.859375
127,-132.812500
128,-132.812500
129,-132.812500
130,-134.765625
131,-134.765625
132,-136.718750
133,-136.718750
134,-136.718750
135,-136.718750
136,-136.718750
137,-136.718750
138,-138.671875
139,-138.671875
140,-136.718750
141,-136.718750
142,-136.718750
143,-136.718750
144,-136.718750
145,-136.718750
146,-136.718750
147,-136.718750
148,-136.718750
149,-134.765625
150,-134.765625
151,-132.812500
152,-132.812500
153,-132.812500
154,-130.859375
155,-130.859375
156,-128.906250
157,-126.953125
158,-126.953125
159,-125.000000
160,-125.000000
161,-123.046875
162,-121.093750
163,-119.140625
164,-119.140625
165,-117.187500
166,-115.234375
167,-113.281250
168,-111.328125
169,-109.375000
170,-107.421875
171,-105.468750
172,-103.515625
173,-101.562500
174,-99.609375
175,-97.656250
176,-95.703125
177,-93.750000
178,-91.796875
179,-87.890625
180,-85.937500
181,-83.984375
182,-82.031250
183,-80.078125
184,-76.171875
185,-74.218750
186,-70.312500
187,-68.359375
188,-66.406250
189,-64.453125
190,-60.546875
191,-58.593750
192,-54.687500
193,-52.734375
194,-50.781250
195,-46.875000
196,-44.921875
197,-41.015625
198,-39.062500
199,-37.109375
200,-33.203125
201,-29.296875
202,-27.343750
203,-25.390625
204,-21.484375
205,-19.531250
206,-15.625000
207,-13.671875
208,-9.765625
209,-7.812500
210,-5.859375
211,-1.953125
212,0.000000
213,3.906250
214,5.859375
215,7.812500
216,11.718750
217,15.625000
218,17.578125
219,19.531250
220,21.484375
221,25.390625
222,27.343750
223,31.250000
224,33.203125
225,35.156250
226,37.109375
227,41.015625
228,41.015625
229,44.921875
230,46.875000
231,50.781250
232,52.734375
233,56.640625
234,56.640625
235,58.593750
236,60.546875
237,64.453125
238,66.406250
239,66.406250
240,70.312500
241,72.265625
242,74.218750
243,76.171875
244,78.125000
245,78.125000
246,82.031250
247,82.031250
248,83.984375
249,85.937500
250,87.890625
251,89.843750
252,89.843750
253,91.796875
254,93.750000
255,93.750000
256,95.703125
257,97.656250
258,99.609375
259,99.609375
260,99.609375
261,101.562500
262,103.515625
263,103.515625
264,105.468750
265,105.468750
266,105.468750
267,107.421875
268,107.421875
269,107.421875
270,109.375000
271,109.375000
272,109.375000
273,111.328125
274,111.328125
275,111.328125
276,111.328125
277,113.281250
278,111.328125
279,111.328125
280,113.281250
281,111.328125
282,111.328125
283,111.328125
284,111.328125
285,109.375000
286,111.328125
287,111.328125
288,111.328125
289,111.328125
290,109.375000
291,109.375000
292,109.375000
293,107.421875
294,107.421875
295,107.421875
296,107.421875
297,105.468750
298,105.468750
299,103.515625
300,103.515625
301,103.515625
302,101.562500
303,99.609375
304,99.609375
305,97.656250
306,97.656250
307,95.703125
308,93.750000
309,93.750000
310,91.796875
311,89.843750
312,89.843750
313,87.890625
314,85.937500
315,83.984375
316,82.031250
317,82.031250
318,80.078125
319,76.171875
320,74.218750
321,74.218750
322,72.265625
323,70.312500
324,66.406250
325,64.453125
326,62.500000
327,60.546875
328,58.593750
329,56.640625
330,54.687500
331,52.734375
332,48.828125
333,46.875000
334,44.921875
335,42.968750
336,39.062500
337,37.109375
338,35.156250
339,31.250000
340,29.296875
341,27.343750
342,25.390625
343,21.484375
344,17.578125
345,15.625000
346,13.671875
347,9.765625
348,7.812500
349,3.906250
350,1.953125
351,0.000000
352,-3.906250
353,-5.859375
354,-9.765625
355,-11.718750
356,-13.671875
357,-17.578125
358,-21.484375
359,-23.437500
360,-27.343750
361,-29.296875
362,-31.250000
363,-35.156250
364,-37.109375
365,-41.015625
366,-42.968750
367,-46.875000
368,-48.828125
369,-50.781250
370,-54.687500
371,-56.640625
372,-60.546875
373,-62.500000
374,-64.453125
375,-68.359375
376,-70.312500
377,-72.265625
378,-74.218750
379,-78.125000
380,-80.078125
381,-82.031250
382,-85.937500
383,-87.890625
384,-89.843750
385,-91.796875
386,-93.750000
387,-97.656250
388,-99.609375
389,-101.562500
390,-103.515625
391,-105.468750
392,-105.468750
393,-109.375000
394,-111.328125
395,-113.281250
396,-115.234375
397,-115.234375
398,-117.187500
399,-119.140625
400,-121.093750
401,-123.046875
402,-123.046875
403,-125.000000
404,-126.953125
405,-128.906250
406,-128.906250
407,-128.906250
408,-130.859375
409,-132.812500
410,-132.812500
411,-134.765625
412,-134.765625
413,-134.765625
414,-136.718750
415,-136.718750
416,-136.718750
417,-136.718750
418,-136.718750
419,-136.718750
420,-138.671875
421,-138.671875
422,-136.718750
423,-138.671875
424,-138.671875
425,-138.671875
426,-136.718750
427,-136.718750
428,-136.718750
429,-136.718750
430,-136.718750
431,-134.765625
432,-134.765625
433,-134.765625
434,-132.812500
435,-132.812500
436,-130.859375
437,-130.859375
438,-128.906250
439,-128.906250
440,-126.953125
441,-125.000000
442,-125.000000
443,-123.046875
444,-121.093750
445,-121.093750
446,-121.093750
447,-117.187500
448,-115.234375
449,-113.281250
450,-113.281250
451,-109.375000
452,-107.421875
453,-105.468750
454,-105.468750
455,-101.562500
456,-99.609375
457,-97.656250
458,-95.703125
459,-93.750000
460,-91.796875
461,-89.843750
462,-85.937500
463,-85.937500
464,-82.031250
465,-80.078125
466,-78.125000
467,-74.218750
468,-72.265625
469,-70.312500
470,-66.406250
471,-64.453125
472,-62.500000
473,-58.593750
474,-56.640625
475,-54.687500
476,-50.781250
477,-48.828125
478,-44.921875
479,-42.968750
480,-41.015625
481,-37.109375
482,-35.156250
483,-31.250000
484,-29.296875
485,-25.390625
486,-23.437500
487,-19.531250
488,-17.578125
489,-15.625000
490,-11.718750
491,-7.812500
492,-5.859375
493,-3.906250
494,0.000000
495,1.953125
496,5.859375
497,7.812500
498,11.718750
499,13.671875
500,17.578125
501,19.531250
502,21.484375
503,23.437500
504,27.343750
505,29.296875
506,33.203125
507,33.203125
508,37.109375
509,39.062500
510,42.968750
511,44.921875
512,46.875000
513,50.781250
514,52.734375
515,54.687500
516,56.640625
517,58.593750
518,60.546875
519,62.500000
520,64.453125
521,68.359375
522,68.359375
523,72.265625
524,72.265625
525,74.218750
526,76.171875
527,80.078125
528,80.078125
529,82.031250
530,83.984375
531,83.984375
532,87.890625
533,87.890625
534,89.843750
535,89.843750
536,93.750000
537,93.750000
538,95.703125
539,97.656250
540,97.656250
541,99.609375
542,99.609375
543,101.562500
544,101.562500
545,103.515625
546,103.515625
547,105.468750
548,105.468750
549,105.468750
550,107.421875
551,109.375000
552,109.375000
553,109.375000
554,109.375000
555,111.328125
556,111.328125
557,111.328125
558,111.328125
559,111.328125
560,111.328125
561,113.281250
562,111.328125
563,111.328125
564,111.328125
565,111.328125
566,113.281250
567,111.328125
568,111.328125
569,111.328125
570,111.328125
571,111.328125
572,111.328125
573,109.375000
574,109.375000
575,109.375000
576,109.375000
577,107.421875
578,107.421875
579,105.468750
580,105.468750
581,105.468750
582,103.515625
583,103.515625
584,101.562500
585,101.562500
586,99.609375
587,97.656250
588,97.656250
589,95.703125
590,95.703125
591,93.750000
592,91.796875
593,91.796875
594,89.843750
595,87.890625
596,85.937500
597,83.984375
598,83.984375
599,82.031250
600,78.125000
601,78.125000
602,76.171875
603,72.265625
604,72.265625
605,68.359375
606,68.359375
607,66.406250
608,64.453125
609,62.500000
610,58.593750
611,56.640625
612,54.687500
613,52.734375
614,50.781250
615,48.828125
616,44.921875
617,42.968750
618,41.015625
619,39.062500
620,35.156250
621,33.203125
622,31.250000
623,27.343750
624,25.390625
625,21.484375
626,19.531250
627,15.625000
628,13.671875
629,11.718750
630,11.718750
631,7.812500
632,3.906250
633,0.000000
634,-5.859375
635,-5.859375
636,-7.812500
637,-11.718750
638,-11.718750
639,-17.578125
640,-19.531250
641,-21.484375
642,-25.390625
643,-27.343750
644,-31.250000
645,-33.203125
646,-37.109375
647,-41.015625
648,-42.968750
649,-44.921875
650,-46.875000
651,-50.781250
652,-54.687500
653,-56.640625
654,-58.593750
655,-60.546875
656,-64.453125
657,-68.359375
658,-70.312500
659,-72.265625
660,-74.218750
661,-76.171875
662,-80.078125
663,-82.031250
664,-85.937500
665,-89.843750
666,-89.843750
667,-91.796875
668,-93.750000
669,-91.796875
670,-99.609375
671,-101.562500
672,-105.468750
673,-103.515625
674,-107.421875
675,-109.375000
676,-109.375000
677,-113.281250
678,-115.234375
679,-117.187500
680,-117.187500
681,-119.140625
682,-121.093750
683,-123.046875
684,-125.000000
685,-125.000000
686,-126.953125
687,-126.953125
688,-130.859375
689,-128.906250
690,-130.859375
691,-132.812500
692,-132.812500
693,-134.765625
694,-134.765625
695,-134.765625
696,-134.765625
697,-136.718750
698,-136.718750
699,-136.718750
700,-136.718750
701,-138.671875
702,-138.671875
703,-138.671875
704,-138.671875
705,-138.671875
706,-138.671875
707,-136.718750
708,-138.671875
709,-136.718750
710,-136.718750
711,-136.718750
712,-136.718750
713,-136.718750
714,-134.765625
715,-134.765625
716,-132.812500
717,-132.812500
718,-132.812500
719,-130.859375
720,-130.859375
721,-128.906250
722,-126.953125
723,-126.953125
724,-125.000000
725,-123.046875
726,-123.046875
727,-121.093750
728,-119.140625
729,-117.187500
730,-117.187500
731,-115.234375
732,-113.281250
733,-111.328125
734,-109.375000
735,-107.421875
736,-105.468750
737,-103.515625
738,-101.562500
739,-99.609375
740,-97.656250
741,-95.703125
742,-93.750000
743,-91.796875
744,-87.890625
745,-85.937500
746,-83.984375
747,-82.031250
748,-78.125000
749,-76.171875
750,-74.218750
751,-70.312500
752,-68.359375
753,-66.406250
754,-62.500000
755,-60.546875
756,-56.640625
757,-54.687500
758,-52.734375
759,-48.828125
760,-46.875000
761,-42.968750
762,-41.015625
763,-39.062500
764,-35.156250
765,-33.203125
766,-29.296875
767,-25.390625
768,-25.390625
769,-21.484375
770,-17.578125
771,-15.625000
772,-11.718750
773,-9.765625
774,-5.859375
775,-3.906250
776,-1.953125
777,1.953125
778,3.906250
779,7.812500
780,9.765625
781,11.718750
782,15.625000
783,17.578125
784,21.484375
785,23.437500
786,25.390625
787,29.296875
788,31.250000
789,33.203125
790,37.109375
791,39.062500
792,41.015625
793,42.968750
794,44.921875
795,48.828125
796,52.734375
797,52.734375
798,54.687500
799,56.640625
800,60.546875
801,62.500000
802,64.453125
803,66.406250
804,68.359375
805,70.312500
806,72.265625
807,74.218750
808,76.171875
809,78.125000
810,78.125000
811,82.031250
812,82.031250
813,83.984375
814,85.937500
815,87.890625
816,89.843750
817,91.796875
818,93.750000
819,91.796875
820,95.703125
821,95.703125
822,93.750000
823,99.609375
824,99.609375
825,101.562500
826,101.562500
827,103.515625
828,103.515625
829,105.468750
830,105.468750
831,107.421875
832,107.421875
833,107.421875
834,109.375000
835,109.375000
836,109.375000
837,109.375000
838,111.328125
839,111.328125
840,111.328125
841,111.328125
842,111.328125
843,111.328125
844,111.328125
845,111.328125
846,111.328125
847,111.328125
848,113.281250
849,113.281250
850,111.328125
851,111.328125
852,111.328125
853,111.328125
854,111.328125
855,109.375000
856,109.375000
857,107.421875
858,109.375000
859,107.421875
860,107.421875
861,105.468750
862,105.468750
863,105.468750
864,103.515625
865,107.421875
866,101.562500
867,101.562500
868,99.609375
869,97.656250
870,97.656250
871,95.703125
872,93.750000
873,93.750000
874,91.796875
875,91.796875
876,89.843750
877,87.890625
878,85.937500
879,83.984375
880,82.031250
881,80.078125
882,80.078125
883,78.125000
884,74.218750
885,74.218750
886,72.265625
887,70.312500
888,68.359375
889,66.406250
890,64.453125
891,62.500000
892,60.546875
893,56.640625
894,54.687500
895,52.734375
896,52.734375
897,48.828125
898,46.875000
899,42.968750
900,41.015625
901,39.062500
902,37.109375
903,33.203125
904,29.296875
905,27.343750
906,25.390625
907,23.437500
908,19.531250
909,17.578125
910,13.671875
911,11.718750
912,9.765625
913,5.859375
914,3.906250
915,0.000000
916,-1.953125
917,-3.906250
918,-7.812500
919,-9.765625
920,-13.671875
921,-15.625000
922,-17.578125
923,-21.484375
924,-25.390625
925,-27.343750
926,-31.250000
927,-33.203125
928,-37.109375
929,-39.062500
930,-42.968750
931,-44.921875
932,-46.875000
933,-50.781250
934,-52.734375
935,-56.640625
936,-58.593750
937,-62.500000
938,-64.453125
939,-66.406250
940,-70.312500
941,-72.265625
942,-74.218750
943,-76.171875
944,-80.078125
945,-82.031250
946,-85.937500
947,-87.890625
948,-89.843750
949,-91.796875
950,-93.750000
951,-95.703125
952,-97.656250
953,-99.609375
954,-101.562500
955,-105.468750
956,-107.421875
957,-107.421875
958,-109.375000
959,-113.281250
960,-113.281250
961,-115.234375
962,-117.187500
963,-119.140625
964,-119.140625
965,-121.093750
966,-123.046875
967,-125.000000
968,-125.000000
969,-126.953125
970,-128.906250
971,-128.906250
972,-130.859375
973,-130.859375
974,-132.812500
975,-132.812500
976,-134.765625
977,-134.765625
978,-134.765625
979,-134.765625
980,-136.718750
981,-136.718750
982,-136.718750
983,-138.671875
984,-138.671875
985,-138.671875
986,-138.671875
987,-138.671875
988,-138.671875
989,-136.718750
990,-138.671875
991,-136.718750
992,-136.718750
993,-136.718750
994,-136.718750
995,-136.718750
996,-134.765625
997,-134.765625
998,-134.765625
999,-132.812500
1000,-132.812500
1001,-130.859375
1002,-130.859375
1003,-128.906250
1004,-128.906250
1005,-126.953125
1006,-125.000000
1007,-126.953125
1008,-123.046875
1009,-121.093750
1010,-121.093750
1011,-117.187500
1012,-117.187500
1013,-115.234375
1014,-113.281250
1015,-111.328125
1016,-109.375000
1017,-107.421875
1018,-105.468750
1019,-103.515625
1020,-101.562500
1021,-99.609375
1022,-97.656250
1023,-95.703125
1024,-93.750000
1025,-89.843750
1026,-87.890625
1027,-85.937500
1028,-83.984375
1029,-82.031250
1030,-78.125000
1031,-76.171875
1032,-74.218750
1033,-70.312500
1034,-68.359375
1035,-66.406250
1036,-64.453125
1037,-60.546875
1038,-58.593750
1039,-56.640625
1040,-52.734375
1041,-48.828125
1042,-46.875000
1043,-44.921875
1044,-41.015625
1045,-39.062500
1046,-35.156250
1047,-33.203125
1048,-31.250000
1049,-27.343750
1050,-25.390625
1051,-21.484375
1052,-19.531250
1053,-15.625000
1054,-13.671875
1055,-9.765625
1056,-7.812500
1057,-1.953125
1058,-1.953125
1059,0.000000
1060,3.906250
1061,5.859375
1062,7.812500
1063,11.718750
1064,15.625000
1065,17.578125
1066,19.531250
1067,21.484375
1068,25.390625
1069,27.343750
1070,29.296875
1071,33.203125
1072,35.156250
1073,37.109375
1074,41.015625
1075,41.015625
1076,44.921875
1077,48.828125
1078,50.781250
1079,52.734375
1080,54.687500
1081,56.640625
1082,60.546875
1083,60.546875
1084,62.500000
1085,66.406250
1086,68.359375
1087,70.312500
1088,72.265625
1089,74.218750
1090,76.171875
1091,78.125000
1092,80.078125
1093,82.031250
1094,82.031250
1095,83.984375
1096,85.937500
1097,87.890625
1098,89.843750
1099,89.843750
1100,91.796875
1101,93.750000
1102,95.703125
1103,95.703125
1104,97.656250
1105,97.656250
1106,99.609375
1107,99.609375
1108,101.562500
1109,103.515625
1110,103.515625
1111,103.515625
1112,105.468750
1113,105.468750
1114,107.421875
1115,107.421875
1116,107.421875
1117,109.375000
1118,109.375000
1119,109.375000
1120,109.375000
1121,111.328125
1122,111.328125
1123,111.328125
1124,111.328125
1125,111.328125
1126,111.328125
1127,113.281250
1128,111.328125
1129,111.328125
1130,111.328125
1131,111.328125
1132,111.328125
1133,111.328125
1134,111.328125
1135,111.328125
1136,111.328125
1137,111.328125
1138,109.375000
1139,109.375000
1140,109.375000
1141,107.421875
1142,107.421875
1143,105.468750
1144,105.468750
1145,105.468750
1146,103.515625
1147,103.515625
1148,101.562500
1149,101.562500
1150,101.562500
1151,99.609375
1152,97.656250
1153,95.703125
1154,95.703125
1155,93.750000
1156,93.750000
1157,91.796875
1158,89.843750
1159,87.890625
1160,87.890625
1161,85.937500
1162,83.984375
1163,82.031250
1164,80.078125
1165,78.125000
1166,76.171875
1167,74.218750
1168,72.265625
1169,70.312500
1170,68.359375
1171,66.406250
1172,64.453125
1173,62.500000
1174,60.546875
1175,60.546875
1176,56.640625
1177,52.734375
1178,50.781250
1179,48.828125
1180,46.875000
1181,44.921875
1182,41.015625
1183,39.062500
1184,35.156250
1185,35.156250
1186,31.250000
1187,27.343750
1188,25.390625
1189,23.437500
1190,21.484375
1191,17.578125
1192,15.625000
1193,11.718750
1194,9.765625
1195,7.812500
1196,3.906250
1197,1.953125
1198,-1.953125
1199,-3.906250
1200,-7.812500
1201,-9.765625
1202,-13.671875
1203,-15.625000
1204,-19.531250
1205,-21.484375
1206,-23.437500
1207,-27.343750
1208,-29.296875
1209,-33.203125
1210,-35.156250
1211,-39.062500
1212,-41.015625
1213,-44.921875
1214,-46.875000
1215,-48.828125
1216,-52.734375
1217,-54.687500
1218,-58.593750
1219,-60.546875
1220,-62.500000
1221,-66.406250
1222,-68.359375
1223,-70.312500
1224,-74.218750
1225,-78.125000
1226,-82.031250
1227,-82.031250
1228,-83.984375
1229,-85.937500
1230,-87.890625
1231,-89.843750
1232,-93.750000
1233,-95.703125
1234,-97.656250
1235,-99.609375
1236,-101.562500
1237,-103.515625
1238,-105.468750
1239,-107.421875
1240,-109.375000
1241,-111.328125
1242,-113.281250
1243,-115.234375
1244,-117.187500
1245,-119.140625
1246,-121.093750
1247,-121.093750
1248,-123.046875
1249,-125.000000
1250,-126.953125
1251,-126.953125
1252,-128.906250
1253,-128.906250
1254,-130.859375
1255,-132.812500
1256,-132.812500
1257,-132.812500
1258,-134.765625
1259,-134.765625
1260,-136.718750
1261,-136.718750
1262,-136.718750
1263,-138.671875
1264,-138.671875
1265,-138.671875
1266,-138.671875
1267,-138.671875
1268,-138.671875
1269,-138.671875
1270,-138.671875
1271,-138.671875
1272,-138.671875
1273,-138.671875
1274,-138.671875
1275,-136.718750
1276,-138.671875
1277,-136.718750
1278,-136.718750
1279,-134.765625
1280,-134.765625
1281,-132.812500
1282,-132.812500
1283,-132.812500
1284,-130.859375
1285,-128.906250
1286,-128.906250
1287,-126.953125
1288,-126.953125
1289,-125.000000
1290,-123.046875
1291,-121.093750
1292,-121.093750
1293,-119.140625
1294,-119.140625
1295,-115.234375
1296,-113.281250
1297,-111.328125
1298,-111.328125
1299,-109.375000
1300,-107.421875
1301,-105.468750
1302,-103.515625
1303,-101.562500
1304,-99.609375
1305,-95.703125
1306,-93.750000
1307,-91.796875
1308,-89.843750
1309,-87.890625
1310,-85.937500
1311,-82.031250
1312,-80.078125
1313,-78.125000
1314,-76.171875
