Practicum8/data/opgave5/opgave5_freq1/data_83_010.csv

Channel              :,CH1
Frequency            :,  ?
Period               :,  ?
PK-PK                :,21.48mV
Probe attenuation    :,1X
Voltage per ADC value:,0.122070mV
Time interval        :,2.00000us

index,CH1_Voltage(mV)
1,0.000000
2,0.000000
3,-1.953125
4,0.000000
5,-1.953125
6,0.000000
7,0.000000
8,0.000000
9,-1.953125
10,0.000000
11,-1.953125
12,0.000000
13,-1.953125
14,0.000000
15,-1.953125
16,-1.953125
17,0.000000
18,0.000000
19,-1.953125
20,0.000000
21,0.000000
22,-1.953125
23,0.000000
24,0.000000
25,0.000000
26,-1.953125
27,-1.953125
28,0.000000
29,-1.953125
30,0.000000
31,-1.953125
32,-1.953125
33,0.000000
34,0.000000
35,0.000000
36,0.000000
37,0.000000
38,0.000000
39,0.000000
40,0.000000
41,0.000000
42,0.000000
43,-1.953125
44,0.000000
45,-1.953125
46,0.000000
47,0.000000
48,0.000000
49,-1.953125
50,-1.953125
51,0.000000
52,0.000000
53,0.000000
54,0.000000
55,0.000000
56,-1.953125
57,0.000000
58,0.000000
59,-1.953125
60,0.000000
61,0.000000
62,0.000000
63,0.000000
64,0.000000
65,0.000000
66,-1.953125
67,-1.953125
68,-1.953125
69,0.000000
70,0.000000
71,0.000000
72,0.000000
73,-1.953125
74,-1.953125
75,0.000000
76,0.000000
77,-1.953125
78,0.000000
79,-1.953125
80,0.000000
81,-1.953125
82,0.000000
83,0.000000
84,0.000000
85,-1.953125
86,-1.953125
87,0.000000
88,0.000000
89,0.000000
90,-1.953125
91,0.000000
92,0.000000
93,0.000000
94,0.000000
95,0.000000
96,0.000000
97,0.000000
98,0.000000
99,0.000000
100,0.000000
101,0.000000
102,-1.953125
103,0.000000
104,1.953125
105,0.000000
106,0.000000
107,0.000000
108,0.000000
109,0.000000
110,0.000000
111,0.000000
112,0.000000
113,-1.953125
114,0.000000
115,0.000000
116,0.000000
117,-1.953125
118,0.000000
119,0.000000
120,0.000000
121,0.000000
122,0.000000
123,0.000000
124,0.000000
125,0.000000
126,0.000000
127,0.000000
128,-1.953125
129,0.000000
130,0.000000
131,0.000000
132,0.000000
133,0.000000
134,0.000000
135,0.000000
136,-1.953125
137,0.000000
138,0.000000
139,0.000000
140,0.000000
141,0.000000
142,0.000000
143,0.000000
144,0.000000
145,0.000000
146,0.000000
147,0.000000
148,0.000000
149,1.953125
150,0.000000
151,0.000000
152,0.000000
153,0.000000
154,0.000000
155,0.000000
156,0.000000
157,0.000000
158,0.000000
159,0.000000
160,0.000000
161,1.953125
162,0.000000
163,0.000000
164,0.000000
165,0.000000
166,0.000000
167,0.000000
168,0.000000
169,0.000000
170,0.000000
171,0.000000
172,0.000000
173,0.000000
174,0.000000
175,0.000000
176,0.000000
177,0.000000
178,0.000000
179,0.000000
180,0.000000
181,0.000000
182,0.000000
183,0.000000
184,0.000000
185,0.000000
186,0.000000
187,0.000000
188,0.000000
189,0.000000
190,0.000000
191,0.000000
192,0.000000
193,0.000000
194,0.000000
195,0.000000
196,0.000000
197,0.000000
198,1.953125
199,0.000000
200,0.000000
201,0.000000
202,0.000000
203,0.000000
204,1.953125
205,0.000000
206,-1.953125
207,0.000000
208,0.000000
209,0.000000
210,0.000000
211,0.000000
212,1.953125
213,1.953125
214,0.000000
215,0.000000
216,1.953125
217,1.953125
218,1.953125
219,0.000000
220,1.953125
221,1.953125
222,1.953125
223,1.953125
224,1.953125
225,1.953125
226,1.953125
227,1.953125
228,1.953125
229,1.953125
230,1.953125
231,1.953125
232,1.953125
233,1.953125
234,1.953125
235,1.953125
236,1.953125
237,1.953125
238,1.953125
239,1.953125
240,1.953125
241,1.953125
242,1.953125
243,1.953125
244,1.953125
245,1.953125
246,1.953125
247,1.953125
248,1.953125
249,1.953125
250,1.953125
251,1.953125
252,1.953125
253,1.953125
254,1.953125
255,1.953125
256,1.953125
257,1.953125
258,1.953125
259,1.953125
260,1.953125
261,1.953125
262,3.906250
263,1.953125
264,1.953125
265,1.953125
266,1.953125
267,1.953125
268,1.953125
269,1.953125
270,1.953125
271,3.906250
272,1.953125
273,1.953125
274,1.953125
275,1.953125
276,1.953125
277,3.906250
278,3.906250
279,1.953125
280,3.906250
281,1.953125
282,1.953125
283,1.953125
284,3.906250
285,3.906250
286,3.906250
287,3.906250
288,3.906250
289,3.906250
290,3.906250
291,3.906250
292,3.906250
293,3.906250
294,3.906250
295,3.906250
296,3.906250
297,3.906250
298,3.906250
299,3.906250
300,3.906250
301,3.906250
302,3.906250
303,3.906250
304,3.906250
305,5.859375
306,3.906250
307,3.906250
308,3.906250
309,3.906250
310,3.906250
311,3.906250
312,3.906250
313,1.953125
314,3.906250
315,3.906250
316,3.906250
317,3.906250
318,3.906250
319,3.906250
320,3.906250
321,3.906250
322,3.906250
323,3.906250
324,3.906250
325,3.906250
326,5.859375
327,3.906250
328,3.906250
329,3.906250
330,5.859375
331,3.906250
332,3.906250
333,3.906250
334,3.906250
335,5.859375
336,5.859375
337,5.859375
338,3.906250
339,5.859375
340,3.906250
341,5.859375
342,5.859375
343,5.859375
344,5.859375
345,5.859375
346,5.859375
347,5.859375
348,5.859375
349,5.859375
350,5.859375
351,5.859375
352,5.859375
353,5.859375
354,5.859375
355,5.859375
356,5.859375
357,5.859375
358,5.859375
359,5.859375
360,5.859375
361,5.859375
362,5.859375
363,7.812500
364,7.812500
365,5.859375
366,5.859375
367,5.859375
368,7.812500
369,7.812500
370,7.812500
371,7.812500
372,7.812500
373,5.859375
374,7.812500
375,7.812500
376,7.812500
377,7.812500
378,5.859375
379,7.812500
380,7.812500
381,7.812500
382,7.812500
383,7.812500
384,5.859375
385,7.812500
386,7.812500
387,3.906250
388,7.812500
389,7.812500
390,7.812500
391,7.812500
392,7.812500
393,7.812500
394,7.812500
395,7.812500
396,7.812500
397,7.812500
398,7.812500
399,7.812500
400,9.765625
401,7.812500
402,7.812500
403,7.812500
404,7.812500
405,9.765625
406,7.812500
407,7.812500
408,7.812500
409,7.812500
410,7.812500
411,7.812500
412,9.765625
413,9.765625
414,7.812500
415,9.765625
416,9.765625
417,9.765625
418,7.812500
419,9.765625
420,9.765625
421,9.765625
422,9.765625
423,9.765625
424,9.765625
425,9.765625
426,9.765625
427,9.765625
428,9.765625
429,9.765625
430,9.765625
431,9.765625
432,9.765625
433,9.765625
434,9.765625
435,9.765625
436,9.765625
437,9.765625
438,9.765625
439,9.765625
440,9.765625
441,9.765625
442,9.765625
443,9.765625
444,9.765625
445,9.765625
446,9.765625
447,9.765625
448,9.765625
449,9.765625
450,9.765625
451,9.765625
452,9.765625
453,9.765625
454,9.765625
455,9.765625
456,9.765625
457,9.765625
458,9.765625
459,9.765625
460,9.765625
461,9.765625
462,9.765625
463,9.765625
464,9.765625
465,9.765625
466,9.765625
467,9.765625
468,9.765625
469,9.765625
470,9.765625
471,9.765625
472,9.765625
473,11.718750
474,9.765625
475,9.765625
476,9.765625
477,11.718750
478,9.765625
479,9.765625
480,9.765625
481,11.718750
482,9.765625
483,11.718750
484,9.765625
485,9.765625
486,9.765625
487,9.765625
488,9.765625
489,9.765625
490,11.718750
491,9.765625
492,9.765625
493,9.765625
494,11.718750
495,9.765625
496,9.765625
497,9.765625
498,9.765625
499,9.765625
500,9.765625
501,9.765625
502,9.765625
503,9.765625
504,9.765625
505,9.765625
506,9.765625
507,11.718750
508,9.765625
509,9.765625
510,9.765625
511,9.765625
512,9.765625
513,9.765625
514,9.765625
515,9.765625
516,9.765625
517,9.765625
518,9.765625
519,9.765625
520,9.765625
521,9.765625
522,9.765625
523,9.765625
524,9.765625
525,9.765625
526,9.765625
527,9.765625
528,9.765625
529,9.765625
530,9.765625
531,9.765625
532,9.765625
533,9.765625
534,9.765625
535,9.765625
536,9.765625
537,9.765625
538,9.765625
539,9.765625
540,9.765625
541,9.765625
542,9.765625
543,9.765625
544,9.765625
545,9.765625
546,9.765625
547,9.765625
548,9.765625
549,9.765625
550,9.765625
551,9.765625
552,9.765625
553,9.765625
554,9.765625
555,9.765625
556,9.765625
557,9.765625
558,9.765625
559,9.765625
560,9.765625
561,9.765625
562,9.765625
563,9.765625
564,9.765625
565,9.765625
566,9.765625
567,9.765625
568,9.765625
569,9.765625
570,9.765625
571,9.765625
572,9.765625
573,9.765625
574,9.765625
575,7.812500
576,9.765625
577,9.765625
578,9.765625
579,7.812500
580,7.812500
581,9.765625
582,9.765625
583,7.812500
584,9.765625
585,9.765625
586,7.812500
587,9.765625
588,7.812500
589,7.812500
590,7.812500
591,7.812500
592,7.812500
593,7.812500
594,7.812500
595,7.812500
596,7.812500
597,7.812500
598,7.812500
599,7.812500
600,7.812500
601,7.812500
602,7.812500
603,7.812500
604,7.812500
605,7.812500
606,7.812500
607,7.812500
608,7.812500
609,7.812500
610,7.812500
611,7.812500
612,7.812500
613,7.812500
614,7.812500
615,7.812500
616,7.812500
617,7.812500
618,7.812500
619,7.812500
620,7.812500
621,7.812500
622,7.812500
623,7.812500
624,7.812500
625,7.812500
626,7.812500
627,5.859375
628,7.812500
629,7.812500
630,7.812500
631,7.812500
632,7.812500
633,5.859375
634,7.812500
635,5.859375
636,5.859375
637,7.812500
638,7.812500
639,5.859375
640,5.859375
641,5.859375
642,5.859375
643,5.859375
644,5.859375
645,5.859375
646,5.859375
647,5.859375
648,5.859375
649,5.859375
650,5.859375
651,5.859375
652,5.859375
653,5.859375
654,3.906250
655,5.859375
656,5.859375
657,5.859375
658,5.859375
659,3.906250
660,5.859375
661,5.859375
662,5.859375
663,5.859375
664,3.906250
665,5.859375
666,5.859375
667,3.906250
668,3.906250
669,1.953125
670,3.906250
671,3.906250
672,3.906250
673,3.906250
674,3.906250
675,3.906250
676,3.906250
677,3.906250
678,3.906250
679,3.906250
680,3.906250
681,3.906250
682,3.906250
683,3.906250
684,3.906250
685,3.906250
686,3.906250
687,3.906250
688,3.906250
689,3.906250
690,3.906250
691,3.906250
692,1.953125
693,3.906250
694,3.906250
695,3.906250
696,3.906250
697,3.906250
698,3.906250
699,3.906250
700,3.906250
701,1.953125
702,1.953125
703,3.906250
704,3.906250
705,3.906250
706,1.953125
707,1.953125
708,1.953125
709,1.953125
710,1.953125
711,1.953125
712,1.953125
713,1.953125
714,1.953125
715,1.953125
716,1.953125
717,1.953125
718,1.953125
719,1.953125
720,1.953125
721,1.953125
722,1.953125
723,1.953125
724,1.953125
725,0.000000
726,1.953125
727,1.953125
728,1.953125
729,1.953125
730,1.953125
731,0.000000
732,1.953125
733,1.953125
734,0.000000
735,1.953125
736,1.953125
737,1.953125
738,0.000000
739,1.953125
740,1.953125
741,0.000000
742,1.953125
743,0.000000
744,1.953125
745,1.953125
746,1.953125
747,1.953125
748,1.953125
749,1.953125
750,1.953125
751,0.000000
752,1.953125
753,1.953125
754,0.000000
755,0.000000
756,0.000000
757,1.953125
758,0.000000
759,0.000000
760,0.000000
761,1.953125
762,1.953125
763,0.000000
764,0.000000
765,0.000000
766,1.953125
767,0.000000
768,0.000000
769,0.000000
770,0.000000
771,0.000000
772,0.000000
773,0.000000
774,0.000000
775,0.000000
776,0.000000
777,0.000000
778,0.000000
779,0.000000
780,0.000000
781,0.000000
782,0.000000
783,0.000000
784,0.000000
785,-1.953125
786,0.000000
787,0.000000
788,-1.953125
789,-1.953125
790,0.000000
791,0.000000
792,0.000000
793,0.000000
794,0.000000
795,0.000000
796,0.000000
797,0.000000
798,-1.953125
799,0.000000
800,0.000000
801,0.000000
802,0.000000
803,0.000000
804,0.000000
805,0.000000
806,-1.953125
807,0.000000
808,0.000000
809,0.000000
810,0.000000
811,0.000000
812,0.000000
813,0.000000
814,0.000000
815,-1.953125
816,0.000000
817,0.000000
818,0.000000
819,0.000000
820,0.000000
821,0.000000
822,0.000000
823,0.000000
824,0.000000
825,0.000000
826,-1.953125
827,-1.953125
828,0.000000
829,0.000000
830,0.000000
831,0.000000
832,-1.953125
833,0.000000
834,0.000000
835,-1.953125
836,-1.953125
837,-1.953125
838,0.000000
839,-1.953125
840,-1.953125
841,-1.953125
842,-1.953125
843,-1.953125
844,0.000000
845,-1.953125
846,-1.953125
847,0.000000
848,0.000000
849,-1.953125
850,-1.953125
851,-1.953125
852,-1.953125
853,0.000000
854,-3.906250
855,0.000000
856,-1.953125
857,0.000000
858,0.000000
859,-1.953125
860,-1.953125
861,-1.953125
862,-1.953125
863,0.000000
864,0.000000
865,0.000000
866,0.000000
867,0.000000
868,-1.953125
869,0.000000
870,0.000000
871,0.000000
872,0.000000
873,0.000000
874,-1.953125
875,0.000000
876,0.000000
877,0.000000
878,0.000000
879,-1.953125
880,0.000000
881,0.000000
882,0.000000
883,0.000000
884,-1.953125
885,0.000000
886,0.000000
887,-1.953125
888,-1.953125
889,-1.953125
890,0.000000
891,0.000000
892,0.000000
893,-1.953125
894,0.000000
895,0.000000
896,0.000000
897,0.000000
898,-1.953125
899,0.000000
900,0.000000
901,0.000000
902,0.000000
903,-1.953125
904,0.000000
905,-1.953125
906,0.000000
907,-1.953125
908,-1.953125
909,0.000000
910,0.000000
911,1.953125
912,-1.953125
913,0.000000
914,0.000000
915,0.000000
916,0.000000
917,-1.953125
918,-1.953125
919,0.000000
920,0.000000
921,-1.953125
922,0.000000
923,-1.953125
924,0.000000
925,-1.953125
926,0.000000
927,0.000000
928,-1.953125
929,0.000000
930,-1.953125
931,0.000000
932,0.000000
933,0.000000
934,0.000000
935,0.000000
936,0.000000
937,0.000000
938,0.000000
939,0.000000
940,0.000000
941,0.000000
942,0.000000
943,0.000000
944,0.000000
945,0.000000
946,0.000000
947,0.000000
948,0.000000
949,0.000000
950,0.000000
951,0.000000
952,0.000000
953,0.000000
954,0.000000
955,0.000000
956,0.000000
957,0.000000
958,0.000000
959,0.000000
960,0.000000
961,0.000000
962,0.000000
963,0.000000
964,0.000000
965,0.000000
966,0.000000
967,0.000000
968,0.000000
969,0.000000
970,0.000000
971,0.000000
972,0.000000
973,0.000000
974,0.000000
975,0.000000
976,0.000000
977,0.000000
978,0.000000
979,0.000000
980,0.000000
981,0.000000
982,0.000000
983,0.000000
984,0.000000
985,0.000000
986,0.000000
987,0.000000
988,0.000000
989,0.000000
990,0.000000
991,0.000000
992,0.000000
993,0.000000
994,0.000000
995,0.000000
996,0.000000
997,0.000000
998,0.000000
999,0.000000
1000,0.000000
1001,0.000000
1002,1.953125
1003,1.953125
1004,1.953125
1005,1.953125
1006,1.953125
1007,0.000000
1008,0.000000
1009,1.953125
1010,0.000000
1011,0.000000
1012,1.953125
1013,1.953125
1014,1.953125
1015,1.953125
1016,1.953125
1017,0.000000
1018,1.953125
1019,1.953125
1020,1.953125
1021,0.000000
1022,0.000000
1023,0.000000
1024,1.953125
1025,1.953125
1026,0.000000
1027,1.953125
1028,1.953125
1029,1.953125
1030,1.953125
1031,1.953125
1032,1.953125
1033,1.953125
1034,1.953125
1035,1.953125
1036,0.000000
1037,1.953125
1038,1.953125
1039,0.000000
1040,1.953125
1041,1.953125
1042,1.953125
1043,1.953125
1044,1.953125
1045,1.953125
1046,0.000000
1047,1.953125
1048,1.953125
1049,1.953125
1050,5.859375
1051,1.953125
1052,1.953125
1053,3.906250
1054,1.953125
1055,1.953125
1056,1.953125
1057,1.953125
1058,1.953125
1059,1.953125
1060,1.953125
1061,1.953125
1062,1.953125
1063,1.953125
1064,1.953125
1065,1.953125
1066,1.953125
1067,1.953125
1068,1.953125
1069,3.906250
1070,1.953125
1071,3.906250
1072,1.953125
1073,1.953125
1074,1.953125
1075,1.953125
1076,1.953125
1077,1.953125
1078,1.953125
1079,1.953125
1080,1.953125
1081,3.906250
1082,3.906250
1083,1.953125
1084,3.906250
1085,3.906250
1086,1.953125
1087,3.906250
1088,1.953125
1089,3.906250
1090,1.953125
1091,3.906250
1092,1.953125
1093,1.953125
1094,3.906250
1095,3.906250
1096,3.906250
1097,1.953125
1098,1.953125
1099,3.906250
1100,3.906250
1101,3.906250
1102,3.906250
1103,1.953125
1104,3.906250
1105,3.906250
1106,3.906250
1107,3.906250
1108,3.906250
1109,3.906250
1110,3.906250
1111,3.906250
1112,3.906250
1113,3.906250
1114,3.906250
1115,3.906250
1116,3.906250
1117,3.906250
1118,3.906250
1119,3.906250
1120,3.906250
1121,3.906250
1122,3.906250
1123,3.906250
1124,3.906250
1125,3.906250
1126,3.906250
1127,3.906250
1128,3.906250
1129,5.859375
1130,3.906250
1131,3.906250
1132,5.859375
1133,5.859375
1134,5.859375
1135,5.859375
1136,3.906250
1137,5.859375
1138,5.859375
1139,5.859375
1140,5.859375
1141,5.859375
1142,5.859375
1143,5.859375
1144,5.859375
1145,5.859375
1146,5.859375
1147,5.859375
1148,5.859375
1149,5.859375
1150,5.859375
1151,5.859375
1152,5.859375
1153,5.859375
1154,5.859375
1155,5.859375
1156,5.859375
1157,5.859375
1158,5.859375
1159,5.859375
1160,5.859375
1161,5.859375
1162,5.859375
1163,5.859375
1164,5.859375
1165,5.859375
1166,5.859375
1167,7.812500
1168,5.859375
1169,5.859375
1170,5.859375
1171,5.859375
1172,5.859375
1173,5.859375
1174,5.859375
1175,5.859375
1176,5.859375
1177,5.859375
1178,7.812500
1179,7.812500
1180,5.859375
1181,5.859375
1182,5.859375
1183,7.812500
1184,5.859375
1185,7.812500
1186,7.812500
1187,5.859375
1188,7.812500
1189,7.812500
1190,5.859375
1191,7.812500
1192,7.812500
1193,7.812500
1194,7.812500
1195,7.812500
1196,7.812500
1197,7.812500
1198,7.812500
1199,7.812500
1200,7.812500
1201,7.812500
1202,7.812500
1203,7.812500
1204,7.812500
1205,7.812500
1206,7.812500
1207,9.765625
1208,7.812500
1209,7.812500
1210,7.812500
1211,7.812500
1212,7.812500
1213,7.812500
1214,9.765625
1215,7.812500
1216,7.812500
1217,7.812500
1218,7.812500
1219,9.765625
1220,7.812500
1221,7.812500
1222,7.812500
1223,7.812500
1224,9.765625
1225,7.812500
1226,9.765625
1227,7.812500
1228,7.812500
1229,9.765625
1230,7.812500
1231,9.765625
1232,7.812500
1233,9.765625
1234,7.812500
1235,9.765625
1236,9.765625
1237,9.765625
1238,9.765625
1239,9.765625
1240,9.765625
1241,7.812500
1242,9.765625
1243,9.765625
1244,9.765625
1245,9.765625
1246,9.765625
1247,9.765625
1248,9.765625
1249,9.765625
1250,9.765625
1251,9.765625
1252,9.765625
1253,9.765625
1254,9.765625
1255,9.765625
1256,9.765625
1257,9.765625
1258,9.765625
1259,9.765625
1260,9.765625
1261,9.765625
1262,9.765625
1263,9.765625
1264,9.765625
1265,9.765625
1266,9.765625
1267,9.765625
1268,9.765625
1269,9.765625
1270,9.765625
1271,9.765625
1272,9.765625
1273,9.765625
1274,9.765625
1275,9.765625
1276,9.765625
1277,9.765625
1278,9.765625
1279,9.765625
1280,9.765625
1281,9.765625
1282,9.765625
1283,9.765625
1284,9.765625
1285,11.718750
1286,9.765625
1287,9.765625
1288,9.765625
1289,9.765625
1290,9.765625
1291,11.718750
1292,9.765625
1293,9.765625
1294,9.765625
1295,11.718750
1296,9.765625
1297,9.765625
1298,9.765625
1299,9.765625
1300,9.765625
1301,9.765625
1302,9.765625
1303,9.765625
1304,9.765625
1305,11.718750
1306,9.765625
1307,9.765625
1308,9.765625
1309,9.765625
1310,9.765625
1311,9.765625
1312,9.765625
1313,9.765625
1314,11.718750
1315,9.765625
1316,9.765625
1317,9.765625
1318,9.765625
1319,9.765625
1320,9.765625
1321,9.765625
1322,9.765625
1323,9.765625
1324,9.765625
1325,11.718750
1326,9.765625
1327,9.765625
1328,9.765625
1329,11.718750
1330,9.765625
1331,9.765625
1332,9.765625
1333,11.718750
1334,9.765625
1335,9.765625
1336,9.765625
1337,9.765625
1338,9.765625
1339,9.765625
1340,9.765625
1341,9.765625
1342,9.765625
1343,9.765625
1344,9.765625
1345,9.765625
1346,11.718750
1347,9.765625
1348,9.765625
1349,9.765625
1350,9.765625
1351,9.765625
1352,9.765625
1353,9.765625
1354,9.765625
1355,9.765625
1356,9.765625
1357,9.765625
1358,9.765625
1359,9.765625
1360,9.765625
1361,9.765625
1362,9.765625
1363,9.765625
1364,9.765625
1365,9.765625
1366,9.765625
1367,9.765625
1368,9.765625
1369,9.765625
1370,9.765625
1371,9.765625
1372,9.765625
1373,9.765625
1374,9.765625
1375,9.765625
1376,7.812500
1377,9.765625
1378,9.765625
1379,9.765625
1380,7.812500
1381,9.765625
1382,9.765625
1383,9.765625
1384,9.765625
1385,7.812500
1386,7.812500
1387,9.765625
1388,9.765625
1389,7.812500
1390,7.812500
1391,9.765625
1392,9.765625
1393,9.765625
1394,9.765625
1395,9.765625
1396,7.812500
1397,7.812500
1398,7.812500
1399,7.812500
1400,7.812500
1401,9.765625
1402,7.812500
1403,7.812500
1404,7.812500
1405,9.765625
1406,7.812500
1407,7.812500
1408,7.812500
1409,7.812500
1410,7.812500
1411,7.812500
1412,7.812500
1413,7.812500
1414,7.812500
1415,7.812500
1416,7.812500
1417,7.812500
1418,7.812500
1419,7.812500
1420,7.812500
1421,7.812500
1422,7.812500
1423,7.812500
1424,7.812500
1425,7.812500
1426,7.812500
1427,7.812500
1428,5.859375
1429,7.812500
1430,7.812500
1431,7.812500
1432,5.859375
1433,7.812500
1434,5.859375
1435,5.859375
1436,5.859375
1437,7.812500
1438,7.812500
1439,5.859375
1440,5.859375
1441,5.859375
1442,5.859375
1443,5.859375
1444,5.859375
1445,5.859375
1446,5.859375
1447,5.859375
1448,5.859375
1449,5.859375
1450,5.859375
1451,5.859375
1452,5.859375
1453,5.859375
1454,5.859375
1455,5.859375
1456,5.859375
1457,5.859375
1458,5.859375
1459,5.859375
1460,5.859375
1461,5.859375
1462,5.859375
1463,3.906250
1464,7.812500
1465,5.859375
1466,5.859375
1467,5.859375
1468,5.859375
1469,5.859375
1470,5.859375
1471,5.859375
1472,5.859375
1473,5.859375
1474,5.859375
1475,3.906250
1476,5.859375
1477,3.906250
1478,5.859375
1479,3.906250
1480,3.906250
1481,1.953125
1482,3.906250
1483,3.906250
1484,3.906250
