Practicum8/data/opgave5/opgave5_freq1/data_83_003.csv

Channel              :,CH1
Frequency            :,619.8Hz
Period               :,1.613ms
PK-PK                :,125.0mV
Probe attenuation    :,1X
Voltage per ADC value:,0.122070mV
Time interval        :,2.00000us

index,CH1_Voltage(mV)
1,-54.687500
2,-54.687500
3,-54.687500
4,-54.687500
5,-54.687500
6,-54.687500
7,-54.687500
8,-54.687500
9,-54.687500
10,-54.687500
11,-54.687500
12,-54.687500
13,-54.687500
14,-54.687500
15,-52.734375
16,-54.687500
17,-54.687500
18,-54.687500
19,-54.687500
20,-52.734375
21,-52.734375
22,-52.734375
23,-52.734375
24,-50.781250
25,-52.734375
26,-52.734375
27,-52.734375
28,-50.781250
29,-52.734375
30,-52.734375
31,-50.781250
32,-50.781250
33,-50.781250
34,-52.734375
35,-50.781250
36,-50.781250
37,-50.781250
38,-50.781250
39,-50.781250
40,-50.781250
41,-48.828125
42,-48.828125
43,-50.781250
44,-48.828125
45,-48.828125
46,-48.828125
47,-50.781250
48,-48.828125
49,-48.828125
50,-48.828125
51,-46.875000
52,-46.875000
53,-48.828125
54,-46.875000
55,-46.875000
56,-46.875000
57,-46.875000
58,-46.875000
59,-46.875000
60,-46.875000
61,-46.875000
62,-44.921875
63,-44.921875
64,-44.921875
65,-44.921875
66,-44.921875
67,-44.921875
68,-42.968750
69,-44.921875
70,-42.968750
71,-42.968750
72,-42.968750
73,-42.968750
74,-42.968750
75,-41.015625
76,-41.015625
77,-41.015625
78,-41.015625
79,-41.015625
80,-39.062500
81,-41.015625
82,-39.062500
83,-39.062500
84,-39.062500
85,-39.062500
86,-39.062500
87,-37.109375
88,-37.109375
89,-37.109375
90,-37.109375
91,-37.109375
92,-37.109375
93,-35.156250
94,-35.156250
95,-35.156250
96,-35.156250
97,-35.156250
98,-35.156250
99,-33.203125
100,-33.203125
101,-33.203125
102,-33.203125
103,-33.203125
104,-31.250000
105,-31.250000
106,-31.250000
107,-31.250000
108,-29.296875
109,-29.296875
110,-29.296875
111,-29.296875
112,-29.296875
113,-29.296875
114,-29.296875
115,-27.343750
116,-27.343750
117,-27.343750
118,-27.343750
119,-27.343750
120,-25.390625
121,-25.390625
122,-25.390625
123,-25.390625
124,-23.437500
125,-23.437500
126,-23.437500
127,-23.437500
128,-23.437500
129,-23.437500
130,-21.484375
131,-21.484375
132,-21.484375
133,-21.484375
134,-19.531250
135,-19.531250
136,-19.531250
137,-19.531250
138,-19.531250
139,-17.578125
140,-17.578125
141,-17.578125
142,-17.578125
143,-17.578125
144,-15.625000
145,-15.625000
146,-15.625000
147,-15.625000
148,-13.671875
149,-13.671875
150,-13.671875
151,-13.671875
152,-11.718750
153,-11.718750
154,-11.718750
155,-11.718750
156,-11.718750
157,-9.765625
158,-9.765625
159,-9.765625
160,-9.765625
161,-7.812500
162,-7.812500
163,-7.812500
164,-7.812500
165,-5.859375
166,-5.859375
167,-5.859375
168,-5.859375
169,-3.906250
170,-3.906250
171,-3.906250
172,-3.906250
173,-3.906250
174,-1.953125
175,-1.953125
176,-1.953125
177,0.000000
178,-1.953125
179,0.000000
180,0.000000
181,0.000000
182,0.000000
183,0.000000
184,1.953125
185,1.953125
186,1.953125
187,3.906250
188,3.906250
189,3.906250
190,3.906250
191,5.859375
192,5.859375
193,5.859375
194,5.859375
195,5.859375
196,7.812500
197,7.812500
198,7.812500
199,7.812500
200,9.765625
201,9.765625
202,9.765625
203,9.765625
204,11.718750
205,11.718750
206,11.718750
207,11.718750
208,13.671875
209,13.671875
210,13.671875
211,13.671875
212,13.671875
213,15.625000
214,15.625000
215,15.625000
216,17.578125
217,17.578125
218,17.578125
219,17.578125
220,17.578125
221,17.578125
222,17.578125
223,19.531250
224,19.531250
225,21.484375
226,21.484375
227,21.484375
228,21.484375
229,21.484375
230,23.437500
231,23.437500
232,23.437500
233,23.437500
234,25.390625
235,23.437500
236,25.390625
237,25.390625
238,25.390625
239,25.390625
240,27.343750
241,29.296875
242,27.343750
243,27.343750
244,27.343750
245,29.296875
246,29.296875
247,29.296875
248,29.296875
249,29.296875
250,31.250000
251,31.250000
252,31.250000
253,31.250000
254,33.203125
255,33.203125
256,33.203125
257,33.203125
258,33.203125
259,35.156250
260,35.156250
261,35.156250
262,35.156250
263,35.156250
264,37.109375
265,37.109375
266,37.109375
267,37.109375
268,37.109375
269,37.109375
270,39.062500
271,39.062500
272,39.062500
273,39.062500
274,39.062500
275,41.015625
276,41.015625
277,41.015625
278,41.015625
279,41.015625
280,42.968750
281,42.968750
282,42.968750
283,42.968750
284,42.968750
285,44.921875
286,44.921875
287,44.921875
288,44.921875
289,44.921875
290,46.875000
291,44.921875
292,46.875000
293,46.875000
294,46.875000
295,46.875000
296,48.828125
297,46.875000
298,48.828125
299,48.828125
300,48.828125
301,48.828125
302,48.828125
303,48.828125
304,50.781250
305,48.828125
306,50.781250
307,50.781250
308,50.781250
309,50.781250
310,50.781250
311,52.734375
312,52.734375
313,52.734375
314,50.781250
315,52.734375
316,52.734375
317,52.734375
318,54.687500
319,54.687500
320,54.687500
321,54.687500
322,54.687500
323,54.687500
324,54.687500
325,54.687500
326,54.687500
327,54.687500
328,56.640625
329,56.640625
330,56.640625
331,56.640625
332,56.640625
333,56.640625
334,56.640625
335,56.640625
336,56.640625
337,58.593750
338,58.593750
339,58.593750
340,58.593750
341,58.593750
342,58.593750
343,58.593750
344,58.593750
345,58.593750
346,58.593750
347,58.593750
348,60.546875
349,60.546875
350,60.546875
351,60.546875
352,60.546875
353,60.546875
354,60.546875
355,60.546875
356,60.546875
357,60.546875
358,62.500000
359,62.500000
360,62.500000
361,60.546875
362,62.500000
363,62.500000
364,62.500000
365,62.500000
366,62.500000
367,62.500000
368,62.500000
369,62.500000
370,62.500000
371,60.546875
372,62.500000
373,62.500000
374,62.500000
375,62.500000
376,62.500000
377,64.453125
378,62.500000
379,64.453125
380,62.500000
381,62.500000
382,62.500000
383,62.500000
384,62.500000
385,62.500000
386,64.453125
387,62.500000
388,62.500000
389,64.453125
390,64.453125
391,64.453125
392,64.453125
393,64.453125
394,62.500000
395,64.453125
396,64.453125
397,62.500000
398,62.500000
399,64.453125
400,64.453125
401,64.453125
402,62.500000
403,62.500000
404,62.500000
405,64.453125
406,64.453125
407,62.500000
408,64.453125
409,64.453125
410,64.453125
411,64.453125
412,62.500000
413,64.453125
414,64.453125
415,62.500000
416,62.500000
417,62.500000
418,64.453125
419,62.500000
420,62.500000
421,64.453125
422,62.500000
423,62.500000
424,62.500000
425,62.500000
426,62.500000
427,62.500000
428,62.500000
429,62.500000
430,62.500000
431,60.546875
432,62.500000
433,60.546875
434,62.500000
435,60.546875
436,60.546875
437,60.546875
438,60.546875
439,60.546875
440,60.546875
441,60.546875
442,60.546875
443,60.546875
444,58.593750
445,60.546875
446,58.593750
447,60.546875
448,58.593750
449,58.593750
450,58.593750
451,58.593750
452,58.593750
453,58.593750
454,58.593750
455,56.640625
456,56.640625
457,56.640625
458,56.640625
459,56.640625
460,56.640625
461,56.640625
462,56.640625
463,56.640625
464,56.640625
465,52.734375
466,54.687500
467,54.687500
468,54.687500
469,54.687500
470,54.687500
471,54.687500
472,52.734375
473,54.687500
474,52.734375
475,52.734375
476,52.734375
477,52.734375
478,52.734375
479,52.734375
480,52.734375
481,50.781250
482,52.734375
483,50.781250
484,50.781250
485,50.781250
486,50.781250
487,50.781250
488,50.781250
489,48.828125
490,48.828125
491,48.828125
492,48.828125
493,46.875000
494,46.875000
495,46.875000
496,46.875000
497,46.875000
498,46.875000
499,46.875000
500,46.875000
501,44.921875
502,44.921875
503,44.921875
504,42.968750
505,42.968750
506,42.968750
507,42.968750
508,42.968750
509,42.968750
510,42.968750
511,41.015625
512,41.015625
513,41.015625
514,41.015625
515,41.015625
516,39.062500
517,41.015625
518,39.062500
519,39.062500
520,39.062500
521,37.109375
522,37.109375
523,37.109375
524,37.109375
525,37.109375
526,37.109375
527,35.156250
528,35.156250
529,35.156250
530,35.156250
531,33.203125
532,35.156250
533,33.203125
534,33.203125
535,33.203125
536,33.203125
537,31.250000
538,31.250000
539,31.250000
540,31.250000
541,31.250000
542,29.296875
543,29.296875
544,29.296875
545,29.296875
546,29.296875
547,29.296875
548,27.343750
549,27.343750
550,27.343750
551,27.343750
552,25.390625
553,25.390625
554,25.390625
555,25.390625
556,23.437500
557,23.437500
558,23.437500
559,23.437500
560,21.484375
561,21.484375
562,21.484375
563,21.484375
564,19.531250
565,19.531250
566,19.531250
567,21.484375
568,17.578125
569,17.578125
570,17.578125
571,17.578125
572,15.625000
573,15.625000
574,15.625000
575,15.625000
576,15.625000
577,13.671875
578,13.671875
579,13.671875
580,13.671875
581,11.718750
582,11.718750
583,11.718750
584,11.718750
585,9.765625
586,9.765625
587,9.765625
588,9.765625
589,7.812500
590,7.812500
591,7.812500
592,5.859375
593,5.859375
594,5.859375
595,5.859375
596,5.859375
597,3.906250
598,3.906250
599,3.906250
600,3.906250
601,3.906250
602,1.953125
603,1.953125
604,1.953125
605,1.953125
606,1.953125
607,0.000000
608,0.000000
609,-1.953125
610,-1.953125
611,-1.953125
612,-1.953125
613,-1.953125
614,-1.953125
615,-3.906250
616,-3.906250
617,-3.906250
618,-5.859375
619,-5.859375
620,-5.859375
621,-5.859375
622,-5.859375
623,-7.812500
624,-7.812500
625,-7.812500
626,-7.812500
627,-9.765625
628,-9.765625
629,-9.765625
630,-9.765625
631,-11.718750
632,-11.718750
633,-11.718750
634,-11.718750
635,-13.671875
636,-13.671875
637,-13.671875
638,-13.671875
639,-15.625000
640,-15.625000
641,-15.625000
642,-17.578125
643,-17.578125
644,-17.578125
645,-15.625000
646,-17.578125
647,-17.578125
648,-19.531250
649,-19.531250
650,-19.531250
651,-19.531250
652,-19.531250
653,-21.484375
654,-21.484375
655,-21.484375
656,-23.437500
657,-23.437500
658,-23.437500
659,-23.437500
660,-23.437500
661,-25.390625
662,-23.437500
663,-25.390625
664,-25.390625
665,-25.390625
666,-27.343750
667,-27.343750
668,-27.343750
669,-27.343750
670,-27.343750
671,-29.296875
672,-27.343750
673,-29.296875
674,-29.296875
675,-29.296875
676,-29.296875
677,-31.250000
678,-31.250000
679,-31.250000
680,-31.250000
681,-33.203125
682,-33.203125
683,-33.203125
684,-33.203125
685,-33.203125
686,-33.203125
687,-33.203125
688,-33.203125
689,-35.156250
690,-35.156250
691,-35.156250
692,-37.109375
693,-37.109375
694,-37.109375
695,-37.109375
696,-39.062500
697,-39.062500
698,-39.062500
699,-39.062500
700,-39.062500
701,-39.062500
702,-39.062500
703,-39.062500
704,-41.015625
705,-41.015625
706,-41.015625
707,-41.015625
708,-41.015625
709,-41.015625
710,-42.968750
711,-42.968750
712,-42.968750
713,-42.968750
714,-42.968750
715,-48.828125
716,-44.921875
717,-44.921875
718,-44.921875
719,-44.921875
720,-44.921875
721,-44.921875
722,-44.921875
723,-44.921875
724,-44.921875
725,-46.875000
726,-46.875000
727,-46.875000
728,-46.875000
729,-46.875000
730,-46.875000
731,-46.875000
732,-46.875000
733,-48.828125
734,-48.828125
735,-48.828125
736,-48.828125
737,-48.828125
738,-48.828125
739,-48.828125
740,-48.828125
741,-50.781250
742,-50.781250
743,-50.781250
744,-50.781250
745,-50.781250
746,-50.781250
747,-50.781250
748,-50.781250
749,-46.875000
750,-50.781250
751,-52.734375
752,-52.734375
753,-52.734375
754,-52.734375
755,-52.734375
756,-52.734375
757,-52.734375
758,-52.734375
759,-52.734375
760,-54.687500
761,-52.734375
762,-52.734375
763,-52.734375
764,-52.734375
765,-52.734375
766,-54.687500
767,-54.687500
768,-54.687500
769,-54.687500
770,-54.687500
771,-54.687500
772,-54.687500
773,-54.687500
774,-54.687500
775,-54.687500
776,-54.687500
777,-54.687500
778,-54.687500
779,-54.687500
780,-54.687500
781,-54.687500
782,-54.687500
783,-54.687500
784,-54.687500
785,-56.640625
786,-54.687500
787,-54.687500
788,-56.640625
789,-54.687500
790,-54.687500
791,-56.640625
792,-54.687500
793,-56.640625
794,-54.687500
795,-54.687500
796,-58.593750
797,-54.687500
798,-54.687500
799,-54.687500
800,-54.687500
801,-52.734375
802,-54.687500
803,-54.687500
804,-54.687500
805,-54.687500
806,-54.687500
807,-54.687500
808,-54.687500
809,-54.687500
810,-54.687500
811,-54.687500
812,-54.687500
813,-54.687500
814,-54.687500
815,-54.687500
816,-54.687500
817,-54.687500
818,-54.687500
819,-54.687500
820,-54.687500
821,-54.687500
822,-54.687500
823,-52.734375
824,-54.687500
825,-52.734375
826,-54.687500
827,-52.734375
828,-52.734375
829,-52.734375
830,-54.687500
831,-52.734375
832,-52.734375
833,-52.734375
834,-48.828125
835,-52.734375
836,-52.734375
837,-52.734375
838,-52.734375
839,-50.781250
840,-52.734375
841,-52.734375
842,-50.781250
843,-50.781250
844,-50.781250
845,-50.781250
846,-50.781250
847,-50.781250
848,-50.781250
849,-50.781250
850,-48.828125
851,-48.828125
852,-48.828125
853,-48.828125
854,-48.828125
855,-48.828125
856,-48.828125
857,-46.875000
858,-46.875000
859,-48.828125
860,-48.828125
861,-46.875000
862,-46.875000
863,-46.875000
864,-46.875000
865,-46.875000
866,-44.921875
867,-44.921875
868,-44.921875
869,-44.921875
870,-44.921875
871,-42.968750
872,-44.921875
873,-44.921875
874,-44.921875
875,-42.968750
876,-42.968750
877,-42.968750
878,-42.968750
879,-42.968750
880,-42.968750
881,-41.015625
882,-41.015625
883,-41.015625
884,-41.015625
885,-41.015625
886,-41.015625
887,-41.015625
888,-39.062500
889,-39.062500
890,-39.062500
891,-39.062500
892,-39.062500
893,-37.109375
894,-37.109375
895,-37.109375
896,-37.109375
897,-37.109375
898,-37.109375
899,-37.109375
900,-35.156250
901,-35.156250
902,-35.156250
903,-35.156250
904,-35.156250
905,-35.156250
906,-33.203125
907,-33.203125
908,-33.203125
909,-33.203125
910,-33.203125
911,-31.250000
912,-31.250000
913,-31.250000
914,-31.250000
915,-31.250000
916,-31.250000
917,-29.296875
918,-29.296875
919,-29.296875
920,-29.296875
921,-27.343750
922,-27.343750
923,-27.343750
924,-27.343750
925,-27.343750
926,-27.343750
927,-27.343750
928,-25.390625
929,-25.390625
930,-25.390625
931,-23.437500
932,-23.437500
933,-23.437500
934,-23.437500
935,-21.484375
936,-21.484375
937,-21.484375
938,-21.484375
939,-21.484375
940,-21.484375
941,-19.531250
942,-19.531250
943,-19.531250
944,-19.531250
945,-19.531250
946,-17.578125
947,-17.578125
948,-19.531250
949,-17.578125
950,-15.625000
951,-15.625000
952,-15.625000
953,-15.625000
954,-13.671875
955,-13.671875
956,-11.718750
957,-13.671875
958,-13.671875
959,-11.718750
960,-11.718750
961,-11.718750
962,-11.718750
963,-9.765625
964,-9.765625
965,-9.765625
966,-9.765625
967,-9.765625
968,-7.812500
969,-7.812500
970,-7.812500
971,-5.859375
972,-7.812500
973,-7.812500
974,-5.859375
975,-5.859375
976,-5.859375
977,-3.906250
978,-3.906250
979,-3.906250
980,-3.906250
981,-1.953125
982,-1.953125
983,-1.953125
984,-1.953125
985,0.000000
986,0.000000
987,0.000000
988,0.000000
989,0.000000
990,1.953125
991,1.953125
992,1.953125
993,3.906250
994,3.906250
995,3.906250
996,3.906250
997,3.906250
998,3.906250
999,5.859375
1000,5.859375
1001,5.859375
1002,7.812500
1003,7.812500
1004,7.812500
1005,7.812500
1006,9.765625
1007,7.812500
1008,9.765625
1009,9.765625
1010,9.765625
1011,11.718750
1012,11.718750
1013,11.718750
1014,11.718750
1015,11.718750
1016,11.718750
1017,13.671875
1018,7.812500
1019,13.671875
1020,15.625000
1021,15.625000
1022,15.625000
1023,17.578125
1024,15.625000
1025,15.625000
1026,15.625000
1027,17.578125
1028,17.578125
1029,17.578125
1030,19.531250
1031,19.531250
1032,19.531250
1033,21.484375
1034,21.484375
1035,21.484375
1036,21.484375
1037,21.484375
1038,21.484375
1039,23.437500
1040,23.437500
1041,23.437500
1042,25.390625
1043,25.390625
1044,25.390625
1045,25.390625
1046,25.390625
1047,27.343750
1048,27.343750
1049,27.343750
1050,27.343750
1051,27.343750
1052,29.296875
1053,29.296875
1054,29.296875
1055,29.296875
1056,31.250000
1057,31.250000
1058,31.250000
1059,31.250000
1060,31.250000
1061,33.203125
1062,33.203125
1063,33.203125
1064,33.203125
1065,33.203125
1066,35.156250
1067,35.156250
1068,35.156250
1069,35.156250
1070,35.156250
1071,37.109375
1072,37.109375
1073,37.109375
1074,37.109375
1075,37.109375
1076,39.062500
1077,39.062500
1078,39.062500
1079,39.062500
1080,39.062500
1081,39.062500
1082,41.015625
1083,41.015625
1084,41.015625
1085,41.015625
1086,41.015625
1087,41.015625
1088,42.968750
1089,42.968750
1090,42.968750
1091,42.968750
1092,42.968750
1093,42.968750
1094,44.921875
1095,44.921875
1096,44.921875
1097,44.921875
1098,44.921875
1099,46.875000
1100,46.875000
1101,46.875000
1102,46.875000
1103,46.875000
1104,46.875000
1105,48.828125
1106,48.828125
1107,48.828125
1108,48.828125
1109,48.828125
1110,48.828125
1111,50.781250
1112,50.781250
1113,48.828125
1114,50.781250
1115,50.781250
1116,50.781250
1117,50.781250
1118,52.734375
1119,52.734375
1120,52.734375
1121,52.734375
1122,52.734375
1123,52.734375
1124,54.687500
1125,52.734375
1126,52.734375
1127,54.687500
1128,54.687500
1129,54.687500
1130,54.687500
1131,54.687500
1132,56.640625
1133,54.687500
1134,56.640625
1135,56.640625
1136,56.640625
1137,56.640625
1138,56.640625
1139,56.640625
1140,58.593750
1141,56.640625
1142,58.593750
1143,58.593750
1144,58.593750
1145,58.593750
1146,58.593750
1147,58.593750
1148,56.640625
1149,58.593750
1150,58.593750
1151,58.593750
1152,60.546875
1153,60.546875
1154,58.593750
1155,60.546875
1156,60.546875
1157,60.546875
1158,60.546875
1159,60.546875
1160,60.546875
1161,60.546875
1162,60.546875
1163,60.546875
1164,60.546875
1165,62.500000
1166,60.546875
1167,60.546875
1168,60.546875
1169,60.546875
1170,60.546875
1171,62.500000
1172,62.500000
1173,62.500000
1174,62.500000
1175,62.500000
1176,62.500000
1177,62.500000
1178,62.500000
1179,62.500000
1180,62.500000
1181,62.500000
1182,62.500000
1183,62.500000
1184,62.500000
1185,62.500000
1186,64.453125
1187,64.453125
1188,62.500000
1189,64.453125
1190,64.453125
1191,64.453125
1192,64.453125
1193,64.453125
1194,62.500000
1195,64.453125
1196,64.453125
1197,64.453125
1198,64.453125
1199,64.453125
1200,64.453125
1201,64.453125
1202,66.406250
1203,64.453125
1204,64.453125
1205,64.453125
1206,64.453125
1207,64.453125
1208,64.453125
1209,64.453125
1210,64.453125
1211,64.453125
1212,64.453125
1213,64.453125
1214,62.500000
1215,64.453125
1216,64.453125
1217,64.453125
1218,64.453125
1219,62.500000
1220,62.500000
1221,62.500000
1222,62.500000
1223,62.500000
1224,64.453125
1225,62.500000
1226,62.500000
1227,62.500000
1228,62.500000
1229,62.500000
1230,62.500000
1231,62.500000
1232,62.500000
1233,62.500000
1234,62.500000
1235,62.500000
1236,60.546875
1237,62.500000
1238,60.546875
1239,62.500000
1240,62.500000
1241,60.546875
1242,62.500000
1243,62.500000
1244,60.546875
1245,60.546875
1246,60.546875
1247,60.546875
1248,58.593750
1249,60.546875
1250,60.546875
1251,60.546875
1252,60.546875
1253,58.593750
1254,60.546875
1255,58.593750
1256,58.593750
1257,58.593750
1258,58.593750
1259,58.593750
1260,58.593750
1261,58.593750
1262,58.593750
1263,56.640625
1264,58.593750
1265,56.640625
1266,56.640625
1267,56.640625
1268,56.640625
1269,56.640625
1270,56.640625
1271,54.687500
1272,56.640625
1273,56.640625
1274,54.687500
1275,54.687500
1276,54.687500
1277,54.687500
1278,52.734375
1279,54.687500
1280,52.734375
1281,52.734375
1282,52.734375
1283,54.687500
1284,52.734375
1285,52.734375
1286,52.734375
1287,52.734375
1288,50.781250
1289,50.781250
1290,50.781250
1291,50.781250
1292,50.781250
1293,50.781250
1294,48.828125
1295,48.828125
1296,48.828125
1297,48.828125
1298,48.828125
1299,48.828125
1300,48.828125
1301,48.828125
1302,46.875000
1303,46.875000
1304,46.875000
1305,46.875000
1306,44.921875
1307,44.921875
1308,44.921875
1309,44.921875
1310,44.921875
1311,44.921875
1312,44.921875
1313,42.968750
1314,42.968750
1315,42.968750
1316,42.968750
1317,42.968750
1318,41.015625
1319,42.968750
1320,41.015625
1321,41.015625
1322,41.015625
1323,41.015625
1324,39.062500
1325,39.062500
1326,39.062500
1327,39.062500
1328,39.062500
1329,39.062500
1330,37.109375
1331,37.109375
1332,37.109375
1333,37.109375
1334,35.156250
1335,35.156250
1336,35.156250
1337,37.109375
1338,35.156250
1339,35.156250
1340,33.203125
1341,33.203125
1342,33.203125
1343,33.203125
1344,31.250000
1345,31.250000
1346,31.250000
1347,31.250000
1348,29.296875
1349,29.296875
1350,29.296875
1351,29.296875
1352,29.296875
1353,27.343750
1354,27.343750
1355,27.343750
1356,27.343750
1357,25.390625
1358,25.390625
1359,25.390625
1360,25.390625
1361,25.390625
1362,23.437500
1363,23.437500
1364,23.437500
