Practicum8/data/opgave5/opgave5_1/data_80_001.csv

Channel              :,CH1
Frequency            :,1.200kHz
Period               :,0.833ms
PK-PK                :,492.2mV
Probe attenuation    :,1X
Voltage per ADC value:,0.244141mV
Time interval        :,2.00000us

index,CH1_Voltage(mV)
1,-58.593750
2,-58.593750
3,-54.687500
4,-50.781250
5,-46.875000
6,-42.968750
7,-39.062500
8,-35.156250
9,-31.250000
10,-27.343750
11,-23.437500
12,-19.531250
13,-15.625000
14,-11.718750
15,-7.812500
16,-3.906250
17,0.000000
18,3.906250
19,7.812500
20,7.812500
21,11.718750
22,15.625000
23,19.531250
24,23.437500
25,27.343750
26,31.250000
27,31.250000
28,35.156250
29,39.062500
30,42.968750
31,46.875000
32,50.781250
33,50.781250
34,54.687500
35,58.593750
36,62.500000
37,66.406250
38,66.406250
39,70.312500
40,70.312500
41,74.218750
42,78.125000
43,82.031250
44,82.031250
45,85.937500
46,89.843750
47,89.843750
48,93.750000
49,93.750000
50,97.656250
51,101.562500
52,101.562500
53,105.468750
54,105.468750
55,109.375000
56,109.375000
57,113.281250
58,113.281250
59,117.187500
60,117.187500
61,121.093750
62,121.093750
63,125.000000
64,125.000000
65,128.906250
66,128.906250
67,132.812500
68,132.812500
69,132.812500
70,136.718750
71,136.718750
72,136.718750
73,140.625000
74,140.625000
75,140.625000
76,144.531250
77,144.531250
78,144.531250
79,148.437500
80,148.437500
81,148.437500
82,148.437500
83,152.343750
84,152.343750
85,152.343750
86,152.343750
87,156.250000
88,156.250000
89,156.250000
90,156.250000
91,156.250000
92,156.250000
93,156.250000
94,160.156250
95,160.156250
96,160.156250
97,160.156250
98,160.156250
99,160.156250
100,160.156250
101,160.156250
102,164.062500
103,160.156250
104,164.062500
105,164.062500
106,160.156250
107,164.062500
108,164.062500
109,164.062500
110,164.062500
111,164.062500
112,164.062500
113,160.156250
114,164.062500
115,164.062500
116,160.156250
117,164.062500
118,160.156250
119,160.156250
120,160.156250
121,160.156250
122,160.156250
123,160.156250
124,160.156250
125,156.250000
126,156.250000
127,156.250000
128,156.250000
129,156.250000
130,156.250000
131,152.343750
132,152.343750
133,152.343750
134,152.343750
135,152.343750
136,148.437500
137,148.437500
138,148.437500
139,144.531250
140,144.531250
141,144.531250
142,144.531250
143,140.625000
144,140.625000
145,140.625000
146,136.718750
147,136.718750
148,136.718750
149,132.812500
150,132.812500
151,128.906250
152,128.906250
153,128.906250
154,125.000000
155,125.000000
156,121.093750
157,121.093750
158,117.187500
159,117.187500
160,113.281250
161,113.281250
162,109.375000
163,109.375000
164,105.468750
165,105.468750
166,101.562500
167,97.656250
168,97.656250
169,93.750000
170,93.750000
171,89.843750
172,89.843750
173,85.937500
174,82.031250
175,78.125000
176,78.125000
177,74.218750
178,70.312500
179,70.312500
180,66.406250
181,62.500000
182,58.593750
183,58.593750
184,54.687500
185,50.781250
186,50.781250
187,46.875000
188,42.968750
189,39.062500
190,35.156250
191,31.250000
192,27.343750
193,27.343750
194,23.437500
195,19.531250
196,15.625000
197,11.718750
198,7.812500
199,3.906250
200,0.000000
201,0.000000
202,-3.906250
203,-7.812500
204,-11.718750
205,-15.625000
206,-19.531250
207,-23.437500
208,-27.343750
209,-31.250000
210,-35.156250
211,-39.062500
212,-42.968750
213,-46.875000
214,-50.781250
215,-54.687500
216,-58.593750
217,-62.500000
218,-66.406250
219,-70.312500
220,-74.218750
221,-78.125000
222,-82.031250
223,-85.937500
224,-89.843750
225,-93.750000
226,-97.656250
227,-101.562500
228,-105.468750
229,-109.375000
230,-113.281250
231,-117.187500
232,-121.093750
233,-125.000000
234,-128.906250
235,-132.812500
236,-136.718750
237,-140.625000
238,-144.531250
239,-148.437500
240,-152.343750
241,-156.250000
242,-160.156250
243,-164.062500
244,-167.968750
245,-171.875000
246,-175.781250
247,-179.687500
248,-179.687500
249,-187.500000
250,-187.500000
251,-191.406250
252,-195.312500
253,-199.218750
254,-203.125000
255,-207.031250
256,-210.937500
257,-210.937500
258,-214.843750
259,-218.750000
260,-222.656250
261,-226.562500
262,-226.562500
263,-230.468750
264,-234.375000
265,-238.281250
266,-242.187500
267,-242.187500
268,-246.093750
269,-250.000000
270,-253.906250
271,-253.906250
272,-257.812500
273,-261.718750
274,-261.718750
275,-265.625000
276,-269.531250
277,-269.531250
278,-273.437500
279,-273.437500
280,-277.343750
281,-281.250000
282,-281.250000
283,-285.156250
284,-285.156250
285,-289.062500
286,-289.062500
287,-292.968750
288,-292.968750
289,-296.875000
290,-296.875000
291,-300.781250
292,-300.781250
293,-304.687500
294,-304.687500
295,-304.687500
296,-308.593750
297,-308.593750
298,-308.593750
299,-312.500000
300,-312.500000
301,-312.500000
302,-316.406250
303,-316.406250
304,-316.406250
305,-316.406250
306,-316.406250
307,-316.406250
308,-320.312500
309,-320.312500
310,-320.312500
311,-320.312500
312,-320.312500
313,-320.312500
314,-320.312500
315,-320.312500
316,-320.312500
317,-320.312500
318,-320.312500
319,-320.312500
320,-320.312500
321,-320.312500
322,-320.312500
323,-320.312500
324,-320.312500
325,-320.312500
326,-320.312500
327,-320.312500
328,-316.406250
329,-316.406250
330,-316.406250
331,-316.406250
332,-316.406250
333,-312.500000
334,-312.500000
335,-312.500000
336,-312.500000
337,-308.593750
338,-308.593750
339,-308.593750
340,-304.687500
341,-304.687500
342,-300.781250
343,-300.781250
344,-300.781250
345,-296.875000
346,-296.875000
347,-292.968750
348,-292.968750
349,-292.968750
350,-289.062500
351,-285.156250
352,-285.156250
353,-281.250000
354,-281.250000
355,-277.343750
356,-277.343750
357,-273.437500
358,-269.531250
359,-269.531250
360,-265.625000
361,-261.718750
362,-261.718750
363,-257.812500
364,-257.812500
365,-253.906250
366,-250.000000
367,-246.093750
368,-246.093750
369,-242.187500
370,-238.281250
371,-234.375000
372,-230.468750
373,-230.468750
374,-226.562500
375,-222.656250
376,-218.750000
377,-214.843750
378,-210.937500
379,-210.937500
380,-207.031250
381,-203.125000
382,-199.218750
383,-195.312500
384,-191.406250
385,-187.500000
386,-183.593750
387,-179.687500
388,-175.781250
389,-171.875000
390,-167.968750
391,-164.062500
392,-160.156250
393,-156.250000
394,-156.250000
395,-152.343750
396,-144.531250
397,-144.531250
398,-140.625000
399,-136.718750
400,-132.812500
401,-125.000000
402,-125.000000
403,-117.187500
404,-117.187500
405,-113.281250
406,-105.468750
407,-105.468750
408,-101.562500
409,-97.656250
410,-89.843750
411,-85.937500
412,-82.031250
413,-78.125000
414,-74.218750
415,-70.312500
416,-66.406250
417,-62.500000
418,-62.500000
419,-54.687500
420,-50.781250
421,-46.875000
422,-42.968750
423,-39.062500
424,-39.062500
425,-31.250000
426,-27.343750
427,-27.343750
428,-19.531250
429,-19.531250
430,-15.625000
431,-11.718750
432,-7.812500
433,-3.906250
434,0.000000
435,3.906250
436,7.812500
437,11.718750
438,15.625000
439,15.625000
440,19.531250
441,23.437500
442,27.343750
443,31.250000
444,35.156250
445,39.062500
446,42.968750
447,42.968750
448,46.875000
449,50.781250
450,54.687500
451,54.687500
452,58.593750
453,62.500000
454,66.406250
455,66.406250
456,70.312500
457,74.218750
458,74.218750
459,78.125000
460,82.031250
461,85.937500
462,85.937500
463,89.843750
464,89.843750
465,93.750000
466,97.656250
467,97.656250
468,101.562500
469,101.562500
470,105.468750
471,109.375000
472,109.375000
473,113.281250
474,113.281250
475,117.187500
476,117.187500
477,121.093750
478,121.093750
479,125.000000
480,125.000000
481,125.000000
482,128.906250
483,128.906250
484,132.812500
485,132.812500
486,132.812500
487,136.718750
488,136.718750
489,136.718750
490,140.625000
491,140.625000
492,144.531250
493,144.531250
494,144.531250
495,148.437500
496,148.437500
497,148.437500
498,148.437500
499,148.437500
500,152.343750
501,152.343750
502,152.343750
503,152.343750
504,156.250000
505,156.250000
506,156.250000
507,156.250000
508,156.250000
509,156.250000
510,160.156250
511,160.156250
512,160.156250
513,160.156250
514,160.156250
515,160.156250
516,160.156250
517,160.156250
518,160.156250
519,160.156250
520,164.062500
521,164.062500
522,164.062500
523,164.062500
524,164.062500
525,164.062500
526,164.062500
527,164.062500
528,160.156250
529,164.062500
530,160.156250
531,164.062500
532,164.062500
533,160.156250
534,160.156250
535,160.156250
536,160.156250
537,160.156250
538,160.156250
539,160.156250
540,160.156250
541,156.250000
542,156.250000
543,156.250000
544,156.250000
545,156.250000
546,156.250000
547,152.343750
548,152.343750
549,152.343750
550,152.343750
551,152.343750
552,152.343750
553,148.437500
554,148.437500
555,148.437500
556,148.437500
557,144.531250
558,144.531250
559,144.531250
560,140.625000
561,140.625000
562,140.625000
563,136.718750
564,136.718750
565,136.718750
566,132.812500
567,132.812500
568,128.906250
569,128.906250
570,128.906250
571,125.000000
572,125.000000
573,121.093750
574,121.093750
575,117.187500
576,117.187500
577,113.281250
578,113.281250
579,109.375000
580,109.375000
581,105.468750
582,105.468750
583,101.562500
584,101.562500
585,97.656250
586,93.750000
587,93.750000
588,89.843750
589,85.937500
590,85.937500
591,82.031250
592,78.125000
593,78.125000
594,74.218750
595,70.312500
596,70.312500
597,66.406250
598,62.500000
599,58.593750
600,58.593750
601,54.687500
602,50.781250
603,46.875000
604,46.875000
605,42.968750
606,39.062500
607,35.156250
608,31.250000
609,27.343750
610,23.437500
611,23.437500
612,19.531250
613,15.625000
614,11.718750
615,7.812500
616,3.906250
617,0.000000
618,-3.906250
619,-7.812500
620,-7.812500
621,-11.718750
622,-15.625000
623,-19.531250
624,-23.437500
625,-27.343750
626,-31.250000
627,-35.156250
628,-39.062500
629,-42.968750
630,-46.875000
631,-50.781250
632,-54.687500
633,-58.593750
634,-62.500000
635,-66.406250
636,-70.312500
637,-74.218750
638,-78.125000
639,-82.031250
640,-85.937500
641,-89.843750
642,-93.750000
643,-97.656250
644,-101.562500
645,-105.468750
646,-109.375000
647,-113.281250
648,-117.187500
649,-121.093750
650,-125.000000
651,-128.906250
652,-132.812500
653,-136.718750
654,-140.625000
655,-144.531250
656,-148.437500
657,-152.343750
658,-156.250000
659,-160.156250
660,-164.062500
661,-167.968750
662,-171.875000
663,-175.781250
664,-179.687500
665,-183.593750
666,-187.500000
667,-187.500000
668,-191.406250
669,-195.312500
670,-199.218750
671,-203.125000
672,-207.031250
673,-210.937500
674,-214.843750
675,-214.843750
676,-218.750000
677,-222.656250
678,-226.562500
679,-230.468750
680,-234.375000
681,-234.375000
682,-238.281250
683,-242.187500
684,-246.093750
685,-246.093750
686,-250.000000
687,-253.906250
688,-257.812500
689,-257.812500
690,-261.718750
691,-265.625000
692,-265.625000
693,-269.531250
694,-273.437500
695,-273.437500
696,-277.343750
697,-277.343750
698,-281.250000
699,-281.250000
700,-285.156250
701,-289.062500
702,-289.062500
703,-292.968750
704,-292.968750
705,-292.968750
706,-296.875000
707,-296.875000
708,-300.781250
709,-300.781250
710,-304.687500
711,-304.687500
712,-304.687500
713,-308.593750
714,-308.593750
715,-308.593750
716,-312.500000
717,-312.500000
718,-312.500000
719,-316.406250
720,-316.406250
721,-316.406250
722,-316.406250
723,-316.406250
724,-320.312500
725,-320.312500
726,-320.312500
727,-320.312500
728,-320.312500
729,-320.312500
730,-320.312500
731,-324.218750
732,-324.218750
733,-324.218750
734,-324.218750
735,-320.312500
736,-324.218750
737,-320.312500
738,-320.312500
739,-320.312500
740,-320.312500
741,-320.312500
742,-320.312500
743,-320.312500
744,-320.312500
745,-316.406250
746,-316.406250
747,-316.406250
748,-316.406250
749,-316.406250
750,-312.500000
751,-312.500000
752,-312.500000
753,-312.500000
754,-308.593750
755,-308.593750
756,-308.593750
757,-304.687500
758,-304.687500
759,-300.781250
760,-300.781250
761,-300.781250
762,-296.875000
763,-296.875000
764,-296.875000
765,-292.968750
766,-289.062500
767,-289.062500
768,-289.062500
769,-285.156250
770,-281.250000
771,-281.250000
772,-277.343750
773,-277.343750
774,-273.437500
775,-273.437500
776,-269.531250
777,-265.625000
778,-261.718750
779,-261.718750
780,-257.812500
781,-253.906250
782,-253.906250
783,-250.000000
784,-246.093750
785,-242.187500
786,-242.187500
787,-238.281250
788,-234.375000
789,-230.468750
790,-230.468750
791,-226.562500
792,-222.656250
793,-218.750000
794,-214.843750
795,-210.937500
796,-210.937500
797,-203.125000
798,-203.125000
799,-199.218750
800,-195.312500
801,-191.406250
802,-187.500000
803,-183.593750
804,-179.687500
805,-175.781250
806,-171.875000
807,-167.968750
808,-167.968750
809,-164.062500
810,-156.250000
811,-156.250000
812,-152.343750
813,-148.437500
814,-140.625000
815,-140.625000
816,-136.718750
817,-132.812500
818,-125.000000
819,-125.000000
820,-117.187500
821,-113.281250
822,-113.281250
823,-105.468750
824,-101.562500
825,-97.656250
826,-93.750000
827,-89.843750
828,-85.937500
829,-82.031250
830,-78.125000
831,-74.218750
832,-70.312500
833,-66.406250
834,-62.500000
835,-58.593750
836,-54.687500
837,-50.781250
838,-46.875000
839,-42.968750
840,-39.062500
841,-35.156250
842,-31.250000
843,-31.250000
844,-23.437500
845,-23.437500
846,-15.625000
847,-15.625000
848,-11.718750
849,-7.812500
850,-3.906250
851,0.000000
852,3.906250
853,7.812500
854,11.718750
855,15.625000
856,19.531250
857,19.531250
858,23.437500
859,27.343750
860,31.250000
861,35.156250
862,39.062500
863,42.968750
864,42.968750
865,46.875000
866,50.781250
867,54.687500
868,58.593750
869,58.593750
870,62.500000
871,66.406250
872,70.312500
873,70.312500
874,74.218750
875,78.125000
876,78.125000
877,82.031250
878,85.937500
879,85.937500
880,89.843750
881,89.843750
882,93.750000
883,97.656250
884,97.656250
885,101.562500
886,101.562500
887,105.468750
888,109.375000
889,109.375000
890,113.281250
891,113.281250
892,117.187500
893,117.187500
894,121.093750
895,121.093750
896,125.000000
897,125.000000
898,125.000000
899,128.906250
900,128.906250
901,132.812500
902,132.812500
903,136.718750
904,136.718750
905,136.718750
906,140.625000
907,140.625000
908,140.625000
909,140.625000
910,144.531250
911,144.531250
912,148.437500
913,148.437500
914,148.437500
915,148.437500
916,152.343750
917,152.343750
918,152.343750
919,152.343750
920,152.343750
921,156.250000
922,156.250000
923,156.250000
924,156.250000
925,156.250000
926,160.156250
927,160.156250
928,160.156250
929,160.156250
930,160.156250
931,160.156250
932,160.156250
933,160.156250
934,160.156250
935,160.156250
936,160.156250
937,160.156250
938,164.062500
939,164.062500
940,164.062500
941,164.062500
942,164.062500
943,164.062500
944,164.062500
945,160.156250
946,164.062500
947,164.062500
948,164.062500
949,164.062500
950,160.156250
951,164.062500
952,160.156250
953,160.156250
954,160.156250
955,160.156250
956,160.156250
957,160.156250
958,160.156250
959,160.156250
960,156.250000
961,156.250000
962,156.250000
963,156.250000
964,156.250000
965,156.250000
966,152.343750
967,152.343750
968,152.343750
969,152.343750
970,148.437500
971,148.437500
972,144.531250
973,148.437500
974,144.531250
975,144.531250
976,144.531250
977,140.625000
978,140.625000
979,140.625000
980,136.718750
981,136.718750
982,136.718750
983,132.812500
984,132.812500
985,128.906250
986,128.906250
987,128.906250
988,125.000000
989,125.000000
990,121.093750
991,121.093750
992,117.187500
993,117.187500
994,113.281250
995,113.281250
996,109.375000
997,109.375000
998,105.468750
999,105.468750
1000,101.562500
1001,97.656250
1002,97.656250
1003,93.750000
1004,93.750000
1005,89.843750
1006,85.937500
1007,82.031250
1008,82.031250
1009,78.125000
1010,78.125000
1011,74.218750
1012,70.312500
1013,70.312500
1014,66.406250
1015,62.500000
1016,58.593750
1017,58.593750
1018,54.687500
1019,50.781250
1020,46.875000
1021,42.968750
1022,42.968750
1023,39.062500
1024,35.156250
1025,31.250000
1026,27.343750
1027,23.437500
1028,23.437500
1029,19.531250
1030,15.625000
1031,11.718750
1032,7.812500
1033,3.906250
1034,0.000000
1035,-3.906250
1036,-7.812500
1037,-11.718750
1038,-11.718750
1039,-15.625000
1040,-19.531250
1041,-23.437500
1042,-27.343750
1043,-31.250000
1044,-35.156250
1045,-39.062500
1046,-42.968750
1047,-46.875000
1048,-50.781250
1049,-54.687500
1050,-58.593750
1051,-62.500000
1052,-66.406250
1053,-70.312500
1054,-74.218750
1055,-78.125000
1056,-82.031250
1057,-85.937500
1058,-89.843750
1059,-93.750000
1060,-97.656250
1061,-101.562500
1062,-105.468750
1063,-109.375000
1064,-113.281250
1065,-117.187500
1066,-121.093750
1067,-125.000000
1068,-128.906250
1069,-132.812500
1070,-136.718750
1071,-140.625000
1072,-144.531250
1073,-148.437500
1074,-152.343750
1075,-156.250000
1076,-160.156250
1077,-164.062500
1078,-167.968750
1079,-171.875000
1080,-175.781250
1081,-179.687500
1082,-183.593750
1083,-187.500000
1084,-187.500000
1085,-191.406250
1086,-195.312500
1087,-199.218750
1088,-203.125000
1089,-207.031250
1090,-210.937500
1091,-214.843750
1092,-218.750000
1093,-218.750000
1094,-222.656250
1095,-226.562500
1096,-230.468750
1097,-234.375000
1098,-238.281250
1099,-238.281250
1100,-242.187500
1101,-246.093750
1102,-250.000000
1103,-250.000000
1104,-253.906250
1105,-257.812500
1106,-257.812500
1107,-261.718750
1108,-265.625000
1109,-265.625000
1110,-269.531250
1111,-273.437500
1112,-273.437500
1113,-277.343750
1114,-277.343750
1115,-281.250000
1116,-285.156250
1117,-285.156250
1118,-289.062500
1119,-289.062500
1120,-292.968750
1121,-292.968750
1122,-296.875000
1123,-296.875000
1124,-296.875000
1125,-300.781250
1126,-300.781250
1127,-304.687500
1128,-304.687500
1129,-308.593750
1130,-308.593750
1131,-308.593750
1132,-308.593750
1133,-312.500000
1134,-312.500000
1135,-312.500000
1136,-316.406250
1137,-316.406250
1138,-316.406250
1139,-316.406250
1140,-316.406250
1141,-320.312500
1142,-320.312500
1143,-320.312500
1144,-320.312500
1145,-320.312500
1146,-320.312500
1147,-320.312500
1148,-320.312500
1149,-320.312500
1150,-324.218750
1151,-320.312500
1152,-320.312500
1153,-320.312500
1154,-320.312500
1155,-320.312500
1156,-320.312500
1157,-320.312500
1158,-320.312500
1159,-320.312500
1160,-320.312500
1161,-320.312500
1162,-316.406250
1163,-316.406250
1164,-316.406250
1165,-316.406250
1166,-316.406250
1167,-316.406250
1168,-312.500000
1169,-312.500000
1170,-312.500000
1171,-308.593750
1172,-308.593750
1173,-308.593750
1174,-304.687500
1175,-304.687500
1176,-304.687500
1177,-300.781250
1178,-300.781250
1179,-296.875000
1180,-296.875000
1181,-292.968750
1182,-292.968750
1183,-289.062500
1184,-289.062500
1185,-289.062500
1186,-285.156250
1187,-281.250000
1188,-281.250000
1189,-277.343750
1190,-273.437500
1191,-273.437500
1192,-273.437500
1193,-269.531250
1194,-265.625000
1195,-265.625000
1196,-261.718750
1197,-257.812500
1198,-257.812500
1199,-253.906250
1200,-250.000000
1201,-246.093750
1202,-242.187500
1203,-242.187500
1204,-238.281250
1205,-234.375000
1206,-234.375000
1207,-230.468750
1208,-226.562500
1209,-222.656250
1210,-218.750000
1211,-214.843750
1212,-210.937500
1213,-207.031250
1214,-207.031250
1215,-203.125000
1216,-199.218750
1217,-195.312500
1218,-191.406250
1219,-187.500000
1220,-183.593750
1221,-179.687500
1222,-175.781250
1223,-171.875000
1224,-167.968750
1225,-164.062500
1226,-160.156250
1227,-156.250000
1228,-152.343750
1229,-148.437500
1230,-144.531250
1231,-140.625000
1232,-136.718750
1233,-132.812500
1234,-128.906250
1235,-125.000000
1236,-121.093750
1237,-117.187500
1238,-113.281250
1239,-109.375000
1240,-105.468750
1241,-101.562500
1242,-97.656250
1243,-93.750000
1244,-89.843750
1245,-85.937500
1246,-82.031250
1247,-78.125000
1248,-74.218750
1249,-70.312500
1250,-66.406250
1251,-62.500000
1252,-58.593750
1253,-54.687500
1254,-50.781250
1255,-46.875000
1256,-42.968750
1257,-39.062500
1258,-35.156250
1259,-31.250000
1260,-31.250000
1261,-23.437500
1262,-19.531250
1263,-19.531250
1264,-15.625000
1265,-11.718750
1266,-7.812500
1267,-3.906250
1268,0.000000
1269,3.906250
1270,11.718750
1271,11.718750
1272,15.625000
1273,19.531250
1274,19.531250
1275,23.437500
1276,27.343750
1277,31.250000
1278,35.156250
1279,39.062500
1280,39.062500
1281,42.968750
1282,46.875000
1283,50.781250
1284,54.687500
1285,54.687500
1286,58.593750
