Practicum8/data/opgave2/opgave2_3/data_74_018.csv

Channel              :,CH1
Frequency            :,  ?
Period               :,  ?
PK-PK                :,35.16mV
Probe attenuation    :,1X
Voltage per ADC value:,0.244141mV
Time interval        :,1.00000us

index,CH1_Voltage(mV)
1,-7.812500
2,-7.812500
3,-7.812500
4,-7.812500
5,-7.812500
6,-7.812500
7,-7.812500
8,-7.812500
9,-7.812500
10,-7.812500
11,-7.812500
12,-7.812500
13,-7.812500
14,-7.812500
15,-7.812500
16,-7.812500
17,-7.812500
18,-7.812500
19,-7.812500
20,-7.812500
21,-7.812500
22,-7.812500
23,-7.812500
24,-7.812500
25,-7.812500
26,-7.812500
27,-7.812500
28,-3.906250
29,-3.906250
30,-3.906250
31,-3.906250
32,-3.906250
33,-3.906250
34,-3.906250
35,-7.812500
36,-3.906250
37,-7.812500
38,-3.906250
39,-3.906250
40,-3.906250
41,-3.906250
42,-3.906250
43,-3.906250
44,-3.906250
45,-3.906250
46,-3.906250
47,-3.906250
48,-3.906250
49,-3.906250
50,-3.906250
51,-3.906250
52,-3.906250
53,-3.906250
54,-3.906250
55,-3.906250
56,-3.906250
57,-3.906250
58,-3.906250
59,-3.906250
60,-3.906250
61,-3.906250
62,-3.906250
63,-3.906250
64,-3.906250
65,-3.906250
66,-3.906250
67,-3.906250
68,-3.906250
69,-3.906250
70,-3.906250
71,-3.906250
72,-3.906250
73,-3.906250
74,-3.906250
75,-3.906250
76,-3.906250
77,-3.906250
78,-3.906250
79,-3.906250
80,-3.906250
81,-3.906250
82,-3.906250
83,-3.906250
84,-3.906250
85,-3.906250
86,-3.906250
87,-3.906250
88,-3.906250
89,-3.906250
90,-3.906250
91,-3.906250
92,-3.906250
93,-3.906250
94,-3.906250
95,-3.906250
96,0.000000
97,-3.906250
98,0.000000
99,0.000000
100,-3.906250
101,-3.906250
102,-3.906250
103,-3.906250
104,-3.906250
105,0.000000
106,0.000000
107,0.000000
108,0.000000
109,0.000000
110,0.000000
111,0.000000
112,-3.906250
113,0.000000
114,-3.906250
115,-3.906250
116,0.000000
117,0.000000
118,0.000000
119,-3.906250
120,0.000000
121,0.000000
122,0.000000
123,0.000000
124,0.000000
125,0.000000
126,0.000000
127,0.000000
128,0.000000
129,0.000000
130,0.000000
131,0.000000
132,0.000000
133,0.000000
134,0.000000
135,-3.906250
136,0.000000
137,0.000000
138,0.000000
139,0.000000
140,-3.906250
141,0.000000
142,0.000000
143,0.000000
144,0.000000
145,0.000000
146,0.000000
147,0.000000
148,0.000000
149,0.000000
150,0.000000
151,0.000000
152,0.000000
153,0.000000
154,0.000000
155,0.000000
156,0.000000
157,0.000000
158,0.000000
159,0.000000
160,0.000000
161,0.000000
162,0.000000
163,0.000000
164,0.000000
165,0.000000
166,0.000000
167,0.000000
168,0.000000
169,0.000000
170,0.000000
171,0.000000
172,0.000000
173,0.000000
174,0.000000
175,0.000000
176,0.000000
177,0.000000
178,0.000000
179,0.000000
180,0.000000
181,0.000000
182,0.000000
183,0.000000
184,0.000000
185,0.000000
186,0.000000
187,0.000000
188,0.000000
189,0.000000
190,0.000000
191,0.000000
192,0.000000
193,0.000000
194,0.000000
195,0.000000
196,0.000000
197,0.000000
198,0.000000
199,0.000000
200,0.000000
201,0.000000
202,0.000000
203,0.000000
204,0.000000
205,0.000000
206,0.000000
207,0.000000
208,0.000000
209,0.000000
210,0.000000
211,0.000000
212,0.000000
213,0.000000
214,0.000000
215,0.000000
216,0.000000
217,0.000000
218,0.000000
219,0.000000
220,0.000000
221,0.000000
222,0.000000
223,0.000000
224,0.000000
225,0.000000
226,0.000000
227,0.000000
228,0.000000
229,0.000000
230,0.000000
231,0.000000
232,0.000000
233,0.000000
234,0.000000
235,0.000000
236,0.000000
237,0.000000
238,0.000000
239,0.000000
240,0.000000
241,0.000000
242,0.000000
243,0.000000
244,0.000000
245,0.000000
246,0.000000
247,0.000000
248,0.000000
249,0.000000
250,0.000000
251,0.000000
252,0.000000
253,0.000000
254,0.000000
255,0.000000
256,0.000000
257,0.000000
258,0.000000
259,0.000000
260,0.000000
261,0.000000
262,0.000000
263,0.000000
264,0.000000
265,0.000000
266,0.000000
267,-3.906250
268,0.000000
269,0.000000
270,0.000000
271,0.000000
272,0.000000
273,0.000000
274,0.000000
275,0.000000
276,0.000000
277,0.000000
278,-3.906250
279,0.000000
280,0.000000
281,0.000000
282,0.000000
283,0.000000
284,0.000000
285,0.000000
286,0.000000
287,0.000000
288,0.000000
289,0.000000
290,-3.906250
291,-3.906250
292,-3.906250
293,0.000000
294,0.000000
295,0.000000
296,0.000000
297,-3.906250
298,-3.906250
299,-3.906250
300,-3.906250
301,-3.906250
302,-3.906250
303,-3.906250
304,-3.906250
305,-3.906250
306,-3.906250
307,-3.906250
308,-7.812500
309,-3.906250
310,-3.906250
311,-3.906250
312,-3.906250
313,-3.906250
314,-3.906250
315,-3.906250
316,-3.906250
317,-3.906250
318,-3.906250
319,-3.906250
320,-3.906250
321,-3.906250
322,-3.906250
323,-3.906250
324,-3.906250
325,-3.906250
326,-3.906250
327,-3.906250
328,-3.906250
329,-3.906250
330,-3.906250
331,-3.906250
332,-3.906250
333,-3.906250
334,-3.906250
335,-3.906250
336,-3.906250
337,-3.906250
338,-3.906250
339,-3.906250
340,-3.906250
341,-3.906250
342,0.000000
343,-3.906250
344,-3.906250
345,-3.906250
346,-3.906250
347,-3.906250
348,-3.906250
349,-7.812500
350,-7.812500
351,-3.906250
352,-7.812500
353,-7.812500
354,-7.812500
355,-7.812500
356,-7.812500
357,-7.812500
358,-7.812500
359,-7.812500
360,-7.812500
361,-7.812500
362,-7.812500
363,-7.812500
364,-7.812500
365,-7.812500
366,-7.812500
367,-7.812500
368,-7.812500
369,-7.812500
370,-7.812500
371,-3.906250
372,-7.812500
373,-7.812500
374,-7.812500
375,-7.812500
376,-7.812500
377,-7.812500
378,-7.812500
379,-7.812500
380,-7.812500
381,-7.812500
382,-7.812500
383,-7.812500
384,-7.812500
385,-7.812500
386,-7.812500
387,-7.812500
388,-7.812500
389,-7.812500
390,-7.812500
391,-7.812500
392,-7.812500
393,-7.812500
394,-7.812500
395,-11.718750
396,-7.812500
397,-7.812500
398,-7.812500
399,-7.812500
400,-7.812500
401,-7.812500
402,-7.812500
403,-11.718750
404,-11.718750
405,-11.718750
406,-11.718750
407,-11.718750
408,-11.718750
409,-11.718750
410,-11.718750
411,-11.718750
412,-11.718750
413,-11.718750
414,-11.718750
415,-11.718750
416,-11.718750
417,-11.718750
418,-11.718750
419,-11.718750
420,-11.718750
421,-11.718750
422,-11.718750
423,-11.718750
424,-11.718750
425,-11.718750
426,-11.718750
427,-11.718750
428,-11.718750
429,-11.718750
430,-11.718750
431,-11.718750
432,-11.718750
433,-11.718750
434,-11.718750
435,-11.718750
436,-11.718750
437,-11.718750
438,-11.718750
439,-11.718750
440,-15.625000
441,-15.625000
442,-15.625000
443,-15.625000
444,-15.625000
445,-15.625000
446,-15.625000
447,-15.625000
448,-15.625000
449,-15.625000
450,-15.625000
451,-15.625000
452,-15.625000
453,-15.625000
454,-15.625000
455,-15.625000
456,-15.625000
457,-15.625000
458,-15.625000
459,-15.625000
460,-15.625000
461,-15.625000
462,-15.625000
463,-15.625000
464,-15.625000
465,-15.625000
466,-15.625000
467,-15.625000
468,-15.625000
469,-15.625000
470,-15.625000
471,-15.625000
472,-15.625000
473,-19.531250
474,-15.625000
475,-15.625000
476,-15.625000
477,-15.625000
478,-15.625000
479,-15.625000
480,-15.625000
481,-19.531250
482,-19.531250
483,-19.531250
484,-19.531250
485,-19.531250
486,-19.531250
487,-19.531250
488,-19.531250
489,-19.531250
490,-19.531250
491,-19.531250
492,-19.531250
493,-19.531250
494,-19.531250
495,-19.531250
496,-19.531250
497,-19.531250
498,-19.531250
499,-19.531250
500,-19.531250
501,-19.531250
502,-19.531250
503,-19.531250
504,-19.531250
505,-19.531250
506,-19.531250
507,-19.531250
508,-19.531250
509,-19.531250
510,-19.531250
511,-19.531250
512,-19.531250
513,-19.531250
514,-19.531250
515,-19.531250
516,-19.531250
517,-19.531250
518,-19.531250
519,-19.531250
520,-19.531250
521,-19.531250
522,-19.531250
523,-19.531250
524,-19.531250
525,-19.531250
526,-19.531250
527,-23.437500
528,-23.437500
529,-23.437500
530,-23.437500
531,-23.437500
532,-23.437500
533,-23.437500
534,-23.437500
535,-23.437500
536,-23.437500
537,-23.437500
538,-23.437500
539,-23.437500
540,-23.437500
541,-23.437500
542,-23.437500
543,-23.437500
544,-23.437500
545,-23.437500
546,-23.437500
547,-23.437500
548,-23.437500
549,-23.437500
550,-23.437500
551,-23.437500
552,-23.437500
553,-23.437500
554,-23.437500
555,-23.437500
556,-23.437500
557,-23.437500
558,-23.437500
559,-23.437500
560,-23.437500
561,-23.437500
562,-23.437500
563,-23.437500
564,-23.437500
565,-23.437500
566,-23.437500
567,-23.437500
568,-23.437500
569,-23.437500
570,-23.437500
571,-23.437500
572,-23.437500
573,-23.437500
574,-23.437500
575,-23.437500
576,-23.437500
577,-23.437500
578,-23.437500
579,-23.437500
580,-27.343750
581,-27.343750
582,-27.343750
583,-23.437500
584,-23.437500
585,-23.437500
586,-23.437500
587,-23.437500
588,-23.437500
589,-23.437500
590,-27.343750
591,-27.343750
592,-27.343750
593,-27.343750
594,-27.343750
595,-27.343750
596,-23.437500
597,-23.437500
598,-23.437500
599,-27.343750
600,-27.343750
601,-27.343750
602,-27.343750
603,-27.343750
604,-27.343750
605,-27.343750
606,-27.343750
607,-27.343750
608,-27.343750
609,-27.343750
610,-27.343750
611,-27.343750
612,-27.343750
613,-27.343750
614,-27.343750
615,-27.343750
616,-27.343750
617,-27.343750
618,-27.343750
619,-27.343750
620,-27.343750
621,-27.343750
622,-27.343750
623,-27.343750
624,-27.343750
625,-27.343750
626,-27.343750
627,-27.343750
628,-27.343750
629,-27.343750
630,-27.343750
631,-27.343750
632,-27.343750
633,-27.343750
634,-27.343750
635,-27.343750
636,-27.343750
637,-27.343750
638,-27.343750
639,-27.343750
640,-27.343750
641,-27.343750
642,-27.343750
643,-27.343750
644,-27.343750
645,-27.343750
646,-27.343750
647,-27.343750
648,-27.343750
649,-27.343750
650,-27.343750
651,-27.343750
652,-27.343750
653,-27.343750
654,-27.343750
655,-27.343750
656,-27.343750
657,-27.343750
658,-27.343750
659,-27.343750
660,-27.343750
661,-27.343750
662,-27.343750
663,-27.343750
664,-27.343750
665,-27.343750
666,-27.343750
667,-27.343750
668,-27.343750
669,-27.343750
670,-27.343750
671,-27.343750
672,-27.343750
673,-27.343750
674,-27.343750
675,-27.343750
676,-27.343750
677,-27.343750
678,-27.343750
679,-27.343750
680,-27.343750
681,-27.343750
682,-27.343750
683,-27.343750
684,-27.343750
685,-27.343750
686,-27.343750
687,-27.343750
688,-27.343750
689,-27.343750
690,-27.343750
691,-27.343750
692,-27.343750
693,-27.343750
694,-27.343750
695,-27.343750
696,-27.343750
697,-27.343750
698,-27.343750
699,-27.343750
700,-27.343750
701,-27.343750
702,-27.343750
703,-27.343750
704,-27.343750
705,-27.343750
706,-27.343750
707,-27.343750
708,-27.343750
709,-27.343750
710,-27.343750
711,-27.343750
712,-27.343750
713,-27.343750
714,-27.343750
715,-27.343750
716,-27.343750
717,-27.343750
718,-27.343750
719,-27.343750
720,-27.343750
721,-27.343750
722,-27.343750
723,-27.343750
724,-27.343750
725,-27.343750
726,-27.343750
727,-27.343750
728,-27.343750
729,-27.343750
730,-27.343750
731,-27.343750
732,-27.343750
733,-27.343750
734,-27.343750
735,-27.343750
736,-27.343750
737,-23.437500
738,-27.343750
739,-27.343750
740,-23.437500
741,-27.343750
742,-27.343750
743,-27.343750
744,-27.343750
745,-27.343750
746,-23.437500
747,-23.437500
748,-27.343750
749,-23.437500
750,-23.437500
751,-27.343750
752,-27.343750
753,-23.437500
754,-23.437500
755,-23.437500
756,-23.437500
757,-23.437500
758,-23.437500
759,-23.437500
760,-23.437500
761,-23.437500
762,-23.437500
763,-23.437500
764,-23.437500
765,-23.437500
766,-23.437500
767,-23.437500
768,-23.437500
769,-23.437500
770,-23.437500
771,-23.437500
772,-23.437500
773,-23.437500
774,-23.437500
775,-23.437500
776,-23.437500
777,-23.437500
778,-23.437500
779,-23.437500
780,-23.437500
781,-23.437500
782,-23.437500
783,-23.437500
784,-23.437500
785,-23.437500
786,-23.437500
787,-23.437500
788,-23.437500
789,-23.437500
790,-23.437500
791,-23.437500
792,-23.437500
793,-23.437500
794,-23.437500
795,-23.437500
796,-23.437500
797,-23.437500
798,-23.437500
799,-23.437500
800,-23.437500
801,-23.437500
802,-23.437500
803,-23.437500
804,-23.437500
805,-23.437500
806,-23.437500
807,-23.437500
808,-19.531250
809,-23.437500
810,-19.531250
811,-19.531250
812,-23.437500
813,-19.531250
814,-19.531250
815,-19.531250
816,-19.531250
817,-19.531250
818,-19.531250
819,-19.531250
820,-19.531250
821,-19.531250
822,-19.531250
823,-19.531250
824,-19.531250
825,-19.531250
826,-19.531250
827,-19.531250
828,-19.531250
829,-19.531250
830,-19.531250
831,-19.531250
832,-19.531250
833,-19.531250
834,-19.531250
835,-19.531250
836,-19.531250
837,-19.531250
838,-19.531250
839,-19.531250
840,-19.531250
841,-19.531250
842,-19.531250
843,-19.531250
844,-19.531250
845,-19.531250
846,-19.531250
847,-19.531250
848,-19.531250
849,-19.531250
850,-19.531250
851,-19.531250
852,-19.531250
853,-19.531250
854,-19.531250
855,-19.531250
856,-15.625000
857,-19.531250
858,-19.531250
859,-19.531250
860,-19.531250
861,-19.531250
862,-19.531250
863,-19.531250
864,-15.625000
865,-15.625000
866,-19.531250
867,-15.625000
868,-15.625000
869,-15.625000
870,-15.625000
871,-15.625000
872,-15.625000
873,-15.625000
874,-15.625000
875,-15.625000
876,-15.625000
877,-15.625000
878,-15.625000
879,-15.625000
880,-15.625000
881,-15.625000
882,-15.625000
883,-15.625000
884,-15.625000
885,-15.625000
886,-15.625000
887,-15.625000
888,-15.625000
889,-15.625000
890,-15.625000
891,-15.625000
892,-15.625000
893,-15.625000
894,-15.625000
895,-15.625000
896,-15.625000
897,-15.625000
898,-15.625000
899,-15.625000
900,-15.625000
901,-15.625000
902,-15.625000
903,-15.625000
904,-15.625000
905,-15.625000
906,-15.625000
907,-15.625000
908,-15.625000
909,-15.625000
910,-11.718750
911,-15.625000
912,-11.718750
913,-11.718750
914,-11.718750
915,-15.625000
916,-11.718750
917,-11.718750
918,-11.718750
919,-11.718750
920,-11.718750
921,-11.718750
922,-11.718750
923,-11.718750
924,-11.718750
925,-11.718750
926,-11.718750
927,-11.718750
928,-11.718750
929,-11.718750
930,-11.718750
931,-11.718750
932,-11.718750
933,-11.718750
934,-11.718750
935,-11.718750
936,-11.718750
937,-11.718750
938,-11.718750
939,-11.718750
940,-11.718750
941,-11.718750
942,-11.718750
943,-11.718750
944,-11.718750
945,-11.718750
946,-11.718750
947,-11.718750
948,-11.718750
949,-11.718750
950,-11.718750
951,-11.718750
952,-11.718750
953,-11.718750
954,-11.718750
955,-11.718750
956,-7.812500
957,-7.812500
958,-7.812500
959,-7.812500
960,-11.718750
961,-7.812500
962,-7.812500
963,-11.718750
964,-7.812500
965,-7.812500
966,-7.812500
967,-11.718750
968,-7.812500
969,-7.812500
970,-7.812500
971,-7.812500
972,-7.812500
973,-7.812500
974,-7.812500
975,-7.812500
976,-7.812500
977,-7.812500
978,-7.812500
979,-7.812500
980,-7.812500
981,-7.812500
982,-7.812500
983,-7.812500
984,-7.812500
985,-7.812500
986,-7.812500
987,-7.812500
988,-7.812500
989,-7.812500
990,-7.812500
991,-7.812500
992,-7.812500
993,-7.812500
994,-7.812500
995,-7.812500
996,-7.812500
997,-7.812500
998,-7.812500
999,-7.812500
1000,-7.812500
1001,-7.812500
1002,-7.812500
1003,-7.812500
1004,-7.812500
1005,-7.812500
1006,-3.906250
1007,-7.812500
1008,-7.812500
1009,-7.812500
1010,-7.812500
1011,-7.812500
1012,-7.812500
1013,-7.812500
1014,-7.812500
1015,-3.906250
1016,-3.906250
1017,-7.812500
1018,-7.812500
1019,-7.812500
1020,-3.906250
1021,-3.906250
1022,-3.906250
1023,-3.906250
1024,-7.812500
1025,-3.906250
1026,-3.906250
1027,-3.906250
1028,-7.812500
1029,-3.906250
1030,-3.906250
1031,-3.906250
1032,-3.906250
1033,-3.906250
1034,-3.906250
1035,-3.906250
1036,-3.906250
1037,-3.906250
1038,-3.906250
1039,-3.906250
1040,-3.906250
1041,-3.906250
1042,-3.906250
1043,-3.906250
1044,-3.906250
1045,-3.906250
1046,-3.906250
1047,-3.906250
1048,-3.906250
1049,-3.906250
1050,-3.906250
1051,-3.906250
1052,-3.906250
1053,-3.906250
1054,-3.906250
1055,-3.906250
1056,-3.906250
1057,-3.906250
1058,-3.906250
1059,-3.906250
1060,-3.906250
1061,-3.906250
1062,-3.906250
1063,-3.906250
1064,-3.906250
1065,-3.906250
1066,-3.906250
1067,-3.906250
1068,-3.906250
1069,-3.906250
1070,0.000000
1071,-3.906250
1072,-3.906250
1073,-3.906250
1074,-3.906250
1075,-3.906250
1076,-3.906250
1077,0.000000
1078,0.000000
1079,-3.906250
1080,-3.906250
1081,-3.906250
1082,-3.906250
1083,-3.906250
1084,0.000000
1085,0.000000
1086,0.000000
1087,0.000000
1088,0.000000
1089,-3.906250
1090,0.000000
1091,-3.906250
1092,-3.906250
1093,0.000000
1094,0.000000
1095,0.000000
1096,0.000000
1097,0.000000
1098,0.000000
1099,0.000000
1100,0.000000
1101,0.000000
1102,0.000000
1103,0.000000
1104,0.000000
1105,0.000000
1106,0.000000
1107,0.000000
1108,0.000000
1109,0.000000
1110,0.000000
1111,0.000000
1112,0.000000
1113,0.000000
1114,0.000000
1115,0.000000
1116,0.000000
1117,0.000000
1118,0.000000
1119,0.000000
1120,0.000000
1121,0.000000
1122,0.000000
1123,0.000000
1124,0.000000
1125,0.000000
1126,0.000000
1127,0.000000
1128,0.000000
1129,0.000000
1130,0.000000
1131,0.000000
1132,0.000000
1133,0.000000
1134,0.000000
1135,0.000000
1136,0.000000
1137,0.000000
1138,0.000000
1139,0.000000
1140,0.000000
1141,0.000000
1142,0.000000
1143,0.000000
1144,0.000000
1145,0.000000
1146,0.000000
1147,0.000000
1148,0.000000
1149,0.000000
1150,0.000000
1151,0.000000
1152,0.000000
1153,0.000000
1154,0.000000
1155,0.000000
1156,0.000000
1157,0.000000
1158,0.000000
1159,0.000000
1160,0.000000
1161,0.000000
1162,0.000000
1163,0.000000
1164,0.000000
1165,0.000000
1166,0.000000
1167,0.000000
1168,0.000000
1169,0.000000
1170,0.000000
1171,0.000000
1172,0.000000
1173,0.000000
1174,0.000000
1175,0.000000
1176,0.000000
1177,0.000000
1178,0.000000
1179,0.000000
1180,0.000000
1181,0.000000
1182,0.000000
1183,0.000000
1184,0.000000
1185,0.000000
1186,0.000000
1187,0.000000
1188,0.000000
1189,0.000000
1190,0.000000
1191,0.000000
1192,0.000000
1193,0.000000
1194,0.000000
1195,0.000000
1196,0.000000
1197,0.000000
1198,0.000000
1199,0.000000
1200,0.000000
1201,0.000000
1202,0.000000
1203,0.000000
1204,0.000000
1205,0.000000
1206,0.000000
1207,0.000000
1208,0.000000
1209,0.000000
1210,0.000000
1211,0.000000
1212,0.000000
1213,0.000000
1214,0.000000
1215,0.000000
1216,0.000000
1217,0.000000
1218,0.000000
1219,0.000000
1220,0.000000
1221,0.000000
1222,0.000000
1223,0.000000
1224,0.000000
1225,0.000000
1226,0.000000
1227,0.000000
1228,0.000000
1229,0.000000
1230,0.000000
1231,0.000000
1232,0.000000
1233,0.000000
1234,0.000000
1235,0.000000
1236,0.000000
1237,0.000000
1238,0.000000
1239,0.000000
1240,0.000000
1241,0.000000
1242,0.000000
1243,0.000000
1244,0.000000
1245,0.000000
1246,0.000000
1247,0.000000
1248,0.000000
1249,0.000000
1250,0.000000
1251,0.000000
1252,0.000000
1253,0.000000
1254,0.000000
1255,-3.906250
1256,0.000000
1257,0.000000
1258,0.000000
1259,0.000000
1260,0.000000
1261,0.000000
1262,0.000000
1263,0.000000
1264,-3.906250
1265,0.000000
1266,0.000000
1267,0.000000
1268,0.000000
1269,0.000000
1270,0.000000
1271,-3.906250
1272,-3.906250
1273,-3.906250
1274,0.000000
1275,-3.906250
1276,-3.906250
1277,-3.906250
1278,0.000000
1279,-3.906250
1280,-3.906250
1281,-3.906250
1282,0.000000
1283,-3.906250
1284,-3.906250
1285,-3.906250
1286,-3.906250
1287,-3.906250
1288,-3.906250
1289,-3.906250
1290,0.000000
1291,-3.906250
1292,-3.906250
1293,-3.906250
1294,-3.906250
1295,-3.906250
1296,-3.906250
1297,-3.906250
1298,-3.906250
1299,-3.906250
1300,-3.906250
1301,-3.906250
1302,-3.906250
1303,-3.906250
1304,-3.906250
1305,-3.906250
1306,-3.906250
1307,-3.906250
1308,-3.906250
1309,-3.906250
1310,-3.906250
1311,-3.906250
1312,-3.906250
1313,-3.906250
1314,-3.906250
1315,-3.906250
1316,-3.906250
1317,-3.906250
1318,-3.906250
1319,-3.906250
1320,-3.906250
1321,-3.906250
1322,-3.906250
1323,-3.906250
1324,-3.906250
1325,-3.906250
1326,-3.906250
1327,-3.906250
1328,-3.906250
1329,-3.906250
1330,-3.906250
1331,-3.906250
1332,-3.906250
1333,-3.906250
1334,-3.906250
1335,-3.906250
1336,-3.906250
1337,-3.906250
1338,-3.906250
1339,-3.906250
1340,-3.906250
1341,-3.906250
1342,-3.906250
1343,-7.812500
1344,-3.906250
1345,-7.812500
1346,-3.906250
1347,-7.812500
1348,-3.906250
1349,-7.812500
1350,-7.812500
1351,-7.812500
1352,-7.812500
1353,-7.812500
1354,-7.812500
1355,-7.812500
1356,-7.812500
1357,-7.812500
1358,-7.812500
1359,-7.812500
1360,-7.812500
1361,-7.812500
1362,-7.812500
1363,-7.812500
1364,-7.812500
1365,-7.812500
1366,-7.812500
1367,-7.812500
1368,-7.812500
1369,-7.812500
1370,-7.812500
1371,-7.812500
1372,-7.812500
1373,-7.812500
1374,-7.812500
1375,-7.812500
1376,-7.812500
1377,-7.812500
1378,-7.812500
1379,-7.812500
